%!PS-Adobe-3.0
%%Creator: graphviz version 2.26.3 (20100126.1600)
%%Title: G
%%Pages: (atend)
%%BoundingBox: (atend)
%%EndComments
save
%%BeginProlog
/DotDict 200 dict def
DotDict begin

/setupLatin1 {
mark
/EncodingVector 256 array def
 EncodingVector 0

ISOLatin1Encoding 0 255 getinterval putinterval
EncodingVector 45 /hyphen put

% Set up ISO Latin 1 character encoding
/starnetISO {
        dup dup findfont dup length dict begin
        { 1 index /FID ne { def }{ pop pop } ifelse
        } forall
        /Encoding EncodingVector def
        currentdict end definefont
} def
/Times-Roman starnetISO def
/Times-Italic starnetISO def
/Times-Bold starnetISO def
/Times-BoldItalic starnetISO def
/Helvetica starnetISO def
/Helvetica-Oblique starnetISO def
/Helvetica-Bold starnetISO def
/Helvetica-BoldOblique starnetISO def
/Courier starnetISO def
/Courier-Oblique starnetISO def
/Courier-Bold starnetISO def
/Courier-BoldOblique starnetISO def
cleartomark
} bind def

%%BeginResource: procset graphviz 0 0
/coord-font-family /Times-Roman def
/default-font-family /Times-Roman def
/coordfont coord-font-family findfont 8 scalefont def

/InvScaleFactor 1.0 def
/set_scale {
       dup 1 exch div /InvScaleFactor exch def
       scale
} bind def

% styles
/solid { [] 0 setdash } bind def
/dashed { [9 InvScaleFactor mul dup ] 0 setdash } bind def
/dotted { [1 InvScaleFactor mul 6 InvScaleFactor mul] 0 setdash } bind def
/invis {/fill {newpath} def /stroke {newpath} def /show {pop newpath} def} bind def
/bold { 2 setlinewidth } bind def
/filled { } bind def
/unfilled { } bind def
/rounded { } bind def
/diagonals { } bind def

% hooks for setting color 
/nodecolor { sethsbcolor } bind def
/edgecolor { sethsbcolor } bind def
/graphcolor { sethsbcolor } bind def
/nopcolor {pop pop pop} bind def

/beginpage {	% i j npages
	/npages exch def
	/j exch def
	/i exch def
	/str 10 string def
	npages 1 gt {
		gsave
			coordfont setfont
			0 0 moveto
			(\() show i str cvs show (,) show j str cvs show (\)) show
		grestore
	} if
} bind def

/set_font {
	findfont exch
	scalefont setfont
} def

% draw text fitted to its expected width
/alignedtext {			% width text
	/text exch def
	/width exch def
	gsave
		width 0 gt {
			[] 0 setdash
			text stringwidth pop width exch sub text length div 0 text ashow
		} if
	grestore
} def

/boxprim {				% xcorner ycorner xsize ysize
		4 2 roll
		moveto
		2 copy
		exch 0 rlineto
		0 exch rlineto
		pop neg 0 rlineto
		closepath
} bind def

/ellipse_path {
	/ry exch def
	/rx exch def
	/y exch def
	/x exch def
	matrix currentmatrix
	newpath
	x y translate
	rx ry scale
	0 0 1 0 360 arc
	setmatrix
} bind def

/endpage { showpage } bind def
/showpage { } def

/layercolorseq
	[	% layer color sequence - darkest to lightest
		[0 0 0]
		[.2 .8 .8]
		[.4 .8 .8]
		[.6 .8 .8]
		[.8 .8 .8]
	]
def

/layerlen layercolorseq length def

/setlayer {/maxlayer exch def /curlayer exch def
	layercolorseq curlayer 1 sub layerlen mod get
	aload pop sethsbcolor
	/nodecolor {nopcolor} def
	/edgecolor {nopcolor} def
	/graphcolor {nopcolor} def
} bind def

/onlayer { curlayer ne {invis} if } def

/onlayers {
	/myupper exch def
	/mylower exch def
	curlayer mylower lt
	curlayer myupper gt
	or
	{invis} if
} def

/curlayer 0 def

%%EndResource
%%EndProlog
%%BeginSetup
14 default-font-family set_font
1 setmiterlimit
% /arrowlength 10 def
% /arrowwidth 5 def

% make sure pdfmark is harmless for PS-interpreters other than Distiller
/pdfmark where {pop} {userdict /pdfmark /cleartomark load put} ifelse
% make '<<' and '>>' safe on PS Level 1 devices
/languagelevel where {pop languagelevel}{1} ifelse
2 lt {
    userdict (<<) cvn ([) cvn load put
    userdict (>>) cvn ([) cvn load put
} if

%%EndSetup
setupLatin1
%%Page: 1 1
%%PageBoundingBox: 36 36 378 858
%%PageOrientation: Portrait
0 0 1 beginpage
gsave
36 36 342 822 boxprim clip newpath
1 1 set_scale 0 rotate 40 41 translate
% 1073741823
gsave
1 setlinewidth
0 0 0 nodecolor
82 791 43.84 19.09 ellipse_path stroke
0 0 0 nodecolor
18 /Times-Roman set_font
59 784.3 moveto 46 (Result) alignedtext
grestore
% loc2_start
gsave
1 setlinewidth
0 0 0 nodecolor
newpath 320 572 moveto
14 572 lineto
14 450 lineto
320 450 lineto
closepath stroke
0 0 0 nodecolor
18 /Times-Roman set_font
131 551.8 moveto 72 (loc2_start) alignedtext
0 0 0 nodecolor
18 /Times-Roman set_font
60 532.8 moveto 214 ([|Pa_0=0; Pda_0=0; Pda_1=0;) alignedtext
0 0 0 nodecolor
18 /Times-Roman set_font
95.5 513.8 moveto 143 (  Pdp_0 in [45 , 55];) alignedtext
0 0 0 nodecolor
18 /Times-Roman set_font
22 494.8 moveto 290 (  Pdp_1 in [45 , 55]; Pdv_0=0; Pdv_1=0;) alignedtext
0 0 0 nodecolor
18 /Times-Roman set_font
97.5 475.8 moveto 139 (  Pv_0 in [1 , INF]|]) alignedtext
0 0 0 nodecolor
18 /Times-Roman set_font
67.5 456.8 moveto 199 (10 constraints, 5 generators) alignedtext
grestore
% 0
gsave
0 0 0 nodecolor
18 /Times-Roman set_font
117 393.8 moveto 100 (Pa_0 := Pa_0;) alignedtext
0 0 0 nodecolor
18 /Times-Roman set_font
13.5 374.8 moveto 307 (Pda_0 := Pa_0-1/20Pdp_0-1/20Pdv_0+5/2;) alignedtext
0 0 0 nodecolor
18 /Times-Roman set_font
9 355.8 moveto 316 (Pda_1 := 1/20Pdp_0-1/20Pdp_1+1/20Pdv_0) alignedtext
0 0 0 nodecolor
18 /Times-Roman set_font
102.5 336.8 moveto 129 (         -1/20Pdv_1;) alignedtext
0 0 0 nodecolor
18 /Times-Roman set_font
16.5 317.8 moveto 301 (Pdp_0 := 1/200Pda_0+Pdp_0+1/10Pdv_0;) alignedtext
0 0 0 nodecolor
18 /Times-Roman set_font
16.5 298.8 moveto 301 (Pdp_1 := 1/200Pda_1+Pdp_1+1/10Pdv_1;) alignedtext
0 0 0 nodecolor
18 /Times-Roman set_font
64.5 279.8 moveto 205 (Pdv_0 := 1/10Pda_0+Pdv_0;) alignedtext
0 0 0 nodecolor
18 /Times-Roman set_font
64.5 260.8 moveto 205 (Pdv_1 := 1/10Pda_1+Pdv_1;) alignedtext
0 0 0 nodecolor
18 /Times-Roman set_font
72.5 241.8 moveto 189 (Pv_0 := 1/10Pa_0+Pv_0\)*) alignedtext
0 0 0 nodecolor
18 /Times-Roman set_font
160.5 222.8 moveto 13 (\(\)) alignedtext
grestore
% loc2_start->0
gsave
1 setlinewidth
0 0 0 edgecolor
newpath 167 449.79 moveto
167 441.64 167 433.09 167 424.41 curveto
stroke
0 0 0 edgecolor
newpath 170.5 424.19 moveto
167 414.19 lineto
163.5 424.19 lineto
closepath fill
1 setlinewidth
solid
0 0 0 edgecolor
newpath 170.5 424.19 moveto
167 414.19 lineto
163.5 424.19 lineto
closepath stroke
grestore
% loc1
gsave
1 setlinewidth
0 0 0 nodecolor
newpath 190 814 moveto
144 814 lineto
144 768 lineto
190 768 lineto
closepath stroke
0 0 0 nodecolor
18 /Times-Roman set_font
151.5 793.8 moveto 31 (loc1) alignedtext
0 0 0 nodecolor
18 /Times-Roman set_font
155 774.8 moveto 24 (top) alignedtext
grestore
% 1
gsave
0 0 0 nodecolor
18 /Times-Roman set_font
20 711.8 moveto 294 (Pda_1=0 and Pda_0=0 and Pdv_1=0 and) alignedtext
0 0 0 nodecolor
18 /Times-Roman set_font
47.5 692.8 moveto 239 (Pdv_0=0 and -Pdp_1+55>=0 and) alignedtext
0 0 0 nodecolor
18 /Times-Roman set_font
30 673.8 moveto 274 (Pdp_1-45>=0 and -Pdp_0+55>=0 and) alignedtext
0 0 0 nodecolor
18 /Times-Roman set_font
8 654.8 moveto 318 (Pdp_0-45>=0 and Pv_0-1>=0 and Pa_0=0 ?) alignedtext
0 0 0 nodecolor
18 /Times-Roman set_font
160.5 614.8 moveto 13 (\(\)) alignedtext
grestore
% loc1->1
gsave
1 setlinewidth
0 0 0 edgecolor
newpath 167 767.96 moveto
167 760.4 167 751.57 167 742.35 curveto
stroke
0 0 0 edgecolor
newpath 170.5 742.23 moveto
167 732.23 lineto
163.5 742.23 lineto
closepath fill
1 setlinewidth
solid
0 0 0 edgecolor
newpath 170.5 742.23 moveto
167 732.23 lineto
163.5 742.23 lineto
closepath stroke
grestore
% loc2
gsave
1 setlinewidth
0 0 0 nodecolor
newpath 312 179.5 moveto
22 179.5 lineto
22 .5 lineto
312 .5 lineto
closepath stroke
0 0 0 nodecolor
18 /Times-Roman set_font
151.5 159.3 moveto 31 (loc2) alignedtext
0 0 0 nodecolor
18 /Times-Roman set_font
30 140.3 moveto 274 ([|Pa_0=0; Pda_0 in [-0.2684 , 0.2684];) alignedtext
0 0 0 nodecolor
18 /Times-Roman set_font
71 121.3 moveto 192 (  Pda_1 in [-1.169 , 1.169];) alignedtext
0 0 0 nodecolor
18 /Times-Roman set_font
73.5 102.3 moveto 187 (  Pdp_0 in [44.59 , 55.41];) alignedtext
0 0 0 nodecolor
18 /Times-Roman set_font
73.5 83.3 moveto 187 (  Pdp_1 in [33.51 , 66.49];) alignedtext
0 0 0 nodecolor
18 /Times-Roman set_font
61.5 64.3 moveto 211 (  Pdv_0 in [-0.9744 , 0.9744];) alignedtext
0 0 0 nodecolor
18 /Times-Roman set_font
70.5 45.3 moveto 193 (  Pdv_1 in [-4.046 , 4.046];) alignedtext
0 0 0 nodecolor
18 /Times-Roman set_font
97.5 26.3 moveto 139 (  Pv_0 in [1 , INF]|]) alignedtext
0 0 0 nodecolor
18 /Times-Roman set_font
49.5 7.3 moveto 235 (1679 constraints, 161 generators) alignedtext
grestore
% 0->loc2
gsave
1 setlinewidth
0 0 0 edgecolor
newpath 167 215.98 moveto
167 207.34 167 198.59 167 189.94 curveto
stroke
0 0 0 edgecolor
newpath 170.5 189.84 moveto
167 179.84 lineto
163.5 189.84 lineto
closepath fill
1 setlinewidth
solid
0 0 0 edgecolor
newpath 170.5 189.84 moveto
167 179.84 lineto
163.5 189.84 lineto
closepath stroke
grestore
% 1->loc2_start
gsave
1 setlinewidth
0 0 0 edgecolor
newpath 167 607.62 moveto
167 599.33 167 590.78 167 582.35 curveto
stroke
0 0 0 edgecolor
newpath 170.5 582.16 moveto
167 572.16 lineto
163.5 582.16 lineto
closepath fill
1 setlinewidth
solid
0 0 0 edgecolor
newpath 170.5 582.16 moveto
167 572.16 lineto
163.5 582.16 lineto
closepath stroke
grestore
endpage
showpage
grestore
%%PageTrailer
%%EndPage: 1
setupLatin1
%%Page: 2 2
%%PageBoundingBox: 36 36 378 586
%%PageOrientation: Portrait
0 0 1 beginpage
gsave
36 36 342 550 boxprim clip newpath
1 1 set_scale 0 rotate 40 41 translate
% 1073741823
gsave
1 setlinewidth
0 0 0 nodecolor
82 519 43.84 19.09 ellipse_path stroke
0 0 0 nodecolor
18 /Times-Roman set_font
59 512.3 moveto 46 (Result) alignedtext
grestore
% loc1
gsave
1 setlinewidth
0 0 0 nodecolor
newpath 190 542 moveto
144 542 lineto
144 496 lineto
190 496 lineto
closepath stroke
0 0 0 nodecolor
18 /Times-Roman set_font
151.5 521.8 moveto 31 (loc1) alignedtext
0 0 0 nodecolor
18 /Times-Roman set_font
155 502.8 moveto 24 (top) alignedtext
grestore
% 1
gsave
0 0 0 nodecolor
18 /Times-Roman set_font
20 439.8 moveto 294 (Pda_1=0 and Pda_0=0 and Pdv_1=0 and) alignedtext
0 0 0 nodecolor
18 /Times-Roman set_font
47.5 420.8 moveto 239 (Pdv_0=0 and -Pdp_1+55>=0 and) alignedtext
0 0 0 nodecolor
18 /Times-Roman set_font
30 401.8 moveto 274 (Pdp_1-45>=0 and -Pdp_0+55>=0 and) alignedtext
0 0 0 nodecolor
18 /Times-Roman set_font
8 382.8 moveto 318 (Pdp_0-45>=0 and Pv_0-1>=0 and Pa_0=0 ?) alignedtext
0 0 0 nodecolor
18 /Times-Roman set_font
160.5 342.8 moveto 13 (\(\)) alignedtext
grestore
% loc1->1
gsave
1 setlinewidth
0 0 0 edgecolor
newpath 167 495.96 moveto
167 488.4 167 479.57 167 470.35 curveto
stroke
0 0 0 edgecolor
newpath 170.5 470.23 moveto
167 460.23 lineto
163.5 470.23 lineto
closepath fill
1 setlinewidth
solid
0 0 0 edgecolor
newpath 170.5 470.23 moveto
167 460.23 lineto
163.5 470.23 lineto
closepath stroke
grestore
% loc2
gsave
1 setlinewidth
0 0 0 nodecolor
newpath 303 299.5 moveto
31 299.5 lineto
31 234.5 lineto
303 234.5 lineto
closepath stroke
0 0 0 nodecolor
18 /Times-Roman set_font
151.5 279.3 moveto 31 (loc2) alignedtext
0 0 0 nodecolor
18 /Times-Roman set_font
38.5 260.3 moveto 257 ([|Pa_0=0; ; ; ; ; ; ; Pv_0 in [1 , INF]|]) alignedtext
0 0 0 nodecolor
18 /Times-Roman set_font
72 241.3 moveto 190 (2 constraints, 8 generators) alignedtext
grestore
% 0
gsave
0 0 0 nodecolor
18 /Times-Roman set_font
117 177.8 moveto 100 (Pa_0 := Pa_0;) alignedtext
0 0 0 nodecolor
18 /Times-Roman set_font
13.5 158.8 moveto 307 (Pda_0 := Pa_0-1/20Pdp_0-1/20Pdv_0+5/2;) alignedtext
0 0 0 nodecolor
18 /Times-Roman set_font
9 139.8 moveto 316 (Pda_1 := 1/20Pdp_0-1/20Pdp_1+1/20Pdv_0) alignedtext
0 0 0 nodecolor
18 /Times-Roman set_font
102.5 120.8 moveto 129 (         -1/20Pdv_1;) alignedtext
0 0 0 nodecolor
18 /Times-Roman set_font
16.5 101.8 moveto 301 (Pdp_0 := 1/200Pda_0+Pdp_0+1/10Pdv_0;) alignedtext
0 0 0 nodecolor
18 /Times-Roman set_font
16.5 82.8 moveto 301 (Pdp_1 := 1/200Pda_1+Pdp_1+1/10Pdv_1;) alignedtext
0 0 0 nodecolor
18 /Times-Roman set_font
64.5 63.8 moveto 205 (Pdv_0 := 1/10Pda_0+Pdv_0;) alignedtext
0 0 0 nodecolor
18 /Times-Roman set_font
64.5 44.8 moveto 205 (Pdv_1 := 1/10Pda_1+Pdv_1;) alignedtext
0 0 0 nodecolor
18 /Times-Roman set_font
80 25.8 moveto 174 (Pv_0 := 1/10Pa_0+Pv_0) alignedtext
0 0 0 nodecolor
18 /Times-Roman set_font
160.5 6.8 moveto 13 (\(\)) alignedtext
grestore
% loc2->0
gsave
1 setlinewidth
0 0 0 edgecolor
newpath 161.52 234.21 moveto
161.07 226.36 160.74 217.54 160.53 208.26 curveto
stroke
0 0 0 edgecolor
newpath 164.02 207.98 moveto
160.35 198.05 lineto
157.03 208.11 lineto
closepath fill
1 setlinewidth
solid
0 0 0 edgecolor
newpath 164.02 207.98 moveto
160.35 198.05 lineto
157.03 208.11 lineto
closepath stroke
grestore
% 0->loc2
gsave
1 setlinewidth
0 0 0 edgecolor
newpath 173.65 198.05 moveto
173.54 207.07 173.31 215.86 172.98 223.97 curveto
stroke
0 0 0 edgecolor
newpath 169.47 224.05 moveto
172.48 234.21 lineto
176.46 224.39 lineto
closepath fill
1 setlinewidth
solid
0 0 0 edgecolor
newpath 169.47 224.05 moveto
172.48 234.21 lineto
176.46 224.39 lineto
closepath stroke
grestore
% 1->loc2
gsave
1 setlinewidth
0 0 0 edgecolor
newpath 167 335.95 moveto
167 327.12 167 318.2 167 309.84 curveto
stroke
0 0 0 edgecolor
newpath 170.5 309.6 moveto
167 299.6 lineto
163.5 309.6 lineto
closepath fill
1 setlinewidth
solid
0 0 0 edgecolor
newpath 170.5 309.6 moveto
167 299.6 lineto
163.5 309.6 lineto
closepath stroke
grestore
endpage
showpage
grestore
%%PageTrailer
%%EndPage: 2
setupLatin1
%%Page: 3 3
%%PageBoundingBox: 36 36 378 744
%%PageOrientation: Portrait
0 0 1 beginpage
gsave
36 36 342 708 boxprim clip newpath
1 1 set_scale 0 rotate 40 41 translate
% 1073741823
gsave
1 setlinewidth
0 0 0 nodecolor
82 677 43.84 19.09 ellipse_path stroke
0 0 0 nodecolor
18 /Times-Roman set_font
59 670.3 moveto 46 (Result) alignedtext
grestore
% loc2_start
gsave
1 setlinewidth
0 0 0 nodecolor
newpath 320 458 moveto
14 458 lineto
14 336 lineto
320 336 lineto
closepath stroke
0 0 0 nodecolor
18 /Times-Roman set_font
131 437.8 moveto 72 (loc2_start) alignedtext
0 0 0 nodecolor
18 /Times-Roman set_font
60 418.8 moveto 214 ([|Pa_0=0; Pda_0=0; Pda_1=0;) alignedtext
0 0 0 nodecolor
18 /Times-Roman set_font
95.5 399.8 moveto 143 (  Pdp_0 in [45 , 55];) alignedtext
0 0 0 nodecolor
18 /Times-Roman set_font
22 380.8 moveto 290 (  Pdp_1 in [45 , 55]; Pdv_0=0; Pdv_1=0;) alignedtext
0 0 0 nodecolor
18 /Times-Roman set_font
97.5 361.8 moveto 139 (  Pv_0 in [1 , INF]|]) alignedtext
0 0 0 nodecolor
18 /Times-Roman set_font
67.5 342.8 moveto 199 (10 constraints, 5 generators) alignedtext
grestore
% 0
gsave
0 0 0 nodecolor
18 /Times-Roman set_font
117 279.8 moveto 100 (Pa_0 := Pa_0;) alignedtext
0 0 0 nodecolor
18 /Times-Roman set_font
13.5 260.8 moveto 307 (Pda_0 := Pa_0-1/20Pdp_0-1/20Pdv_0+5/2;) alignedtext
0 0 0 nodecolor
18 /Times-Roman set_font
9 241.8 moveto 316 (Pda_1 := 1/20Pdp_0-1/20Pdp_1+1/20Pdv_0) alignedtext
0 0 0 nodecolor
18 /Times-Roman set_font
102.5 222.8 moveto 129 (         -1/20Pdv_1;) alignedtext
0 0 0 nodecolor
18 /Times-Roman set_font
16.5 203.8 moveto 301 (Pdp_0 := 1/200Pda_0+Pdp_0+1/10Pdv_0;) alignedtext
0 0 0 nodecolor
18 /Times-Roman set_font
16.5 184.8 moveto 301 (Pdp_1 := 1/200Pda_1+Pdp_1+1/10Pdv_1;) alignedtext
0 0 0 nodecolor
18 /Times-Roman set_font
64.5 165.8 moveto 205 (Pdv_0 := 1/10Pda_0+Pdv_0;) alignedtext
0 0 0 nodecolor
18 /Times-Roman set_font
64.5 146.8 moveto 205 (Pdv_1 := 1/10Pda_1+Pdv_1;) alignedtext
0 0 0 nodecolor
18 /Times-Roman set_font
72.5 127.8 moveto 189 (Pv_0 := 1/10Pa_0+Pv_0\)*) alignedtext
0 0 0 nodecolor
18 /Times-Roman set_font
160.5 108.8 moveto 13 (\(\)) alignedtext
grestore
% loc2_start->0
gsave
1 setlinewidth
0 0 0 edgecolor
newpath 167 335.79 moveto
167 327.64 167 319.09 167 310.41 curveto
stroke
0 0 0 edgecolor
newpath 170.5 310.19 moveto
167 300.19 lineto
163.5 310.19 lineto
closepath fill
1 setlinewidth
solid
0 0 0 edgecolor
newpath 170.5 310.19 moveto
167 300.19 lineto
163.5 310.19 lineto
closepath stroke
grestore
% loc1
gsave
1 setlinewidth
0 0 0 nodecolor
newpath 190 700 moveto
144 700 lineto
144 654 lineto
190 654 lineto
closepath stroke
0 0 0 nodecolor
18 /Times-Roman set_font
151.5 679.8 moveto 31 (loc1) alignedtext
0 0 0 nodecolor
18 /Times-Roman set_font
155 660.8 moveto 24 (top) alignedtext
grestore
% 1
gsave
0 0 0 nodecolor
18 /Times-Roman set_font
20 597.8 moveto 294 (Pda_1=0 and Pda_0=0 and Pdv_1=0 and) alignedtext
0 0 0 nodecolor
18 /Times-Roman set_font
47.5 578.8 moveto 239 (Pdv_0=0 and -Pdp_1+55>=0 and) alignedtext
0 0 0 nodecolor
18 /Times-Roman set_font
30 559.8 moveto 274 (Pdp_1-45>=0 and -Pdp_0+55>=0 and) alignedtext
0 0 0 nodecolor
18 /Times-Roman set_font
8 540.8 moveto 318 (Pdp_0-45>=0 and Pv_0-1>=0 and Pa_0=0 ?) alignedtext
0 0 0 nodecolor
18 /Times-Roman set_font
160.5 500.8 moveto 13 (\(\)) alignedtext
grestore
% loc1->1
gsave
1 setlinewidth
0 0 0 edgecolor
newpath 167 653.96 moveto
167 646.4 167 637.57 167 628.35 curveto
stroke
0 0 0 edgecolor
newpath 170.5 628.23 moveto
167 618.23 lineto
163.5 628.23 lineto
closepath fill
1 setlinewidth
solid
0 0 0 edgecolor
newpath 170.5 628.23 moveto
167 618.23 lineto
163.5 628.23 lineto
closepath stroke
grestore
% loc2
gsave
1 setlinewidth
0 0 0 nodecolor
newpath 270 65.5 moveto
64 65.5 lineto
64 .5 lineto
270 .5 lineto
closepath stroke
0 0 0 nodecolor
18 /Times-Roman set_font
151.5 45.3 moveto 31 (loc2) alignedtext
0 0 0 nodecolor
18 /Times-Roman set_font
99 26.3 moveto 136 ([|Pa_0=0; ; ; ; ; ; ; |]) alignedtext
0 0 0 nodecolor
18 /Times-Roman set_font
72 7.3 moveto 190 (1 constraints, 8 generators) alignedtext
grestore
% 0->loc2
gsave
1 setlinewidth
0 0 0 edgecolor
newpath 167 101.82 moveto
167 92.83 167 84.08 167 76 curveto
stroke
0 0 0 edgecolor
newpath 170.5 75.8 moveto
167 65.8 lineto
163.5 75.8 lineto
closepath fill
1 setlinewidth
solid
0 0 0 edgecolor
newpath 170.5 75.8 moveto
167 65.8 lineto
163.5 75.8 lineto
closepath stroke
grestore
% 1->loc2_start
gsave
1 setlinewidth
0 0 0 edgecolor
newpath 167 493.62 moveto
167 485.33 167 476.78 167 468.35 curveto
stroke
0 0 0 edgecolor
newpath 170.5 468.16 moveto
167 458.16 lineto
163.5 468.16 lineto
closepath fill
1 setlinewidth
solid
0 0 0 edgecolor
newpath 170.5 468.16 moveto
167 458.16 lineto
163.5 468.16 lineto
closepath stroke
grestore
endpage
showpage
grestore
%%PageTrailer
%%EndPage: 3
%%Trailer
%%Pages: 3
%%BoundingBox: 36 36 378 858
end
restore
%%EOF
