%!PS-Adobe-3.0
%%Creator: graphviz version 2.26.3 (20100126.1600)
%%Title: G
%%Pages: (atend)
%%BoundingBox: (atend)
%%EndComments
save
%%BeginProlog
/DotDict 200 dict def
DotDict begin

/setupLatin1 {
mark
/EncodingVector 256 array def
 EncodingVector 0

ISOLatin1Encoding 0 255 getinterval putinterval
EncodingVector 45 /hyphen put

% Set up ISO Latin 1 character encoding
/starnetISO {
        dup dup findfont dup length dict begin
        { 1 index /FID ne { def }{ pop pop } ifelse
        } forall
        /Encoding EncodingVector def
        currentdict end definefont
} def
/Times-Roman starnetISO def
/Times-Italic starnetISO def
/Times-Bold starnetISO def
/Times-BoldItalic starnetISO def
/Helvetica starnetISO def
/Helvetica-Oblique starnetISO def
/Helvetica-Bold starnetISO def
/Helvetica-BoldOblique starnetISO def
/Courier starnetISO def
/Courier-Oblique starnetISO def
/Courier-Bold starnetISO def
/Courier-BoldOblique starnetISO def
cleartomark
} bind def

%%BeginResource: procset graphviz 0 0
/coord-font-family /Times-Roman def
/default-font-family /Times-Roman def
/coordfont coord-font-family findfont 8 scalefont def

/InvScaleFactor 1.0 def
/set_scale {
       dup 1 exch div /InvScaleFactor exch def
       scale
} bind def

% styles
/solid { [] 0 setdash } bind def
/dashed { [9 InvScaleFactor mul dup ] 0 setdash } bind def
/dotted { [1 InvScaleFactor mul 6 InvScaleFactor mul] 0 setdash } bind def
/invis {/fill {newpath} def /stroke {newpath} def /show {pop newpath} def} bind def
/bold { 2 setlinewidth } bind def
/filled { } bind def
/unfilled { } bind def
/rounded { } bind def
/diagonals { } bind def

% hooks for setting color 
/nodecolor { sethsbcolor } bind def
/edgecolor { sethsbcolor } bind def
/graphcolor { sethsbcolor } bind def
/nopcolor {pop pop pop} bind def

/beginpage {	% i j npages
	/npages exch def
	/j exch def
	/i exch def
	/str 10 string def
	npages 1 gt {
		gsave
			coordfont setfont
			0 0 moveto
			(\() show i str cvs show (,) show j str cvs show (\)) show
		grestore
	} if
} bind def

/set_font {
	findfont exch
	scalefont setfont
} def

% draw text fitted to its expected width
/alignedtext {			% width text
	/text exch def
	/width exch def
	gsave
		width 0 gt {
			[] 0 setdash
			text stringwidth pop width exch sub text length div 0 text ashow
		} if
	grestore
} def

/boxprim {				% xcorner ycorner xsize ysize
		4 2 roll
		moveto
		2 copy
		exch 0 rlineto
		0 exch rlineto
		pop neg 0 rlineto
		closepath
} bind def

/ellipse_path {
	/ry exch def
	/rx exch def
	/y exch def
	/x exch def
	matrix currentmatrix
	newpath
	x y translate
	rx ry scale
	0 0 1 0 360 arc
	setmatrix
} bind def

/endpage { showpage } bind def
/showpage { } def

/layercolorseq
	[	% layer color sequence - darkest to lightest
		[0 0 0]
		[.2 .8 .8]
		[.4 .8 .8]
		[.6 .8 .8]
		[.8 .8 .8]
	]
def

/layerlen layercolorseq length def

/setlayer {/maxlayer exch def /curlayer exch def
	layercolorseq curlayer 1 sub layerlen mod get
	aload pop sethsbcolor
	/nodecolor {nopcolor} def
	/edgecolor {nopcolor} def
	/graphcolor {nopcolor} def
} bind def

/onlayer { curlayer ne {invis} if } def

/onlayers {
	/myupper exch def
	/mylower exch def
	curlayer mylower lt
	curlayer myupper gt
	or
	{invis} if
} def

/curlayer 0 def

%%EndResource
%%EndProlog
%%BeginSetup
14 default-font-family set_font
1 setmiterlimit
% /arrowlength 10 def
% /arrowwidth 5 def

% make sure pdfmark is harmless for PS-interpreters other than Distiller
/pdfmark where {pop} {userdict /pdfmark /cleartomark load put} ifelse
% make '<<' and '>>' safe on PS Level 1 devices
/languagelevel where {pop languagelevel}{1} ifelse
2 lt {
    userdict (<<) cvn ([) cvn load put
    userdict (>>) cvn ([) cvn load put
} if

%%EndSetup
setupLatin1
%%Page: 1 1
%%PageBoundingBox: 36 36 388 898
%%PageOrientation: Portrait
0 0 1 beginpage
gsave
36 36 352 862 boxprim clip newpath
1 1 set_scale 0 rotate 40 41 translate
% 1073741823
gsave
1 setlinewidth
0 0 0 nodecolor
87 831 43.84 19.09 ellipse_path stroke
0 0 0 nodecolor
18 /Times-Roman set_font
64 824.3 moveto 46 (Result) alignedtext
grestore
% loc2_start
gsave
1 setlinewidth
0 0 0 nodecolor
newpath 308 591.5 moveto
36 591.5 lineto
36 450.5 lineto
308 450.5 lineto
closepath stroke
0 0 0 nodecolor
18 /Times-Roman set_font
136 571.3 moveto 72 (loc2_start) alignedtext
0 0 0 nodecolor
18 /Times-Roman set_font
65 552.3 moveto 214 ([|Pa_0=0; Pda_0=0; Pda_1=0;) alignedtext
0 0 0 nodecolor
18 /Times-Roman set_font
100.5 533.3 moveto 143 (  Pdp_0 in [45 , 55];) alignedtext
0 0 0 nodecolor
18 /Times-Roman set_font
100.5 514.3 moveto 143 (  Pdp_1 in [45 , 55];) alignedtext
0 0 0 nodecolor
18 /Times-Roman set_font
43.5 495.3 moveto 257 (  Pdv_0 in [-1 , 1]; Pdv_1 in [-1 , 1];) alignedtext
0 0 0 nodecolor
18 /Times-Roman set_font
102.5 476.3 moveto 139 (  Pv_0 in [1 , INF]|]) alignedtext
0 0 0 nodecolor
18 /Times-Roman set_font
68 457.3 moveto 208 (12 constraints, 17 generators) alignedtext
grestore
% 0
gsave
0 0 0 nodecolor
18 /Times-Roman set_font
122 393.8 moveto 100 (Pa_0 := Pa_0;) alignedtext
0 0 0 nodecolor
18 /Times-Roman set_font
18.5 374.8 moveto 307 (Pda_0 := Pa_0-1/20Pdp_0-1/20Pdv_0+5/2;) alignedtext
0 0 0 nodecolor
18 /Times-Roman set_font
14 355.8 moveto 316 (Pda_1 := 1/20Pdp_0-1/20Pdp_1+1/20Pdv_0) alignedtext
0 0 0 nodecolor
18 /Times-Roman set_font
107.5 336.8 moveto 129 (         -1/20Pdv_1;) alignedtext
0 0 0 nodecolor
18 /Times-Roman set_font
21.5 317.8 moveto 301 (Pdp_0 := 1/200Pda_0+Pdp_0+1/10Pdv_0;) alignedtext
0 0 0 nodecolor
18 /Times-Roman set_font
21.5 298.8 moveto 301 (Pdp_1 := 1/200Pda_1+Pdp_1+1/10Pdv_1;) alignedtext
0 0 0 nodecolor
18 /Times-Roman set_font
69.5 279.8 moveto 205 (Pdv_0 := 1/10Pda_0+Pdv_0;) alignedtext
0 0 0 nodecolor
18 /Times-Roman set_font
69.5 260.8 moveto 205 (Pdv_1 := 1/10Pda_1+Pdv_1;) alignedtext
0 0 0 nodecolor
18 /Times-Roman set_font
77.5 241.8 moveto 189 (Pv_0 := 1/10Pa_0+Pv_0\)*) alignedtext
0 0 0 nodecolor
18 /Times-Roman set_font
165.5 222.8 moveto 13 (\(\)) alignedtext
grestore
% loc2_start->0
gsave
1 setlinewidth
0 0 0 edgecolor
newpath 172 450.39 moveto
172 441.93 172 433.15 172 424.3 curveto
stroke
0 0 0 edgecolor
newpath 175.5 424.29 moveto
172 414.29 lineto
168.5 424.29 lineto
closepath fill
1 setlinewidth
solid
0 0 0 edgecolor
newpath 175.5 424.29 moveto
172 414.29 lineto
168.5 424.29 lineto
closepath stroke
grestore
% loc1
gsave
1 setlinewidth
0 0 0 nodecolor
newpath 195 854 moveto
149 854 lineto
149 808 lineto
195 808 lineto
closepath stroke
0 0 0 nodecolor
18 /Times-Roman set_font
156.5 833.8 moveto 31 (loc1) alignedtext
0 0 0 nodecolor
18 /Times-Roman set_font
160 814.8 moveto 24 (top) alignedtext
grestore
% 1
gsave
0 0 0 nodecolor
18 /Times-Roman set_font
8 751.3 moveto 328 (Pda_1=0 and Pda_0=0 and -Pdv_1+1>=0 and) alignedtext
0 0 0 nodecolor
18 /Times-Roman set_font
42.5 732.3 moveto 259 (Pdv_1+1>=0 and -Pdv_0+1>=0 and) alignedtext
0 0 0 nodecolor
18 /Times-Roman set_font
38 713.3 moveto 268 (Pdv_0+1>=0 and -Pdp_1+55>=0 and) alignedtext
0 0 0 nodecolor
18 /Times-Roman set_font
35 694.3 moveto 274 (Pdp_1-45>=0 and -Pdp_0+55>=0 and) alignedtext
0 0 0 nodecolor
18 /Times-Roman set_font
13 675.3 moveto 318 (Pdp_0-45>=0 and Pv_0-1>=0 and Pa_0=0 ?) alignedtext
0 0 0 nodecolor
18 /Times-Roman set_font
165.5 635.3 moveto 13 (\(\)) alignedtext
grestore
% loc1->1
gsave
1 setlinewidth
0 0 0 edgecolor
newpath 172 807.88 moveto
172 800.19 172 791.14 172 781.61 curveto
stroke
0 0 0 edgecolor
newpath 175.5 781.53 moveto
172 771.53 lineto
168.5 781.53 lineto
closepath fill
1 setlinewidth
solid
0 0 0 edgecolor
newpath 175.5 781.53 moveto
172 771.53 lineto
168.5 781.53 lineto
closepath stroke
grestore
% loc2
gsave
1 setlinewidth
0 0 0 nodecolor
newpath 317 179.5 moveto
27 179.5 lineto
27 .5 lineto
317 .5 lineto
closepath stroke
0 0 0 nodecolor
18 /Times-Roman set_font
156.5 159.3 moveto 31 (loc2) alignedtext
0 0 0 nodecolor
18 /Times-Roman set_font
35 140.3 moveto 274 ([|Pa_0=0; Pda_0 in [-0.4684 , 0.4684];) alignedtext
0 0 0 nodecolor
18 /Times-Roman set_font
76 121.3 moveto 192 (  Pda_1 in [-1.722 , 1.722];) alignedtext
0 0 0 nodecolor
18 /Times-Roman set_font
78.5 102.3 moveto 187 (  Pdp_0 in [40.61 , 59.39];) alignedtext
0 0 0 nodecolor
18 /Times-Roman set_font
78.5 83.3 moveto 187 (  Pdp_1 in [20.19 , 79.81];) alignedtext
0 0 0 nodecolor
18 /Times-Roman set_font
75.5 64.3 moveto 193 (  Pdv_0 in [-1.872 , 1.872];) alignedtext
0 0 0 nodecolor
18 /Times-Roman set_font
75.5 45.3 moveto 193 (  Pdv_1 in [-6.503 , 6.503];) alignedtext
0 0 0 nodecolor
18 /Times-Roman set_font
102.5 26.3 moveto 139 (  Pv_0 in [1 , INF]|]) alignedtext
0 0 0 nodecolor
18 /Times-Roman set_font
54.5 7.3 moveto 235 (8831 constraints, 311 generators) alignedtext
grestore
% 0->loc2
gsave
1 setlinewidth
0 0 0 edgecolor
newpath 172 215.98 moveto
172 207.34 172 198.59 172 189.94 curveto
stroke
0 0 0 edgecolor
newpath 175.5 189.84 moveto
172 179.84 lineto
168.5 189.84 lineto
closepath fill
1 setlinewidth
solid
0 0 0 edgecolor
newpath 175.5 189.84 moveto
172 179.84 lineto
168.5 189.84 lineto
closepath stroke
grestore
% 1->loc2_start
gsave
1 setlinewidth
0 0 0 edgecolor
newpath 172 628.48 moveto
172 619.64 172 610.55 172 601.58 curveto
stroke
0 0 0 edgecolor
newpath 175.5 601.53 moveto
172 591.53 lineto
168.5 601.53 lineto
closepath fill
1 setlinewidth
solid
0 0 0 edgecolor
newpath 175.5 601.53 moveto
172 591.53 lineto
168.5 601.53 lineto
closepath stroke
grestore
endpage
showpage
grestore
%%PageTrailer
%%EndPage: 1
setupLatin1
%%Page: 2 2
%%PageBoundingBox: 36 36 388 606
%%PageOrientation: Portrait
0 0 1 beginpage
gsave
36 36 352 570 boxprim clip newpath
1 1 set_scale 0 rotate 40 41 translate
% 1073741823
gsave
1 setlinewidth
0 0 0 nodecolor
87 539 43.84 19.09 ellipse_path stroke
0 0 0 nodecolor
18 /Times-Roman set_font
64 532.3 moveto 46 (Result) alignedtext
grestore
% loc1
gsave
1 setlinewidth
0 0 0 nodecolor
newpath 195 562 moveto
149 562 lineto
149 516 lineto
195 516 lineto
closepath stroke
0 0 0 nodecolor
18 /Times-Roman set_font
156.5 541.8 moveto 31 (loc1) alignedtext
0 0 0 nodecolor
18 /Times-Roman set_font
160 522.8 moveto 24 (top) alignedtext
grestore
% 1
gsave
0 0 0 nodecolor
18 /Times-Roman set_font
8 459.3 moveto 328 (Pda_1=0 and Pda_0=0 and -Pdv_1+1>=0 and) alignedtext
0 0 0 nodecolor
18 /Times-Roman set_font
42.5 440.3 moveto 259 (Pdv_1+1>=0 and -Pdv_0+1>=0 and) alignedtext
0 0 0 nodecolor
18 /Times-Roman set_font
38 421.3 moveto 268 (Pdv_0+1>=0 and -Pdp_1+55>=0 and) alignedtext
0 0 0 nodecolor
18 /Times-Roman set_font
35 402.3 moveto 274 (Pdp_1-45>=0 and -Pdp_0+55>=0 and) alignedtext
0 0 0 nodecolor
18 /Times-Roman set_font
13 383.3 moveto 318 (Pdp_0-45>=0 and Pv_0-1>=0 and Pa_0=0 ?) alignedtext
0 0 0 nodecolor
18 /Times-Roman set_font
165.5 343.3 moveto 13 (\(\)) alignedtext
grestore
% loc1->1
gsave
1 setlinewidth
0 0 0 edgecolor
newpath 172 515.88 moveto
172 508.19 172 499.14 172 489.61 curveto
stroke
0 0 0 edgecolor
newpath 175.5 489.53 moveto
172 479.53 lineto
168.5 489.53 lineto
closepath fill
1 setlinewidth
solid
0 0 0 edgecolor
newpath 175.5 489.53 moveto
172 479.53 lineto
168.5 489.53 lineto
closepath stroke
grestore
% loc2
gsave
1 setlinewidth
0 0 0 nodecolor
newpath 308 299.5 moveto
36 299.5 lineto
36 234.5 lineto
308 234.5 lineto
closepath stroke
0 0 0 nodecolor
18 /Times-Roman set_font
156.5 279.3 moveto 31 (loc2) alignedtext
0 0 0 nodecolor
18 /Times-Roman set_font
43.5 260.3 moveto 257 ([|Pa_0=0; ; ; ; ; ; ; Pv_0 in [1 , INF]|]) alignedtext
0 0 0 nodecolor
18 /Times-Roman set_font
77 241.3 moveto 190 (2 constraints, 8 generators) alignedtext
grestore
% 0
gsave
0 0 0 nodecolor
18 /Times-Roman set_font
122 177.8 moveto 100 (Pa_0 := Pa_0;) alignedtext
0 0 0 nodecolor
18 /Times-Roman set_font
18.5 158.8 moveto 307 (Pda_0 := Pa_0-1/20Pdp_0-1/20Pdv_0+5/2;) alignedtext
0 0 0 nodecolor
18 /Times-Roman set_font
14 139.8 moveto 316 (Pda_1 := 1/20Pdp_0-1/20Pdp_1+1/20Pdv_0) alignedtext
0 0 0 nodecolor
18 /Times-Roman set_font
107.5 120.8 moveto 129 (         -1/20Pdv_1;) alignedtext
0 0 0 nodecolor
18 /Times-Roman set_font
21.5 101.8 moveto 301 (Pdp_0 := 1/200Pda_0+Pdp_0+1/10Pdv_0;) alignedtext
0 0 0 nodecolor
18 /Times-Roman set_font
21.5 82.8 moveto 301 (Pdp_1 := 1/200Pda_1+Pdp_1+1/10Pdv_1;) alignedtext
0 0 0 nodecolor
18 /Times-Roman set_font
69.5 63.8 moveto 205 (Pdv_0 := 1/10Pda_0+Pdv_0;) alignedtext
0 0 0 nodecolor
18 /Times-Roman set_font
69.5 44.8 moveto 205 (Pdv_1 := 1/10Pda_1+Pdv_1;) alignedtext
0 0 0 nodecolor
18 /Times-Roman set_font
85 25.8 moveto 174 (Pv_0 := 1/10Pa_0+Pv_0) alignedtext
0 0 0 nodecolor
18 /Times-Roman set_font
165.5 6.8 moveto 13 (\(\)) alignedtext
grestore
% loc2->0
gsave
1 setlinewidth
0 0 0 edgecolor
newpath 166.52 234.21 moveto
166.07 226.36 165.74 217.54 165.53 208.26 curveto
stroke
0 0 0 edgecolor
newpath 169.02 207.98 moveto
165.35 198.05 lineto
162.03 208.11 lineto
closepath fill
1 setlinewidth
solid
0 0 0 edgecolor
newpath 169.02 207.98 moveto
165.35 198.05 lineto
162.03 208.11 lineto
closepath stroke
grestore
% 0->loc2
gsave
1 setlinewidth
0 0 0 edgecolor
newpath 178.65 198.05 moveto
178.54 207.07 178.31 215.86 177.98 223.97 curveto
stroke
0 0 0 edgecolor
newpath 174.47 224.05 moveto
177.48 234.21 lineto
181.46 224.39 lineto
closepath fill
1 setlinewidth
solid
0 0 0 edgecolor
newpath 174.47 224.05 moveto
177.48 234.21 lineto
181.46 224.39 lineto
closepath stroke
grestore
% 1->loc2
gsave
1 setlinewidth
0 0 0 edgecolor
newpath 172 336.26 moveto
172 327.27 172 318.3 172 309.95 curveto
stroke
0 0 0 edgecolor
newpath 175.5 309.74 moveto
172 299.74 lineto
168.5 309.74 lineto
closepath fill
1 setlinewidth
solid
0 0 0 edgecolor
newpath 175.5 309.74 moveto
172 299.74 lineto
168.5 309.74 lineto
closepath stroke
grestore
endpage
showpage
grestore
%%PageTrailer
%%EndPage: 2
setupLatin1
%%Page: 3 3
%%PageBoundingBox: 36 36 388 784
%%PageOrientation: Portrait
0 0 1 beginpage
gsave
36 36 352 748 boxprim clip newpath
1 1 set_scale 0 rotate 40 41 translate
% 1073741823
gsave
1 setlinewidth
0 0 0 nodecolor
87 717 43.84 19.09 ellipse_path stroke
0 0 0 nodecolor
18 /Times-Roman set_font
64 710.3 moveto 46 (Result) alignedtext
grestore
% loc2_start
gsave
1 setlinewidth
0 0 0 nodecolor
newpath 308 477.5 moveto
36 477.5 lineto
36 336.5 lineto
308 336.5 lineto
closepath stroke
0 0 0 nodecolor
18 /Times-Roman set_font
136 457.3 moveto 72 (loc2_start) alignedtext
0 0 0 nodecolor
18 /Times-Roman set_font
65 438.3 moveto 214 ([|Pa_0=0; Pda_0=0; Pda_1=0;) alignedtext
0 0 0 nodecolor
18 /Times-Roman set_font
100.5 419.3 moveto 143 (  Pdp_0 in [45 , 55];) alignedtext
0 0 0 nodecolor
18 /Times-Roman set_font
100.5 400.3 moveto 143 (  Pdp_1 in [45 , 55];) alignedtext
0 0 0 nodecolor
18 /Times-Roman set_font
43.5 381.3 moveto 257 (  Pdv_0 in [-1 , 1]; Pdv_1 in [-1 , 1];) alignedtext
0 0 0 nodecolor
18 /Times-Roman set_font
102.5 362.3 moveto 139 (  Pv_0 in [1 , INF]|]) alignedtext
0 0 0 nodecolor
18 /Times-Roman set_font
68 343.3 moveto 208 (12 constraints, 17 generators) alignedtext
grestore
% 0
gsave
0 0 0 nodecolor
18 /Times-Roman set_font
122 279.8 moveto 100 (Pa_0 := Pa_0;) alignedtext
0 0 0 nodecolor
18 /Times-Roman set_font
18.5 260.8 moveto 307 (Pda_0 := Pa_0-1/20Pdp_0-1/20Pdv_0+5/2;) alignedtext
0 0 0 nodecolor
18 /Times-Roman set_font
14 241.8 moveto 316 (Pda_1 := 1/20Pdp_0-1/20Pdp_1+1/20Pdv_0) alignedtext
0 0 0 nodecolor
18 /Times-Roman set_font
107.5 222.8 moveto 129 (         -1/20Pdv_1;) alignedtext
0 0 0 nodecolor
18 /Times-Roman set_font
21.5 203.8 moveto 301 (Pdp_0 := 1/200Pda_0+Pdp_0+1/10Pdv_0;) alignedtext
0 0 0 nodecolor
18 /Times-Roman set_font
21.5 184.8 moveto 301 (Pdp_1 := 1/200Pda_1+Pdp_1+1/10Pdv_1;) alignedtext
0 0 0 nodecolor
18 /Times-Roman set_font
69.5 165.8 moveto 205 (Pdv_0 := 1/10Pda_0+Pdv_0;) alignedtext
0 0 0 nodecolor
18 /Times-Roman set_font
69.5 146.8 moveto 205 (Pdv_1 := 1/10Pda_1+Pdv_1;) alignedtext
0 0 0 nodecolor
18 /Times-Roman set_font
77.5 127.8 moveto 189 (Pv_0 := 1/10Pa_0+Pv_0\)*) alignedtext
0 0 0 nodecolor
18 /Times-Roman set_font
165.5 108.8 moveto 13 (\(\)) alignedtext
grestore
% loc2_start->0
gsave
1 setlinewidth
0 0 0 edgecolor
newpath 172 336.39 moveto
172 327.93 172 319.15 172 310.3 curveto
stroke
0 0 0 edgecolor
newpath 175.5 310.29 moveto
172 300.29 lineto
168.5 310.29 lineto
closepath fill
1 setlinewidth
solid
0 0 0 edgecolor
newpath 175.5 310.29 moveto
172 300.29 lineto
168.5 310.29 lineto
closepath stroke
grestore
% loc1
gsave
1 setlinewidth
0 0 0 nodecolor
newpath 195 740 moveto
149 740 lineto
149 694 lineto
195 694 lineto
closepath stroke
0 0 0 nodecolor
18 /Times-Roman set_font
156.5 719.8 moveto 31 (loc1) alignedtext
0 0 0 nodecolor
18 /Times-Roman set_font
160 700.8 moveto 24 (top) alignedtext
grestore
% 1
gsave
0 0 0 nodecolor
18 /Times-Roman set_font
8 637.3 moveto 328 (Pda_1=0 and Pda_0=0 and -Pdv_1+1>=0 and) alignedtext
0 0 0 nodecolor
18 /Times-Roman set_font
42.5 618.3 moveto 259 (Pdv_1+1>=0 and -Pdv_0+1>=0 and) alignedtext
0 0 0 nodecolor
18 /Times-Roman set_font
38 599.3 moveto 268 (Pdv_0+1>=0 and -Pdp_1+55>=0 and) alignedtext
0 0 0 nodecolor
18 /Times-Roman set_font
35 580.3 moveto 274 (Pdp_1-45>=0 and -Pdp_0+55>=0 and) alignedtext
0 0 0 nodecolor
18 /Times-Roman set_font
13 561.3 moveto 318 (Pdp_0-45>=0 and Pv_0-1>=0 and Pa_0=0 ?) alignedtext
0 0 0 nodecolor
18 /Times-Roman set_font
165.5 521.3 moveto 13 (\(\)) alignedtext
grestore
% loc1->1
gsave
1 setlinewidth
0 0 0 edgecolor
newpath 172 693.88 moveto
172 686.19 172 677.14 172 667.61 curveto
stroke
0 0 0 edgecolor
newpath 175.5 667.53 moveto
172 657.53 lineto
168.5 667.53 lineto
closepath fill
1 setlinewidth
solid
0 0 0 edgecolor
newpath 175.5 667.53 moveto
172 657.53 lineto
168.5 667.53 lineto
closepath stroke
grestore
% loc2
gsave
1 setlinewidth
0 0 0 nodecolor
newpath 275 65.5 moveto
69 65.5 lineto
69 .5 lineto
275 .5 lineto
closepath stroke
0 0 0 nodecolor
18 /Times-Roman set_font
156.5 45.3 moveto 31 (loc2) alignedtext
0 0 0 nodecolor
18 /Times-Roman set_font
104 26.3 moveto 136 ([|Pa_0=0; ; ; ; ; ; ; |]) alignedtext
0 0 0 nodecolor
18 /Times-Roman set_font
77 7.3 moveto 190 (1 constraints, 8 generators) alignedtext
grestore
% 0->loc2
gsave
1 setlinewidth
0 0 0 edgecolor
newpath 172 101.82 moveto
172 92.83 172 84.08 172 76 curveto
stroke
0 0 0 edgecolor
newpath 175.5 75.8 moveto
172 65.8 lineto
168.5 75.8 lineto
closepath fill
1 setlinewidth
solid
0 0 0 edgecolor
newpath 175.5 75.8 moveto
172 65.8 lineto
168.5 75.8 lineto
closepath stroke
grestore
% 1->loc2_start
gsave
1 setlinewidth
0 0 0 edgecolor
newpath 172 514.48 moveto
172 505.64 172 496.55 172 487.58 curveto
stroke
0 0 0 edgecolor
newpath 175.5 487.53 moveto
172 477.53 lineto
168.5 487.53 lineto
closepath fill
1 setlinewidth
solid
0 0 0 edgecolor
newpath 175.5 487.53 moveto
172 477.53 lineto
168.5 487.53 lineto
closepath stroke
grestore
endpage
showpage
grestore
%%PageTrailer
%%EndPage: 3
%%Trailer
%%Pages: 3
%%BoundingBox: 36 36 388 898
end
restore
%%EOF
