%!PS-Adobe-3.0
%%Creator: graphviz version 2.26.3 (20100126.1600)
%%Title: G
%%Pages: (atend)
%%BoundingBox: (atend)
%%EndComments
save
%%BeginProlog
/DotDict 200 dict def
DotDict begin

/setupLatin1 {
mark
/EncodingVector 256 array def
 EncodingVector 0

ISOLatin1Encoding 0 255 getinterval putinterval
EncodingVector 45 /hyphen put

% Set up ISO Latin 1 character encoding
/starnetISO {
        dup dup findfont dup length dict begin
        { 1 index /FID ne { def }{ pop pop } ifelse
        } forall
        /Encoding EncodingVector def
        currentdict end definefont
} def
/Times-Roman starnetISO def
/Times-Italic starnetISO def
/Times-Bold starnetISO def
/Times-BoldItalic starnetISO def
/Helvetica starnetISO def
/Helvetica-Oblique starnetISO def
/Helvetica-Bold starnetISO def
/Helvetica-BoldOblique starnetISO def
/Courier starnetISO def
/Courier-Oblique starnetISO def
/Courier-Bold starnetISO def
/Courier-BoldOblique starnetISO def
cleartomark
} bind def

%%BeginResource: procset graphviz 0 0
/coord-font-family /Times-Roman def
/default-font-family /Times-Roman def
/coordfont coord-font-family findfont 8 scalefont def

/InvScaleFactor 1.0 def
/set_scale {
       dup 1 exch div /InvScaleFactor exch def
       scale
} bind def

% styles
/solid { [] 0 setdash } bind def
/dashed { [9 InvScaleFactor mul dup ] 0 setdash } bind def
/dotted { [1 InvScaleFactor mul 6 InvScaleFactor mul] 0 setdash } bind def
/invis {/fill {newpath} def /stroke {newpath} def /show {pop newpath} def} bind def
/bold { 2 setlinewidth } bind def
/filled { } bind def
/unfilled { } bind def
/rounded { } bind def
/diagonals { } bind def

% hooks for setting color 
/nodecolor { sethsbcolor } bind def
/edgecolor { sethsbcolor } bind def
/graphcolor { sethsbcolor } bind def
/nopcolor {pop pop pop} bind def

/beginpage {	% i j npages
	/npages exch def
	/j exch def
	/i exch def
	/str 10 string def
	npages 1 gt {
		gsave
			coordfont setfont
			0 0 moveto
			(\() show i str cvs show (,) show j str cvs show (\)) show
		grestore
	} if
} bind def

/set_font {
	findfont exch
	scalefont setfont
} def

% draw text fitted to its expected width
/alignedtext {			% width text
	/text exch def
	/width exch def
	gsave
		width 0 gt {
			[] 0 setdash
			text stringwidth pop width exch sub text length div 0 text ashow
		} if
	grestore
} def

/boxprim {				% xcorner ycorner xsize ysize
		4 2 roll
		moveto
		2 copy
		exch 0 rlineto
		0 exch rlineto
		pop neg 0 rlineto
		closepath
} bind def

/ellipse_path {
	/ry exch def
	/rx exch def
	/y exch def
	/x exch def
	matrix currentmatrix
	newpath
	x y translate
	rx ry scale
	0 0 1 0 360 arc
	setmatrix
} bind def

/endpage { showpage } bind def
/showpage { } def

/layercolorseq
	[	% layer color sequence - darkest to lightest
		[0 0 0]
		[.2 .8 .8]
		[.4 .8 .8]
		[.6 .8 .8]
		[.8 .8 .8]
	]
def

/layerlen layercolorseq length def

/setlayer {/maxlayer exch def /curlayer exch def
	layercolorseq curlayer 1 sub layerlen mod get
	aload pop sethsbcolor
	/nodecolor {nopcolor} def
	/edgecolor {nopcolor} def
	/graphcolor {nopcolor} def
} bind def

/onlayer { curlayer ne {invis} if } def

/onlayers {
	/myupper exch def
	/mylower exch def
	curlayer mylower lt
	curlayer myupper gt
	or
	{invis} if
} def

/curlayer 0 def

%%EndResource
%%EndProlog
%%BeginSetup
14 default-font-family set_font
1 setmiterlimit
% /arrowlength 10 def
% /arrowwidth 5 def

% make sure pdfmark is harmless for PS-interpreters other than Distiller
/pdfmark where {pop} {userdict /pdfmark /cleartomark load put} ifelse
% make '<<' and '>>' safe on PS Level 1 devices
/languagelevel where {pop languagelevel}{1} ifelse
2 lt {
    userdict (<<) cvn ([) cvn load put
    userdict (>>) cvn ([) cvn load put
} if

%%EndSetup
setupLatin1
%%Page: 1 1
%%PageBoundingBox: 36 36 376 934
%%PageOrientation: Portrait
0 0 1 beginpage
gsave
36 36 340 898 boxprim clip newpath
1 1 set_scale 0 rotate 40 41 translate
% 1073741823
gsave
1 setlinewidth
0 0 0 nodecolor
81 867 43.84 19.09 ellipse_path stroke
0 0 0 nodecolor
18 /Times-Roman set_font
58 860.3 moveto 46 (Result) alignedtext
grestore
% loc2_start
gsave
1 setlinewidth
0 0 0 nodecolor
newpath 312 609.5 moveto
20 609.5 lineto
20 468.5 lineto
312 468.5 lineto
closepath stroke
0 0 0 nodecolor
18 /Times-Roman set_font
130 589.3 moveto 72 (loc2_start) alignedtext
0 0 0 nodecolor
18 /Times-Roman set_font
28 570.3 moveto 276 ([|Pa_0=0.256; Pda_0=0.128; Pda_1=0;) alignedtext
0 0 0 nodecolor
18 /Times-Roman set_font
94.5 551.3 moveto 143 (  Pdp_0 in [45 , 55];) alignedtext
0 0 0 nodecolor
18 /Times-Roman set_font
94.5 532.3 moveto 143 (  Pdp_1 in [45 , 55];) alignedtext
0 0 0 nodecolor
18 /Times-Roman set_font
37.5 513.3 moveto 257 (  Pdv_0 in [-1 , 1]; Pdv_1 in [-1 , 1];) alignedtext
0 0 0 nodecolor
18 /Times-Roman set_font
96.5 494.3 moveto 139 (  Pv_0 in [1 , INF]|]) alignedtext
0 0 0 nodecolor
18 /Times-Roman set_font
62 475.3 moveto 208 (12 constraints, 17 generators) alignedtext
grestore
% 0
gsave
0 0 0 nodecolor
18 /Times-Roman set_font
116 411.8 moveto 100 (Pa_0 := Pa_0;) alignedtext
0 0 0 nodecolor
18 /Times-Roman set_font
12.5 392.8 moveto 307 (Pda_0 := Pa_0-1/20Pdp_0-1/20Pdv_0+5/2;) alignedtext
0 0 0 nodecolor
18 /Times-Roman set_font
8 373.8 moveto 316 (Pda_1 := 1/20Pdp_0-1/20Pdp_1+1/20Pdv_0) alignedtext
0 0 0 nodecolor
18 /Times-Roman set_font
101.5 354.8 moveto 129 (         -1/20Pdv_1;) alignedtext
0 0 0 nodecolor
18 /Times-Roman set_font
15.5 335.8 moveto 301 (Pdp_0 := 1/200Pda_0+Pdp_0+1/10Pdv_0;) alignedtext
0 0 0 nodecolor
18 /Times-Roman set_font
15.5 316.8 moveto 301 (Pdp_1 := 1/200Pda_1+Pdp_1+1/10Pdv_1;) alignedtext
0 0 0 nodecolor
18 /Times-Roman set_font
63.5 297.8 moveto 205 (Pdv_0 := 1/10Pda_0+Pdv_0;) alignedtext
0 0 0 nodecolor
18 /Times-Roman set_font
63.5 278.8 moveto 205 (Pdv_1 := 1/10Pda_1+Pdv_1;) alignedtext
0 0 0 nodecolor
18 /Times-Roman set_font
71.5 259.8 moveto 189 (Pv_0 := 1/10Pa_0+Pv_0\)*) alignedtext
0 0 0 nodecolor
18 /Times-Roman set_font
159.5 240.8 moveto 13 (\(\)) alignedtext
grestore
% loc2_start->0
gsave
1 setlinewidth
0 0 0 edgecolor
newpath 166 468.39 moveto
166 459.93 166 451.15 166 442.3 curveto
stroke
0 0 0 edgecolor
newpath 169.5 442.29 moveto
166 432.29 lineto
162.5 442.29 lineto
closepath fill
1 setlinewidth
solid
0 0 0 edgecolor
newpath 169.5 442.29 moveto
166 432.29 lineto
162.5 442.29 lineto
closepath stroke
grestore
% loc1
gsave
1 setlinewidth
0 0 0 nodecolor
newpath 189 890 moveto
143 890 lineto
143 844 lineto
189 844 lineto
closepath stroke
0 0 0 nodecolor
18 /Times-Roman set_font
150.5 869.8 moveto 31 (loc1) alignedtext
0 0 0 nodecolor
18 /Times-Roman set_font
154 850.8 moveto 24 (top) alignedtext
grestore
% 1
gsave
0 0 0 nodecolor
18 /Times-Roman set_font
46 787.8 moveto 240 (Pda_1=0 and Pda_0-0.128=0 and) alignedtext
0 0 0 nodecolor
18 /Times-Roman set_font
36.5 768.8 moveto 259 (-Pdv_1+1>=0 and Pdv_1+1>=0 and) alignedtext
0 0 0 nodecolor
18 /Times-Roman set_font
36.5 749.8 moveto 259 (-Pdv_0+1>=0 and Pdv_0+1>=0 and) alignedtext
0 0 0 nodecolor
18 /Times-Roman set_font
29 730.8 moveto 274 (-Pdp_1+55>=0 and Pdp_1-45>=0 and) alignedtext
0 0 0 nodecolor
18 /Times-Roman set_font
29 711.8 moveto 274 (-Pdp_0+55>=0 and Pdp_0-45>=0 and) alignedtext
0 0 0 nodecolor
18 /Times-Roman set_font
51.5 692.8 moveto 229 (Pv_0-1>=0 and Pa_0-0.256=0 ?) alignedtext
0 0 0 nodecolor
18 /Times-Roman set_font
159.5 652.8 moveto 13 (\(\)) alignedtext
grestore
% loc1->1
gsave
1 setlinewidth
0 0 0 edgecolor
newpath 166 843.88 moveto
166 836.47 166 827.75 166 818.48 curveto
stroke
0 0 0 edgecolor
newpath 169.5 818.24 moveto
166 808.24 lineto
162.5 818.24 lineto
closepath fill
1 setlinewidth
solid
0 0 0 edgecolor
newpath 169.5 818.24 moveto
166 808.24 lineto
162.5 818.24 lineto
closepath stroke
grestore
% loc2
gsave
1 setlinewidth
0 0 0 nodecolor
newpath 296 198 moveto
36 198 lineto
36 0 lineto
296 0 lineto
closepath stroke
0 0 0 nodecolor
18 /Times-Roman set_font
150.5 177.8 moveto 31 (loc2) alignedtext
0 0 0 nodecolor
18 /Times-Roman set_font
77.5 158.8 moveto 177 ([|Pa_0 in [0.256 , 0.256];) alignedtext
0 0 0 nodecolor
18 /Times-Roman set_font
61 139.8 moveto 210 (  Pda_0 in [-0.5815 , 0.6988];) alignedtext
0 0 0 nodecolor
18 /Times-Roman set_font
70 120.8 moveto 192 (  Pda_1 in [-2.138 , 2.094];) alignedtext
0 0 0 nodecolor
18 /Times-Roman set_font
72.5 101.8 moveto 187 (  Pdp_0 in [40.23 , 66.17];) alignedtext
0 0 0 nodecolor
18 /Times-Roman set_font
72.5 82.8 moveto 187 (  Pdp_1 in [11.69 , 96.51];) alignedtext
0 0 0 nodecolor
18 /Times-Roman set_font
69.5 63.8 moveto 193 (  Pdv_0 in [-2.522 , 2.881];) alignedtext
0 0 0 nodecolor
18 /Times-Roman set_font
69.5 44.8 moveto 193 (  Pdv_1 in [-8.292 , 8.334];) alignedtext
0 0 0 nodecolor
18 /Times-Roman set_font
96.5 25.8 moveto 139 (  Pv_0 in [1 , INF]|]) alignedtext
0 0 0 nodecolor
18 /Times-Roman set_font
44 6.8 moveto 244 (15998 constraints, 433 generators) alignedtext
grestore
% 0->loc2
gsave
1 setlinewidth
0 0 0 edgecolor
newpath 166 233.76 moveto
166 225.26 166 216.62 166 208.05 curveto
stroke
0 0 0 edgecolor
newpath 169.5 208.02 moveto
166 198.02 lineto
162.5 208.02 lineto
closepath fill
1 setlinewidth
solid
0 0 0 edgecolor
newpath 169.5 208.02 moveto
166 198.02 lineto
162.5 208.02 lineto
closepath stroke
grestore
% 1->loc2_start
gsave
1 setlinewidth
0 0 0 edgecolor
newpath 166 645.91 moveto
166 637.26 166 628.47 166 619.83 curveto
stroke
0 0 0 edgecolor
newpath 169.5 619.78 moveto
166 609.78 lineto
162.5 619.78 lineto
closepath fill
1 setlinewidth
solid
0 0 0 edgecolor
newpath 169.5 619.78 moveto
166 609.78 lineto
162.5 619.78 lineto
closepath stroke
grestore
endpage
showpage
grestore
%%PageTrailer
%%EndPage: 1
setupLatin1
%%Page: 2 2
%%PageBoundingBox: 36 36 376 624
%%PageOrientation: Portrait
0 0 1 beginpage
gsave
36 36 340 588 boxprim clip newpath
1 1 set_scale 0 rotate 40 41 translate
% 1073741823
gsave
1 setlinewidth
0 0 0 nodecolor
81 557 43.84 19.09 ellipse_path stroke
0 0 0 nodecolor
18 /Times-Roman set_font
58 550.3 moveto 46 (Result) alignedtext
grestore
% loc1
gsave
1 setlinewidth
0 0 0 nodecolor
newpath 189 580 moveto
143 580 lineto
143 534 lineto
189 534 lineto
closepath stroke
0 0 0 nodecolor
18 /Times-Roman set_font
150.5 559.8 moveto 31 (loc1) alignedtext
0 0 0 nodecolor
18 /Times-Roman set_font
154 540.8 moveto 24 (top) alignedtext
grestore
% 1
gsave
0 0 0 nodecolor
18 /Times-Roman set_font
46 477.8 moveto 240 (Pda_1=0 and Pda_0-0.128=0 and) alignedtext
0 0 0 nodecolor
18 /Times-Roman set_font
36.5 458.8 moveto 259 (-Pdv_1+1>=0 and Pdv_1+1>=0 and) alignedtext
0 0 0 nodecolor
18 /Times-Roman set_font
36.5 439.8 moveto 259 (-Pdv_0+1>=0 and Pdv_0+1>=0 and) alignedtext
0 0 0 nodecolor
18 /Times-Roman set_font
29 420.8 moveto 274 (-Pdp_1+55>=0 and Pdp_1-45>=0 and) alignedtext
0 0 0 nodecolor
18 /Times-Roman set_font
29 401.8 moveto 274 (-Pdp_0+55>=0 and Pdp_0-45>=0 and) alignedtext
0 0 0 nodecolor
18 /Times-Roman set_font
51.5 382.8 moveto 229 (Pv_0-1>=0 and Pa_0-0.256=0 ?) alignedtext
0 0 0 nodecolor
18 /Times-Roman set_font
159.5 342.8 moveto 13 (\(\)) alignedtext
grestore
% loc1->1
gsave
1 setlinewidth
0 0 0 edgecolor
newpath 166 533.88 moveto
166 526.47 166 517.75 166 508.48 curveto
stroke
0 0 0 edgecolor
newpath 169.5 508.24 moveto
166 498.24 lineto
162.5 508.24 lineto
closepath fill
1 setlinewidth
solid
0 0 0 edgecolor
newpath 169.5 508.24 moveto
166 498.24 lineto
162.5 508.24 lineto
closepath stroke
grestore
% loc2
gsave
1 setlinewidth
0 0 0 nodecolor
newpath 269 299.5 moveto
63 299.5 lineto
63 234.5 lineto
269 234.5 lineto
closepath stroke
0 0 0 nodecolor
18 /Times-Roman set_font
150.5 279.3 moveto 31 (loc2) alignedtext
0 0 0 nodecolor
18 /Times-Roman set_font
82.5 260.3 moveto 167 ([|Pa_0=0.256; ; ; ; ; ; ; |]) alignedtext
0 0 0 nodecolor
18 /Times-Roman set_font
71 241.3 moveto 190 (1 constraints, 8 generators) alignedtext
grestore
% 0
gsave
0 0 0 nodecolor
18 /Times-Roman set_font
116 177.8 moveto 100 (Pa_0 := Pa_0;) alignedtext
0 0 0 nodecolor
18 /Times-Roman set_font
12.5 158.8 moveto 307 (Pda_0 := Pa_0-1/20Pdp_0-1/20Pdv_0+5/2;) alignedtext
0 0 0 nodecolor
18 /Times-Roman set_font
8 139.8 moveto 316 (Pda_1 := 1/20Pdp_0-1/20Pdp_1+1/20Pdv_0) alignedtext
0 0 0 nodecolor
18 /Times-Roman set_font
101.5 120.8 moveto 129 (         -1/20Pdv_1;) alignedtext
0 0 0 nodecolor
18 /Times-Roman set_font
15.5 101.8 moveto 301 (Pdp_0 := 1/200Pda_0+Pdp_0+1/10Pdv_0;) alignedtext
0 0 0 nodecolor
18 /Times-Roman set_font
15.5 82.8 moveto 301 (Pdp_1 := 1/200Pda_1+Pdp_1+1/10Pdv_1;) alignedtext
0 0 0 nodecolor
18 /Times-Roman set_font
63.5 63.8 moveto 205 (Pdv_0 := 1/10Pda_0+Pdv_0;) alignedtext
0 0 0 nodecolor
18 /Times-Roman set_font
63.5 44.8 moveto 205 (Pdv_1 := 1/10Pda_1+Pdv_1;) alignedtext
0 0 0 nodecolor
18 /Times-Roman set_font
79 25.8 moveto 174 (Pv_0 := 1/10Pa_0+Pv_0) alignedtext
0 0 0 nodecolor
18 /Times-Roman set_font
159.5 6.8 moveto 13 (\(\)) alignedtext
grestore
% loc2->0
gsave
1 setlinewidth
0 0 0 edgecolor
newpath 160.52 234.21 moveto
160.07 226.36 159.74 217.54 159.53 208.26 curveto
stroke
0 0 0 edgecolor
newpath 163.02 207.98 moveto
159.35 198.05 lineto
156.03 208.11 lineto
closepath fill
1 setlinewidth
solid
0 0 0 edgecolor
newpath 163.02 207.98 moveto
159.35 198.05 lineto
156.03 208.11 lineto
closepath stroke
grestore
% 0->loc2
gsave
1 setlinewidth
0 0 0 edgecolor
newpath 172.65 198.05 moveto
172.54 207.07 172.31 215.86 171.98 223.97 curveto
stroke
0 0 0 edgecolor
newpath 168.47 224.05 moveto
171.48 234.21 lineto
175.46 224.39 lineto
closepath fill
1 setlinewidth
solid
0 0 0 edgecolor
newpath 168.47 224.05 moveto
171.48 234.21 lineto
175.46 224.39 lineto
closepath stroke
grestore
% 1->loc2
gsave
1 setlinewidth
0 0 0 edgecolor
newpath 166 335.85 moveto
166 326.83 166 317.92 166 309.66 curveto
stroke
0 0 0 edgecolor
newpath 169.5 309.58 moveto
166 299.58 lineto
162.5 309.58 lineto
closepath fill
1 setlinewidth
solid
0 0 0 edgecolor
newpath 169.5 309.58 moveto
166 299.58 lineto
162.5 309.58 lineto
closepath stroke
grestore
endpage
showpage
grestore
%%PageTrailer
%%EndPage: 2
setupLatin1
%%Page: 3 3
%%PageBoundingBox: 36 36 376 802
%%PageOrientation: Portrait
0 0 1 beginpage
gsave
36 36 340 766 boxprim clip newpath
1 1 set_scale 0 rotate 40 41 translate
% 1073741823
gsave
1 setlinewidth
0 0 0 nodecolor
81 735 43.84 19.09 ellipse_path stroke
0 0 0 nodecolor
18 /Times-Roman set_font
58 728.3 moveto 46 (Result) alignedtext
grestore
% loc2_start
gsave
1 setlinewidth
0 0 0 nodecolor
newpath 312 477.5 moveto
20 477.5 lineto
20 336.5 lineto
312 336.5 lineto
closepath stroke
0 0 0 nodecolor
18 /Times-Roman set_font
130 457.3 moveto 72 (loc2_start) alignedtext
0 0 0 nodecolor
18 /Times-Roman set_font
28 438.3 moveto 276 ([|Pa_0=0.256; Pda_0=0.128; Pda_1=0;) alignedtext
0 0 0 nodecolor
18 /Times-Roman set_font
94.5 419.3 moveto 143 (  Pdp_0 in [45 , 55];) alignedtext
0 0 0 nodecolor
18 /Times-Roman set_font
94.5 400.3 moveto 143 (  Pdp_1 in [45 , 55];) alignedtext
0 0 0 nodecolor
18 /Times-Roman set_font
37.5 381.3 moveto 257 (  Pdv_0 in [-1 , 1]; Pdv_1 in [-1 , 1];) alignedtext
0 0 0 nodecolor
18 /Times-Roman set_font
96.5 362.3 moveto 139 (  Pv_0 in [1 , INF]|]) alignedtext
0 0 0 nodecolor
18 /Times-Roman set_font
62 343.3 moveto 208 (12 constraints, 17 generators) alignedtext
grestore
% 0
gsave
0 0 0 nodecolor
18 /Times-Roman set_font
116 279.8 moveto 100 (Pa_0 := Pa_0;) alignedtext
0 0 0 nodecolor
18 /Times-Roman set_font
12.5 260.8 moveto 307 (Pda_0 := Pa_0-1/20Pdp_0-1/20Pdv_0+5/2;) alignedtext
0 0 0 nodecolor
18 /Times-Roman set_font
8 241.8 moveto 316 (Pda_1 := 1/20Pdp_0-1/20Pdp_1+1/20Pdv_0) alignedtext
0 0 0 nodecolor
18 /Times-Roman set_font
101.5 222.8 moveto 129 (         -1/20Pdv_1;) alignedtext
0 0 0 nodecolor
18 /Times-Roman set_font
15.5 203.8 moveto 301 (Pdp_0 := 1/200Pda_0+Pdp_0+1/10Pdv_0;) alignedtext
0 0 0 nodecolor
18 /Times-Roman set_font
15.5 184.8 moveto 301 (Pdp_1 := 1/200Pda_1+Pdp_1+1/10Pdv_1;) alignedtext
0 0 0 nodecolor
18 /Times-Roman set_font
63.5 165.8 moveto 205 (Pdv_0 := 1/10Pda_0+Pdv_0;) alignedtext
0 0 0 nodecolor
18 /Times-Roman set_font
63.5 146.8 moveto 205 (Pdv_1 := 1/10Pda_1+Pdv_1;) alignedtext
0 0 0 nodecolor
18 /Times-Roman set_font
71.5 127.8 moveto 189 (Pv_0 := 1/10Pa_0+Pv_0\)*) alignedtext
0 0 0 nodecolor
18 /Times-Roman set_font
159.5 108.8 moveto 13 (\(\)) alignedtext
grestore
% loc2_start->0
gsave
1 setlinewidth
0 0 0 edgecolor
newpath 166 336.39 moveto
166 327.93 166 319.15 166 310.3 curveto
stroke
0 0 0 edgecolor
newpath 169.5 310.29 moveto
166 300.29 lineto
162.5 310.29 lineto
closepath fill
1 setlinewidth
solid
0 0 0 edgecolor
newpath 169.5 310.29 moveto
166 300.29 lineto
162.5 310.29 lineto
closepath stroke
grestore
% loc1
gsave
1 setlinewidth
0 0 0 nodecolor
newpath 189 758 moveto
143 758 lineto
143 712 lineto
189 712 lineto
closepath stroke
0 0 0 nodecolor
18 /Times-Roman set_font
150.5 737.8 moveto 31 (loc1) alignedtext
0 0 0 nodecolor
18 /Times-Roman set_font
154 718.8 moveto 24 (top) alignedtext
grestore
% 1
gsave
0 0 0 nodecolor
18 /Times-Roman set_font
46 655.8 moveto 240 (Pda_1=0 and Pda_0-0.128=0 and) alignedtext
0 0 0 nodecolor
18 /Times-Roman set_font
36.5 636.8 moveto 259 (-Pdv_1+1>=0 and Pdv_1+1>=0 and) alignedtext
0 0 0 nodecolor
18 /Times-Roman set_font
36.5 617.8 moveto 259 (-Pdv_0+1>=0 and Pdv_0+1>=0 and) alignedtext
0 0 0 nodecolor
18 /Times-Roman set_font
29 598.8 moveto 274 (-Pdp_1+55>=0 and Pdp_1-45>=0 and) alignedtext
0 0 0 nodecolor
18 /Times-Roman set_font
29 579.8 moveto 274 (-Pdp_0+55>=0 and Pdp_0-45>=0 and) alignedtext
0 0 0 nodecolor
18 /Times-Roman set_font
51.5 560.8 moveto 229 (Pv_0-1>=0 and Pa_0-0.256=0 ?) alignedtext
0 0 0 nodecolor
18 /Times-Roman set_font
159.5 520.8 moveto 13 (\(\)) alignedtext
grestore
% loc1->1
gsave
1 setlinewidth
0 0 0 edgecolor
newpath 166 711.88 moveto
166 704.47 166 695.75 166 686.48 curveto
stroke
0 0 0 edgecolor
newpath 169.5 686.24 moveto
166 676.24 lineto
162.5 686.24 lineto
closepath fill
1 setlinewidth
solid
0 0 0 edgecolor
newpath 169.5 686.24 moveto
166 676.24 lineto
162.5 686.24 lineto
closepath stroke
grestore
% loc2
gsave
1 setlinewidth
0 0 0 nodecolor
newpath 269 65.5 moveto
63 65.5 lineto
63 .5 lineto
269 .5 lineto
closepath stroke
0 0 0 nodecolor
18 /Times-Roman set_font
150.5 45.3 moveto 31 (loc2) alignedtext
0 0 0 nodecolor
18 /Times-Roman set_font
82.5 26.3 moveto 167 ([|Pa_0=0.256; ; ; ; ; ; ; |]) alignedtext
0 0 0 nodecolor
18 /Times-Roman set_font
71 7.3 moveto 190 (1 constraints, 8 generators) alignedtext
grestore
% 0->loc2
gsave
1 setlinewidth
0 0 0 edgecolor
newpath 166 101.82 moveto
166 92.83 166 84.08 166 76 curveto
stroke
0 0 0 edgecolor
newpath 169.5 75.8 moveto
166 65.8 lineto
162.5 75.8 lineto
closepath fill
1 setlinewidth
solid
0 0 0 edgecolor
newpath 169.5 75.8 moveto
166 65.8 lineto
162.5 75.8 lineto
closepath stroke
grestore
% 1->loc2_start
gsave
1 setlinewidth
0 0 0 edgecolor
newpath 166 513.91 moveto
166 505.26 166 496.47 166 487.83 curveto
stroke
0 0 0 edgecolor
newpath 169.5 487.78 moveto
166 477.78 lineto
162.5 487.78 lineto
closepath fill
1 setlinewidth
solid
0 0 0 edgecolor
newpath 169.5 487.78 moveto
166 477.78 lineto
162.5 487.78 lineto
closepath stroke
grestore
endpage
showpage
grestore
%%PageTrailer
%%EndPage: 3
%%Trailer
%%Pages: 3
%%BoundingBox: 36 36 376 934
end
restore
%%EOF
