%!PS-Adobe-3.0
%%Creator: graphviz version 2.26.3 (20100126.1600)
%%Title: G
%%Pages: (atend)
%%BoundingBox: (atend)
%%EndComments
save
%%BeginProlog
/DotDict 200 dict def
DotDict begin

/setupLatin1 {
mark
/EncodingVector 256 array def
 EncodingVector 0

ISOLatin1Encoding 0 255 getinterval putinterval
EncodingVector 45 /hyphen put

% Set up ISO Latin 1 character encoding
/starnetISO {
        dup dup findfont dup length dict begin
        { 1 index /FID ne { def }{ pop pop } ifelse
        } forall
        /Encoding EncodingVector def
        currentdict end definefont
} def
/Times-Roman starnetISO def
/Times-Italic starnetISO def
/Times-Bold starnetISO def
/Times-BoldItalic starnetISO def
/Helvetica starnetISO def
/Helvetica-Oblique starnetISO def
/Helvetica-Bold starnetISO def
/Helvetica-BoldOblique starnetISO def
/Courier starnetISO def
/Courier-Oblique starnetISO def
/Courier-Bold starnetISO def
/Courier-BoldOblique starnetISO def
cleartomark
} bind def

%%BeginResource: procset graphviz 0 0
/coord-font-family /Times-Roman def
/default-font-family /Times-Roman def
/coordfont coord-font-family findfont 8 scalefont def

/InvScaleFactor 1.0 def
/set_scale {
       dup 1 exch div /InvScaleFactor exch def
       scale
} bind def

% styles
/solid { [] 0 setdash } bind def
/dashed { [9 InvScaleFactor mul dup ] 0 setdash } bind def
/dotted { [1 InvScaleFactor mul 6 InvScaleFactor mul] 0 setdash } bind def
/invis {/fill {newpath} def /stroke {newpath} def /show {pop newpath} def} bind def
/bold { 2 setlinewidth } bind def
/filled { } bind def
/unfilled { } bind def
/rounded { } bind def
/diagonals { } bind def

% hooks for setting color 
/nodecolor { sethsbcolor } bind def
/edgecolor { sethsbcolor } bind def
/graphcolor { sethsbcolor } bind def
/nopcolor {pop pop pop} bind def

/beginpage {	% i j npages
	/npages exch def
	/j exch def
	/i exch def
	/str 10 string def
	npages 1 gt {
		gsave
			coordfont setfont
			0 0 moveto
			(\() show i str cvs show (,) show j str cvs show (\)) show
		grestore
	} if
} bind def

/set_font {
	findfont exch
	scalefont setfont
} def

% draw text fitted to its expected width
/alignedtext {			% width text
	/text exch def
	/width exch def
	gsave
		width 0 gt {
			[] 0 setdash
			text stringwidth pop width exch sub text length div 0 text ashow
		} if
	grestore
} def

/boxprim {				% xcorner ycorner xsize ysize
		4 2 roll
		moveto
		2 copy
		exch 0 rlineto
		0 exch rlineto
		pop neg 0 rlineto
		closepath
} bind def

/ellipse_path {
	/ry exch def
	/rx exch def
	/y exch def
	/x exch def
	matrix currentmatrix
	newpath
	x y translate
	rx ry scale
	0 0 1 0 360 arc
	setmatrix
} bind def

/endpage { showpage } bind def
/showpage { } def

/layercolorseq
	[	% layer color sequence - darkest to lightest
		[0 0 0]
		[.2 .8 .8]
		[.4 .8 .8]
		[.6 .8 .8]
		[.8 .8 .8]
	]
def

/layerlen layercolorseq length def

/setlayer {/maxlayer exch def /curlayer exch def
	layercolorseq curlayer 1 sub layerlen mod get
	aload pop sethsbcolor
	/nodecolor {nopcolor} def
	/edgecolor {nopcolor} def
	/graphcolor {nopcolor} def
} bind def

/onlayer { curlayer ne {invis} if } def

/onlayers {
	/myupper exch def
	/mylower exch def
	curlayer mylower lt
	curlayer myupper gt
	or
	{invis} if
} def

/curlayer 0 def

%%EndResource
%%EndProlog
%%BeginSetup
14 default-font-family set_font
1 setmiterlimit
% /arrowlength 10 def
% /arrowwidth 5 def

% make sure pdfmark is harmless for PS-interpreters other than Distiller
/pdfmark where {pop} {userdict /pdfmark /cleartomark load put} ifelse
% make '<<' and '>>' safe on PS Level 1 devices
/languagelevel where {pop languagelevel}{1} ifelse
2 lt {
    userdict (<<) cvn ([) cvn load put
    userdict (>>) cvn ([) cvn load put
} if

%%EndSetup
setupLatin1
%%Page: 1 1
%%PageBoundingBox: 36 36 378 744
%%PageOrientation: Portrait
0 0 1 beginpage
gsave
36 36 342 708 boxprim clip newpath
1 1 set_scale 0 rotate 40 41 translate
% 1073741823
gsave
1 setlinewidth
0 0 0 nodecolor
82 677 43.84 19.09 ellipse_path stroke
0 0 0 nodecolor
18 /Times-Roman set_font
59 670.3 moveto 46 (Result) alignedtext
grestore
% loc2_start
gsave
1 setlinewidth
0 0 0 nodecolor
newpath 307 458 moveto
27 458 lineto
27 336 lineto
307 336 lineto
closepath stroke
0 0 0 nodecolor
18 /Times-Roman set_font
131 437.8 moveto 72 (loc2_start) alignedtext
0 0 0 nodecolor
18 /Times-Roman set_font
109.5 418.8 moveto 115 ([|Pa_0 in [0 , 1];) alignedtext
0 0 0 nodecolor
18 /Times-Roman set_font
71 399.8 moveto 192 (  Pda_0 in [-0.128 , 0.128];) alignedtext
0 0 0 nodecolor
18 /Times-Roman set_font
95.5 380.8 moveto 143 (  Pdp_0 in [45 , 55];) alignedtext
0 0 0 nodecolor
18 /Times-Roman set_font
34.5 361.8 moveto 265 (  Pdv_0 in [-1 , 1]; Pv_0 in [1 , INF]|]) alignedtext
0 0 0 nodecolor
18 /Times-Roman set_font
67.5 342.8 moveto 199 (9 constraints, 17 generators) alignedtext
grestore
% 0
gsave
0 0 0 nodecolor
18 /Times-Roman set_font
117 279.8 moveto 100 (Pa_0 := Pa_0;) alignedtext
0 0 0 nodecolor
18 /Times-Roman set_font
13.5 260.8 moveto 307 (Pda_0 := Pa_0-1/20Pdp_0-1/20Pdv_0+5/2;) alignedtext
0 0 0 nodecolor
18 /Times-Roman set_font
16.5 241.8 moveto 301 (Pdp_0 := 1/200Pda_0+Pdp_0+1/10Pdv_0;) alignedtext
0 0 0 nodecolor
18 /Times-Roman set_font
64.5 222.8 moveto 205 (Pdv_0 := 1/10Pda_0+Pdv_0;) alignedtext
0 0 0 nodecolor
18 /Times-Roman set_font
72.5 203.8 moveto 189 (Pv_0 := 1/10Pa_0+Pv_0\)*) alignedtext
0 0 0 nodecolor
18 /Times-Roman set_font
160.5 184.8 moveto 13 (\(\)) alignedtext
grestore
% loc2_start->0
gsave
1 setlinewidth
0 0 0 edgecolor
newpath 167 335.91 moveto
167 327.49 167 318.77 167 310.19 curveto
stroke
0 0 0 edgecolor
newpath 170.5 310.18 moveto
167 300.18 lineto
163.5 310.18 lineto
closepath fill
1 setlinewidth
solid
0 0 0 edgecolor
newpath 170.5 310.18 moveto
167 300.18 lineto
163.5 310.18 lineto
closepath stroke
grestore
% loc1
gsave
1 setlinewidth
0 0 0 nodecolor
newpath 190 700 moveto
144 700 lineto
144 654 lineto
190 654 lineto
closepath stroke
0 0 0 nodecolor
18 /Times-Roman set_font
151.5 679.8 moveto 31 (loc1) alignedtext
0 0 0 nodecolor
18 /Times-Roman set_font
155 660.8 moveto 24 (top) alignedtext
grestore
% 1
gsave
0 0 0 nodecolor
18 /Times-Roman set_font
7.5 597.8 moveto 319 (-Pda_0+0.128>=0 and Pda_0+0.128>=0 and) alignedtext
0 0 0 nodecolor
18 /Times-Roman set_font
37.5 578.8 moveto 259 (-Pdv_0+1>=0 and Pdv_0+1>=0 and) alignedtext
0 0 0 nodecolor
18 /Times-Roman set_font
30 559.8 moveto 274 (-Pdp_0+55>=0 and Pdp_0-45>=0 and) alignedtext
0 0 0 nodecolor
18 /Times-Roman set_font
7.5 540.8 moveto 319 (Pv_0-1>=0 and -Pa_0+1>=0 and Pa_0>=0 ?) alignedtext
0 0 0 nodecolor
18 /Times-Roman set_font
160.5 500.8 moveto 13 (\(\)) alignedtext
grestore
% loc1->1
gsave
1 setlinewidth
0 0 0 edgecolor
newpath 167 653.96 moveto
167 646.4 167 637.57 167 628.35 curveto
stroke
0 0 0 edgecolor
newpath 170.5 628.23 moveto
167 618.23 lineto
163.5 628.23 lineto
closepath fill
1 setlinewidth
solid
0 0 0 edgecolor
newpath 170.5 628.23 moveto
167 618.23 lineto
163.5 628.23 lineto
closepath stroke
grestore
% loc2
gsave
1 setlinewidth
0 0 0 nodecolor
newpath 288 141.5 moveto
46 141.5 lineto
46 .5 lineto
288 .5 lineto
closepath stroke
0 0 0 nodecolor
18 /Times-Roman set_font
151.5 121.3 moveto 31 (loc2) alignedtext
0 0 0 nodecolor
18 /Times-Roman set_font
109.5 102.3 moveto 115 ([|Pa_0 in [0 , 1];) alignedtext
0 0 0 nodecolor
18 /Times-Roman set_font
71 83.3 moveto 192 (  Pda_0 in [-1.041 , 1.335];) alignedtext
0 0 0 nodecolor
18 /Times-Roman set_font
73.5 64.3 moveto 187 (  Pdp_0 in [42.69 , 90.27];) alignedtext
0 0 0 nodecolor
18 /Times-Roman set_font
70.5 45.3 moveto 193 (  Pdv_0 in [-4.047 , 5.248];) alignedtext
0 0 0 nodecolor
18 /Times-Roman set_font
97.5 26.3 moveto 139 (  Pv_0 in [1 , INF]|]) alignedtext
0 0 0 nodecolor
18 /Times-Roman set_font
54 7.3 moveto 226 (804 constraints, 106 generators) alignedtext
grestore
% 0->loc2
gsave
1 setlinewidth
0 0 0 edgecolor
newpath 167 177.87 moveto
167 169.44 167 160.68 167 151.96 curveto
stroke
0 0 0 edgecolor
newpath 170.5 151.77 moveto
167 141.77 lineto
163.5 151.77 lineto
closepath fill
1 setlinewidth
solid
0 0 0 edgecolor
newpath 170.5 151.77 moveto
167 141.77 lineto
163.5 151.77 lineto
closepath stroke
grestore
% 1->loc2_start
gsave
1 setlinewidth
0 0 0 edgecolor
newpath 167 493.62 moveto
167 485.33 167 476.78 167 468.35 curveto
stroke
0 0 0 edgecolor
newpath 170.5 468.16 moveto
167 458.16 lineto
163.5 468.16 lineto
closepath fill
1 setlinewidth
solid
0 0 0 edgecolor
newpath 170.5 468.16 moveto
167 458.16 lineto
163.5 468.16 lineto
closepath stroke
grestore
endpage
showpage
grestore
%%PageTrailer
%%EndPage: 1
setupLatin1
%%Page: 2 2
%%PageBoundingBox: 36 36 378 528
%%PageOrientation: Portrait
0 0 1 beginpage
gsave
36 36 342 492 boxprim clip newpath
1 1 set_scale 0 rotate 40 41 translate
% 1073741823
gsave
1 setlinewidth
0 0 0 nodecolor
82 461 43.84 19.09 ellipse_path stroke
0 0 0 nodecolor
18 /Times-Roman set_font
59 454.3 moveto 46 (Result) alignedtext
grestore
% loc1
gsave
1 setlinewidth
0 0 0 nodecolor
newpath 190 484 moveto
144 484 lineto
144 438 lineto
190 438 lineto
closepath stroke
0 0 0 nodecolor
18 /Times-Roman set_font
151.5 463.8 moveto 31 (loc1) alignedtext
0 0 0 nodecolor
18 /Times-Roman set_font
155 444.8 moveto 24 (top) alignedtext
grestore
% 1
gsave
0 0 0 nodecolor
18 /Times-Roman set_font
7.5 381.8 moveto 319 (-Pda_0+0.128>=0 and Pda_0+0.128>=0 and) alignedtext
0 0 0 nodecolor
18 /Times-Roman set_font
37.5 362.8 moveto 259 (-Pdv_0+1>=0 and Pdv_0+1>=0 and) alignedtext
0 0 0 nodecolor
18 /Times-Roman set_font
30 343.8 moveto 274 (-Pdp_0+55>=0 and Pdp_0-45>=0 and) alignedtext
0 0 0 nodecolor
18 /Times-Roman set_font
7.5 324.8 moveto 319 (Pv_0-1>=0 and -Pa_0+1>=0 and Pa_0>=0 ?) alignedtext
0 0 0 nodecolor
18 /Times-Roman set_font
160.5 284.8 moveto 13 (\(\)) alignedtext
grestore
% loc1->1
gsave
1 setlinewidth
0 0 0 edgecolor
newpath 167 437.96 moveto
167 430.4 167 421.57 167 412.35 curveto
stroke
0 0 0 edgecolor
newpath 170.5 412.23 moveto
167 402.23 lineto
163.5 412.23 lineto
closepath fill
1 setlinewidth
solid
0 0 0 edgecolor
newpath 170.5 412.23 moveto
167 402.23 lineto
163.5 412.23 lineto
closepath stroke
grestore
% loc2
gsave
1 setlinewidth
0 0 0 nodecolor
newpath 270 242 moveto
64 242 lineto
64 158 lineto
270 158 lineto
closepath stroke
0 0 0 nodecolor
18 /Times-Roman set_font
151.5 221.8 moveto 31 (loc2) alignedtext
0 0 0 nodecolor
18 /Times-Roman set_font
96 202.8 moveto 142 ([|Pa_0 in [0 , 1]; ; ; ;) alignedtext
0 0 0 nodecolor
18 /Times-Roman set_font
97.5 183.8 moveto 139 (  Pv_0 in [1 , INF]|]) alignedtext
0 0 0 nodecolor
18 /Times-Roman set_font
72 164.8 moveto 190 (3 constraints, 6 generators) alignedtext
grestore
% 0
gsave
0 0 0 nodecolor
18 /Times-Roman set_font
117 101.8 moveto 100 (Pa_0 := Pa_0;) alignedtext
0 0 0 nodecolor
18 /Times-Roman set_font
13.5 82.8 moveto 307 (Pda_0 := Pa_0-1/20Pdp_0-1/20Pdv_0+5/2;) alignedtext
0 0 0 nodecolor
18 /Times-Roman set_font
16.5 63.8 moveto 301 (Pdp_0 := 1/200Pda_0+Pdp_0+1/10Pdv_0;) alignedtext
0 0 0 nodecolor
18 /Times-Roman set_font
64.5 44.8 moveto 205 (Pdv_0 := 1/10Pda_0+Pdv_0;) alignedtext
0 0 0 nodecolor
18 /Times-Roman set_font
80 25.8 moveto 174 (Pv_0 := 1/10Pa_0+Pv_0) alignedtext
0 0 0 nodecolor
18 /Times-Roman set_font
160.5 6.8 moveto 13 (\(\)) alignedtext
grestore
% loc2->0
gsave
1 setlinewidth
0 0 0 edgecolor
newpath 160.74 157.92 moveto
160.44 149.82 160.27 141.13 160.25 132.4 curveto
stroke
0 0 0 edgecolor
newpath 163.75 132.18 moveto
160.29 122.17 lineto
156.75 132.15 lineto
closepath fill
1 setlinewidth
solid
0 0 0 edgecolor
newpath 163.75 132.18 moveto
160.29 122.17 lineto
156.75 132.15 lineto
closepath stroke
grestore
% 0->loc2
gsave
1 setlinewidth
0 0 0 edgecolor
newpath 173.71 122.17 moveto
173.8 130.75 173.75 139.5 173.56 147.9 curveto
stroke
0 0 0 edgecolor
newpath 170.06 147.82 moveto
173.26 157.92 lineto
177.06 148.03 lineto
closepath fill
1 setlinewidth
solid
0 0 0 edgecolor
newpath 170.06 147.82 moveto
173.26 157.92 lineto
177.06 148.03 lineto
closepath stroke
grestore
% 1->loc2
gsave
1 setlinewidth
0 0 0 edgecolor
newpath 167 277.78 moveto
167 269.36 167 260.78 167 252.55 curveto
stroke
0 0 0 edgecolor
newpath 170.5 252.35 moveto
167 242.35 lineto
163.5 252.35 lineto
closepath fill
1 setlinewidth
solid
0 0 0 edgecolor
newpath 170.5 252.35 moveto
167 242.35 lineto
163.5 252.35 lineto
closepath stroke
grestore
endpage
showpage
grestore
%%PageTrailer
%%EndPage: 2
setupLatin1
%%Page: 3 3
%%PageBoundingBox: 36 36 378 668
%%PageOrientation: Portrait
0 0 1 beginpage
gsave
36 36 342 632 boxprim clip newpath
1 1 set_scale 0 rotate 40 41 translate
% 1073741823
gsave
1 setlinewidth
0 0 0 nodecolor
82 601 43.84 19.09 ellipse_path stroke
0 0 0 nodecolor
18 /Times-Roman set_font
59 594.3 moveto 46 (Result) alignedtext
grestore
% loc2_start
gsave
1 setlinewidth
0 0 0 nodecolor
newpath 307 382 moveto
27 382 lineto
27 260 lineto
307 260 lineto
closepath stroke
0 0 0 nodecolor
18 /Times-Roman set_font
131 361.8 moveto 72 (loc2_start) alignedtext
0 0 0 nodecolor
18 /Times-Roman set_font
109.5 342.8 moveto 115 ([|Pa_0 in [0 , 1];) alignedtext
0 0 0 nodecolor
18 /Times-Roman set_font
71 323.8 moveto 192 (  Pda_0 in [-0.128 , 0.128];) alignedtext
0 0 0 nodecolor
18 /Times-Roman set_font
95.5 304.8 moveto 143 (  Pdp_0 in [45 , 55];) alignedtext
0 0 0 nodecolor
18 /Times-Roman set_font
34.5 285.8 moveto 265 (  Pdv_0 in [-1 , 1]; Pv_0 in [1 , INF]|]) alignedtext
0 0 0 nodecolor
18 /Times-Roman set_font
67.5 266.8 moveto 199 (9 constraints, 17 generators) alignedtext
grestore
% 0
gsave
0 0 0 nodecolor
18 /Times-Roman set_font
117 203.8 moveto 100 (Pa_0 := Pa_0;) alignedtext
0 0 0 nodecolor
18 /Times-Roman set_font
13.5 184.8 moveto 307 (Pda_0 := Pa_0-1/20Pdp_0-1/20Pdv_0+5/2;) alignedtext
0 0 0 nodecolor
18 /Times-Roman set_font
16.5 165.8 moveto 301 (Pdp_0 := 1/200Pda_0+Pdp_0+1/10Pdv_0;) alignedtext
0 0 0 nodecolor
18 /Times-Roman set_font
64.5 146.8 moveto 205 (Pdv_0 := 1/10Pda_0+Pdv_0;) alignedtext
0 0 0 nodecolor
18 /Times-Roman set_font
72.5 127.8 moveto 189 (Pv_0 := 1/10Pa_0+Pv_0\)*) alignedtext
0 0 0 nodecolor
18 /Times-Roman set_font
160.5 108.8 moveto 13 (\(\)) alignedtext
grestore
% loc2_start->0
gsave
1 setlinewidth
0 0 0 edgecolor
newpath 167 259.91 moveto
167 251.49 167 242.77 167 234.19 curveto
stroke
0 0 0 edgecolor
newpath 170.5 234.18 moveto
167 224.18 lineto
163.5 234.18 lineto
closepath fill
1 setlinewidth
solid
0 0 0 edgecolor
newpath 170.5 234.18 moveto
167 224.18 lineto
163.5 234.18 lineto
closepath stroke
grestore
% loc1
gsave
1 setlinewidth
0 0 0 nodecolor
newpath 190 624 moveto
144 624 lineto
144 578 lineto
190 578 lineto
closepath stroke
0 0 0 nodecolor
18 /Times-Roman set_font
151.5 603.8 moveto 31 (loc1) alignedtext
0 0 0 nodecolor
18 /Times-Roman set_font
155 584.8 moveto 24 (top) alignedtext
grestore
% 1
gsave
0 0 0 nodecolor
18 /Times-Roman set_font
7.5 521.8 moveto 319 (-Pda_0+0.128>=0 and Pda_0+0.128>=0 and) alignedtext
0 0 0 nodecolor
18 /Times-Roman set_font
37.5 502.8 moveto 259 (-Pdv_0+1>=0 and Pdv_0+1>=0 and) alignedtext
0 0 0 nodecolor
18 /Times-Roman set_font
30 483.8 moveto 274 (-Pdp_0+55>=0 and Pdp_0-45>=0 and) alignedtext
0 0 0 nodecolor
18 /Times-Roman set_font
7.5 464.8 moveto 319 (Pv_0-1>=0 and -Pa_0+1>=0 and Pa_0>=0 ?) alignedtext
0 0 0 nodecolor
18 /Times-Roman set_font
160.5 424.8 moveto 13 (\(\)) alignedtext
grestore
% loc1->1
gsave
1 setlinewidth
0 0 0 edgecolor
newpath 167 577.96 moveto
167 570.4 167 561.57 167 552.35 curveto
stroke
0 0 0 edgecolor
newpath 170.5 552.23 moveto
167 542.23 lineto
163.5 552.23 lineto
closepath fill
1 setlinewidth
solid
0 0 0 edgecolor
newpath 170.5 552.23 moveto
167 542.23 lineto
163.5 552.23 lineto
closepath stroke
grestore
% loc2
gsave
1 setlinewidth
0 0 0 nodecolor
newpath 270 65.5 moveto
64 65.5 lineto
64 .5 lineto
270 .5 lineto
closepath stroke
0 0 0 nodecolor
18 /Times-Roman set_font
151.5 45.3 moveto 31 (loc2) alignedtext
0 0 0 nodecolor
18 /Times-Roman set_font
89 26.3 moveto 156 ([|Pa_0 in [0 , 1]; ; ; ; |]) alignedtext
0 0 0 nodecolor
18 /Times-Roman set_font
72 7.3 moveto 190 (2 constraints, 6 generators) alignedtext
grestore
% 0->loc2
gsave
1 setlinewidth
0 0 0 edgecolor
newpath 167 101.81 moveto
167 93.01 167 84.12 167 75.78 curveto
stroke
0 0 0 edgecolor
newpath 170.5 75.57 moveto
167 65.57 lineto
163.5 75.57 lineto
closepath fill
1 setlinewidth
solid
0 0 0 edgecolor
newpath 170.5 75.57 moveto
167 65.57 lineto
163.5 75.57 lineto
closepath stroke
grestore
% 1->loc2_start
gsave
1 setlinewidth
0 0 0 edgecolor
newpath 167 417.62 moveto
167 409.33 167 400.78 167 392.35 curveto
stroke
0 0 0 edgecolor
newpath 170.5 392.16 moveto
167 382.16 lineto
163.5 392.16 lineto
closepath fill
1 setlinewidth
solid
0 0 0 edgecolor
newpath 170.5 392.16 moveto
167 382.16 lineto
163.5 392.16 lineto
closepath stroke
grestore
endpage
showpage
grestore
%%PageTrailer
%%EndPage: 3
%%Trailer
%%Pages: 3
%%BoundingBox: 36 36 378 744
end
restore
%%EOF
