%!PS-Adobe-3.0
%%Creator: graphviz version 2.26.3 (20100126.1600)
%%Title: G
%%Pages: (atend)
%%BoundingBox: (atend)
%%EndComments
save
%%BeginProlog
/DotDict 200 dict def
DotDict begin

/setupLatin1 {
mark
/EncodingVector 256 array def
 EncodingVector 0

ISOLatin1Encoding 0 255 getinterval putinterval
EncodingVector 45 /hyphen put

% Set up ISO Latin 1 character encoding
/starnetISO {
        dup dup findfont dup length dict begin
        { 1 index /FID ne { def }{ pop pop } ifelse
        } forall
        /Encoding EncodingVector def
        currentdict end definefont
} def
/Times-Roman starnetISO def
/Times-Italic starnetISO def
/Times-Bold starnetISO def
/Times-BoldItalic starnetISO def
/Helvetica starnetISO def
/Helvetica-Oblique starnetISO def
/Helvetica-Bold starnetISO def
/Helvetica-BoldOblique starnetISO def
/Courier starnetISO def
/Courier-Oblique starnetISO def
/Courier-Bold starnetISO def
/Courier-BoldOblique starnetISO def
cleartomark
} bind def

%%BeginResource: procset graphviz 0 0
/coord-font-family /Times-Roman def
/default-font-family /Times-Roman def
/coordfont coord-font-family findfont 8 scalefont def

/InvScaleFactor 1.0 def
/set_scale {
       dup 1 exch div /InvScaleFactor exch def
       scale
} bind def

% styles
/solid { [] 0 setdash } bind def
/dashed { [9 InvScaleFactor mul dup ] 0 setdash } bind def
/dotted { [1 InvScaleFactor mul 6 InvScaleFactor mul] 0 setdash } bind def
/invis {/fill {newpath} def /stroke {newpath} def /show {pop newpath} def} bind def
/bold { 2 setlinewidth } bind def
/filled { } bind def
/unfilled { } bind def
/rounded { } bind def
/diagonals { } bind def

% hooks for setting color 
/nodecolor { sethsbcolor } bind def
/edgecolor { sethsbcolor } bind def
/graphcolor { sethsbcolor } bind def
/nopcolor {pop pop pop} bind def

/beginpage {	% i j npages
	/npages exch def
	/j exch def
	/i exch def
	/str 10 string def
	npages 1 gt {
		gsave
			coordfont setfont
			0 0 moveto
			(\() show i str cvs show (,) show j str cvs show (\)) show
		grestore
	} if
} bind def

/set_font {
	findfont exch
	scalefont setfont
} def

% draw text fitted to its expected width
/alignedtext {			% width text
	/text exch def
	/width exch def
	gsave
		width 0 gt {
			[] 0 setdash
			text stringwidth pop width exch sub text length div 0 text ashow
		} if
	grestore
} def

/boxprim {				% xcorner ycorner xsize ysize
		4 2 roll
		moveto
		2 copy
		exch 0 rlineto
		0 exch rlineto
		pop neg 0 rlineto
		closepath
} bind def

/ellipse_path {
	/ry exch def
	/rx exch def
	/y exch def
	/x exch def
	matrix currentmatrix
	newpath
	x y translate
	rx ry scale
	0 0 1 0 360 arc
	setmatrix
} bind def

/endpage { showpage } bind def
/showpage { } def

/layercolorseq
	[	% layer color sequence - darkest to lightest
		[0 0 0]
		[.2 .8 .8]
		[.4 .8 .8]
		[.6 .8 .8]
		[.8 .8 .8]
	]
def

/layerlen layercolorseq length def

/setlayer {/maxlayer exch def /curlayer exch def
	layercolorseq curlayer 1 sub layerlen mod get
	aload pop sethsbcolor
	/nodecolor {nopcolor} def
	/edgecolor {nopcolor} def
	/graphcolor {nopcolor} def
} bind def

/onlayer { curlayer ne {invis} if } def

/onlayers {
	/myupper exch def
	/mylower exch def
	curlayer mylower lt
	curlayer myupper gt
	or
	{invis} if
} def

/curlayer 0 def

%%EndResource
%%EndProlog
%%BeginSetup
14 default-font-family set_font
1 setmiterlimit
% /arrowlength 10 def
% /arrowwidth 5 def

% make sure pdfmark is harmless for PS-interpreters other than Distiller
/pdfmark where {pop} {userdict /pdfmark /cleartomark load put} ifelse
% make '<<' and '>>' safe on PS Level 1 devices
/languagelevel where {pop languagelevel}{1} ifelse
2 lt {
    userdict (<<) cvn ([) cvn load put
    userdict (>>) cvn ([) cvn load put
} if

%%EndSetup
setupLatin1
%%Page: 1 1
%%PageBoundingBox: 36 36 388 840
%%PageOrientation: Portrait
0 0 1 beginpage
gsave
36 36 352 804 boxprim clip newpath
1 1 set_scale 0 rotate 40 41 translate
% 1073741823
gsave
1 setlinewidth
0 0 0 nodecolor
87 773 43.84 19.09 ellipse_path stroke
0 0 0 nodecolor
18 /Times-Roman set_font
64 766.3 moveto 46 (Result) alignedtext
grestore
% loc2_start
gsave
1 setlinewidth
0 0 0 nodecolor
newpath 328 553.5 moveto
16 553.5 lineto
16 450.5 lineto
328 450.5 lineto
closepath stroke
0 0 0 nodecolor
18 /Times-Roman set_font
136 533.3 moveto 72 (loc2_start) alignedtext
0 0 0 nodecolor
18 /Times-Roman set_font
23.5 514.3 moveto 297 ([|Pa_0=0; Pda_0=0; Pda_1=0; Pdp_0=50;) alignedtext
0 0 0 nodecolor
18 /Times-Roman set_font
65 495.3 moveto 214 (  Pdp_1=50; Pdv_0 in [-1 , 1];) alignedtext
0 0 0 nodecolor
18 /Times-Roman set_font
39.5 476.3 moveto 265 (  Pdv_1 in [-1 , 1]; Pv_0 in [1 , INF]|]) alignedtext
0 0 0 nodecolor
18 /Times-Roman set_font
72.5 457.3 moveto 199 (10 constraints, 5 generators) alignedtext
grestore
% 0
gsave
0 0 0 nodecolor
18 /Times-Roman set_font
122 393.8 moveto 100 (Pa_0 := Pa_0;) alignedtext
0 0 0 nodecolor
18 /Times-Roman set_font
18.5 374.8 moveto 307 (Pda_0 := Pa_0-1/20Pdp_0-1/20Pdv_0+5/2;) alignedtext
0 0 0 nodecolor
18 /Times-Roman set_font
14 355.8 moveto 316 (Pda_1 := 1/20Pdp_0-1/20Pdp_1+1/20Pdv_0) alignedtext
0 0 0 nodecolor
18 /Times-Roman set_font
107.5 336.8 moveto 129 (         -1/20Pdv_1;) alignedtext
0 0 0 nodecolor
18 /Times-Roman set_font
21.5 317.8 moveto 301 (Pdp_0 := 1/200Pda_0+Pdp_0+1/10Pdv_0;) alignedtext
0 0 0 nodecolor
18 /Times-Roman set_font
21.5 298.8 moveto 301 (Pdp_1 := 1/200Pda_1+Pdp_1+1/10Pdv_1;) alignedtext
0 0 0 nodecolor
18 /Times-Roman set_font
69.5 279.8 moveto 205 (Pdv_0 := 1/10Pda_0+Pdv_0;) alignedtext
0 0 0 nodecolor
18 /Times-Roman set_font
69.5 260.8 moveto 205 (Pdv_1 := 1/10Pda_1+Pdv_1;) alignedtext
0 0 0 nodecolor
18 /Times-Roman set_font
77.5 241.8 moveto 189 (Pv_0 := 1/10Pa_0+Pv_0\)*) alignedtext
0 0 0 nodecolor
18 /Times-Roman set_font
165.5 222.8 moveto 13 (\(\)) alignedtext
grestore
% loc2_start->0
gsave
1 setlinewidth
0 0 0 edgecolor
newpath 172 450.41 moveto
172 442.16 172 433.36 172 424.37 curveto
stroke
0 0 0 edgecolor
newpath 175.5 424.14 moveto
172 414.14 lineto
168.5 424.14 lineto
closepath fill
1 setlinewidth
solid
0 0 0 edgecolor
newpath 175.5 424.14 moveto
172 414.14 lineto
168.5 424.14 lineto
closepath stroke
grestore
% loc1
gsave
1 setlinewidth
0 0 0 nodecolor
newpath 195 796 moveto
149 796 lineto
149 750 lineto
195 750 lineto
closepath stroke
0 0 0 nodecolor
18 /Times-Roman set_font
156.5 775.8 moveto 31 (loc1) alignedtext
0 0 0 nodecolor
18 /Times-Roman set_font
160 756.8 moveto 24 (top) alignedtext
grestore
% 1
gsave
0 0 0 nodecolor
18 /Times-Roman set_font
8 693.8 moveto 328 (Pda_1=0 and Pda_0=0 and -Pdv_1+1>=0 and) alignedtext
0 0 0 nodecolor
18 /Times-Roman set_font
42.5 674.8 moveto 259 (Pdv_1+1>=0 and -Pdv_0+1>=0 and) alignedtext
0 0 0 nodecolor
18 /Times-Roman set_font
48 655.8 moveto 248 (Pdv_0+1>=0 and Pdp_1-50=0 and) alignedtext
0 0 0 nodecolor
18 /Times-Roman set_font
18.5 636.8 moveto 307 (Pdp_0-50=0 and Pv_0-1>=0 and Pa_0=0 ?) alignedtext
0 0 0 nodecolor
18 /Times-Roman set_font
165.5 596.8 moveto 13 (\(\)) alignedtext
grestore
% loc1->1
gsave
1 setlinewidth
0 0 0 edgecolor
newpath 172 749.96 moveto
172 742.4 172 733.57 172 724.35 curveto
stroke
0 0 0 edgecolor
newpath 175.5 724.23 moveto
172 714.23 lineto
168.5 724.23 lineto
closepath fill
1 setlinewidth
solid
0 0 0 edgecolor
newpath 175.5 724.23 moveto
172 714.23 lineto
168.5 724.23 lineto
closepath stroke
grestore
% loc2
gsave
1 setlinewidth
0 0 0 nodecolor
newpath 317 179.5 moveto
27 179.5 lineto
27 .5 lineto
317 .5 lineto
closepath stroke
0 0 0 nodecolor
18 /Times-Roman set_font
156.5 159.3 moveto 31 (loc2) alignedtext
0 0 0 nodecolor
18 /Times-Roman set_font
35 140.3 moveto 274 ([|Pa_0=0; Pda_0 in [-0.2404 , 0.2404];) alignedtext
0 0 0 nodecolor
18 /Times-Roman set_font
67 121.3 moveto 210 (  Pda_1 in [-0.9611 , 0.9611];) alignedtext
0 0 0 nodecolor
18 /Times-Roman set_font
78.5 102.3 moveto 187 (  Pdp_0 in [46.02 , 53.98];) alignedtext
0 0 0 nodecolor
18 /Times-Roman set_font
78.5 83.3 moveto 187 (  Pdp_1 in [33.65 , 66.35];) alignedtext
0 0 0 nodecolor
18 /Times-Roman set_font
75.5 64.3 moveto 193 (  Pdv_0 in [-1.076 , 1.076];) alignedtext
0 0 0 nodecolor
18 /Times-Roman set_font
75.5 45.3 moveto 193 (  Pdv_1 in [-3.607 , 3.607];) alignedtext
0 0 0 nodecolor
18 /Times-Roman set_font
102.5 26.3 moveto 139 (  Pv_0 in [1 , INF]|]) alignedtext
0 0 0 nodecolor
18 /Times-Roman set_font
54.5 7.3 moveto 235 (1679 constraints, 161 generators) alignedtext
grestore
% 0->loc2
gsave
1 setlinewidth
0 0 0 edgecolor
newpath 172 215.98 moveto
172 207.34 172 198.59 172 189.94 curveto
stroke
0 0 0 edgecolor
newpath 175.5 189.84 moveto
172 179.84 lineto
168.5 189.84 lineto
closepath fill
1 setlinewidth
solid
0 0 0 edgecolor
newpath 175.5 189.84 moveto
172 179.84 lineto
168.5 189.84 lineto
closepath stroke
grestore
% 1->loc2_start
gsave
1 setlinewidth
0 0 0 edgecolor
newpath 172 589.69 moveto
172 581.22 172 572.53 172 564.06 curveto
stroke
0 0 0 edgecolor
newpath 175.5 563.88 moveto
172 553.88 lineto
168.5 563.88 lineto
closepath fill
1 setlinewidth
solid
0 0 0 edgecolor
newpath 175.5 563.88 moveto
172 553.88 lineto
168.5 563.88 lineto
closepath stroke
grestore
endpage
showpage
grestore
%%PageTrailer
%%EndPage: 1
setupLatin1
%%Page: 2 2
%%PageBoundingBox: 36 36 388 586
%%PageOrientation: Portrait
0 0 1 beginpage
gsave
36 36 352 550 boxprim clip newpath
1 1 set_scale 0 rotate 40 41 translate
% 1073741823
gsave
1 setlinewidth
0 0 0 nodecolor
87 519 43.84 19.09 ellipse_path stroke
0 0 0 nodecolor
18 /Times-Roman set_font
64 512.3 moveto 46 (Result) alignedtext
grestore
% loc1
gsave
1 setlinewidth
0 0 0 nodecolor
newpath 195 542 moveto
149 542 lineto
149 496 lineto
195 496 lineto
closepath stroke
0 0 0 nodecolor
18 /Times-Roman set_font
156.5 521.8 moveto 31 (loc1) alignedtext
0 0 0 nodecolor
18 /Times-Roman set_font
160 502.8 moveto 24 (top) alignedtext
grestore
% 1
gsave
0 0 0 nodecolor
18 /Times-Roman set_font
8 439.8 moveto 328 (Pda_1=0 and Pda_0=0 and -Pdv_1+1>=0 and) alignedtext
0 0 0 nodecolor
18 /Times-Roman set_font
42.5 420.8 moveto 259 (Pdv_1+1>=0 and -Pdv_0+1>=0 and) alignedtext
0 0 0 nodecolor
18 /Times-Roman set_font
48 401.8 moveto 248 (Pdv_0+1>=0 and Pdp_1-50=0 and) alignedtext
0 0 0 nodecolor
18 /Times-Roman set_font
18.5 382.8 moveto 307 (Pdp_0-50=0 and Pv_0-1>=0 and Pa_0=0 ?) alignedtext
0 0 0 nodecolor
18 /Times-Roman set_font
165.5 342.8 moveto 13 (\(\)) alignedtext
grestore
% loc1->1
gsave
1 setlinewidth
0 0 0 edgecolor
newpath 172 495.96 moveto
172 488.4 172 479.57 172 470.35 curveto
stroke
0 0 0 edgecolor
newpath 175.5 470.23 moveto
172 460.23 lineto
168.5 470.23 lineto
closepath fill
1 setlinewidth
solid
0 0 0 edgecolor
newpath 175.5 470.23 moveto
172 460.23 lineto
168.5 470.23 lineto
closepath stroke
grestore
% loc2
gsave
1 setlinewidth
0 0 0 nodecolor
newpath 308 299.5 moveto
36 299.5 lineto
36 234.5 lineto
308 234.5 lineto
closepath stroke
0 0 0 nodecolor
18 /Times-Roman set_font
156.5 279.3 moveto 31 (loc2) alignedtext
0 0 0 nodecolor
18 /Times-Roman set_font
43.5 260.3 moveto 257 ([|Pa_0=0; ; ; ; ; ; ; Pv_0 in [1 , INF]|]) alignedtext
0 0 0 nodecolor
18 /Times-Roman set_font
77 241.3 moveto 190 (2 constraints, 8 generators) alignedtext
grestore
% 0
gsave
0 0 0 nodecolor
18 /Times-Roman set_font
122 177.8 moveto 100 (Pa_0 := Pa_0;) alignedtext
0 0 0 nodecolor
18 /Times-Roman set_font
18.5 158.8 moveto 307 (Pda_0 := Pa_0-1/20Pdp_0-1/20Pdv_0+5/2;) alignedtext
0 0 0 nodecolor
18 /Times-Roman set_font
14 139.8 moveto 316 (Pda_1 := 1/20Pdp_0-1/20Pdp_1+1/20Pdv_0) alignedtext
0 0 0 nodecolor
18 /Times-Roman set_font
107.5 120.8 moveto 129 (         -1/20Pdv_1;) alignedtext
0 0 0 nodecolor
18 /Times-Roman set_font
21.5 101.8 moveto 301 (Pdp_0 := 1/200Pda_0+Pdp_0+1/10Pdv_0;) alignedtext
0 0 0 nodecolor
18 /Times-Roman set_font
21.5 82.8 moveto 301 (Pdp_1 := 1/200Pda_1+Pdp_1+1/10Pdv_1;) alignedtext
0 0 0 nodecolor
18 /Times-Roman set_font
69.5 63.8 moveto 205 (Pdv_0 := 1/10Pda_0+Pdv_0;) alignedtext
0 0 0 nodecolor
18 /Times-Roman set_font
69.5 44.8 moveto 205 (Pdv_1 := 1/10Pda_1+Pdv_1;) alignedtext
0 0 0 nodecolor
18 /Times-Roman set_font
85 25.8 moveto 174 (Pv_0 := 1/10Pa_0+Pv_0) alignedtext
0 0 0 nodecolor
18 /Times-Roman set_font
165.5 6.8 moveto 13 (\(\)) alignedtext
grestore
% loc2->0
gsave
1 setlinewidth
0 0 0 edgecolor
newpath 166.52 234.21 moveto
166.07 226.36 165.74 217.54 165.53 208.26 curveto
stroke
0 0 0 edgecolor
newpath 169.02 207.98 moveto
165.35 198.05 lineto
162.03 208.11 lineto
closepath fill
1 setlinewidth
solid
0 0 0 edgecolor
newpath 169.02 207.98 moveto
165.35 198.05 lineto
162.03 208.11 lineto
closepath stroke
grestore
% 0->loc2
gsave
1 setlinewidth
0 0 0 edgecolor
newpath 178.65 198.05 moveto
178.54 207.07 178.31 215.86 177.98 223.97 curveto
stroke
0 0 0 edgecolor
newpath 174.47 224.05 moveto
177.48 234.21 lineto
181.46 224.39 lineto
closepath fill
1 setlinewidth
solid
0 0 0 edgecolor
newpath 174.47 224.05 moveto
177.48 234.21 lineto
181.46 224.39 lineto
closepath stroke
grestore
% 1->loc2
gsave
1 setlinewidth
0 0 0 edgecolor
newpath 172 335.95 moveto
172 327.12 172 318.2 172 309.84 curveto
stroke
0 0 0 edgecolor
newpath 175.5 309.6 moveto
172 299.6 lineto
168.5 309.6 lineto
closepath fill
1 setlinewidth
solid
0 0 0 edgecolor
newpath 175.5 309.6 moveto
172 299.6 lineto
168.5 309.6 lineto
closepath stroke
grestore
endpage
showpage
grestore
%%PageTrailer
%%EndPage: 2
setupLatin1
%%Page: 3 3
%%PageBoundingBox: 36 36 388 726
%%PageOrientation: Portrait
0 0 1 beginpage
gsave
36 36 352 690 boxprim clip newpath
1 1 set_scale 0 rotate 40 41 translate
% 1073741823
gsave
1 setlinewidth
0 0 0 nodecolor
87 659 43.84 19.09 ellipse_path stroke
0 0 0 nodecolor
18 /Times-Roman set_font
64 652.3 moveto 46 (Result) alignedtext
grestore
% loc2_start
gsave
1 setlinewidth
0 0 0 nodecolor
newpath 328 439.5 moveto
16 439.5 lineto
16 336.5 lineto
328 336.5 lineto
closepath stroke
0 0 0 nodecolor
18 /Times-Roman set_font
136 419.3 moveto 72 (loc2_start) alignedtext
0 0 0 nodecolor
18 /Times-Roman set_font
23.5 400.3 moveto 297 ([|Pa_0=0; Pda_0=0; Pda_1=0; Pdp_0=50;) alignedtext
0 0 0 nodecolor
18 /Times-Roman set_font
65 381.3 moveto 214 (  Pdp_1=50; Pdv_0 in [-1 , 1];) alignedtext
0 0 0 nodecolor
18 /Times-Roman set_font
39.5 362.3 moveto 265 (  Pdv_1 in [-1 , 1]; Pv_0 in [1 , INF]|]) alignedtext
0 0 0 nodecolor
18 /Times-Roman set_font
72.5 343.3 moveto 199 (10 constraints, 5 generators) alignedtext
grestore
% 0
gsave
0 0 0 nodecolor
18 /Times-Roman set_font
122 279.8 moveto 100 (Pa_0 := Pa_0;) alignedtext
0 0 0 nodecolor
18 /Times-Roman set_font
18.5 260.8 moveto 307 (Pda_0 := Pa_0-1/20Pdp_0-1/20Pdv_0+5/2;) alignedtext
0 0 0 nodecolor
18 /Times-Roman set_font
14 241.8 moveto 316 (Pda_1 := 1/20Pdp_0-1/20Pdp_1+1/20Pdv_0) alignedtext
0 0 0 nodecolor
18 /Times-Roman set_font
107.5 222.8 moveto 129 (         -1/20Pdv_1;) alignedtext
0 0 0 nodecolor
18 /Times-Roman set_font
21.5 203.8 moveto 301 (Pdp_0 := 1/200Pda_0+Pdp_0+1/10Pdv_0;) alignedtext
0 0 0 nodecolor
18 /Times-Roman set_font
21.5 184.8 moveto 301 (Pdp_1 := 1/200Pda_1+Pdp_1+1/10Pdv_1;) alignedtext
0 0 0 nodecolor
18 /Times-Roman set_font
69.5 165.8 moveto 205 (Pdv_0 := 1/10Pda_0+Pdv_0;) alignedtext
0 0 0 nodecolor
18 /Times-Roman set_font
69.5 146.8 moveto 205 (Pdv_1 := 1/10Pda_1+Pdv_1;) alignedtext
0 0 0 nodecolor
18 /Times-Roman set_font
77.5 127.8 moveto 189 (Pv_0 := 1/10Pa_0+Pv_0\)*) alignedtext
0 0 0 nodecolor
18 /Times-Roman set_font
165.5 108.8 moveto 13 (\(\)) alignedtext
grestore
% loc2_start->0
gsave
1 setlinewidth
0 0 0 edgecolor
newpath 172 336.41 moveto
172 328.16 172 319.36 172 310.37 curveto
stroke
0 0 0 edgecolor
newpath 175.5 310.14 moveto
172 300.14 lineto
168.5 310.14 lineto
closepath fill
1 setlinewidth
solid
0 0 0 edgecolor
newpath 175.5 310.14 moveto
172 300.14 lineto
168.5 310.14 lineto
closepath stroke
grestore
% loc1
gsave
1 setlinewidth
0 0 0 nodecolor
newpath 195 682 moveto
149 682 lineto
149 636 lineto
195 636 lineto
closepath stroke
0 0 0 nodecolor
18 /Times-Roman set_font
156.5 661.8 moveto 31 (loc1) alignedtext
0 0 0 nodecolor
18 /Times-Roman set_font
160 642.8 moveto 24 (top) alignedtext
grestore
% 1
gsave
0 0 0 nodecolor
18 /Times-Roman set_font
8 579.8 moveto 328 (Pda_1=0 and Pda_0=0 and -Pdv_1+1>=0 and) alignedtext
0 0 0 nodecolor
18 /Times-Roman set_font
42.5 560.8 moveto 259 (Pdv_1+1>=0 and -Pdv_0+1>=0 and) alignedtext
0 0 0 nodecolor
18 /Times-Roman set_font
48 541.8 moveto 248 (Pdv_0+1>=0 and Pdp_1-50=0 and) alignedtext
0 0 0 nodecolor
18 /Times-Roman set_font
18.5 522.8 moveto 307 (Pdp_0-50=0 and Pv_0-1>=0 and Pa_0=0 ?) alignedtext
0 0 0 nodecolor
18 /Times-Roman set_font
165.5 482.8 moveto 13 (\(\)) alignedtext
grestore
% loc1->1
gsave
1 setlinewidth
0 0 0 edgecolor
newpath 172 635.96 moveto
172 628.4 172 619.57 172 610.35 curveto
stroke
0 0 0 edgecolor
newpath 175.5 610.23 moveto
172 600.23 lineto
168.5 610.23 lineto
closepath fill
1 setlinewidth
solid
0 0 0 edgecolor
newpath 175.5 610.23 moveto
172 600.23 lineto
168.5 610.23 lineto
closepath stroke
grestore
% loc2
gsave
1 setlinewidth
0 0 0 nodecolor
newpath 275 65.5 moveto
69 65.5 lineto
69 .5 lineto
275 .5 lineto
closepath stroke
0 0 0 nodecolor
18 /Times-Roman set_font
156.5 45.3 moveto 31 (loc2) alignedtext
0 0 0 nodecolor
18 /Times-Roman set_font
104 26.3 moveto 136 ([|Pa_0=0; ; ; ; ; ; ; |]) alignedtext
0 0 0 nodecolor
18 /Times-Roman set_font
77 7.3 moveto 190 (1 constraints, 8 generators) alignedtext
grestore
% 0->loc2
gsave
1 setlinewidth
0 0 0 edgecolor
newpath 172 101.82 moveto
172 92.83 172 84.08 172 76 curveto
stroke
0 0 0 edgecolor
newpath 175.5 75.8 moveto
172 65.8 lineto
168.5 75.8 lineto
closepath fill
1 setlinewidth
solid
0 0 0 edgecolor
newpath 175.5 75.8 moveto
172 65.8 lineto
168.5 75.8 lineto
closepath stroke
grestore
% 1->loc2_start
gsave
1 setlinewidth
0 0 0 edgecolor
newpath 172 475.69 moveto
172 467.22 172 458.53 172 450.06 curveto
stroke
0 0 0 edgecolor
newpath 175.5 449.88 moveto
172 439.88 lineto
168.5 449.88 lineto
closepath fill
1 setlinewidth
solid
0 0 0 edgecolor
newpath 175.5 449.88 moveto
172 439.88 lineto
168.5 449.88 lineto
closepath stroke
grestore
endpage
showpage
grestore
%%PageTrailer
%%EndPage: 3
%%Trailer
%%Pages: 3
%%BoundingBox: 36 36 388 840
end
restore
%%EOF
