%!PS-Adobe-3.0
%%Creator: graphviz version 2.26.3 (20100126.1600)
%%Title: G
%%Pages: (atend)
%%BoundingBox: (atend)
%%EndComments
save
%%BeginProlog
/DotDict 200 dict def
DotDict begin

/setupLatin1 {
mark
/EncodingVector 256 array def
 EncodingVector 0

ISOLatin1Encoding 0 255 getinterval putinterval
EncodingVector 45 /hyphen put

% Set up ISO Latin 1 character encoding
/starnetISO {
        dup dup findfont dup length dict begin
        { 1 index /FID ne { def }{ pop pop } ifelse
        } forall
        /Encoding EncodingVector def
        currentdict end definefont
} def
/Times-Roman starnetISO def
/Times-Italic starnetISO def
/Times-Bold starnetISO def
/Times-BoldItalic starnetISO def
/Helvetica starnetISO def
/Helvetica-Oblique starnetISO def
/Helvetica-Bold starnetISO def
/Helvetica-BoldOblique starnetISO def
/Courier starnetISO def
/Courier-Oblique starnetISO def
/Courier-Bold starnetISO def
/Courier-BoldOblique starnetISO def
cleartomark
} bind def

%%BeginResource: procset graphviz 0 0
/coord-font-family /Times-Roman def
/default-font-family /Times-Roman def
/coordfont coord-font-family findfont 8 scalefont def

/InvScaleFactor 1.0 def
/set_scale {
       dup 1 exch div /InvScaleFactor exch def
       scale
} bind def

% styles
/solid { [] 0 setdash } bind def
/dashed { [9 InvScaleFactor mul dup ] 0 setdash } bind def
/dotted { [1 InvScaleFactor mul 6 InvScaleFactor mul] 0 setdash } bind def
/invis {/fill {newpath} def /stroke {newpath} def /show {pop newpath} def} bind def
/bold { 2 setlinewidth } bind def
/filled { } bind def
/unfilled { } bind def
/rounded { } bind def
/diagonals { } bind def

% hooks for setting color 
/nodecolor { sethsbcolor } bind def
/edgecolor { sethsbcolor } bind def
/graphcolor { sethsbcolor } bind def
/nopcolor {pop pop pop} bind def

/beginpage {	% i j npages
	/npages exch def
	/j exch def
	/i exch def
	/str 10 string def
	npages 1 gt {
		gsave
			coordfont setfont
			0 0 moveto
			(\() show i str cvs show (,) show j str cvs show (\)) show
		grestore
	} if
} bind def

/set_font {
	findfont exch
	scalefont setfont
} def

% draw text fitted to its expected width
/alignedtext {			% width text
	/text exch def
	/width exch def
	gsave
		width 0 gt {
			[] 0 setdash
			text stringwidth pop width exch sub text length div 0 text ashow
		} if
	grestore
} def

/boxprim {				% xcorner ycorner xsize ysize
		4 2 roll
		moveto
		2 copy
		exch 0 rlineto
		0 exch rlineto
		pop neg 0 rlineto
		closepath
} bind def

/ellipse_path {
	/ry exch def
	/rx exch def
	/y exch def
	/x exch def
	matrix currentmatrix
	newpath
	x y translate
	rx ry scale
	0 0 1 0 360 arc
	setmatrix
} bind def

/endpage { showpage } bind def
/showpage { } def

/layercolorseq
	[	% layer color sequence - darkest to lightest
		[0 0 0]
		[.2 .8 .8]
		[.4 .8 .8]
		[.6 .8 .8]
		[.8 .8 .8]
	]
def

/layerlen layercolorseq length def

/setlayer {/maxlayer exch def /curlayer exch def
	layercolorseq curlayer 1 sub layerlen mod get
	aload pop sethsbcolor
	/nodecolor {nopcolor} def
	/edgecolor {nopcolor} def
	/graphcolor {nopcolor} def
} bind def

/onlayer { curlayer ne {invis} if } def

/onlayers {
	/myupper exch def
	/mylower exch def
	curlayer mylower lt
	curlayer myupper gt
	or
	{invis} if
} def

/curlayer 0 def

%%EndResource
%%EndProlog
%%BeginSetup
14 default-font-family set_font
1 setmiterlimit
% /arrowlength 10 def
% /arrowwidth 5 def

% make sure pdfmark is harmless for PS-interpreters other than Distiller
/pdfmark where {pop} {userdict /pdfmark /cleartomark load put} ifelse
% make '<<' and '>>' safe on PS Level 1 devices
/languagelevel where {pop languagelevel}{1} ifelse
2 lt {
    userdict (<<) cvn ([) cvn load put
    userdict (>>) cvn ([) cvn load put
} if

%%EndSetup
setupLatin1
%%Page: 1 1
%%PageBoundingBox: 36 36 1596 794
%%PageOrientation: Portrait
0 0 1 beginpage
gsave
36 36 1560 758 boxprim clip newpath
1 1 set_scale 0 rotate 40 41 translate
% 1073741823
gsave
1 setlinewidth
0 0 0 nodecolor
692 727 43.84 19.09 ellipse_path stroke
0 0 0 nodecolor
18 /Times-Roman set_font
669 720.3 moveto 46 (Result) alignedtext
grestore
% paraxye
gsave
1 setlinewidth
0 0 0 nodecolor
newpath 583 112.5 moveto
341 112.5 lineto
341 9.5 lineto
583 9.5 lineto
closepath stroke
0 0 0 nodecolor
18 /Times-Roman set_font
433 92.3 moveto 58 (paraxye) alignedtext
0 0 0 nodecolor
18 /Times-Roman set_font
395.5 73.3 moveto 133 ([|t in [0.4983 , 10];) alignedtext
0 0 0 nodecolor
18 /Times-Roman set_font
349 54.3 moveto 226 (  x in [-1.091 , 30]; y in [1 , 39];) alignedtext
0 0 0 nodecolor
18 /Times-Roman set_font
393 35.3 moveto 138 (  z in [-1.491 , 12]|]) alignedtext
0 0 0 nodecolor
18 /Times-Roman set_font
358 16.3 moveto 208 (28 constraints, 49 generators) alignedtext
grestore
% parax
gsave
1 setlinewidth
0 0 0 nodecolor
newpath 895 326 moveto
657 326 lineto
657 242 lineto
895 242 lineto
closepath stroke
0 0 0 nodecolor
18 /Times-Roman set_font
755.5 305.8 moveto 41 (parax) alignedtext
0 0 0 nodecolor
18 /Times-Roman set_font
664.5 286.8 moveto 223 ([|t in [0 , 11]; x in [-46 , 78.96];) alignedtext
0 0 0 nodecolor
18 /Times-Roman set_font
667 267.8 moveto 218 (  y in [-5 , 55.2]; z in [-2 , 13]|]) alignedtext
0 0 0 nodecolor
18 /Times-Roman set_font
672 248.8 moveto 208 (50 constraints, 38 generators) alignedtext
grestore
% 4
gsave
0 0 0 nodecolor
18 /Times-Roman set_font
736.5 184.8 moveto 79 (x-31>=0 ? ) alignedtext
0 0 0 nodecolor
18 /Times-Roman set_font
769.5 165.8 moveto 13 (\(\)) alignedtext
grestore
% parax->4
gsave
1 setlinewidth
0 0 0 edgecolor
newpath 776 241.92 moveto
776 233.05 776 223.8 776 215.3 curveto
stroke
0 0 0 edgecolor
newpath 779.5 215.02 moveto
776 205.02 lineto
772.5 215.02 lineto
closepath fill
1 setlinewidth
solid
0 0 0 edgecolor
newpath 779.5 215.02 moveto
776 205.02 lineto
772.5 215.02 lineto
closepath stroke
grestore
% paray
gsave
1 setlinewidth
0 0 0 nodecolor
newpath 1222 326 moveto
958 326 lineto
958 242 lineto
1222 242 lineto
closepath stroke
0 0 0 nodecolor
18 /Times-Roman set_font
1069.5 305.8 moveto 41 (paray) alignedtext
0 0 0 nodecolor
18 /Times-Roman set_font
983 286.8 moveto 214 ([|t in [0 , 8]; x in [-34 , 51.86];) alignedtext
0 0 0 nodecolor
18 /Times-Roman set_font
965.5 267.8 moveto 249 (  y in [-5 , 14.43]; z in [-2 , 8.429]|]) alignedtext
0 0 0 nodecolor
18 /Times-Roman set_font
986 248.8 moveto 208 (68 constraints, 57 generators) alignedtext
grestore
% 6
gsave
0 0 0 nodecolor
18 /Times-Roman set_font
1055 184.8 moveto 70 (y-8>=0 ? ) alignedtext
0 0 0 nodecolor
18 /Times-Roman set_font
1083.5 165.8 moveto 13 (\(\)) alignedtext
grestore
% paray->6
gsave
1 setlinewidth
0 0 0 edgecolor
newpath 1090 241.92 moveto
1090 233.05 1090 223.8 1090 215.3 curveto
stroke
0 0 0 edgecolor
newpath 1093.5 215.02 moveto
1090 205.02 lineto
1086.5 215.02 lineto
closepath fill
1 setlinewidth
solid
0 0 0 edgecolor
newpath 1093.5 215.02 moveto
1090 205.02 lineto
1086.5 215.02 lineto
closepath stroke
grestore
% paraxyy_start
gsave
1 setlinewidth
0 0 0 nodecolor
newpath 264 548 moveto
32 548 lineto
32 464 lineto
264 464 lineto
closepath stroke
0 0 0 nodecolor
18 /Times-Roman set_font
98 527.8 moveto 100 (paraxyy_start) alignedtext
0 0 0 nodecolor
18 /Times-Roman set_font
39.5 508.8 moveto 217 ([|t=0; x in [-2 , 2]; y in [-2 , 2];) alignedtext
0 0 0 nodecolor
18 /Times-Roman set_font
99 489.8 moveto 98 (  z in [-2 , 2]|]) alignedtext
0 0 0 nodecolor
18 /Times-Roman set_font
53 470.8 moveto 190 (7 constraints, 8 generators) alignedtext
grestore
% 1
gsave
0 0 0 nodecolor
18 /Times-Roman set_font
89.5 407.3 moveto 117 (\(-x+2y+30>=0 ?) alignedtext
0 0 0 nodecolor
18 /Times-Roman set_font
13 388.3 moveto 270 (t := t+1; x := x+y; y := y+z; z := z+1\)*) alignedtext
0 0 0 nodecolor
18 /Times-Roman set_font
141.5 369.3 moveto 13 (\(\)) alignedtext
grestore
% paraxyy_start->1
gsave
1 setlinewidth
0 0 0 edgecolor
newpath 148 463.72 moveto
148 455.27 148 446.38 148 437.91 curveto
stroke
0 0 0 edgecolor
newpath 151.5 437.84 moveto
148 427.84 lineto
144.5 437.84 lineto
closepath fill
1 setlinewidth
solid
0 0 0 edgecolor
newpath 151.5 437.84 moveto
148 427.84 lineto
144.5 437.84 lineto
closepath stroke
grestore
% linit
gsave
1 setlinewidth
0 0 0 nodecolor
newpath 798 750 moveto
754 750 lineto
754 704 lineto
798 704 lineto
closepath stroke
0 0 0 nodecolor
18 /Times-Roman set_font
762 729.8 moveto 28 (linit) alignedtext
0 0 0 nodecolor
18 /Times-Roman set_font
764 710.8 moveto 24 (top) alignedtext
grestore
% 10
gsave
0 0 0 nodecolor
18 /Times-Roman set_font
7.5 647.8 moveto 281 (-z+2>=0 and z+2>=0 and -y+2>=0 and) alignedtext
0 0 0 nodecolor
18 /Times-Roman set_font
19 628.8 moveto 258 (y+2>=0 and -x+2>=0 and x+2>=0 ?) alignedtext
0 0 0 nodecolor
18 /Times-Roman set_font
129 609.8 moveto 38 (t := 0) alignedtext
0 0 0 nodecolor
18 /Times-Roman set_font
141.5 590.8 moveto 13 (\(\)) alignedtext
grestore
% linit->10
gsave
1 setlinewidth
0 0 0 edgecolor
newpath 753.82 708.37 moveto
750.98 706.65 748.01 705.13 745 704 curveto
564.42 636.03 500.46 699.31 306.13 668.06 curveto
stroke
0 0 0 edgecolor
newpath 306.62 664.6 moveto
296.18 666.4 lineto
305.46 671.5 lineto
closepath fill
1 setlinewidth
solid
0 0 0 edgecolor
newpath 306.62 664.6 moveto
296.18 666.4 lineto
305.46 671.5 lineto
closepath stroke
grestore
% 11
gsave
0 0 0 nodecolor
18 /Times-Roman set_font
321.5 647.8 moveto 281 (-z+2>=0 and z+2>=0 and -y+2>=0 and) alignedtext
0 0 0 nodecolor
18 /Times-Roman set_font
333 628.8 moveto 258 (y+2>=0 and -x+2>=0 and x+2>=0 ?) alignedtext
0 0 0 nodecolor
18 /Times-Roman set_font
443 609.8 moveto 38 (t := 0) alignedtext
0 0 0 nodecolor
18 /Times-Roman set_font
455.5 590.8 moveto 13 (\(\)) alignedtext
grestore
% linit->11
gsave
1 setlinewidth
0 0 0 edgecolor
newpath 753.94 709.14 moveto
751.03 707.24 748.01 705.47 745 704 curveto
738.45 700.81 681.26 684.9 619.98 668.27 curveto
stroke
0 0 0 edgecolor
newpath 620.69 664.83 moveto
610.12 665.6 lineto
618.86 671.59 lineto
closepath fill
1 setlinewidth
solid
0 0 0 edgecolor
newpath 620.69 664.83 moveto
610.12 665.6 lineto
618.86 671.59 lineto
closepath stroke
grestore
% 12
gsave
0 0 0 nodecolor
18 /Times-Roman set_font
635.5 647.8 moveto 281 (-z+2>=0 and z+2>=0 and -y+2>=0 and) alignedtext
0 0 0 nodecolor
18 /Times-Roman set_font
647 628.8 moveto 258 (y+2>=0 and -x+2>=0 and x+2>=0 ?) alignedtext
0 0 0 nodecolor
18 /Times-Roman set_font
757 609.8 moveto 38 (t := 0) alignedtext
0 0 0 nodecolor
18 /Times-Roman set_font
769.5 590.8 moveto 13 (\(\)) alignedtext
grestore
% linit->12
gsave
1 setlinewidth
0 0 0 edgecolor
newpath 776 703.83 moveto
776 696.13 776 687.21 776 678.22 curveto
stroke
0 0 0 edgecolor
newpath 779.5 678.11 moveto
776 668.11 lineto
772.5 678.11 lineto
closepath fill
1 setlinewidth
solid
0 0 0 edgecolor
newpath 779.5 678.11 moveto
776 668.11 lineto
772.5 678.11 lineto
closepath stroke
grestore
% 13
gsave
0 0 0 nodecolor
18 /Times-Roman set_font
949.5 647.8 moveto 281 (-z+2>=0 and z+2>=0 and -y+2>=0 and) alignedtext
0 0 0 nodecolor
18 /Times-Roman set_font
961 628.8 moveto 258 (y+2>=0 and -x+2>=0 and x+2>=0 ?) alignedtext
0 0 0 nodecolor
18 /Times-Roman set_font
1071 609.8 moveto 38 (t := 0) alignedtext
0 0 0 nodecolor
18 /Times-Roman set_font
1083.5 590.8 moveto 13 (\(\)) alignedtext
grestore
% linit->13
gsave
1 setlinewidth
0 0 0 edgecolor
newpath 798.08 719.9 moveto
829.88 709.67 891.18 689.95 949.43 671.22 curveto
stroke
0 0 0 edgecolor
newpath 950.67 674.49 moveto
959.12 668.1 lineto
948.53 667.83 lineto
closepath fill
1 setlinewidth
solid
0 0 0 edgecolor
newpath 950.67 674.49 moveto
959.12 668.1 lineto
948.53 667.83 lineto
closepath stroke
grestore
% 14
gsave
0 0 0 nodecolor
18 /Times-Roman set_font
1263.5 647.8 moveto 281 (-z+2>=0 and z+2>=0 and -y+2>=0 and) alignedtext
0 0 0 nodecolor
18 /Times-Roman set_font
1275 628.8 moveto 258 (y+2>=0 and -x+2>=0 and x+2>=0 ?) alignedtext
0 0 0 nodecolor
18 /Times-Roman set_font
1385 609.8 moveto 38 (t := 0) alignedtext
0 0 0 nodecolor
18 /Times-Roman set_font
1397.5 590.8 moveto 13 (\(\)) alignedtext
grestore
% linit->14
gsave
1 setlinewidth
0 0 0 edgecolor
newpath 798.24 725.3 moveto
864.79 719.99 1068.2 702.11 1245.75 668.17 curveto
stroke
0 0 0 edgecolor
newpath 1246.64 671.56 moveto
1255.79 666.23 lineto
1245.31 664.69 lineto
closepath fill
1 setlinewidth
solid
0 0 0 edgecolor
newpath 1246.64 671.56 moveto
1255.79 666.23 lineto
1245.31 664.69 lineto
closepath stroke
grestore
% paray_start
gsave
1 setlinewidth
0 0 0 nodecolor
newpath 1206 548 moveto
974 548 lineto
974 464 lineto
1206 464 lineto
closepath stroke
0 0 0 nodecolor
18 /Times-Roman set_font
1049 527.8 moveto 82 (paray_start) alignedtext
0 0 0 nodecolor
18 /Times-Roman set_font
981.5 508.8 moveto 217 ([|t=0; x in [-2 , 2]; y in [-2 , 2];) alignedtext
0 0 0 nodecolor
18 /Times-Roman set_font
1041 489.8 moveto 98 (  z in [-2 , 2]|]) alignedtext
0 0 0 nodecolor
18 /Times-Roman set_font
995 470.8 moveto 190 (7 constraints, 8 generators) alignedtext
grestore
% 7
gsave
0 0 0 nodecolor
18 /Times-Roman set_font
1049.5 407.3 moveto 81 (\(-y+7>=0 ?) alignedtext
0 0 0 nodecolor
18 /Times-Roman set_font
955 388.3 moveto 270 (t := t+1; x := x+y; y := y+z; z := z+1\)*) alignedtext
0 0 0 nodecolor
18 /Times-Roman set_font
1083.5 369.3 moveto 13 (\(\)) alignedtext
grestore
% paray_start->7
gsave
1 setlinewidth
0 0 0 edgecolor
newpath 1090 463.72 moveto
1090 455.27 1090 446.38 1090 437.91 curveto
stroke
0 0 0 edgecolor
newpath 1093.5 437.84 moveto
1090 427.84 lineto
1086.5 437.84 lineto
closepath fill
1 setlinewidth
solid
0 0 0 edgecolor
newpath 1093.5 437.84 moveto
1090 427.84 lineto
1086.5 437.84 lineto
closepath stroke
grestore
% paraye
gsave
1 setlinewidth
0 0 0 nodecolor
newpath 1222 112.5 moveto
958 112.5 lineto
958 9.5 lineto
1222 9.5 lineto
closepath stroke
0 0 0 nodecolor
18 /Times-Roman set_font
1065.5 92.3 moveto 49 (paraye) alignedtext
0 0 0 nodecolor
18 /Times-Roman set_font
1028 73.3 moveto 124 ([|t in [0.8571 , 8];) alignedtext
0 0 0 nodecolor
18 /Times-Roman set_font
966 54.3 moveto 248 (  x in [-34 , 51.86]; y in [8 , 14.43];) alignedtext
0 0 0 nodecolor
18 /Times-Roman set_font
1028.5 35.3 moveto 123 (  z in [2 , 8.429]|]) alignedtext
0 0 0 nodecolor
18 /Times-Roman set_font
986 16.3 moveto 208 (46 constraints, 64 generators) alignedtext
grestore
% para
gsave
1 setlinewidth
0 0 0 nodecolor
newpath 1522 326 moveto
1286 326 lineto
1286 242 lineto
1522 242 lineto
closepath stroke
0 0 0 nodecolor
18 /Times-Roman set_font
1388 305.8 moveto 32 (para) alignedtext
0 0 0 nodecolor
18 /Times-Roman set_font
1294 286.8 moveto 220 ([|t in [0 , INF]; ; y in [-5 , INF];) alignedtext
0 0 0 nodecolor
18 /Times-Roman set_font
1345.5 267.8 moveto 117 (  z in [-2 , INF]|]) alignedtext
0 0 0 nodecolor
18 /Times-Roman set_font
1304.5 248.8 moveto 199 (11 constraints, 9 generators) alignedtext
grestore
% 8
gsave
0 0 0 nodecolor
18 /Times-Roman set_font
1397.5 164.8 moveto 13 (\(\)) alignedtext
grestore
% para->8
gsave
1 setlinewidth
0 0 0 edgecolor
newpath 1404 241.92 moveto
1404 233.36 1404 224.45 1404 216.19 curveto
stroke
0 0 0 edgecolor
newpath 1407.5 216.17 moveto
1404 206.17 lineto
1400.5 216.17 lineto
closepath fill
1 setlinewidth
solid
0 0 0 edgecolor
newpath 1407.5 216.17 moveto
1404 206.17 lineto
1400.5 216.17 lineto
closepath stroke
grestore
% paraxy
gsave
1 setlinewidth
0 0 0 nodecolor
newpath 574 326 moveto
350 326 lineto
350 242 lineto
574 242 lineto
closepath stroke
0 0 0 nodecolor
18 /Times-Roman set_font
437 305.8 moveto 50 (paraxy) alignedtext
0 0 0 nodecolor
18 /Times-Roman set_font
361.5 286.8 moveto 201 ([|t in [0 , 10]; x in [-42 , 30];) alignedtext
0 0 0 nodecolor
18 /Times-Roman set_font
359.5 267.8 moveto 205 (  y in [-5 , 39]; z in [-2 , 12]|]) alignedtext
0 0 0 nodecolor
18 /Times-Roman set_font
358 248.8 moveto 208 (52 constraints, 43 generators) alignedtext
grestore
% 2
gsave
0 0 0 nodecolor
18 /Times-Roman set_font
413.5 184.8 moveto 97 (x+y-31>=0 ? ) alignedtext
0 0 0 nodecolor
18 /Times-Roman set_font
455.5 165.8 moveto 13 (\(\)) alignedtext
grestore
% paraxy->2
gsave
1 setlinewidth
0 0 0 edgecolor
newpath 462 241.92 moveto
462 233.05 462 223.8 462 215.3 curveto
stroke
0 0 0 edgecolor
newpath 465.5 215.02 moveto
462 205.02 lineto
458.5 215.02 lineto
closepath fill
1 setlinewidth
solid
0 0 0 edgecolor
newpath 465.5 215.02 moveto
462 205.02 lineto
458.5 215.02 lineto
closepath stroke
grestore
% parae
gsave
1 setlinewidth
0 0 0 nodecolor
newpath 1522 103 moveto
1286 103 lineto
1286 19 lineto
1522 19 lineto
closepath stroke
0 0 0 nodecolor
18 /Times-Roman set_font
1384 82.8 moveto 40 (parae) alignedtext
0 0 0 nodecolor
18 /Times-Roman set_font
1294 63.8 moveto 220 ([|t in [0 , INF]; ; y in [-5 , INF];) alignedtext
0 0 0 nodecolor
18 /Times-Roman set_font
1345.5 44.8 moveto 117 (  z in [-2 , INF]|]) alignedtext
0 0 0 nodecolor
18 /Times-Roman set_font
1304.5 25.8 moveto 199 (11 constraints, 9 generators) alignedtext
grestore
% parax_start
gsave
1 setlinewidth
0 0 0 nodecolor
newpath 892 548 moveto
660 548 lineto
660 464 lineto
892 464 lineto
closepath stroke
0 0 0 nodecolor
18 /Times-Roman set_font
735 527.8 moveto 82 (parax_start) alignedtext
0 0 0 nodecolor
18 /Times-Roman set_font
667.5 508.8 moveto 217 ([|t=0; x in [-2 , 2]; y in [-2 , 2];) alignedtext
0 0 0 nodecolor
18 /Times-Roman set_font
727 489.8 moveto 98 (  z in [-2 , 2]|]) alignedtext
0 0 0 nodecolor
18 /Times-Roman set_font
681 470.8 moveto 190 (7 constraints, 8 generators) alignedtext
grestore
% 5
gsave
0 0 0 nodecolor
18 /Times-Roman set_font
731 407.3 moveto 90 (\(-x+30>=0 ?) alignedtext
0 0 0 nodecolor
18 /Times-Roman set_font
641 388.3 moveto 270 (t := t+1; x := x+y; y := y+z; z := z+1\)*) alignedtext
0 0 0 nodecolor
18 /Times-Roman set_font
769.5 369.3 moveto 13 (\(\)) alignedtext
grestore
% parax_start->5
gsave
1 setlinewidth
0 0 0 edgecolor
newpath 776 463.72 moveto
776 455.27 776 446.38 776 437.91 curveto
stroke
0 0 0 edgecolor
newpath 779.5 437.84 moveto
776 427.84 lineto
772.5 437.84 lineto
closepath fill
1 setlinewidth
solid
0 0 0 edgecolor
newpath 779.5 437.84 moveto
776 427.84 lineto
772.5 437.84 lineto
closepath stroke
grestore
% paraxy_start
gsave
1 setlinewidth
0 0 0 nodecolor
newpath 578 548 moveto
346 548 lineto
346 464 lineto
578 464 lineto
closepath stroke
0 0 0 nodecolor
18 /Times-Roman set_font
416.5 527.8 moveto 91 (paraxy_start) alignedtext
0 0 0 nodecolor
18 /Times-Roman set_font
353.5 508.8 moveto 217 ([|t=0; x in [-2 , 2]; y in [-2 , 2];) alignedtext
0 0 0 nodecolor
18 /Times-Roman set_font
413 489.8 moveto 98 (  z in [-2 , 2]|]) alignedtext
0 0 0 nodecolor
18 /Times-Roman set_font
367 470.8 moveto 190 (7 constraints, 8 generators) alignedtext
grestore
% 3
gsave
0 0 0 nodecolor
18 /Times-Roman set_font
409.5 407.3 moveto 105 (\(-x-y+30>=0 ?) alignedtext
0 0 0 nodecolor
18 /Times-Roman set_font
327 388.3 moveto 270 (t := t+1; x := x+y; y := y+z; z := z+1\)*) alignedtext
0 0 0 nodecolor
18 /Times-Roman set_font
455.5 369.3 moveto 13 (\(\)) alignedtext
grestore
% paraxy_start->3
gsave
1 setlinewidth
0 0 0 edgecolor
newpath 462 463.72 moveto
462 455.27 462 446.38 462 437.91 curveto
stroke
0 0 0 edgecolor
newpath 465.5 437.84 moveto
462 427.84 lineto
458.5 437.84 lineto
closepath fill
1 setlinewidth
solid
0 0 0 edgecolor
newpath 465.5 437.84 moveto
462 427.84 lineto
458.5 437.84 lineto
closepath stroke
grestore
% paraxyye
gsave
1 setlinewidth
0 0 0 nodecolor
newpath 260 122 moveto
36 122 lineto
36 0 lineto
260 0 lineto
closepath stroke
0 0 0 nodecolor
18 /Times-Roman set_font
114.5 101.8 moveto 67 (paraxyye) alignedtext
0 0 0 nodecolor
18 /Times-Roman set_font
81.5 82.8 moveto 133 ([|t in [0.1678 , 18];) alignedtext
0 0 0 nodecolor
18 /Times-Roman set_font
77.5 63.8 moveto 141 (  x in [22.5 , 532.6];) alignedtext
0 0 0 nodecolor
18 /Times-Roman set_font
74.5 44.8 moveto 147 (  y in [-4.25 , 186.3];) alignedtext
0 0 0 nodecolor
18 /Times-Roman set_font
79 25.8 moveto 138 (  z in [-1.832 , 20]|]) alignedtext
0 0 0 nodecolor
18 /Times-Roman set_font
44 6.8 moveto 208 (25 constraints, 42 generators) alignedtext
grestore
% paraxyy
gsave
1 setlinewidth
0 0 0 nodecolor
newpath 269 326 moveto
27 326 lineto
27 242 lineto
269 242 lineto
closepath stroke
0 0 0 nodecolor
18 /Times-Roman set_font
118.5 305.8 moveto 59 (paraxyy) alignedtext
0 0 0 nodecolor
18 /Times-Roman set_font
36.5 286.8 moveto 223 ([|t in [0 , 18]; x in [-74 , 532.6];) alignedtext
0 0 0 nodecolor
18 /Times-Roman set_font
34.5 267.8 moveto 227 (  y in [-5 , 186.3]; z in [-2 , 20]|]) alignedtext
0 0 0 nodecolor
18 /Times-Roman set_font
44 248.8 moveto 208 (50 constraints, 38 generators) alignedtext
grestore
% 0
gsave
0 0 0 nodecolor
18 /Times-Roman set_font
96.5 184.8 moveto 103 (x-2y-31>=0 ? ) alignedtext
0 0 0 nodecolor
18 /Times-Roman set_font
141.5 165.8 moveto 13 (\(\)) alignedtext
grestore
% paraxyy->0
gsave
1 setlinewidth
0 0 0 edgecolor
newpath 148 241.92 moveto
148 233.05 148 223.8 148 215.3 curveto
stroke
0 0 0 edgecolor
newpath 151.5 215.02 moveto
148 205.02 lineto
144.5 215.02 lineto
closepath fill
1 setlinewidth
solid
0 0 0 edgecolor
newpath 151.5 215.02 moveto
148 205.02 lineto
144.5 215.02 lineto
closepath stroke
grestore
% paraxe
gsave
1 setlinewidth
0 0 0 nodecolor
newpath 903 112.5 moveto
649 112.5 lineto
649 9.5 lineto
903 9.5 lineto
closepath stroke
0 0 0 nodecolor
18 /Times-Roman set_font
751.5 92.3 moveto 49 (paraxe) alignedtext
0 0 0 nodecolor
18 /Times-Roman set_font
709.5 73.3 moveto 133 ([|t in [0.4462 , 11];) alignedtext
0 0 0 nodecolor
18 /Times-Roman set_font
656.5 54.3 moveto 239 (  x in [31 , 78.96]; y in [-1 , 55.2];) alignedtext
0 0 0 nodecolor
18 /Times-Roman set_font
707 35.3 moveto 138 (  z in [-1.554 , 13]|]) alignedtext
0 0 0 nodecolor
18 /Times-Roman set_font
672 16.3 moveto 208 (24 constraints, 40 generators) alignedtext
grestore
% para_start
gsave
1 setlinewidth
0 0 0 nodecolor
newpath 1520 548 moveto
1288 548 lineto
1288 464 lineto
1520 464 lineto
closepath stroke
0 0 0 nodecolor
18 /Times-Roman set_font
1367.5 527.8 moveto 73 (para_start) alignedtext
0 0 0 nodecolor
18 /Times-Roman set_font
1295.5 508.8 moveto 217 ([|t=0; x in [-2 , 2]; y in [-2 , 2];) alignedtext
0 0 0 nodecolor
18 /Times-Roman set_font
1355 489.8 moveto 98 (  z in [-2 , 2]|]) alignedtext
0 0 0 nodecolor
18 /Times-Roman set_font
1309 470.8 moveto 190 (7 constraints, 8 generators) alignedtext
grestore
% 9
gsave
0 0 0 nodecolor
18 /Times-Roman set_font
1269 397.8 moveto 270 (t := t+1; x := x+y; y := y+z; z := z+1\)*) alignedtext
0 0 0 nodecolor
18 /Times-Roman set_font
1397.5 378.8 moveto 13 (\(\)) alignedtext
grestore
% para_start->9
gsave
1 setlinewidth
0 0 0 edgecolor
newpath 1404 463.72 moveto
1404 452.02 1404 439.49 1404 428.37 curveto
stroke
0 0 0 edgecolor
newpath 1407.5 428.22 moveto
1404 418.22 lineto
1400.5 428.22 lineto
closepath fill
1 setlinewidth
solid
0 0 0 edgecolor
newpath 1407.5 428.22 moveto
1404 418.22 lineto
1400.5 428.22 lineto
closepath stroke
grestore
% 0->paraxyye
gsave
1 setlinewidth
0 0 0 edgecolor
newpath 148 158.96 moveto
148 151.12 148 141.9 148 132.3 curveto
stroke
0 0 0 edgecolor
newpath 151.5 132.21 moveto
148 122.21 lineto
144.5 132.21 lineto
closepath fill
1 setlinewidth
solid
0 0 0 edgecolor
newpath 151.5 132.21 moveto
148 122.21 lineto
144.5 132.21 lineto
closepath stroke
grestore
% 1->paraxyy
gsave
1 setlinewidth
0 0 0 edgecolor
newpath 148 362.3 moveto
148 354.21 148 345.34 148 336.56 curveto
stroke
0 0 0 edgecolor
newpath 151.5 336.36 moveto
148 326.36 lineto
144.5 336.36 lineto
closepath fill
1 setlinewidth
solid
0 0 0 edgecolor
newpath 151.5 336.36 moveto
148 326.36 lineto
144.5 336.36 lineto
closepath stroke
grestore
% 2->paraxye
gsave
1 setlinewidth
0 0 0 edgecolor
newpath 462 158.96 moveto
462 148.57 462 135.75 462 122.85 curveto
stroke
0 0 0 edgecolor
newpath 465.5 122.53 moveto
462 112.53 lineto
458.5 122.53 lineto
closepath fill
1 setlinewidth
solid
0 0 0 edgecolor
newpath 465.5 122.53 moveto
462 112.53 lineto
458.5 122.53 lineto
closepath stroke
grestore
% 3->paraxy
gsave
1 setlinewidth
0 0 0 edgecolor
newpath 462 362.3 moveto
462 354.21 462 345.34 462 336.56 curveto
stroke
0 0 0 edgecolor
newpath 465.5 336.36 moveto
462 326.36 lineto
458.5 336.36 lineto
closepath fill
1 setlinewidth
solid
0 0 0 edgecolor
newpath 465.5 336.36 moveto
462 326.36 lineto
458.5 336.36 lineto
closepath stroke
grestore
% 4->paraxe
gsave
1 setlinewidth
0 0 0 edgecolor
newpath 776 158.96 moveto
776 148.57 776 135.75 776 122.85 curveto
stroke
0 0 0 edgecolor
newpath 779.5 122.53 moveto
776 112.53 lineto
772.5 122.53 lineto
closepath fill
1 setlinewidth
solid
0 0 0 edgecolor
newpath 779.5 122.53 moveto
776 112.53 lineto
772.5 122.53 lineto
closepath stroke
grestore
% 5->parax
gsave
1 setlinewidth
0 0 0 edgecolor
newpath 776 362.3 moveto
776 354.21 776 345.34 776 336.56 curveto
stroke
0 0 0 edgecolor
newpath 779.5 336.36 moveto
776 326.36 lineto
772.5 336.36 lineto
closepath fill
1 setlinewidth
solid
0 0 0 edgecolor
newpath 779.5 336.36 moveto
776 326.36 lineto
772.5 336.36 lineto
closepath stroke
grestore
% 6->paraye
gsave
1 setlinewidth
0 0 0 edgecolor
newpath 1090 158.96 moveto
1090 148.57 1090 135.75 1090 122.85 curveto
stroke
0 0 0 edgecolor
newpath 1093.5 122.53 moveto
1090 112.53 lineto
1086.5 122.53 lineto
closepath fill
1 setlinewidth
solid
0 0 0 edgecolor
newpath 1093.5 122.53 moveto
1090 112.53 lineto
1086.5 122.53 lineto
closepath stroke
grestore
% 7->paray
gsave
1 setlinewidth
0 0 0 edgecolor
newpath 1090 362.3 moveto
1090 354.21 1090 345.34 1090 336.56 curveto
stroke
0 0 0 edgecolor
newpath 1093.5 336.36 moveto
1090 326.36 lineto
1086.5 336.36 lineto
closepath fill
1 setlinewidth
solid
0 0 0 edgecolor
newpath 1093.5 336.36 moveto
1090 326.36 lineto
1086.5 336.36 lineto
closepath stroke
grestore
% 8->parae
gsave
1 setlinewidth
0 0 0 edgecolor
newpath 1404 157.8 moveto
1404 145.02 1404 128.8 1404 113.31 curveto
stroke
0 0 0 edgecolor
newpath 1407.5 113.28 moveto
1404 103.28 lineto
1400.5 113.28 lineto
closepath fill
1 setlinewidth
solid
0 0 0 edgecolor
newpath 1407.5 113.28 moveto
1404 103.28 lineto
1400.5 113.28 lineto
closepath stroke
grestore
% 9->para
gsave
1 setlinewidth
0 0 0 edgecolor
newpath 1404 371.73 moveto
1404 361.4 1404 348.79 1404 336.39 curveto
stroke
0 0 0 edgecolor
newpath 1407.5 336.07 moveto
1404 326.07 lineto
1400.5 336.07 lineto
closepath fill
1 setlinewidth
solid
0 0 0 edgecolor
newpath 1407.5 336.07 moveto
1404 326.07 lineto
1400.5 336.07 lineto
closepath stroke
grestore
% 10->paraxyy_start
gsave
1 setlinewidth
0 0 0 edgecolor
newpath 148 583.69 moveto
148 575.54 148 566.9 148 558.47 curveto
stroke
0 0 0 edgecolor
newpath 151.5 558.33 moveto
148 548.33 lineto
144.5 558.33 lineto
closepath fill
1 setlinewidth
solid
0 0 0 edgecolor
newpath 151.5 558.33 moveto
148 548.33 lineto
144.5 558.33 lineto
closepath stroke
grestore
% 11->paraxy_start
gsave
1 setlinewidth
0 0 0 edgecolor
newpath 462 583.69 moveto
462 575.54 462 566.9 462 558.47 curveto
stroke
0 0 0 edgecolor
newpath 465.5 558.33 moveto
462 548.33 lineto
458.5 558.33 lineto
closepath fill
1 setlinewidth
solid
0 0 0 edgecolor
newpath 465.5 558.33 moveto
462 548.33 lineto
458.5 558.33 lineto
closepath stroke
grestore
% 12->parax_start
gsave
1 setlinewidth
0 0 0 edgecolor
newpath 776 583.69 moveto
776 575.54 776 566.9 776 558.47 curveto
stroke
0 0 0 edgecolor
newpath 779.5 558.33 moveto
776 548.33 lineto
772.5 558.33 lineto
closepath fill
1 setlinewidth
solid
0 0 0 edgecolor
newpath 779.5 558.33 moveto
776 548.33 lineto
772.5 558.33 lineto
closepath stroke
grestore
% 13->paray_start
gsave
1 setlinewidth
0 0 0 edgecolor
newpath 1090 583.69 moveto
1090 575.54 1090 566.9 1090 558.47 curveto
stroke
0 0 0 edgecolor
newpath 1093.5 558.33 moveto
1090 548.33 lineto
1086.5 558.33 lineto
closepath fill
1 setlinewidth
solid
0 0 0 edgecolor
newpath 1093.5 558.33 moveto
1090 548.33 lineto
1086.5 558.33 lineto
closepath stroke
grestore
% 14->para_start
gsave
1 setlinewidth
0 0 0 edgecolor
newpath 1404 583.69 moveto
1404 575.54 1404 566.9 1404 558.47 curveto
stroke
0 0 0 edgecolor
newpath 1407.5 558.33 moveto
1404 548.33 lineto
1400.5 558.33 lineto
closepath fill
1 setlinewidth
solid
0 0 0 edgecolor
newpath 1407.5 558.33 moveto
1404 548.33 lineto
1400.5 558.33 lineto
closepath stroke
grestore
endpage
showpage
grestore
%%PageTrailer
%%EndPage: 1
%%Trailer
%%Pages: 1
%%BoundingBox: 36 36 1596 794
end
restore
%%EOF
