%!PS-Adobe-3.0
%%Creator: graphviz version 2.26.3 (20100126.1600)
%%Title: G
%%Pages: (atend)
%%BoundingBox: (atend)
%%EndComments
save
%%BeginProlog
/DotDict 200 dict def
DotDict begin

/setupLatin1 {
mark
/EncodingVector 256 array def
 EncodingVector 0

ISOLatin1Encoding 0 255 getinterval putinterval
EncodingVector 45 /hyphen put

% Set up ISO Latin 1 character encoding
/starnetISO {
        dup dup findfont dup length dict begin
        { 1 index /FID ne { def }{ pop pop } ifelse
        } forall
        /Encoding EncodingVector def
        currentdict end definefont
} def
/Times-Roman starnetISO def
/Times-Italic starnetISO def
/Times-Bold starnetISO def
/Times-BoldItalic starnetISO def
/Helvetica starnetISO def
/Helvetica-Oblique starnetISO def
/Helvetica-Bold starnetISO def
/Helvetica-BoldOblique starnetISO def
/Courier starnetISO def
/Courier-Oblique starnetISO def
/Courier-Bold starnetISO def
/Courier-BoldOblique starnetISO def
cleartomark
} bind def

%%BeginResource: procset graphviz 0 0
/coord-font-family /Times-Roman def
/default-font-family /Times-Roman def
/coordfont coord-font-family findfont 8 scalefont def

/InvScaleFactor 1.0 def
/set_scale {
       dup 1 exch div /InvScaleFactor exch def
       scale
} bind def

% styles
/solid { [] 0 setdash } bind def
/dashed { [9 InvScaleFactor mul dup ] 0 setdash } bind def
/dotted { [1 InvScaleFactor mul 6 InvScaleFactor mul] 0 setdash } bind def
/invis {/fill {newpath} def /stroke {newpath} def /show {pop newpath} def} bind def
/bold { 2 setlinewidth } bind def
/filled { } bind def
/unfilled { } bind def
/rounded { } bind def
/diagonals { } bind def

% hooks for setting color 
/nodecolor { sethsbcolor } bind def
/edgecolor { sethsbcolor } bind def
/graphcolor { sethsbcolor } bind def
/nopcolor {pop pop pop} bind def

/beginpage {	% i j npages
	/npages exch def
	/j exch def
	/i exch def
	/str 10 string def
	npages 1 gt {
		gsave
			coordfont setfont
			0 0 moveto
			(\() show i str cvs show (,) show j str cvs show (\)) show
		grestore
	} if
} bind def

/set_font {
	findfont exch
	scalefont setfont
} def

% draw text fitted to its expected width
/alignedtext {			% width text
	/text exch def
	/width exch def
	gsave
		width 0 gt {
			[] 0 setdash
			text stringwidth pop width exch sub text length div 0 text ashow
		} if
	grestore
} def

/boxprim {				% xcorner ycorner xsize ysize
		4 2 roll
		moveto
		2 copy
		exch 0 rlineto
		0 exch rlineto
		pop neg 0 rlineto
		closepath
} bind def

/ellipse_path {
	/ry exch def
	/rx exch def
	/y exch def
	/x exch def
	matrix currentmatrix
	newpath
	x y translate
	rx ry scale
	0 0 1 0 360 arc
	setmatrix
} bind def

/endpage { showpage } bind def
/showpage { } def

/layercolorseq
	[	% layer color sequence - darkest to lightest
		[0 0 0]
		[.2 .8 .8]
		[.4 .8 .8]
		[.6 .8 .8]
		[.8 .8 .8]
	]
def

/layerlen layercolorseq length def

/setlayer {/maxlayer exch def /curlayer exch def
	layercolorseq curlayer 1 sub layerlen mod get
	aload pop sethsbcolor
	/nodecolor {nopcolor} def
	/edgecolor {nopcolor} def
	/graphcolor {nopcolor} def
} bind def

/onlayer { curlayer ne {invis} if } def

/onlayers {
	/myupper exch def
	/mylower exch def
	curlayer mylower lt
	curlayer myupper gt
	or
	{invis} if
} def

/curlayer 0 def

%%EndResource
%%EndProlog
%%BeginSetup
14 default-font-family set_font
1 setmiterlimit
% /arrowlength 10 def
% /arrowwidth 5 def

% make sure pdfmark is harmless for PS-interpreters other than Distiller
/pdfmark where {pop} {userdict /pdfmark /cleartomark load put} ifelse
% make '<<' and '>>' safe on PS Level 1 devices
/languagelevel where {pop languagelevel}{1} ifelse
2 lt {
    userdict (<<) cvn ([) cvn load put
    userdict (>>) cvn ([) cvn load put
} if

%%EndSetup
setupLatin1
%%Page: 1 1
%%PageBoundingBox: 36 36 1546 776
%%PageOrientation: Portrait
0 0 1 beginpage
gsave
36 36 1510 740 boxprim clip newpath
1 1 set_scale 0 rotate 40 41 translate
% 1073741823
gsave
1 setlinewidth
0 0 0 nodecolor
667 709 43.84 19.09 ellipse_path stroke
0 0 0 nodecolor
18 /Times-Roman set_font
644 702.3 moveto 46 (Result) alignedtext
grestore
% paraxye
gsave
1 setlinewidth
0 0 0 nodecolor
newpath 584 94 moveto
310 94 lineto
310 10 lineto
584 10 lineto
closepath stroke
0 0 0 nodecolor
18 /Times-Roman set_font
418 73.8 moveto 58 (paraxye) alignedtext
0 0 0 nodecolor
18 /Times-Roman set_font
328 54.8 moveto 238 ([|t in [0.931 , 6]; x in [15.89 , 30];) alignedtext
0 0 0 nodecolor
18 /Times-Roman set_font
317.5 35.8 moveto 259 (  y in [7.688 , 22.5]; z in [1.972 , 8]|]) alignedtext
0 0 0 nodecolor
18 /Times-Roman set_font
343 16.8 moveto 208 (40 constraints, 68 generators) alignedtext
grestore
% parax
gsave
1 setlinewidth
0 0 0 nodecolor
newpath 863 308 moveto
639 308 lineto
639 224 lineto
863 224 lineto
closepath stroke
0 0 0 nodecolor
18 /Times-Roman set_font
730.5 287.8 moveto 41 (parax) alignedtext
0 0 0 nodecolor
18 /Times-Roman set_font
651.5 268.8 moveto 199 ([|t in [0 , 7]; x in [0 , 52.67];) alignedtext
0 0 0 nodecolor
18 /Times-Roman set_font
648 249.8 moveto 206 (  y in [0 , 30.67]; z in [0 , 9]|]) alignedtext
0 0 0 nodecolor
18 /Times-Roman set_font
647 230.8 moveto 208 (59 constraints, 56 generators) alignedtext
grestore
% 4
gsave
0 0 0 nodecolor
18 /Times-Roman set_font
711.5 166.8 moveto 79 (x-31>=0 ? ) alignedtext
0 0 0 nodecolor
18 /Times-Roman set_font
744.5 147.8 moveto 13 (\(\)) alignedtext
grestore
% parax->4
gsave
1 setlinewidth
0 0 0 edgecolor
newpath 751 223.92 moveto
751 215.05 751 205.8 751 197.3 curveto
stroke
0 0 0 edgecolor
newpath 754.5 197.02 moveto
751 187.02 lineto
747.5 197.02 lineto
closepath fill
1 setlinewidth
solid
0 0 0 edgecolor
newpath 754.5 197.02 moveto
751 187.02 lineto
747.5 197.02 lineto
closepath stroke
grestore
% paray
gsave
1 setlinewidth
0 0 0 nodecolor
newpath 1167 308 moveto
943 308 lineto
943 224 lineto
1167 224 lineto
closepath stroke
0 0 0 nodecolor
18 /Times-Roman set_font
1034.5 287.8 moveto 41 (paray) alignedtext
0 0 0 nodecolor
18 /Times-Roman set_font
955.5 268.8 moveto 199 ([|t in [0 , 5]; x in [0 , 22.36];) alignedtext
0 0 0 nodecolor
18 /Times-Roman set_font
963 249.8 moveto 184 (  y in [0 , 12]; z in [0 , 6]|]) alignedtext
0 0 0 nodecolor
18 /Times-Roman set_font
951 230.8 moveto 208 (65 constraints, 55 generators) alignedtext
grestore
% 6
gsave
0 0 0 nodecolor
18 /Times-Roman set_font
1020 166.8 moveto 70 (y-8>=0 ? ) alignedtext
0 0 0 nodecolor
18 /Times-Roman set_font
1048.5 147.8 moveto 13 (\(\)) alignedtext
grestore
% paray->6
gsave
1 setlinewidth
0 0 0 edgecolor
newpath 1055 223.92 moveto
1055 215.05 1055 205.8 1055 197.3 curveto
stroke
0 0 0 edgecolor
newpath 1058.5 197.02 moveto
1055 187.02 lineto
1051.5 197.02 lineto
closepath fill
1 setlinewidth
solid
0 0 0 edgecolor
newpath 1058.5 197.02 moveto
1055 187.02 lineto
1051.5 197.02 lineto
closepath stroke
grestore
% paraxyy_start
gsave
1 setlinewidth
0 0 0 nodecolor
newpath 255 530 moveto
35 530 lineto
35 446 lineto
255 446 lineto
closepath stroke
0 0 0 nodecolor
18 /Times-Roman set_font
95 509.8 moveto 100 (paraxyy_start) alignedtext
0 0 0 nodecolor
18 /Times-Roman set_font
42.5 490.8 moveto 205 ([|t=0; x in [0 , 2]; y in [0 , 2];) alignedtext
0 0 0 nodecolor
18 /Times-Roman set_font
99 471.8 moveto 92 (  z in [0 , 2]|]) alignedtext
0 0 0 nodecolor
18 /Times-Roman set_font
50 452.8 moveto 190 (7 constraints, 8 generators) alignedtext
grestore
% 1
gsave
0 0 0 nodecolor
18 /Times-Roman set_font
84.5 389.3 moveto 117 (\(-x+2y+30>=0 ?) alignedtext
0 0 0 nodecolor
18 /Times-Roman set_font
8 370.3 moveto 270 (t := t+1; x := x+y; y := y+z; z := z+1\)*) alignedtext
0 0 0 nodecolor
18 /Times-Roman set_font
136.5 351.3 moveto 13 (\(\)) alignedtext
grestore
% paraxyy_start->1
gsave
1 setlinewidth
0 0 0 edgecolor
newpath 144.24 445.72 moveto
144.09 437.27 143.93 428.38 143.77 419.91 curveto
stroke
0 0 0 edgecolor
newpath 147.27 419.78 moveto
143.59 409.84 lineto
140.27 419.9 lineto
closepath fill
1 setlinewidth
solid
0 0 0 edgecolor
newpath 147.27 419.78 moveto
143.59 409.84 lineto
140.27 419.9 lineto
closepath stroke
grestore
% linit
gsave
1 setlinewidth
0 0 0 nodecolor
newpath 773 732 moveto
729 732 lineto
729 686 lineto
773 686 lineto
closepath stroke
0 0 0 nodecolor
18 /Times-Roman set_font
737 711.8 moveto 28 (linit) alignedtext
0 0 0 nodecolor
18 /Times-Roman set_font
739 692.8 moveto 24 (top) alignedtext
grestore
% 10
gsave
0 0 0 nodecolor
18 /Times-Roman set_font
21.5 629.8 moveto 263 (-z+2>=0 and z>=0 and -y+2>=0 and) alignedtext
0 0 0 nodecolor
18 /Times-Roman set_font
42 610.8 moveto 222 (y>=0 and -x+2>=0 and x>=0 ?) alignedtext
0 0 0 nodecolor
18 /Times-Roman set_font
134 591.8 moveto 38 (t := 0) alignedtext
0 0 0 nodecolor
18 /Times-Roman set_font
146.5 572.8 moveto 13 (\(\)) alignedtext
grestore
% linit->10
gsave
1 setlinewidth
0 0 0 edgecolor
newpath 728.82 690.38 moveto
725.98 688.66 723.01 687.14 720 686 curveto
546.89 620.36 487.21 682.79 305 650 curveto
304.09 649.84 303.17 649.67 302.25 649.5 curveto
stroke
0 0 0 edgecolor
newpath 302.82 646.04 moveto
292.34 647.57 lineto
301.48 652.91 lineto
closepath fill
1 setlinewidth
solid
0 0 0 edgecolor
newpath 302.82 646.04 moveto
292.34 647.57 lineto
301.48 652.91 lineto
closepath stroke
grestore
% 11
gsave
0 0 0 nodecolor
18 /Times-Roman set_font
321.5 629.8 moveto 263 (-z+2>=0 and z>=0 and -y+2>=0 and) alignedtext
0 0 0 nodecolor
18 /Times-Roman set_font
342 610.8 moveto 222 (y>=0 and -x+2>=0 and x>=0 ?) alignedtext
0 0 0 nodecolor
18 /Times-Roman set_font
434 591.8 moveto 38 (t := 0) alignedtext
0 0 0 nodecolor
18 /Times-Roman set_font
446.5 572.8 moveto 13 (\(\)) alignedtext
grestore
% linit->11
gsave
1 setlinewidth
0 0 0 edgecolor
newpath 728.91 691.19 moveto
726.01 689.28 723 687.49 720 686 curveto
713.82 682.93 659.86 667.03 602.05 650.38 curveto
stroke
0 0 0 edgecolor
newpath 602.94 646.99 moveto
592.36 647.59 lineto
601.01 653.72 lineto
closepath fill
1 setlinewidth
solid
0 0 0 edgecolor
newpath 602.94 646.99 moveto
592.36 647.59 lineto
601.01 653.72 lineto
closepath stroke
grestore
% 12
gsave
0 0 0 nodecolor
18 /Times-Roman set_font
619.5 629.8 moveto 263 (-z+2>=0 and z>=0 and -y+2>=0 and) alignedtext
0 0 0 nodecolor
18 /Times-Roman set_font
640 610.8 moveto 222 (y>=0 and -x+2>=0 and x>=0 ?) alignedtext
0 0 0 nodecolor
18 /Times-Roman set_font
732 591.8 moveto 38 (t := 0) alignedtext
0 0 0 nodecolor
18 /Times-Roman set_font
744.5 572.8 moveto 13 (\(\)) alignedtext
grestore
% linit->12
gsave
1 setlinewidth
0 0 0 edgecolor
newpath 751 685.83 moveto
751 678.13 751 669.21 751 660.22 curveto
stroke
0 0 0 edgecolor
newpath 754.5 660.11 moveto
751 650.11 lineto
747.5 660.11 lineto
closepath fill
1 setlinewidth
solid
0 0 0 edgecolor
newpath 754.5 660.11 moveto
751 650.11 lineto
747.5 660.11 lineto
closepath stroke
grestore
% 13
gsave
0 0 0 nodecolor
18 /Times-Roman set_font
917.5 629.8 moveto 263 (-z+2>=0 and z>=0 and -y+2>=0 and) alignedtext
0 0 0 nodecolor
18 /Times-Roman set_font
938 610.8 moveto 222 (y>=0 and -x+2>=0 and x>=0 ?) alignedtext
0 0 0 nodecolor
18 /Times-Roman set_font
1030 591.8 moveto 38 (t := 0) alignedtext
0 0 0 nodecolor
18 /Times-Roman set_font
1042.5 572.8 moveto 13 (\(\)) alignedtext
grestore
% linit->13
gsave
1 setlinewidth
0 0 0 edgecolor
newpath 773.4 701.41 moveto
803.85 691.09 860.76 671.8 914.99 653.42 curveto
stroke
0 0 0 edgecolor
newpath 916.38 656.64 moveto
924.73 650.12 lineto
914.13 650.01 lineto
closepath fill
1 setlinewidth
solid
0 0 0 edgecolor
newpath 916.38 656.64 moveto
924.73 650.12 lineto
914.13 650.01 lineto
closepath stroke
grestore
% 14
gsave
0 0 0 nodecolor
18 /Times-Roman set_font
1216.5 629.8 moveto 263 (-z+2>=0 and z>=0 and -y+2>=0 and) alignedtext
0 0 0 nodecolor
18 /Times-Roman set_font
1237 610.8 moveto 222 (y>=0 and -x+2>=0 and x>=0 ?) alignedtext
0 0 0 nodecolor
18 /Times-Roman set_font
1329 591.8 moveto 38 (t := 0) alignedtext
0 0 0 nodecolor
18 /Times-Roman set_font
1341.5 572.8 moveto 13 (\(\)) alignedtext
grestore
% linit->14
gsave
1 setlinewidth
0 0 0 edgecolor
newpath 773.46 707.15 moveto
839.13 701.49 1036.29 682.81 1197 650 curveto
1197.6 649.88 1198.21 649.75 1198.82 649.63 curveto
stroke
0 0 0 edgecolor
newpath 1199.67 653.02 moveto
1208.72 647.5 lineto
1198.21 646.18 lineto
closepath fill
1 setlinewidth
solid
0 0 0 edgecolor
newpath 1199.67 653.02 moveto
1208.72 647.5 lineto
1198.21 646.18 lineto
closepath stroke
grestore
% paray_start
gsave
1 setlinewidth
0 0 0 nodecolor
newpath 1163 530 moveto
943 530 lineto
943 446 lineto
1163 446 lineto
closepath stroke
0 0 0 nodecolor
18 /Times-Roman set_font
1012 509.8 moveto 82 (paray_start) alignedtext
0 0 0 nodecolor
18 /Times-Roman set_font
950.5 490.8 moveto 205 ([|t=0; x in [0 , 2]; y in [0 , 2];) alignedtext
0 0 0 nodecolor
18 /Times-Roman set_font
1007 471.8 moveto 92 (  z in [0 , 2]|]) alignedtext
0 0 0 nodecolor
18 /Times-Roman set_font
958 452.8 moveto 190 (7 constraints, 8 generators) alignedtext
grestore
% 7
gsave
0 0 0 nodecolor
18 /Times-Roman set_font
1014.5 389.3 moveto 81 (\(-y+7>=0 ?) alignedtext
0 0 0 nodecolor
18 /Times-Roman set_font
920 370.3 moveto 270 (t := t+1; x := x+y; y := y+z; z := z+1\)*) alignedtext
0 0 0 nodecolor
18 /Times-Roman set_font
1048.5 351.3 moveto 13 (\(\)) alignedtext
grestore
% paray_start->7
gsave
1 setlinewidth
0 0 0 edgecolor
newpath 1053.76 445.72 moveto
1053.91 437.27 1054.07 428.38 1054.23 419.91 curveto
stroke
0 0 0 edgecolor
newpath 1057.73 419.9 moveto
1054.41 409.84 lineto
1050.73 419.78 lineto
closepath fill
1 setlinewidth
solid
0 0 0 edgecolor
newpath 1057.73 419.9 moveto
1054.41 409.84 lineto
1050.73 419.78 lineto
closepath stroke
grestore
% paraye
gsave
1 setlinewidth
0 0 0 nodecolor
newpath 1179 94 moveto
931 94 lineto
931 10 lineto
1179 10 lineto
closepath stroke
0 0 0 nodecolor
18 /Times-Roman set_font
1030.5 73.8 moveto 49 (paraye) alignedtext
0 0 0 nodecolor
18 /Times-Roman set_font
938.5 54.8 moveto 233 ([|t in [1.5 , 5]; x in [5.75 , 22.36];) alignedtext
0 0 0 nodecolor
18 /Times-Roman set_font
947.5 35.8 moveto 215 (  y in [8 , 12]; z in [2.308 , 6]|]) alignedtext
0 0 0 nodecolor
18 /Times-Roman set_font
951 16.8 moveto 208 (55 constraints, 94 generators) alignedtext
grestore
% para
gsave
1 setlinewidth
0 0 0 nodecolor
newpath 1473 308 moveto
1245 308 lineto
1245 224 lineto
1473 224 lineto
closepath stroke
0 0 0 nodecolor
18 /Times-Roman set_font
1343 287.8 moveto 32 (para) alignedtext
0 0 0 nodecolor
18 /Times-Roman set_font
1256.5 268.8 moveto 205 ([|t in [0 , INF]; x in [0 , INF];) alignedtext
0 0 0 nodecolor
18 /Times-Roman set_font
1252.5 249.8 moveto 213 (  y in [0 , INF]; z in [0 , INF]|]) alignedtext
0 0 0 nodecolor
18 /Times-Roman set_font
1255 230.8 moveto 208 (16 constraints, 13 generators) alignedtext
grestore
% 8
gsave
0 0 0 nodecolor
18 /Times-Roman set_font
1352.5 146.8 moveto 13 (\(\)) alignedtext
grestore
% para->8
gsave
1 setlinewidth
0 0 0 edgecolor
newpath 1359 223.92 moveto
1359 215.36 1359 206.45 1359 198.19 curveto
stroke
0 0 0 edgecolor
newpath 1362.5 198.17 moveto
1359 188.17 lineto
1355.5 198.17 lineto
closepath fill
1 setlinewidth
solid
0 0 0 edgecolor
newpath 1362.5 198.17 moveto
1359 188.17 lineto
1355.5 198.17 lineto
closepath stroke
grestore
% paraxy
gsave
1 setlinewidth
0 0 0 nodecolor
newpath 559 308 moveto
335 308 lineto
335 224 lineto
559 224 lineto
closepath stroke
0 0 0 nodecolor
18 /Times-Roman set_font
422 287.8 moveto 50 (paraxy) alignedtext
0 0 0 nodecolor
18 /Times-Roman set_font
358.5 268.8 moveto 177 ([|t in [0 , 6]; x in [0 , 30];) alignedtext
0 0 0 nodecolor
18 /Times-Roman set_font
348.5 249.8 moveto 197 (  y in [0 , 22.5]; z in [0 , 8]|]) alignedtext
0 0 0 nodecolor
18 /Times-Roman set_font
343 230.8 moveto 208 (56 constraints, 51 generators) alignedtext
grestore
% 2
gsave
0 0 0 nodecolor
18 /Times-Roman set_font
398.5 166.8 moveto 97 (x+y-31>=0 ? ) alignedtext
0 0 0 nodecolor
18 /Times-Roman set_font
440.5 147.8 moveto 13 (\(\)) alignedtext
grestore
% paraxy->2
gsave
1 setlinewidth
0 0 0 edgecolor
newpath 447 223.92 moveto
447 215.05 447 205.8 447 197.3 curveto
stroke
0 0 0 edgecolor
newpath 450.5 197.02 moveto
447 187.02 lineto
443.5 197.02 lineto
closepath fill
1 setlinewidth
solid
0 0 0 edgecolor
newpath 450.5 197.02 moveto
447 187.02 lineto
443.5 197.02 lineto
closepath stroke
grestore
% parae
gsave
1 setlinewidth
0 0 0 nodecolor
newpath 1473 94 moveto
1245 94 lineto
1245 10 lineto
1473 10 lineto
closepath stroke
0 0 0 nodecolor
18 /Times-Roman set_font
1339 73.8 moveto 40 (parae) alignedtext
0 0 0 nodecolor
18 /Times-Roman set_font
1256.5 54.8 moveto 205 ([|t in [0 , INF]; x in [0 , INF];) alignedtext
0 0 0 nodecolor
18 /Times-Roman set_font
1252.5 35.8 moveto 213 (  y in [0 , INF]; z in [0 , INF]|]) alignedtext
0 0 0 nodecolor
18 /Times-Roman set_font
1255 16.8 moveto 208 (16 constraints, 13 generators) alignedtext
grestore
% parax_start
gsave
1 setlinewidth
0 0 0 nodecolor
newpath 861 530 moveto
641 530 lineto
641 446 lineto
861 446 lineto
closepath stroke
0 0 0 nodecolor
18 /Times-Roman set_font
710 509.8 moveto 82 (parax_start) alignedtext
0 0 0 nodecolor
18 /Times-Roman set_font
648.5 490.8 moveto 205 ([|t=0; x in [0 , 2]; y in [0 , 2];) alignedtext
0 0 0 nodecolor
18 /Times-Roman set_font
705 471.8 moveto 92 (  z in [0 , 2]|]) alignedtext
0 0 0 nodecolor
18 /Times-Roman set_font
656 452.8 moveto 190 (7 constraints, 8 generators) alignedtext
grestore
% 5
gsave
0 0 0 nodecolor
18 /Times-Roman set_font
706 389.3 moveto 90 (\(-x+30>=0 ?) alignedtext
0 0 0 nodecolor
18 /Times-Roman set_font
616 370.3 moveto 270 (t := t+1; x := x+y; y := y+z; z := z+1\)*) alignedtext
0 0 0 nodecolor
18 /Times-Roman set_font
744.5 351.3 moveto 13 (\(\)) alignedtext
grestore
% parax_start->5
gsave
1 setlinewidth
0 0 0 edgecolor
newpath 751 445.72 moveto
751 437.27 751 428.38 751 419.91 curveto
stroke
0 0 0 edgecolor
newpath 754.5 419.84 moveto
751 409.84 lineto
747.5 419.84 lineto
closepath fill
1 setlinewidth
solid
0 0 0 edgecolor
newpath 754.5 419.84 moveto
751 409.84 lineto
747.5 419.84 lineto
closepath stroke
grestore
% paraxy_start
gsave
1 setlinewidth
0 0 0 nodecolor
newpath 561 530 moveto
341 530 lineto
341 446 lineto
561 446 lineto
closepath stroke
0 0 0 nodecolor
18 /Times-Roman set_font
405.5 509.8 moveto 91 (paraxy_start) alignedtext
0 0 0 nodecolor
18 /Times-Roman set_font
348.5 490.8 moveto 205 ([|t=0; x in [0 , 2]; y in [0 , 2];) alignedtext
0 0 0 nodecolor
18 /Times-Roman set_font
405 471.8 moveto 92 (  z in [0 , 2]|]) alignedtext
0 0 0 nodecolor
18 /Times-Roman set_font
356 452.8 moveto 190 (7 constraints, 8 generators) alignedtext
grestore
% 3
gsave
0 0 0 nodecolor
18 /Times-Roman set_font
394.5 389.3 moveto 105 (\(-x-y+30>=0 ?) alignedtext
0 0 0 nodecolor
18 /Times-Roman set_font
312 370.3 moveto 270 (t := t+1; x := x+y; y := y+z; z := z+1\)*) alignedtext
0 0 0 nodecolor
18 /Times-Roman set_font
440.5 351.3 moveto 13 (\(\)) alignedtext
grestore
% paraxy_start->3
gsave
1 setlinewidth
0 0 0 edgecolor
newpath 449.48 445.72 moveto
449.17 437.27 448.85 428.38 448.55 419.91 curveto
stroke
0 0 0 edgecolor
newpath 452.04 419.71 moveto
448.18 409.84 lineto
445.05 419.96 lineto
closepath fill
1 setlinewidth
solid
0 0 0 edgecolor
newpath 452.04 419.71 moveto
448.18 409.84 lineto
445.05 419.96 lineto
closepath stroke
grestore
% paraxyye
gsave
1 setlinewidth
0 0 0 nodecolor
newpath 273 94 moveto
13 94 lineto
13 10 lineto
273 10 lineto
closepath stroke
0 0 0 nodecolor
18 /Times-Roman set_font
109.5 73.8 moveto 67 (paraxyye) alignedtext
0 0 0 nodecolor
18 /Times-Roman set_font
21 54.8 moveto 244 ([|t in [0.3919 , 12]; x in [33 , 267];) alignedtext
0 0 0 nodecolor
18 /Times-Roman set_font
26.5 35.8 moveto 233 (  y in [1 , 92]; z in [0.3919 , 14]|]) alignedtext
0 0 0 nodecolor
18 /Times-Roman set_font
39 16.8 moveto 208 (22 constraints, 37 generators) alignedtext
grestore
% paraxyy
gsave
1 setlinewidth
0 0 0 nodecolor
newpath 255 308 moveto
31 308 lineto
31 224 lineto
255 224 lineto
closepath stroke
0 0 0 nodecolor
18 /Times-Roman set_font
113.5 287.8 moveto 59 (paraxyy) alignedtext
0 0 0 nodecolor
18 /Times-Roman set_font
45.5 268.8 moveto 195 ([|t in [0 , 12]; x in [0 , 267];) alignedtext
0 0 0 nodecolor
18 /Times-Roman set_font
46.5 249.8 moveto 193 (  y in [0 , 92]; z in [0 , 14]|]) alignedtext
0 0 0 nodecolor
18 /Times-Roman set_font
39 230.8 moveto 208 (45 constraints, 36 generators) alignedtext
grestore
% 0
gsave
0 0 0 nodecolor
18 /Times-Roman set_font
91.5 166.8 moveto 103 (x-2y-31>=0 ? ) alignedtext
0 0 0 nodecolor
18 /Times-Roman set_font
136.5 147.8 moveto 13 (\(\)) alignedtext
grestore
% paraxyy->0
gsave
1 setlinewidth
0 0 0 edgecolor
newpath 143 223.92 moveto
143 215.05 143 205.8 143 197.3 curveto
stroke
0 0 0 edgecolor
newpath 146.5 197.02 moveto
143 187.02 lineto
139.5 197.02 lineto
closepath fill
1 setlinewidth
solid
0 0 0 edgecolor
newpath 146.5 197.02 moveto
143 187.02 lineto
139.5 197.02 lineto
closepath stroke
grestore
% paraxe
gsave
1 setlinewidth
0 0 0 nodecolor
newpath 882 103.5 moveto
620 103.5 lineto
620 .5 lineto
882 .5 lineto
closepath stroke
0 0 0 nodecolor
18 /Times-Roman set_font
726.5 83.3 moveto 49 (paraxe) alignedtext
0 0 0 nodecolor
18 /Times-Roman set_font
627.5 64.3 moveto 247 ([|t in [0.7436 , 7]; x in [31 , 52.67];) alignedtext
0 0 0 nodecolor
18 /Times-Roman set_font
676 45.3 moveto 150 (  y in [7.333 , 30.67];) alignedtext
0 0 0 nodecolor
18 /Times-Roman set_font
689.5 26.3 moveto 123 (  z in [1.444 , 9]|]) alignedtext
0 0 0 nodecolor
18 /Times-Roman set_font
647 7.3 moveto 208 (37 constraints, 69 generators) alignedtext
grestore
% para_start
gsave
1 setlinewidth
0 0 0 nodecolor
newpath 1466 530 moveto
1246 530 lineto
1246 446 lineto
1466 446 lineto
closepath stroke
0 0 0 nodecolor
18 /Times-Roman set_font
1319.5 509.8 moveto 73 (para_start) alignedtext
0 0 0 nodecolor
18 /Times-Roman set_font
1253.5 490.8 moveto 205 ([|t=0; x in [0 , 2]; y in [0 , 2];) alignedtext
0 0 0 nodecolor
18 /Times-Roman set_font
1310 471.8 moveto 92 (  z in [0 , 2]|]) alignedtext
0 0 0 nodecolor
18 /Times-Roman set_font
1261 452.8 moveto 190 (7 constraints, 8 generators) alignedtext
grestore
% 9
gsave
0 0 0 nodecolor
18 /Times-Roman set_font
1224 379.8 moveto 270 (t := t+1; x := x+y; y := y+z; z := z+1\)*) alignedtext
0 0 0 nodecolor
18 /Times-Roman set_font
1352.5 360.8 moveto 13 (\(\)) alignedtext
grestore
% para_start->9
gsave
1 setlinewidth
0 0 0 edgecolor
newpath 1357.14 445.72 moveto
1357.46 434.02 1357.8 421.49 1358.1 410.37 curveto
stroke
0 0 0 edgecolor
newpath 1361.6 410.31 moveto
1358.37 400.22 lineto
1354.6 410.12 lineto
closepath fill
1 setlinewidth
solid
0 0 0 edgecolor
newpath 1361.6 410.31 moveto
1358.37 400.22 lineto
1354.6 410.12 lineto
closepath stroke
grestore
% 0->paraxyye
gsave
1 setlinewidth
0 0 0 edgecolor
newpath 143 140.79 moveto
143 130.18 143 117.13 143 104.34 curveto
stroke
0 0 0 edgecolor
newpath 146.5 104.19 moveto
143 94.19 lineto
139.5 104.19 lineto
closepath fill
1 setlinewidth
solid
0 0 0 edgecolor
newpath 146.5 104.19 moveto
143 94.19 lineto
139.5 104.19 lineto
closepath stroke
grestore
% 1->paraxyy
gsave
1 setlinewidth
0 0 0 edgecolor
newpath 143 344.3 moveto
143 336.21 143 327.34 143 318.56 curveto
stroke
0 0 0 edgecolor
newpath 146.5 318.36 moveto
143 308.36 lineto
139.5 318.36 lineto
closepath fill
1 setlinewidth
solid
0 0 0 edgecolor
newpath 146.5 318.36 moveto
143 308.36 lineto
139.5 318.36 lineto
closepath stroke
grestore
% 2->paraxye
gsave
1 setlinewidth
0 0 0 edgecolor
newpath 447 140.79 moveto
447 130.18 447 117.13 447 104.34 curveto
stroke
0 0 0 edgecolor
newpath 450.5 104.19 moveto
447 94.19 lineto
443.5 104.19 lineto
closepath fill
1 setlinewidth
solid
0 0 0 edgecolor
newpath 450.5 104.19 moveto
447 94.19 lineto
443.5 104.19 lineto
closepath stroke
grestore
% 3->paraxy
gsave
1 setlinewidth
0 0 0 edgecolor
newpath 447 344.3 moveto
447 336.21 447 327.34 447 318.56 curveto
stroke
0 0 0 edgecolor
newpath 450.5 318.36 moveto
447 308.36 lineto
443.5 318.36 lineto
closepath fill
1 setlinewidth
solid
0 0 0 edgecolor
newpath 450.5 318.36 moveto
447 308.36 lineto
443.5 318.36 lineto
closepath stroke
grestore
% 4->paraxe
gsave
1 setlinewidth
0 0 0 edgecolor
newpath 751 140.79 moveto
751 132.8 751 123.44 751 113.84 curveto
stroke
0 0 0 edgecolor
newpath 754.5 113.81 moveto
751 103.81 lineto
747.5 113.81 lineto
closepath fill
1 setlinewidth
solid
0 0 0 edgecolor
newpath 754.5 113.81 moveto
751 103.81 lineto
747.5 113.81 lineto
closepath stroke
grestore
% 5->parax
gsave
1 setlinewidth
0 0 0 edgecolor
newpath 751 344.3 moveto
751 336.21 751 327.34 751 318.56 curveto
stroke
0 0 0 edgecolor
newpath 754.5 318.36 moveto
751 308.36 lineto
747.5 318.36 lineto
closepath fill
1 setlinewidth
solid
0 0 0 edgecolor
newpath 754.5 318.36 moveto
751 308.36 lineto
747.5 318.36 lineto
closepath stroke
grestore
% 6->paraye
gsave
1 setlinewidth
0 0 0 edgecolor
newpath 1055 140.79 moveto
1055 130.18 1055 117.13 1055 104.34 curveto
stroke
0 0 0 edgecolor
newpath 1058.5 104.19 moveto
1055 94.19 lineto
1051.5 104.19 lineto
closepath fill
1 setlinewidth
solid
0 0 0 edgecolor
newpath 1058.5 104.19 moveto
1055 94.19 lineto
1051.5 104.19 lineto
closepath stroke
grestore
% 7->paray
gsave
1 setlinewidth
0 0 0 edgecolor
newpath 1055 344.3 moveto
1055 336.21 1055 327.34 1055 318.56 curveto
stroke
0 0 0 edgecolor
newpath 1058.5 318.36 moveto
1055 308.36 lineto
1051.5 318.36 lineto
closepath fill
1 setlinewidth
solid
0 0 0 edgecolor
newpath 1058.5 318.36 moveto
1055 308.36 lineto
1051.5 318.36 lineto
closepath stroke
grestore
% 8->parae
gsave
1 setlinewidth
0 0 0 edgecolor
newpath 1359 139.97 moveto
1359 129.53 1359 116.85 1359 104.41 curveto
stroke
0 0 0 edgecolor
newpath 1362.5 104.07 moveto
1359 94.07 lineto
1355.5 104.07 lineto
closepath fill
1 setlinewidth
solid
0 0 0 edgecolor
newpath 1362.5 104.07 moveto
1359 94.07 lineto
1355.5 104.07 lineto
closepath stroke
grestore
% 9->para
gsave
1 setlinewidth
0 0 0 edgecolor
newpath 1359 353.73 moveto
1359 343.4 1359 330.79 1359 318.39 curveto
stroke
0 0 0 edgecolor
newpath 1362.5 318.07 moveto
1359 308.07 lineto
1355.5 318.07 lineto
closepath fill
1 setlinewidth
solid
0 0 0 edgecolor
newpath 1362.5 318.07 moveto
1359 308.07 lineto
1355.5 318.07 lineto
closepath stroke
grestore
% 10->paraxyy_start
gsave
1 setlinewidth
0 0 0 edgecolor
newpath 150.18 565.69 moveto
149.64 557.54 149.06 548.9 148.5 540.47 curveto
stroke
0 0 0 edgecolor
newpath 151.98 540.07 moveto
147.82 530.33 lineto
145 540.54 lineto
closepath fill
1 setlinewidth
solid
0 0 0 edgecolor
newpath 151.98 540.07 moveto
147.82 530.33 lineto
145 540.54 lineto
closepath stroke
grestore
% 11->paraxy_start
gsave
1 setlinewidth
0 0 0 edgecolor
newpath 452.29 565.69 moveto
452.16 557.54 452.02 548.9 451.87 540.47 curveto
stroke
0 0 0 edgecolor
newpath 455.37 540.27 moveto
451.71 530.33 lineto
448.37 540.39 lineto
closepath fill
1 setlinewidth
solid
0 0 0 edgecolor
newpath 455.37 540.27 moveto
451.71 530.33 lineto
448.37 540.39 lineto
closepath stroke
grestore
% 12->parax_start
gsave
1 setlinewidth
0 0 0 edgecolor
newpath 751 565.69 moveto
751 557.54 751 548.9 751 540.47 curveto
stroke
0 0 0 edgecolor
newpath 754.5 540.33 moveto
751 530.33 lineto
747.5 540.33 lineto
closepath fill
1 setlinewidth
solid
0 0 0 edgecolor
newpath 754.5 540.33 moveto
751 530.33 lineto
747.5 540.33 lineto
closepath stroke
grestore
% 13->paray_start
gsave
1 setlinewidth
0 0 0 edgecolor
newpath 1050.41 565.69 moveto
1050.68 557.54 1050.97 548.9 1051.25 540.47 curveto
stroke
0 0 0 edgecolor
newpath 1054.75 540.44 moveto
1051.59 530.33 lineto
1047.76 540.21 lineto
closepath fill
1 setlinewidth
solid
0 0 0 edgecolor
newpath 1054.75 540.44 moveto
1051.59 530.33 lineto
1047.76 540.21 lineto
closepath stroke
grestore
% 14->para_start
gsave
1 setlinewidth
0 0 0 edgecolor
newpath 1350.82 565.69 moveto
1351.36 557.54 1351.94 548.9 1352.5 540.47 curveto
stroke
0 0 0 edgecolor
newpath 1356 540.54 moveto
1353.18 530.33 lineto
1349.02 540.07 lineto
closepath fill
1 setlinewidth
solid
0 0 0 edgecolor
newpath 1356 540.54 moveto
1353.18 530.33 lineto
1349.02 540.07 lineto
closepath stroke
grestore
endpage
showpage
grestore
%%PageTrailer
%%EndPage: 1
%%Trailer
%%Pages: 1
%%BoundingBox: 36 36 1546 776
end
restore
%%EOF
