%!PS-Adobe-3.0
%%Creator: graphviz version 2.26.3 (20100126.1600)
%%Title: G
%%Pages: (atend)
%%BoundingBox: (atend)
%%EndComments
save
%%BeginProlog
/DotDict 200 dict def
DotDict begin

/setupLatin1 {
mark
/EncodingVector 256 array def
 EncodingVector 0

ISOLatin1Encoding 0 255 getinterval putinterval
EncodingVector 45 /hyphen put

% Set up ISO Latin 1 character encoding
/starnetISO {
        dup dup findfont dup length dict begin
        { 1 index /FID ne { def }{ pop pop } ifelse
        } forall
        /Encoding EncodingVector def
        currentdict end definefont
} def
/Times-Roman starnetISO def
/Times-Italic starnetISO def
/Times-Bold starnetISO def
/Times-BoldItalic starnetISO def
/Helvetica starnetISO def
/Helvetica-Oblique starnetISO def
/Helvetica-Bold starnetISO def
/Helvetica-BoldOblique starnetISO def
/Courier starnetISO def
/Courier-Oblique starnetISO def
/Courier-Bold starnetISO def
/Courier-BoldOblique starnetISO def
cleartomark
} bind def

%%BeginResource: procset graphviz 0 0
/coord-font-family /Times-Roman def
/default-font-family /Times-Roman def
/coordfont coord-font-family findfont 8 scalefont def

/InvScaleFactor 1.0 def
/set_scale {
       dup 1 exch div /InvScaleFactor exch def
       scale
} bind def

% styles
/solid { [] 0 setdash } bind def
/dashed { [9 InvScaleFactor mul dup ] 0 setdash } bind def
/dotted { [1 InvScaleFactor mul 6 InvScaleFactor mul] 0 setdash } bind def
/invis {/fill {newpath} def /stroke {newpath} def /show {pop newpath} def} bind def
/bold { 2 setlinewidth } bind def
/filled { } bind def
/unfilled { } bind def
/rounded { } bind def
/diagonals { } bind def

% hooks for setting color 
/nodecolor { sethsbcolor } bind def
/edgecolor { sethsbcolor } bind def
/graphcolor { sethsbcolor } bind def
/nopcolor {pop pop pop} bind def

/beginpage {	% i j npages
	/npages exch def
	/j exch def
	/i exch def
	/str 10 string def
	npages 1 gt {
		gsave
			coordfont setfont
			0 0 moveto
			(\() show i str cvs show (,) show j str cvs show (\)) show
		grestore
	} if
} bind def

/set_font {
	findfont exch
	scalefont setfont
} def

% draw text fitted to its expected width
/alignedtext {			% width text
	/text exch def
	/width exch def
	gsave
		width 0 gt {
			[] 0 setdash
			text stringwidth pop width exch sub text length div 0 text ashow
		} if
	grestore
} def

/boxprim {				% xcorner ycorner xsize ysize
		4 2 roll
		moveto
		2 copy
		exch 0 rlineto
		0 exch rlineto
		pop neg 0 rlineto
		closepath
} bind def

/ellipse_path {
	/ry exch def
	/rx exch def
	/y exch def
	/x exch def
	matrix currentmatrix
	newpath
	x y translate
	rx ry scale
	0 0 1 0 360 arc
	setmatrix
} bind def

/endpage { showpage } bind def
/showpage { } def

/layercolorseq
	[	% layer color sequence - darkest to lightest
		[0 0 0]
		[.2 .8 .8]
		[.4 .8 .8]
		[.6 .8 .8]
		[.8 .8 .8]
	]
def

/layerlen layercolorseq length def

/setlayer {/maxlayer exch def /curlayer exch def
	layercolorseq curlayer 1 sub layerlen mod get
	aload pop sethsbcolor
	/nodecolor {nopcolor} def
	/edgecolor {nopcolor} def
	/graphcolor {nopcolor} def
} bind def

/onlayer { curlayer ne {invis} if } def

/onlayers {
	/myupper exch def
	/mylower exch def
	curlayer mylower lt
	curlayer myupper gt
	or
	{invis} if
} def

/curlayer 0 def

%%EndResource
%%EndProlog
%%BeginSetup
14 default-font-family set_font
1 setmiterlimit
% /arrowlength 10 def
% /arrowwidth 5 def

% make sure pdfmark is harmless for PS-interpreters other than Distiller
/pdfmark where {pop} {userdict /pdfmark /cleartomark load put} ifelse
% make '<<' and '>>' safe on PS Level 1 devices
/languagelevel where {pop languagelevel}{1} ifelse
2 lt {
    userdict (<<) cvn ([) cvn load put
    userdict (>>) cvn ([) cvn load put
} if

%%EndSetup
setupLatin1
%%Page: 1 1
%%PageBoundingBox: 36 36 1546 794
%%PageOrientation: Portrait
0 0 1 beginpage
gsave
36 36 1510 758 boxprim clip newpath
1 1 set_scale 0 rotate 40 41 translate
% 1073741823
gsave
1 setlinewidth
0 0 0 nodecolor
667 727 43.84 19.09 ellipse_path stroke
0 0 0 nodecolor
18 /Times-Roman set_font
644 720.3 moveto 46 (Result) alignedtext
grestore
% paraxye
gsave
1 setlinewidth
0 0 0 nodecolor
newpath 578 103 moveto
316 103 lineto
316 19 lineto
578 19 lineto
closepath stroke
0 0 0 nodecolor
18 /Times-Roman set_font
418 82.8 moveto 58 (paraxye) alignedtext
0 0 0 nodecolor
18 /Times-Roman set_font
332.5 63.8 moveto 229 ([|t in [2.018 , 6]; x in [16.7 , 30];) alignedtext
0 0 0 nodecolor
18 /Times-Roman set_font
324 44.8 moveto 246 (  y in [9.242 , 20]; z in [2.743 , 7]|]) alignedtext
0 0 0 nodecolor
18 /Times-Roman set_font
334 25.8 moveto 226 (124 constraints, 193 generators) alignedtext
grestore
% parax
gsave
1 setlinewidth
0 0 0 nodecolor
newpath 872 326 moveto
630 326 lineto
630 242 lineto
872 242 lineto
closepath stroke
0 0 0 nodecolor
18 /Times-Roman set_font
730.5 305.8 moveto 41 (parax) alignedtext
0 0 0 nodecolor
18 /Times-Roman set_font
662.5 286.8 moveto 177 ([|t in [0 , 7]; x in [0 , 50];) alignedtext
0 0 0 nodecolor
18 /Times-Roman set_font
659 267.8 moveto 184 (  y in [0 , 27]; z in [0 , 8]|]) alignedtext
0 0 0 nodecolor
18 /Times-Roman set_font
638 248.8 moveto 226 (194 constraints, 130 generators) alignedtext
grestore
% 4
gsave
0 0 0 nodecolor
18 /Times-Roman set_font
711.5 184.8 moveto 79 (x-31>=0 ? ) alignedtext
0 0 0 nodecolor
18 /Times-Roman set_font
744.5 165.8 moveto 13 (\(\)) alignedtext
grestore
% parax->4
gsave
1 setlinewidth
0 0 0 edgecolor
newpath 751 241.92 moveto
751 233.05 751 223.8 751 215.3 curveto
stroke
0 0 0 edgecolor
newpath 754.5 215.02 moveto
751 205.02 lineto
747.5 215.02 lineto
closepath fill
1 setlinewidth
solid
0 0 0 edgecolor
newpath 754.5 215.02 moveto
751 205.02 lineto
747.5 215.02 lineto
closepath stroke
grestore
% paray
gsave
1 setlinewidth
0 0 0 nodecolor
newpath 1181 326 moveto
929 326 lineto
929 242 lineto
1181 242 lineto
closepath stroke
0 0 0 nodecolor
18 /Times-Roman set_font
1034.5 305.8 moveto 41 (paray) alignedtext
0 0 0 nodecolor
18 /Times-Roman set_font
955.5 286.8 moveto 199 ([|t in [0 , 5]; x in [0 , 20.07];) alignedtext
0 0 0 nodecolor
18 /Times-Roman set_font
936.5 267.8 moveto 237 (  y in [0 , 11.52]; z in [0 , 5.524]|]) alignedtext
0 0 0 nodecolor
18 /Times-Roman set_font
946.5 248.8 moveto 217 (103 constraints, 82 generators) alignedtext
grestore
% 6
gsave
0 0 0 nodecolor
18 /Times-Roman set_font
1020 184.8 moveto 70 (y-8>=0 ? ) alignedtext
0 0 0 nodecolor
18 /Times-Roman set_font
1048.5 165.8 moveto 13 (\(\)) alignedtext
grestore
% paray->6
gsave
1 setlinewidth
0 0 0 edgecolor
newpath 1055 241.92 moveto
1055 233.05 1055 223.8 1055 215.3 curveto
stroke
0 0 0 edgecolor
newpath 1058.5 215.02 moveto
1055 205.02 lineto
1051.5 215.02 lineto
closepath fill
1 setlinewidth
solid
0 0 0 edgecolor
newpath 1058.5 215.02 moveto
1055 205.02 lineto
1051.5 215.02 lineto
closepath stroke
grestore
% paraxyy_start
gsave
1 setlinewidth
0 0 0 nodecolor
newpath 255 548 moveto
35 548 lineto
35 464 lineto
255 464 lineto
closepath stroke
0 0 0 nodecolor
18 /Times-Roman set_font
95 527.8 moveto 100 (paraxyy_start) alignedtext
0 0 0 nodecolor
18 /Times-Roman set_font
42.5 508.8 moveto 205 ([|t=0; x in [0 , 2]; y in [0 , 2];) alignedtext
0 0 0 nodecolor
18 /Times-Roman set_font
99 489.8 moveto 92 (  z in [0 , 2]|]) alignedtext
0 0 0 nodecolor
18 /Times-Roman set_font
50 470.8 moveto 190 (7 constraints, 8 generators) alignedtext
grestore
% 1
gsave
0 0 0 nodecolor
18 /Times-Roman set_font
84.5 407.3 moveto 117 (\(-x+2y+30>=0 ?) alignedtext
0 0 0 nodecolor
18 /Times-Roman set_font
8 388.3 moveto 270 (t := t+1; x := x+y; y := y+z; z := z+1\)*) alignedtext
0 0 0 nodecolor
18 /Times-Roman set_font
136.5 369.3 moveto 13 (\(\)) alignedtext
grestore
% paraxyy_start->1
gsave
1 setlinewidth
0 0 0 edgecolor
newpath 144.24 463.72 moveto
144.09 455.27 143.93 446.38 143.77 437.91 curveto
stroke
0 0 0 edgecolor
newpath 147.27 437.78 moveto
143.59 427.84 lineto
140.27 437.9 lineto
closepath fill
1 setlinewidth
solid
0 0 0 edgecolor
newpath 147.27 437.78 moveto
143.59 427.84 lineto
140.27 437.9 lineto
closepath stroke
grestore
% linit
gsave
1 setlinewidth
0 0 0 nodecolor
newpath 773 750 moveto
729 750 lineto
729 704 lineto
773 704 lineto
closepath stroke
0 0 0 nodecolor
18 /Times-Roman set_font
737 729.8 moveto 28 (linit) alignedtext
0 0 0 nodecolor
18 /Times-Roman set_font
739 710.8 moveto 24 (top) alignedtext
grestore
% 10
gsave
0 0 0 nodecolor
18 /Times-Roman set_font
21.5 647.8 moveto 263 (-z+2>=0 and z>=0 and -y+2>=0 and) alignedtext
0 0 0 nodecolor
18 /Times-Roman set_font
42 628.8 moveto 222 (y>=0 and -x+2>=0 and x>=0 ?) alignedtext
0 0 0 nodecolor
18 /Times-Roman set_font
134 609.8 moveto 38 (t := 0) alignedtext
0 0 0 nodecolor
18 /Times-Roman set_font
146.5 590.8 moveto 13 (\(\)) alignedtext
grestore
% linit->10
gsave
1 setlinewidth
0 0 0 edgecolor
newpath 728.82 708.38 moveto
725.98 706.66 723.01 705.14 720 704 curveto
546.89 638.36 487.21 700.79 305 668 curveto
304.09 667.84 303.17 667.67 302.25 667.5 curveto
stroke
0 0 0 edgecolor
newpath 302.82 664.04 moveto
292.34 665.57 lineto
301.48 670.91 lineto
closepath fill
1 setlinewidth
solid
0 0 0 edgecolor
newpath 302.82 664.04 moveto
292.34 665.57 lineto
301.48 670.91 lineto
closepath stroke
grestore
% 11
gsave
0 0 0 nodecolor
18 /Times-Roman set_font
321.5 647.8 moveto 263 (-z+2>=0 and z>=0 and -y+2>=0 and) alignedtext
0 0 0 nodecolor
18 /Times-Roman set_font
342 628.8 moveto 222 (y>=0 and -x+2>=0 and x>=0 ?) alignedtext
0 0 0 nodecolor
18 /Times-Roman set_font
434 609.8 moveto 38 (t := 0) alignedtext
0 0 0 nodecolor
18 /Times-Roman set_font
446.5 590.8 moveto 13 (\(\)) alignedtext
grestore
% linit->11
gsave
1 setlinewidth
0 0 0 edgecolor
newpath 728.91 709.19 moveto
726.01 707.28 723 705.49 720 704 curveto
713.82 700.93 659.86 685.03 602.05 668.38 curveto
stroke
0 0 0 edgecolor
newpath 602.94 664.99 moveto
592.36 665.59 lineto
601.01 671.72 lineto
closepath fill
1 setlinewidth
solid
0 0 0 edgecolor
newpath 602.94 664.99 moveto
592.36 665.59 lineto
601.01 671.72 lineto
closepath stroke
grestore
% 12
gsave
0 0 0 nodecolor
18 /Times-Roman set_font
619.5 647.8 moveto 263 (-z+2>=0 and z>=0 and -y+2>=0 and) alignedtext
0 0 0 nodecolor
18 /Times-Roman set_font
640 628.8 moveto 222 (y>=0 and -x+2>=0 and x>=0 ?) alignedtext
0 0 0 nodecolor
18 /Times-Roman set_font
732 609.8 moveto 38 (t := 0) alignedtext
0 0 0 nodecolor
18 /Times-Roman set_font
744.5 590.8 moveto 13 (\(\)) alignedtext
grestore
% linit->12
gsave
1 setlinewidth
0 0 0 edgecolor
newpath 751 703.83 moveto
751 696.13 751 687.21 751 678.22 curveto
stroke
0 0 0 edgecolor
newpath 754.5 678.11 moveto
751 668.11 lineto
747.5 678.11 lineto
closepath fill
1 setlinewidth
solid
0 0 0 edgecolor
newpath 754.5 678.11 moveto
751 668.11 lineto
747.5 678.11 lineto
closepath stroke
grestore
% 13
gsave
0 0 0 nodecolor
18 /Times-Roman set_font
917.5 647.8 moveto 263 (-z+2>=0 and z>=0 and -y+2>=0 and) alignedtext
0 0 0 nodecolor
18 /Times-Roman set_font
938 628.8 moveto 222 (y>=0 and -x+2>=0 and x>=0 ?) alignedtext
0 0 0 nodecolor
18 /Times-Roman set_font
1030 609.8 moveto 38 (t := 0) alignedtext
0 0 0 nodecolor
18 /Times-Roman set_font
1042.5 590.8 moveto 13 (\(\)) alignedtext
grestore
% linit->13
gsave
1 setlinewidth
0 0 0 edgecolor
newpath 773.4 719.41 moveto
803.85 709.09 860.76 689.8 914.99 671.42 curveto
stroke
0 0 0 edgecolor
newpath 916.38 674.64 moveto
924.73 668.12 lineto
914.13 668.01 lineto
closepath fill
1 setlinewidth
solid
0 0 0 edgecolor
newpath 916.38 674.64 moveto
924.73 668.12 lineto
914.13 668.01 lineto
closepath stroke
grestore
% 14
gsave
0 0 0 nodecolor
18 /Times-Roman set_font
1216.5 647.8 moveto 263 (-z+2>=0 and z>=0 and -y+2>=0 and) alignedtext
0 0 0 nodecolor
18 /Times-Roman set_font
1237 628.8 moveto 222 (y>=0 and -x+2>=0 and x>=0 ?) alignedtext
0 0 0 nodecolor
18 /Times-Roman set_font
1329 609.8 moveto 38 (t := 0) alignedtext
0 0 0 nodecolor
18 /Times-Roman set_font
1341.5 590.8 moveto 13 (\(\)) alignedtext
grestore
% linit->14
gsave
1 setlinewidth
0 0 0 edgecolor
newpath 773.46 725.15 moveto
839.13 719.49 1036.29 700.81 1197 668 curveto
1197.6 667.88 1198.21 667.75 1198.82 667.63 curveto
stroke
0 0 0 edgecolor
newpath 1199.67 671.02 moveto
1208.72 665.5 lineto
1198.21 664.18 lineto
closepath fill
1 setlinewidth
solid
0 0 0 edgecolor
newpath 1199.67 671.02 moveto
1208.72 665.5 lineto
1198.21 664.18 lineto
closepath stroke
grestore
% paray_start
gsave
1 setlinewidth
0 0 0 nodecolor
newpath 1163 548 moveto
943 548 lineto
943 464 lineto
1163 464 lineto
closepath stroke
0 0 0 nodecolor
18 /Times-Roman set_font
1012 527.8 moveto 82 (paray_start) alignedtext
0 0 0 nodecolor
18 /Times-Roman set_font
950.5 508.8 moveto 205 ([|t=0; x in [0 , 2]; y in [0 , 2];) alignedtext
0 0 0 nodecolor
18 /Times-Roman set_font
1007 489.8 moveto 92 (  z in [0 , 2]|]) alignedtext
0 0 0 nodecolor
18 /Times-Roman set_font
958 470.8 moveto 190 (7 constraints, 8 generators) alignedtext
grestore
% 7
gsave
0 0 0 nodecolor
18 /Times-Roman set_font
1014.5 407.3 moveto 81 (\(-y+7>=0 ?) alignedtext
0 0 0 nodecolor
18 /Times-Roman set_font
920 388.3 moveto 270 (t := t+1; x := x+y; y := y+z; z := z+1\)*) alignedtext
0 0 0 nodecolor
18 /Times-Roman set_font
1048.5 369.3 moveto 13 (\(\)) alignedtext
grestore
% paray_start->7
gsave
1 setlinewidth
0 0 0 edgecolor
newpath 1053.76 463.72 moveto
1053.91 455.27 1054.07 446.38 1054.23 437.91 curveto
stroke
0 0 0 edgecolor
newpath 1057.73 437.9 moveto
1054.41 427.84 lineto
1050.73 437.78 lineto
closepath fill
1 setlinewidth
solid
0 0 0 edgecolor
newpath 1057.73 437.9 moveto
1054.41 427.84 lineto
1050.73 437.78 lineto
closepath stroke
grestore
% paraye
gsave
1 setlinewidth
0 0 0 nodecolor
newpath 1192 112.5 moveto
918 112.5 lineto
918 9.5 lineto
1192 9.5 lineto
closepath stroke
0 0 0 nodecolor
18 /Times-Roman set_font
1030.5 92.3 moveto 49 (paraye) alignedtext
0 0 0 nodecolor
18 /Times-Roman set_font
997.5 73.3 moveto 115 ([|t in [1.696 , 5];) alignedtext
0 0 0 nodecolor
18 /Times-Roman set_font
984.5 54.3 moveto 141 (  x in [5.75 , 20.07];) alignedtext
0 0 0 nodecolor
18 /Times-Roman set_font
925.5 35.3 moveto 259 (  y in [8 , 11.52]; z in [2.64 , 5.524]|]) alignedtext
0 0 0 nodecolor
18 /Times-Roman set_font
946.5 16.3 moveto 217 (81 constraints, 130 generators) alignedtext
grestore
% para
gsave
1 setlinewidth
0 0 0 nodecolor
newpath 1475 326 moveto
1243 326 lineto
1243 242 lineto
1475 242 lineto
closepath stroke
0 0 0 nodecolor
18 /Times-Roman set_font
1343 305.8 moveto 32 (para) alignedtext
0 0 0 nodecolor
18 /Times-Roman set_font
1256.5 286.8 moveto 205 ([|t in [0 , INF]; x in [0 , INF];) alignedtext
0 0 0 nodecolor
18 /Times-Roman set_font
1252.5 267.8 moveto 213 (  y in [0 , INF]; z in [0 , INF]|]) alignedtext
0 0 0 nodecolor
18 /Times-Roman set_font
1250.5 248.8 moveto 217 (146 constraints, 61 generators) alignedtext
grestore
% 8
gsave
0 0 0 nodecolor
18 /Times-Roman set_font
1352.5 164.8 moveto 13 (\(\)) alignedtext
grestore
% para->8
gsave
1 setlinewidth
0 0 0 edgecolor
newpath 1359 241.92 moveto
1359 233.36 1359 224.45 1359 216.19 curveto
stroke
0 0 0 edgecolor
newpath 1362.5 216.17 moveto
1359 206.17 lineto
1355.5 216.17 lineto
closepath fill
1 setlinewidth
solid
0 0 0 edgecolor
newpath 1362.5 216.17 moveto
1359 206.17 lineto
1355.5 216.17 lineto
closepath stroke
grestore
% paraxy
gsave
1 setlinewidth
0 0 0 nodecolor
newpath 568 326 moveto
326 326 lineto
326 242 lineto
568 242 lineto
closepath stroke
0 0 0 nodecolor
18 /Times-Roman set_font
422 305.8 moveto 50 (paraxy) alignedtext
0 0 0 nodecolor
18 /Times-Roman set_font
358.5 286.8 moveto 177 ([|t in [0 , 6]; x in [0 , 30];) alignedtext
0 0 0 nodecolor
18 /Times-Roman set_font
355 267.8 moveto 184 (  y in [0 , 20]; z in [0 , 7]|]) alignedtext
0 0 0 nodecolor
18 /Times-Roman set_font
334 248.8 moveto 226 (155 constraints, 111 generators) alignedtext
grestore
% 2
gsave
0 0 0 nodecolor
18 /Times-Roman set_font
398.5 184.8 moveto 97 (x+y-31>=0 ? ) alignedtext
0 0 0 nodecolor
18 /Times-Roman set_font
440.5 165.8 moveto 13 (\(\)) alignedtext
grestore
% paraxy->2
gsave
1 setlinewidth
0 0 0 edgecolor
newpath 447 241.92 moveto
447 233.05 447 223.8 447 215.3 curveto
stroke
0 0 0 edgecolor
newpath 450.5 215.02 moveto
447 205.02 lineto
443.5 215.02 lineto
closepath fill
1 setlinewidth
solid
0 0 0 edgecolor
newpath 450.5 215.02 moveto
447 205.02 lineto
443.5 215.02 lineto
closepath stroke
grestore
% parae
gsave
1 setlinewidth
0 0 0 nodecolor
newpath 1475 103 moveto
1243 103 lineto
1243 19 lineto
1475 19 lineto
closepath stroke
0 0 0 nodecolor
18 /Times-Roman set_font
1339 82.8 moveto 40 (parae) alignedtext
0 0 0 nodecolor
18 /Times-Roman set_font
1256.5 63.8 moveto 205 ([|t in [0 , INF]; x in [0 , INF];) alignedtext
0 0 0 nodecolor
18 /Times-Roman set_font
1252.5 44.8 moveto 213 (  y in [0 , INF]; z in [0 , INF]|]) alignedtext
0 0 0 nodecolor
18 /Times-Roman set_font
1250.5 25.8 moveto 217 (146 constraints, 61 generators) alignedtext
grestore
% parax_start
gsave
1 setlinewidth
0 0 0 nodecolor
newpath 861 548 moveto
641 548 lineto
641 464 lineto
861 464 lineto
closepath stroke
0 0 0 nodecolor
18 /Times-Roman set_font
710 527.8 moveto 82 (parax_start) alignedtext
0 0 0 nodecolor
18 /Times-Roman set_font
648.5 508.8 moveto 205 ([|t=0; x in [0 , 2]; y in [0 , 2];) alignedtext
0 0 0 nodecolor
18 /Times-Roman set_font
705 489.8 moveto 92 (  z in [0 , 2]|]) alignedtext
0 0 0 nodecolor
18 /Times-Roman set_font
656 470.8 moveto 190 (7 constraints, 8 generators) alignedtext
grestore
% 5
gsave
0 0 0 nodecolor
18 /Times-Roman set_font
706 407.3 moveto 90 (\(-x+30>=0 ?) alignedtext
0 0 0 nodecolor
18 /Times-Roman set_font
616 388.3 moveto 270 (t := t+1; x := x+y; y := y+z; z := z+1\)*) alignedtext
0 0 0 nodecolor
18 /Times-Roman set_font
744.5 369.3 moveto 13 (\(\)) alignedtext
grestore
% parax_start->5
gsave
1 setlinewidth
0 0 0 edgecolor
newpath 751 463.72 moveto
751 455.27 751 446.38 751 437.91 curveto
stroke
0 0 0 edgecolor
newpath 754.5 437.84 moveto
751 427.84 lineto
747.5 437.84 lineto
closepath fill
1 setlinewidth
solid
0 0 0 edgecolor
newpath 754.5 437.84 moveto
751 427.84 lineto
747.5 437.84 lineto
closepath stroke
grestore
% paraxy_start
gsave
1 setlinewidth
0 0 0 nodecolor
newpath 561 548 moveto
341 548 lineto
341 464 lineto
561 464 lineto
closepath stroke
0 0 0 nodecolor
18 /Times-Roman set_font
405.5 527.8 moveto 91 (paraxy_start) alignedtext
0 0 0 nodecolor
18 /Times-Roman set_font
348.5 508.8 moveto 205 ([|t=0; x in [0 , 2]; y in [0 , 2];) alignedtext
0 0 0 nodecolor
18 /Times-Roman set_font
405 489.8 moveto 92 (  z in [0 , 2]|]) alignedtext
0 0 0 nodecolor
18 /Times-Roman set_font
356 470.8 moveto 190 (7 constraints, 8 generators) alignedtext
grestore
% 3
gsave
0 0 0 nodecolor
18 /Times-Roman set_font
394.5 407.3 moveto 105 (\(-x-y+30>=0 ?) alignedtext
0 0 0 nodecolor
18 /Times-Roman set_font
312 388.3 moveto 270 (t := t+1; x := x+y; y := y+z; z := z+1\)*) alignedtext
0 0 0 nodecolor
18 /Times-Roman set_font
440.5 369.3 moveto 13 (\(\)) alignedtext
grestore
% paraxy_start->3
gsave
1 setlinewidth
0 0 0 edgecolor
newpath 449.48 463.72 moveto
449.17 455.27 448.85 446.38 448.55 437.91 curveto
stroke
0 0 0 edgecolor
newpath 452.04 437.71 moveto
448.18 427.84 lineto
445.05 437.96 lineto
closepath fill
1 setlinewidth
solid
0 0 0 edgecolor
newpath 452.04 437.71 moveto
448.18 427.84 lineto
445.05 437.96 lineto
closepath stroke
grestore
% paraxyye
gsave
1 setlinewidth
0 0 0 nodecolor
newpath 264 122 moveto
22 122 lineto
22 0 lineto
264 0 lineto
closepath stroke
0 0 0 nodecolor
18 /Times-Roman set_font
109.5 101.8 moveto 67 (paraxyye) alignedtext
0 0 0 nodecolor
18 /Times-Roman set_font
70 82.8 moveto 146 ([|t in [2.299 , 11.33];) alignedtext
0 0 0 nodecolor
18 /Times-Roman set_font
68 63.8 moveto 150 (  x in [58.79 , 171.6];) alignedtext
0 0 0 nodecolor
18 /Times-Roman set_font
72.5 44.8 moveto 141 (  y in [13.9 , 57.58];) alignedtext
0 0 0 nodecolor
18 /Times-Roman set_font
66 25.8 moveto 154 (  z in [2.713 , 11.41]|]) alignedtext
0 0 0 nodecolor
18 /Times-Roman set_font
30 6.8 moveto 226 (103 constraints, 161 generators) alignedtext
grestore
% paraxyy
gsave
1 setlinewidth
0 0 0 nodecolor
newpath 269 326 moveto
17 326 lineto
17 242 lineto
269 242 lineto
closepath stroke
0 0 0 nodecolor
18 /Times-Roman set_font
113.5 305.8 moveto 59 (paraxyy) alignedtext
0 0 0 nodecolor
18 /Times-Roman set_font
28.5 286.8 moveto 229 ([|t in [0 , 11.33]; x in [0 , 171.6];) alignedtext
0 0 0 nodecolor
18 /Times-Roman set_font
24.5 267.8 moveto 237 (  y in [0 , 57.58]; z in [0 , 11.41]|]) alignedtext
0 0 0 nodecolor
18 /Times-Roman set_font
30 248.8 moveto 226 (213 constraints, 135 generators) alignedtext
grestore
% 0
gsave
0 0 0 nodecolor
18 /Times-Roman set_font
91.5 184.8 moveto 103 (x-2y-31>=0 ? ) alignedtext
0 0 0 nodecolor
18 /Times-Roman set_font
136.5 165.8 moveto 13 (\(\)) alignedtext
grestore
% paraxyy->0
gsave
1 setlinewidth
0 0 0 edgecolor
newpath 143 241.92 moveto
143 233.05 143 223.8 143 215.3 curveto
stroke
0 0 0 edgecolor
newpath 146.5 215.02 moveto
143 205.02 lineto
139.5 215.02 lineto
closepath fill
1 setlinewidth
solid
0 0 0 edgecolor
newpath 146.5 215.02 moveto
143 205.02 lineto
139.5 215.02 lineto
closepath stroke
grestore
% paraxe
gsave
1 setlinewidth
0 0 0 nodecolor
newpath 877 103 moveto
625 103 lineto
625 19 lineto
877 19 lineto
closepath stroke
0 0 0 nodecolor
18 /Times-Roman set_font
726.5 82.8 moveto 49 (paraxe) alignedtext
0 0 0 nodecolor
18 /Times-Roman set_font
642.5 63.8 moveto 217 ([|t in [2.347 , 7]; x in [31 , 50];) alignedtext
0 0 0 nodecolor
18 /Times-Roman set_font
632.5 44.8 moveto 237 (  y in [11.79 , 27]; z in [3.17 , 8]|]) alignedtext
0 0 0 nodecolor
18 /Times-Roman set_font
638 25.8 moveto 226 (141 constraints, 211 generators) alignedtext
grestore
% para_start
gsave
1 setlinewidth
0 0 0 nodecolor
newpath 1466 548 moveto
1246 548 lineto
1246 464 lineto
1466 464 lineto
closepath stroke
0 0 0 nodecolor
18 /Times-Roman set_font
1319.5 527.8 moveto 73 (para_start) alignedtext
0 0 0 nodecolor
18 /Times-Roman set_font
1253.5 508.8 moveto 205 ([|t=0; x in [0 , 2]; y in [0 , 2];) alignedtext
0 0 0 nodecolor
18 /Times-Roman set_font
1310 489.8 moveto 92 (  z in [0 , 2]|]) alignedtext
0 0 0 nodecolor
18 /Times-Roman set_font
1261 470.8 moveto 190 (7 constraints, 8 generators) alignedtext
grestore
% 9
gsave
0 0 0 nodecolor
18 /Times-Roman set_font
1224 397.8 moveto 270 (t := t+1; x := x+y; y := y+z; z := z+1\)*) alignedtext
0 0 0 nodecolor
18 /Times-Roman set_font
1352.5 378.8 moveto 13 (\(\)) alignedtext
grestore
% para_start->9
gsave
1 setlinewidth
0 0 0 edgecolor
newpath 1357.14 463.72 moveto
1357.46 452.02 1357.8 439.49 1358.1 428.37 curveto
stroke
0 0 0 edgecolor
newpath 1361.6 428.31 moveto
1358.37 418.22 lineto
1354.6 428.12 lineto
closepath fill
1 setlinewidth
solid
0 0 0 edgecolor
newpath 1361.6 428.31 moveto
1358.37 418.22 lineto
1354.6 428.12 lineto
closepath stroke
grestore
% 0->paraxyye
gsave
1 setlinewidth
0 0 0 edgecolor
newpath 143 158.96 moveto
143 151.12 143 141.9 143 132.3 curveto
stroke
0 0 0 edgecolor
newpath 146.5 132.21 moveto
143 122.21 lineto
139.5 132.21 lineto
closepath fill
1 setlinewidth
solid
0 0 0 edgecolor
newpath 146.5 132.21 moveto
143 122.21 lineto
139.5 132.21 lineto
closepath stroke
grestore
% 1->paraxyy
gsave
1 setlinewidth
0 0 0 edgecolor
newpath 143 362.3 moveto
143 354.21 143 345.34 143 336.56 curveto
stroke
0 0 0 edgecolor
newpath 146.5 336.36 moveto
143 326.36 lineto
139.5 336.36 lineto
closepath fill
1 setlinewidth
solid
0 0 0 edgecolor
newpath 146.5 336.36 moveto
143 326.36 lineto
139.5 336.36 lineto
closepath stroke
grestore
% 2->paraxye
gsave
1 setlinewidth
0 0 0 edgecolor
newpath 447 158.96 moveto
447 146.02 447 129.32 447 113.38 curveto
stroke
0 0 0 edgecolor
newpath 450.5 113.06 moveto
447 103.06 lineto
443.5 113.06 lineto
closepath fill
1 setlinewidth
solid
0 0 0 edgecolor
newpath 450.5 113.06 moveto
447 103.06 lineto
443.5 113.06 lineto
closepath stroke
grestore
% 3->paraxy
gsave
1 setlinewidth
0 0 0 edgecolor
newpath 447 362.3 moveto
447 354.21 447 345.34 447 336.56 curveto
stroke
0 0 0 edgecolor
newpath 450.5 336.36 moveto
447 326.36 lineto
443.5 336.36 lineto
closepath fill
1 setlinewidth
solid
0 0 0 edgecolor
newpath 450.5 336.36 moveto
447 326.36 lineto
443.5 336.36 lineto
closepath stroke
grestore
% 4->paraxe
gsave
1 setlinewidth
0 0 0 edgecolor
newpath 751 158.96 moveto
751 146.02 751 129.32 751 113.38 curveto
stroke
0 0 0 edgecolor
newpath 754.5 113.06 moveto
751 103.06 lineto
747.5 113.06 lineto
closepath fill
1 setlinewidth
solid
0 0 0 edgecolor
newpath 754.5 113.06 moveto
751 103.06 lineto
747.5 113.06 lineto
closepath stroke
grestore
% 5->parax
gsave
1 setlinewidth
0 0 0 edgecolor
newpath 751 362.3 moveto
751 354.21 751 345.34 751 336.56 curveto
stroke
0 0 0 edgecolor
newpath 754.5 336.36 moveto
751 326.36 lineto
747.5 336.36 lineto
closepath fill
1 setlinewidth
solid
0 0 0 edgecolor
newpath 754.5 336.36 moveto
751 326.36 lineto
747.5 336.36 lineto
closepath stroke
grestore
% 6->paraye
gsave
1 setlinewidth
0 0 0 edgecolor
newpath 1055 158.96 moveto
1055 148.57 1055 135.75 1055 122.85 curveto
stroke
0 0 0 edgecolor
newpath 1058.5 122.53 moveto
1055 112.53 lineto
1051.5 122.53 lineto
closepath fill
1 setlinewidth
solid
0 0 0 edgecolor
newpath 1058.5 122.53 moveto
1055 112.53 lineto
1051.5 122.53 lineto
closepath stroke
grestore
% 7->paray
gsave
1 setlinewidth
0 0 0 edgecolor
newpath 1055 362.3 moveto
1055 354.21 1055 345.34 1055 336.56 curveto
stroke
0 0 0 edgecolor
newpath 1058.5 336.36 moveto
1055 326.36 lineto
1051.5 336.36 lineto
closepath fill
1 setlinewidth
solid
0 0 0 edgecolor
newpath 1058.5 336.36 moveto
1055 326.36 lineto
1051.5 336.36 lineto
closepath stroke
grestore
% 8->parae
gsave
1 setlinewidth
0 0 0 edgecolor
newpath 1359 157.8 moveto
1359 145.02 1359 128.8 1359 113.31 curveto
stroke
0 0 0 edgecolor
newpath 1362.5 113.28 moveto
1359 103.28 lineto
1355.5 113.28 lineto
closepath fill
1 setlinewidth
solid
0 0 0 edgecolor
newpath 1362.5 113.28 moveto
1359 103.28 lineto
1355.5 113.28 lineto
closepath stroke
grestore
% 9->para
gsave
1 setlinewidth
0 0 0 edgecolor
newpath 1359 371.73 moveto
1359 361.4 1359 348.79 1359 336.39 curveto
stroke
0 0 0 edgecolor
newpath 1362.5 336.07 moveto
1359 326.07 lineto
1355.5 336.07 lineto
closepath fill
1 setlinewidth
solid
0 0 0 edgecolor
newpath 1362.5 336.07 moveto
1359 326.07 lineto
1355.5 336.07 lineto
closepath stroke
grestore
% 10->paraxyy_start
gsave
1 setlinewidth
0 0 0 edgecolor
newpath 150.18 583.69 moveto
149.64 575.54 149.06 566.9 148.5 558.47 curveto
stroke
0 0 0 edgecolor
newpath 151.98 558.07 moveto
147.82 548.33 lineto
145 558.54 lineto
closepath fill
1 setlinewidth
solid
0 0 0 edgecolor
newpath 151.98 558.07 moveto
147.82 548.33 lineto
145 558.54 lineto
closepath stroke
grestore
% 11->paraxy_start
gsave
1 setlinewidth
0 0 0 edgecolor
newpath 452.29 583.69 moveto
452.16 575.54 452.02 566.9 451.87 558.47 curveto
stroke
0 0 0 edgecolor
newpath 455.37 558.27 moveto
451.71 548.33 lineto
448.37 558.39 lineto
closepath fill
1 setlinewidth
solid
0 0 0 edgecolor
newpath 455.37 558.27 moveto
451.71 548.33 lineto
448.37 558.39 lineto
closepath stroke
grestore
% 12->parax_start
gsave
1 setlinewidth
0 0 0 edgecolor
newpath 751 583.69 moveto
751 575.54 751 566.9 751 558.47 curveto
stroke
0 0 0 edgecolor
newpath 754.5 558.33 moveto
751 548.33 lineto
747.5 558.33 lineto
closepath fill
1 setlinewidth
solid
0 0 0 edgecolor
newpath 754.5 558.33 moveto
751 548.33 lineto
747.5 558.33 lineto
closepath stroke
grestore
% 13->paray_start
gsave
1 setlinewidth
0 0 0 edgecolor
newpath 1050.41 583.69 moveto
1050.68 575.54 1050.97 566.9 1051.25 558.47 curveto
stroke
0 0 0 edgecolor
newpath 1054.75 558.44 moveto
1051.59 548.33 lineto
1047.76 558.21 lineto
closepath fill
1 setlinewidth
solid
0 0 0 edgecolor
newpath 1054.75 558.44 moveto
1051.59 548.33 lineto
1047.76 558.21 lineto
closepath stroke
grestore
% 14->para_start
gsave
1 setlinewidth
0 0 0 edgecolor
newpath 1350.82 583.69 moveto
1351.36 575.54 1351.94 566.9 1352.5 558.47 curveto
stroke
0 0 0 edgecolor
newpath 1356 558.54 moveto
1353.18 548.33 lineto
1349.02 558.07 lineto
closepath fill
1 setlinewidth
solid
0 0 0 edgecolor
newpath 1356 558.54 moveto
1353.18 548.33 lineto
1349.02 558.07 lineto
closepath stroke
grestore
endpage
showpage
grestore
%%PageTrailer
%%EndPage: 1
setupLatin1
%%Page: 2 2
%%PageBoundingBox: 36 36 2056 572
%%PageOrientation: Portrait
0 0 1 beginpage
gsave
36 36 2020 536 boxprim clip newpath
1 1 set_scale 0 rotate 40 41 translate
% 1073741823
gsave
1 setlinewidth
0 0 0 nodecolor
1067 505 43.84 19.09 ellipse_path stroke
0 0 0 nodecolor
18 /Times-Roman set_font
1044 498.3 moveto 46 (Result) alignedtext
grestore
% parax
gsave
1 setlinewidth
0 0 0 nodecolor
newpath 1265 326 moveto
1037 326 lineto
1037 242 lineto
1265 242 lineto
closepath stroke
0 0 0 nodecolor
18 /Times-Roman set_font
1130.5 305.8 moveto 41 (parax) alignedtext
0 0 0 nodecolor
18 /Times-Roman set_font
1048.5 286.8 moveto 205 ([|t in [0 , INF]; x in [0 , INF];) alignedtext
0 0 0 nodecolor
18 /Times-Roman set_font
1044.5 267.8 moveto 213 (  y in [0 , INF]; z in [0 , INF]|]) alignedtext
0 0 0 nodecolor
18 /Times-Roman set_font
1047 248.8 moveto 208 (22 constraints, 19 generators) alignedtext
grestore
% 4
gsave
0 0 0 nodecolor
18 /Times-Roman set_font
911.5 175.8 moveto 79 (x-31>=0 ? ) alignedtext
0 0 0 nodecolor
18 /Times-Roman set_font
944.5 156.8 moveto 13 (\(\)) alignedtext
grestore
% parax->4
gsave
1 setlinewidth
0 0 0 edgecolor
newpath 1071.87 241.8 moveto
1050.71 230.34 1027.92 217.82 1007 206 curveto
1004.2 204.42 1001.33 202.78 998.44 201.11 curveto
stroke
0 0 0 edgecolor
newpath 1000.16 198.07 moveto
989.76 196.08 lineto
996.65 204.13 lineto
closepath fill
1 setlinewidth
solid
0 0 0 edgecolor
newpath 1000.16 198.07 moveto
989.76 196.08 lineto
996.65 204.13 lineto
closepath stroke
grestore
% 5
gsave
0 0 0 nodecolor
18 /Times-Roman set_font
1109 185.3 moveto 84 (-x+30>=0 ?) alignedtext
0 0 0 nodecolor
18 /Times-Roman set_font
1023.5 166.3 moveto 255 (t := t+1; x := x+y; y := y+z; z := z+1) alignedtext
0 0 0 nodecolor
18 /Times-Roman set_font
1144.5 147.3 moveto 13 (\(\)) alignedtext
grestore
% parax->5
gsave
1 setlinewidth
0 0 0 edgecolor
newpath 1144.42 241.72 moveto
1144.2 233.27 1144.19 224.38 1144.41 215.91 curveto
stroke
0 0 0 edgecolor
newpath 1147.91 215.96 moveto
1144.78 205.84 lineto
1140.91 215.71 lineto
closepath fill
1 setlinewidth
solid
0 0 0 edgecolor
newpath 1147.91 215.96 moveto
1144.78 205.84 lineto
1140.91 215.71 lineto
closepath stroke
grestore
% paraxye
gsave
1 setlinewidth
0 0 0 nodecolor
newpath 660 103.5 moveto
424 103.5 lineto
424 .5 lineto
660 .5 lineto
closepath stroke
0 0 0 nodecolor
18 /Times-Roman set_font
513 83.3 moveto 58 (paraxye) alignedtext
0 0 0 nodecolor
18 /Times-Roman set_font
475.5 64.3 moveto 133 ([|t in [0.8906 , 32];) alignedtext
0 0 0 nodecolor
18 /Times-Roman set_font
432 45.3 moveto 220 (  x in [9.667 , 30]; y in [1 , 62];) alignedtext
0 0 0 nodecolor
18 /Times-Roman set_font
471.5 26.3 moveto 141 (  z in [0.9532 , 33]|]) alignedtext
0 0 0 nodecolor
18 /Times-Roman set_font
438 7.3 moveto 208 (24 constraints, 40 generators) alignedtext
grestore
% paray
gsave
1 setlinewidth
0 0 0 nodecolor
newpath 1618 326 moveto
1394 326 lineto
1394 242 lineto
1618 242 lineto
closepath stroke
0 0 0 nodecolor
18 /Times-Roman set_font
1485.5 305.8 moveto 41 (paray) alignedtext
0 0 0 nodecolor
18 /Times-Roman set_font
1412.5 286.8 moveto 187 ([|t in [0 , 9]; x in [0 , INF];) alignedtext
0 0 0 nodecolor
18 /Times-Roman set_font
1409.5 267.8 moveto 193 (  y in [0 , 16]; z in [0 , 10]|]) alignedtext
0 0 0 nodecolor
18 /Times-Roman set_font
1402 248.8 moveto 208 (18 constraints, 15 generators) alignedtext
grestore
% 6
gsave
0 0 0 nodecolor
18 /Times-Roman set_font
1312 175.8 moveto 70 (y-8>=0 ? ) alignedtext
0 0 0 nodecolor
18 /Times-Roman set_font
1340.5 156.8 moveto 13 (\(\)) alignedtext
grestore
% paray->6
gsave
1 setlinewidth
0 0 0 edgecolor
newpath 1445.44 241.72 moveto
1426.43 228.45 1405.89 214.11 1388.52 201.98 curveto
stroke
0 0 0 edgecolor
newpath 1390.47 199.08 moveto
1380.26 196.22 lineto
1386.46 204.81 lineto
closepath fill
1 setlinewidth
solid
0 0 0 edgecolor
newpath 1390.47 199.08 moveto
1380.26 196.22 lineto
1386.46 204.81 lineto
closepath stroke
grestore
% 7
gsave
0 0 0 nodecolor
18 /Times-Roman set_font
1505.5 185.3 moveto 75 (-y+7>=0 ?) alignedtext
0 0 0 nodecolor
18 /Times-Roman set_font
1415.5 166.3 moveto 255 (t := t+1; x := x+y; y := y+z; z := z+1) alignedtext
0 0 0 nodecolor
18 /Times-Roman set_font
1536.5 147.3 moveto 13 (\(\)) alignedtext
grestore
% paray->7
gsave
1 setlinewidth
0 0 0 edgecolor
newpath 1513.52 241.72 moveto
1516.17 233.08 1519.19 223.99 1522.3 215.36 curveto
stroke
0 0 0 edgecolor
newpath 1525.63 216.44 moveto
1525.83 205.84 lineto
1519.07 214 lineto
closepath fill
1 setlinewidth
solid
0 0 0 edgecolor
newpath 1525.63 216.44 moveto
1525.83 205.84 lineto
1519.07 214 lineto
closepath stroke
grestore
% linit
gsave
1 setlinewidth
0 0 0 nodecolor
newpath 1173 528 moveto
1129 528 lineto
1129 482 lineto
1173 482 lineto
closepath stroke
0 0 0 nodecolor
18 /Times-Roman set_font
1137 507.8 moveto 28 (linit) alignedtext
0 0 0 nodecolor
18 /Times-Roman set_font
1139 488.8 moveto 24 (top) alignedtext
grestore
% 10
gsave
0 0 0 nodecolor
18 /Times-Roman set_font
262.5 425.8 moveto 263 (-z+2>=0 and z>=0 and -y+2>=0 and) alignedtext
0 0 0 nodecolor
18 /Times-Roman set_font
283 406.8 moveto 222 (y>=0 and -x+2>=0 and x>=0 ?) alignedtext
0 0 0 nodecolor
18 /Times-Roman set_font
375 387.8 moveto 38 (t := 0) alignedtext
0 0 0 nodecolor
18 /Times-Roman set_font
387.5 368.8 moveto 13 (\(\)) alignedtext
grestore
% linit->10
gsave
1 setlinewidth
0 0 0 edgecolor
newpath 1128.83 486.35 moveto
1125.99 484.64 1123.01 483.13 1120 482 curveto
1022.92 445.7 757.92 458.24 655 446 curveto
618.76 441.69 579.85 436 543.42 430.21 curveto
stroke
0 0 0 edgecolor
newpath 543.65 426.7 moveto
533.22 428.58 lineto
542.54 433.62 lineto
closepath fill
1 setlinewidth
solid
0 0 0 edgecolor
newpath 543.65 426.7 moveto
533.22 428.58 lineto
542.54 433.62 lineto
closepath stroke
grestore
% 11
gsave
0 0 0 nodecolor
18 /Times-Roman set_font
671.5 425.8 moveto 263 (-z+2>=0 and z>=0 and -y+2>=0 and) alignedtext
0 0 0 nodecolor
18 /Times-Roman set_font
692 406.8 moveto 222 (y>=0 and -x+2>=0 and x>=0 ?) alignedtext
0 0 0 nodecolor
18 /Times-Roman set_font
784 387.8 moveto 38 (t := 0) alignedtext
0 0 0 nodecolor
18 /Times-Roman set_font
796.5 368.8 moveto 13 (\(\)) alignedtext
grestore
% linit->11
gsave
1 setlinewidth
0 0 0 edgecolor
newpath 1128.98 487.06 moveto
1126.06 485.17 1123.03 483.43 1120 482 curveto
1089.51 467.65 1018.96 449.81 952.14 434.81 curveto
stroke
0 0 0 edgecolor
newpath 952.83 431.38 moveto
942.31 432.62 lineto
951.31 438.21 lineto
closepath fill
1 setlinewidth
solid
0 0 0 edgecolor
newpath 952.83 431.38 moveto
942.31 432.62 lineto
951.31 438.21 lineto
closepath stroke
grestore
% 12
gsave
0 0 0 nodecolor
18 /Times-Roman set_font
1019.5 425.8 moveto 263 (-z+2>=0 and z>=0 and -y+2>=0 and) alignedtext
0 0 0 nodecolor
18 /Times-Roman set_font
1040 406.8 moveto 222 (y>=0 and -x+2>=0 and x>=0 ?) alignedtext
0 0 0 nodecolor
18 /Times-Roman set_font
1132 387.8 moveto 38 (t := 0) alignedtext
0 0 0 nodecolor
18 /Times-Roman set_font
1144.5 368.8 moveto 13 (\(\)) alignedtext
grestore
% linit->12
gsave
1 setlinewidth
0 0 0 edgecolor
newpath 1151 481.83 moveto
1151 474.13 1151 465.21 1151 456.22 curveto
stroke
0 0 0 edgecolor
newpath 1154.5 456.11 moveto
1151 446.11 lineto
1147.5 456.11 lineto
closepath fill
1 setlinewidth
solid
0 0 0 edgecolor
newpath 1154.5 456.11 moveto
1151 446.11 lineto
1147.5 456.11 lineto
closepath stroke
grestore
% 13
gsave
0 0 0 nodecolor
18 /Times-Roman set_font
1348.5 425.8 moveto 263 (-z+2>=0 and z>=0 and -y+2>=0 and) alignedtext
0 0 0 nodecolor
18 /Times-Roman set_font
1369 406.8 moveto 222 (y>=0 and -x+2>=0 and x>=0 ?) alignedtext
0 0 0 nodecolor
18 /Times-Roman set_font
1461 387.8 moveto 38 (t := 0) alignedtext
0 0 0 nodecolor
18 /Times-Roman set_font
1473.5 368.8 moveto 13 (\(\)) alignedtext
grestore
% linit->13
gsave
1 setlinewidth
0 0 0 edgecolor
newpath 1173.1 498.22 moveto
1206.19 488.06 1271.37 468.05 1333.18 449.07 curveto
stroke
0 0 0 edgecolor
newpath 1334.53 452.32 moveto
1343.06 446.04 lineto
1332.47 445.63 lineto
closepath fill
1 setlinewidth
solid
0 0 0 edgecolor
newpath 1334.53 452.32 moveto
1343.06 446.04 lineto
1332.47 445.63 lineto
closepath stroke
grestore
% 14
gsave
0 0 0 nodecolor
18 /Times-Roman set_font
1661.5 425.8 moveto 263 (-z+2>=0 and z>=0 and -y+2>=0 and) alignedtext
0 0 0 nodecolor
18 /Times-Roman set_font
1682 406.8 moveto 222 (y>=0 and -x+2>=0 and x>=0 ?) alignedtext
0 0 0 nodecolor
18 /Times-Roman set_font
1774 387.8 moveto 38 (t := 0) alignedtext
0 0 0 nodecolor
18 /Times-Roman set_font
1786.5 368.8 moveto 13 (\(\)) alignedtext
grestore
% linit->14
gsave
1 setlinewidth
0 0 0 edgecolor
newpath 1173.02 503.27 moveto
1241.12 497.72 1454.16 478.74 1628 446 curveto
1633.13 445.03 1638.34 444 1643.6 442.91 curveto
stroke
0 0 0 edgecolor
newpath 1644.69 446.26 moveto
1653.74 440.76 lineto
1643.23 439.41 lineto
closepath fill
1 setlinewidth
solid
0 0 0 edgecolor
newpath 1644.69 446.26 moveto
1653.74 440.76 lineto
1643.23 439.41 lineto
closepath stroke
grestore
% para
gsave
1 setlinewidth
0 0 0 nodecolor
newpath 1974 326 moveto
1746 326 lineto
1746 242 lineto
1974 242 lineto
closepath stroke
0 0 0 nodecolor
18 /Times-Roman set_font
1844 305.8 moveto 32 (para) alignedtext
0 0 0 nodecolor
18 /Times-Roman set_font
1757.5 286.8 moveto 205 ([|t in [0 , INF]; x in [0 , INF];) alignedtext
0 0 0 nodecolor
18 /Times-Roman set_font
1753.5 267.8 moveto 213 (  y in [0 , INF]; z in [0 , INF]|]) alignedtext
0 0 0 nodecolor
18 /Times-Roman set_font
1756 248.8 moveto 208 (10 constraints, 10 generators) alignedtext
grestore
% 8
gsave
0 0 0 nodecolor
18 /Times-Roman set_font
1703.5 155.8 moveto 13 (\(\)) alignedtext
grestore
% para->8
gsave
1 setlinewidth
0 0 0 edgecolor
newpath 1780.15 241.92 moveto
1763.64 231.37 1747.02 219.23 1733 206 curveto
1732.21 205.26 1731.44 204.48 1730.67 203.68 curveto
stroke
0 0 0 edgecolor
newpath 1733.31 201.39 moveto
1724.18 196.01 lineto
1727.97 205.91 lineto
closepath fill
1 setlinewidth
solid
0 0 0 edgecolor
newpath 1733.31 201.39 moveto
1724.18 196.01 lineto
1727.97 205.91 lineto
closepath stroke
grestore
% 9
gsave
0 0 0 nodecolor
18 /Times-Roman set_font
1749.5 175.8 moveto 255 (t := t+1; x := x+y; y := y+z; z := z+1) alignedtext
0 0 0 nodecolor
18 /Times-Roman set_font
1870.5 156.8 moveto 13 (\(\)) alignedtext
grestore
% para->9
gsave
1 setlinewidth
0 0 0 edgecolor
newpath 1859.9 241.72 moveto
1861.39 229.9 1863.45 217.23 1865.71 206.03 curveto
stroke
0 0 0 edgecolor
newpath 1869.14 206.73 moveto
1867.83 196.22 lineto
1862.3 205.25 lineto
closepath fill
1 setlinewidth
solid
0 0 0 edgecolor
newpath 1869.14 206.73 moveto
1867.83 196.22 lineto
1862.3 205.25 lineto
closepath stroke
grestore
% paraye
gsave
1 setlinewidth
0 0 0 nodecolor
newpath 1463 94 moveto
1231 94 lineto
1231 10 lineto
1463 10 lineto
closepath stroke
0 0 0 nodecolor
18 /Times-Roman set_font
1322.5 73.8 moveto 49 (paraye) alignedtext
0 0 0 nodecolor
18 /Times-Roman set_font
1238.5 54.8 moveto 217 ([|t in [1.333 , 9]; x in [3 , INF];) alignedtext
0 0 0 nodecolor
18 /Times-Roman set_font
1250.5 35.8 moveto 193 (  y in [8 , 16]; z in [2 , 10]|]) alignedtext
0 0 0 nodecolor
18 /Times-Roman set_font
1243 16.8 moveto 208 (15 constraints, 19 generators) alignedtext
grestore
% paraxy
gsave
1 setlinewidth
0 0 0 nodecolor
newpath 863 326 moveto
639 326 lineto
639 242 lineto
863 242 lineto
closepath stroke
0 0 0 nodecolor
18 /Times-Roman set_font
726 305.8 moveto 50 (paraxy) alignedtext
0 0 0 nodecolor
18 /Times-Roman set_font
658 286.8 moveto 186 ([|t in [0 , 32]; x in [0 , 30];) alignedtext
0 0 0 nodecolor
18 /Times-Roman set_font
654.5 267.8 moveto 193 (  y in [0 , 62]; z in [0 , 33]|]) alignedtext
0 0 0 nodecolor
18 /Times-Roman set_font
647 248.8 moveto 208 (28 constraints, 25 generators) alignedtext
grestore
% 2
gsave
0 0 0 nodecolor
18 /Times-Roman set_font
493.5 175.8 moveto 97 (x+y-31>=0 ? ) alignedtext
0 0 0 nodecolor
18 /Times-Roman set_font
535.5 156.8 moveto 13 (\(\)) alignedtext
grestore
% paraxy->2
gsave
1 setlinewidth
0 0 0 edgecolor
newpath 671.69 241.88 moveto
645.9 228.18 617.93 213.32 594.59 200.93 curveto
stroke
0 0 0 edgecolor
newpath 596.03 197.73 moveto
585.56 196.13 lineto
592.75 203.91 lineto
closepath fill
1 setlinewidth
solid
0 0 0 edgecolor
newpath 596.03 197.73 moveto
585.56 196.13 lineto
592.75 203.91 lineto
closepath stroke
grestore
% 3
gsave
0 0 0 nodecolor
18 /Times-Roman set_font
701.5 185.3 moveto 99 (-x-y+30>=0 ?) alignedtext
0 0 0 nodecolor
18 /Times-Roman set_font
623.5 166.3 moveto 255 (t := t+1; x := x+y; y := y+z; z := z+1) alignedtext
0 0 0 nodecolor
18 /Times-Roman set_font
744.5 147.3 moveto 13 (\(\)) alignedtext
grestore
% paraxy->3
gsave
1 setlinewidth
0 0 0 edgecolor
newpath 744.42 241.72 moveto
744.2 233.27 744.19 224.38 744.41 215.91 curveto
stroke
0 0 0 edgecolor
newpath 747.91 215.96 moveto
744.78 205.84 lineto
740.91 215.71 lineto
closepath fill
1 setlinewidth
solid
0 0 0 edgecolor
newpath 747.91 215.96 moveto
744.78 205.84 lineto
740.91 215.71 lineto
closepath stroke
grestore
% parae
gsave
1 setlinewidth
0 0 0 nodecolor
newpath 1824 94 moveto
1596 94 lineto
1596 10 lineto
1824 10 lineto
closepath stroke
0 0 0 nodecolor
18 /Times-Roman set_font
1690 73.8 moveto 40 (parae) alignedtext
0 0 0 nodecolor
18 /Times-Roman set_font
1607.5 54.8 moveto 205 ([|t in [0 , INF]; x in [0 , INF];) alignedtext
0 0 0 nodecolor
18 /Times-Roman set_font
1603.5 35.8 moveto 213 (  y in [0 , INF]; z in [0 , INF]|]) alignedtext
0 0 0 nodecolor
18 /Times-Roman set_font
1606 16.8 moveto 208 (10 constraints, 10 generators) alignedtext
grestore
% paraxyye
gsave
1 setlinewidth
0 0 0 nodecolor
newpath 242 94 moveto
0 94 lineto
0 10 lineto
242 10 lineto
closepath stroke
0 0 0 nodecolor
18 /Times-Roman set_font
87.5 73.8 moveto 67 (paraxyye) alignedtext
0 0 0 nodecolor
18 /Times-Roman set_font
7.5 54.8 moveto 227 ([|t in [0 , INF]; x in [38.4 , INF];) alignedtext
0 0 0 nodecolor
18 /Times-Roman set_font
8 35.8 moveto 226 (  y in [3.7 , INF]; z in [0 , INF]|]) alignedtext
0 0 0 nodecolor
18 /Times-Roman set_font
17 16.8 moveto 208 (11 constraints, 16 generators) alignedtext
grestore
% paraxyy
gsave
1 setlinewidth
0 0 0 nodecolor
newpath 447 326 moveto
219 326 lineto
219 242 lineto
447 242 lineto
closepath stroke
0 0 0 nodecolor
18 /Times-Roman set_font
303.5 305.8 moveto 59 (paraxyy) alignedtext
0 0 0 nodecolor
18 /Times-Roman set_font
230.5 286.8 moveto 205 ([|t in [0 , INF]; x in [0 , INF];) alignedtext
0 0 0 nodecolor
18 /Times-Roman set_font
226.5 267.8 moveto 213 (  y in [0 , INF]; z in [0 , INF]|]) alignedtext
0 0 0 nodecolor
18 /Times-Roman set_font
229 248.8 moveto 208 (20 constraints, 19 generators) alignedtext
grestore
% 0
gsave
0 0 0 nodecolor
18 /Times-Roman set_font
69.5 175.8 moveto 103 (x-2y-31>=0 ? ) alignedtext
0 0 0 nodecolor
18 /Times-Roman set_font
114.5 156.8 moveto 13 (\(\)) alignedtext
grestore
% paraxyy->0
gsave
1 setlinewidth
0 0 0 edgecolor
newpath 252.55 241.88 moveto
226.39 228.18 198.02 213.32 174.34 200.93 curveto
stroke
0 0 0 edgecolor
newpath 175.66 197.67 moveto
165.18 196.13 lineto
172.42 203.87 lineto
closepath fill
1 setlinewidth
solid
0 0 0 edgecolor
newpath 175.66 197.67 moveto
165.18 196.13 lineto
172.42 203.87 lineto
closepath stroke
grestore
% 1
gsave
0 0 0 nodecolor
18 /Times-Roman set_font
277.5 185.3 moveto 111 (-x+2y+30>=0 ?) alignedtext
0 0 0 nodecolor
18 /Times-Roman set_font
205.5 166.3 moveto 255 (t := t+1; x := x+y; y := y+z; z := z+1) alignedtext
0 0 0 nodecolor
18 /Times-Roman set_font
326.5 147.3 moveto 13 (\(\)) alignedtext
grestore
% paraxyy->1
gsave
1 setlinewidth
0 0 0 edgecolor
newpath 326.42 241.72 moveto
326.2 233.27 326.19 224.38 326.41 215.91 curveto
stroke
0 0 0 edgecolor
newpath 329.91 215.96 moveto
326.78 205.84 lineto
322.91 215.71 lineto
closepath fill
1 setlinewidth
solid
0 0 0 edgecolor
newpath 329.91 215.96 moveto
326.78 205.84 lineto
322.91 215.71 lineto
closepath stroke
grestore
% paraxe
gsave
1 setlinewidth
0 0 0 nodecolor
newpath 1086 103.5 moveto
816 103.5 lineto
816 .5 lineto
1086 .5 lineto
closepath stroke
0 0 0 nodecolor
18 /Times-Roman set_font
926.5 83.3 moveto 49 (paraxe) alignedtext
0 0 0 nodecolor
18 /Times-Roman set_font
824 64.3 moveto 254 ([|t in [0.4833 , INF]; x in [31 , INF];) alignedtext
0 0 0 nodecolor
18 /Times-Roman set_font
882 45.3 moveto 138 (  y in [1.964 , INF];) alignedtext
0 0 0 nodecolor
18 /Times-Roman set_font
875.5 26.3 moveto 151 (  z in [0.4833 , INF]|]) alignedtext
0 0 0 nodecolor
18 /Times-Roman set_font
847 7.3 moveto 208 (18 constraints, 28 generators) alignedtext
grestore
% 0->paraxyye
gsave
1 setlinewidth
0 0 0 edgecolor
newpath 121 149.96 moveto
121 137.02 121 120.32 121 104.38 curveto
stroke
0 0 0 edgecolor
newpath 124.5 104.06 moveto
121 94.06 lineto
117.5 104.06 lineto
closepath fill
1 setlinewidth
solid
0 0 0 edgecolor
newpath 124.5 104.06 moveto
121 94.06 lineto
117.5 104.06 lineto
closepath stroke
grestore
% 1->paraxyy
gsave
1 setlinewidth
0 0 0 edgecolor
newpath 339.22 205.84 moveto
339.62 213.93 339.79 222.78 339.74 231.54 curveto
stroke
0 0 0 edgecolor
newpath 336.24 231.66 moveto
339.58 241.72 lineto
343.24 231.78 lineto
closepath fill
1 setlinewidth
solid
0 0 0 edgecolor
newpath 336.24 231.66 moveto
339.58 241.72 lineto
343.24 231.78 lineto
closepath stroke
grestore
% 2->paraxye
gsave
1 setlinewidth
0 0 0 edgecolor
newpath 542 149.96 moveto
542 139.57 542 126.75 542 113.85 curveto
stroke
0 0 0 edgecolor
newpath 545.5 113.53 moveto
542 103.53 lineto
538.5 113.53 lineto
closepath fill
1 setlinewidth
solid
0 0 0 edgecolor
newpath 545.5 113.53 moveto
542 103.53 lineto
538.5 113.53 lineto
closepath stroke
grestore
% 3->paraxy
gsave
1 setlinewidth
0 0 0 edgecolor
newpath 757.22 205.84 moveto
757.62 213.93 757.79 222.78 757.74 231.54 curveto
stroke
0 0 0 edgecolor
newpath 754.24 231.66 moveto
757.58 241.72 lineto
761.24 231.78 lineto
closepath fill
1 setlinewidth
solid
0 0 0 edgecolor
newpath 754.24 231.66 moveto
757.58 241.72 lineto
761.24 231.78 lineto
closepath stroke
grestore
% 4->paraxe
gsave
1 setlinewidth
0 0 0 edgecolor
newpath 951 149.96 moveto
951 139.57 951 126.75 951 113.85 curveto
stroke
0 0 0 edgecolor
newpath 954.5 113.53 moveto
951 103.53 lineto
947.5 113.53 lineto
closepath fill
1 setlinewidth
solid
0 0 0 edgecolor
newpath 954.5 113.53 moveto
951 103.53 lineto
947.5 113.53 lineto
closepath stroke
grestore
% 5->parax
gsave
1 setlinewidth
0 0 0 edgecolor
newpath 1157.22 205.84 moveto
1157.62 213.93 1157.79 222.78 1157.74 231.54 curveto
stroke
0 0 0 edgecolor
newpath 1154.24 231.66 moveto
1157.58 241.72 lineto
1161.24 231.78 lineto
closepath fill
1 setlinewidth
solid
0 0 0 edgecolor
newpath 1154.24 231.66 moveto
1157.58 241.72 lineto
1161.24 231.78 lineto
closepath stroke
grestore
% 6->paraye
gsave
1 setlinewidth
0 0 0 edgecolor
newpath 1347 149.96 moveto
1347 137.02 1347 120.32 1347 104.38 curveto
stroke
0 0 0 edgecolor
newpath 1350.5 104.06 moveto
1347 94.06 lineto
1343.5 104.06 lineto
closepath fill
1 setlinewidth
solid
0 0 0 edgecolor
newpath 1350.5 104.06 moveto
1347 94.06 lineto
1343.5 104.06 lineto
closepath stroke
grestore
% 7->paray
gsave
1 setlinewidth
0 0 0 edgecolor
newpath 1538.28 205.84 moveto
1535.93 214.1 1533.08 223.17 1530.03 232.11 curveto
stroke
0 0 0 edgecolor
newpath 1526.67 231.12 moveto
1526.67 241.72 lineto
1533.28 233.44 lineto
closepath fill
1 setlinewidth
solid
0 0 0 edgecolor
newpath 1526.67 231.12 moveto
1526.67 241.72 lineto
1533.28 233.44 lineto
closepath stroke
grestore
% 8->parae
gsave
1 setlinewidth
0 0 0 edgecolor
newpath 1710 148.8 moveto
1710 136.02 1710 119.8 1710 104.31 curveto
stroke
0 0 0 edgecolor
newpath 1713.5 104.28 moveto
1710 94.28 lineto
1706.5 104.28 lineto
closepath fill
1 setlinewidth
solid
0 0 0 edgecolor
newpath 1713.5 104.28 moveto
1710 94.28 lineto
1706.5 104.28 lineto
closepath stroke
grestore
% 9->para
gsave
1 setlinewidth
0 0 0 edgecolor
newpath 1879.05 196.22 moveto
1878.3 206.61 1876.73 219.32 1874.73 231.8 curveto
stroke
0 0 0 edgecolor
newpath 1871.27 231.27 moveto
1873.05 241.72 lineto
1878.17 232.44 lineto
closepath fill
1 setlinewidth
solid
0 0 0 edgecolor
newpath 1871.27 231.27 moveto
1873.05 241.72 lineto
1878.17 232.44 lineto
closepath stroke
grestore
% 10->paraxyy
gsave
1 setlinewidth
0 0 0 edgecolor
newpath 372.49 361.69 moveto
368.17 353.18 363.57 344.14 359.11 335.36 curveto
stroke
0 0 0 edgecolor
newpath 362.17 333.66 moveto
354.52 326.33 lineto
355.93 336.83 lineto
closepath fill
1 setlinewidth
solid
0 0 0 edgecolor
newpath 362.17 333.66 moveto
354.52 326.33 lineto
355.93 336.83 lineto
closepath stroke
grestore
% 11->paraxy
gsave
1 setlinewidth
0 0 0 edgecolor
newpath 784.67 361.69 moveto
781.02 353.27 777.14 344.33 773.38 335.64 curveto
stroke
0 0 0 edgecolor
newpath 776.53 334.11 moveto
769.34 326.33 lineto
770.11 336.9 lineto
closepath fill
1 setlinewidth
solid
0 0 0 edgecolor
newpath 776.53 334.11 moveto
769.34 326.33 lineto
770.11 336.9 lineto
closepath stroke
grestore
% 12->parax
gsave
1 setlinewidth
0 0 0 edgecolor
newpath 1151 361.69 moveto
1151 353.54 1151 344.9 1151 336.47 curveto
stroke
0 0 0 edgecolor
newpath 1154.5 336.33 moveto
1151 326.33 lineto
1147.5 336.33 lineto
closepath fill
1 setlinewidth
solid
0 0 0 edgecolor
newpath 1154.5 336.33 moveto
1151 326.33 lineto
1147.5 336.33 lineto
closepath stroke
grestore
% 13->paray
gsave
1 setlinewidth
0 0 0 edgecolor
newpath 1489.17 361.69 moveto
1490.95 353.45 1492.85 344.71 1494.69 336.19 curveto
stroke
0 0 0 edgecolor
newpath 1498.13 336.84 moveto
1496.83 326.33 lineto
1491.29 335.36 lineto
closepath fill
1 setlinewidth
solid
0 0 0 edgecolor
newpath 1498.13 336.84 moveto
1496.83 326.33 lineto
1491.29 335.36 lineto
closepath stroke
grestore
% 14->para
gsave
1 setlinewidth
0 0 0 edgecolor
newpath 1816.62 361.69 moveto
1821.43 353.09 1826.53 343.95 1831.48 335.08 curveto
stroke
0 0 0 edgecolor
newpath 1834.55 336.77 moveto
1836.37 326.33 lineto
1828.43 333.35 lineto
closepath fill
1 setlinewidth
solid
0 0 0 edgecolor
newpath 1834.55 336.77 moveto
1836.37 326.33 lineto
1828.43 333.35 lineto
closepath stroke
grestore
endpage
showpage
grestore
%%PageTrailer
%%EndPage: 2
setupLatin1
%%Page: 3 3
%%PageBoundingBox: 36 36 1546 756
%%PageOrientation: Portrait
0 0 1 beginpage
gsave
36 36 1510 720 boxprim clip newpath
1 1 set_scale 0 rotate 40 41 translate
% 1073741823
gsave
1 setlinewidth
0 0 0 nodecolor
667 689 43.84 19.09 ellipse_path stroke
0 0 0 nodecolor
18 /Times-Roman set_font
644 682.3 moveto 46 (Result) alignedtext
grestore
% paraxye
gsave
1 setlinewidth
0 0 0 nodecolor
newpath 565 84 moveto
329 84 lineto
329 0 lineto
565 0 lineto
closepath stroke
0 0 0 nodecolor
18 /Times-Roman set_font
418 63.8 moveto 58 (paraxye) alignedtext
0 0 0 nodecolor
18 /Times-Roman set_font
337 44.8 moveto 220 ([|t in [0 , INF]; x in [-INF , 30];) alignedtext
0 0 0 nodecolor
18 /Times-Roman set_font
340.5 25.8 moveto 213 (  y in [1 , INF]; z in [0 , INF]|]) alignedtext
0 0 0 nodecolor
18 /Times-Roman set_font
352 6.8 moveto 190 (6 constraints, 7 generators) alignedtext
grestore
% parax
gsave
1 setlinewidth
0 0 0 nodecolor
newpath 872 278.5 moveto
630 278.5 lineto
630 213.5 lineto
872 213.5 lineto
closepath stroke
0 0 0 nodecolor
18 /Times-Roman set_font
730.5 258.3 moveto 41 (parax) alignedtext
0 0 0 nodecolor
18 /Times-Roman set_font
637.5 239.3 moveto 227 ([|t in [0 , INF]; ; ; z in [0 , INF]|]) alignedtext
0 0 0 nodecolor
18 /Times-Roman set_font
656 220.3 moveto 190 (6 constraints, 7 generators) alignedtext
grestore
% 4
gsave
0 0 0 nodecolor
18 /Times-Roman set_font
711.5 146.8 moveto 79 (x-31>=0 ? ) alignedtext
0 0 0 nodecolor
18 /Times-Roman set_font
744.5 127.8 moveto 13 (\(\)) alignedtext
grestore
% parax->4
gsave
1 setlinewidth
0 0 0 edgecolor
newpath 751 213.45 moveto
751 201.93 751 188.96 751 177.38 curveto
stroke
0 0 0 edgecolor
newpath 754.5 177.21 moveto
751 167.21 lineto
747.5 177.21 lineto
closepath fill
1 setlinewidth
solid
0 0 0 edgecolor
newpath 754.5 177.21 moveto
751 167.21 lineto
747.5 177.21 lineto
closepath stroke
grestore
% paray
gsave
1 setlinewidth
0 0 0 nodecolor
newpath 1176 278.5 moveto
934 278.5 lineto
934 213.5 lineto
1176 213.5 lineto
closepath stroke
0 0 0 nodecolor
18 /Times-Roman set_font
1034.5 258.3 moveto 41 (paray) alignedtext
0 0 0 nodecolor
18 /Times-Roman set_font
941.5 239.3 moveto 227 ([|t in [0 , INF]; ; ; z in [0 , INF]|]) alignedtext
0 0 0 nodecolor
18 /Times-Roman set_font
960 220.3 moveto 190 (6 constraints, 7 generators) alignedtext
grestore
% 6
gsave
0 0 0 nodecolor
18 /Times-Roman set_font
1020 146.8 moveto 70 (y-8>=0 ? ) alignedtext
0 0 0 nodecolor
18 /Times-Roman set_font
1048.5 127.8 moveto 13 (\(\)) alignedtext
grestore
% paray->6
gsave
1 setlinewidth
0 0 0 edgecolor
newpath 1055 213.45 moveto
1055 201.93 1055 188.96 1055 177.38 curveto
stroke
0 0 0 edgecolor
newpath 1058.5 177.21 moveto
1055 167.21 lineto
1051.5 177.21 lineto
closepath fill
1 setlinewidth
solid
0 0 0 edgecolor
newpath 1058.5 177.21 moveto
1055 167.21 lineto
1051.5 177.21 lineto
closepath stroke
grestore
% paraxyy_start
gsave
1 setlinewidth
0 0 0 nodecolor
newpath 255 510 moveto
35 510 lineto
35 426 lineto
255 426 lineto
closepath stroke
0 0 0 nodecolor
18 /Times-Roman set_font
95 489.8 moveto 100 (paraxyy_start) alignedtext
0 0 0 nodecolor
18 /Times-Roman set_font
42.5 470.8 moveto 205 ([|t=0; x in [0 , 2]; y in [0 , 2];) alignedtext
0 0 0 nodecolor
18 /Times-Roman set_font
99 451.8 moveto 92 (  z in [0 , 2]|]) alignedtext
0 0 0 nodecolor
18 /Times-Roman set_font
50 432.8 moveto 190 (7 constraints, 8 generators) alignedtext
grestore
% 1
gsave
0 0 0 nodecolor
18 /Times-Roman set_font
84.5 369.3 moveto 117 (\(-x+2y+30>=0 ?) alignedtext
0 0 0 nodecolor
18 /Times-Roman set_font
8 350.3 moveto 270 (t := t+1; x := x+y; y := y+z; z := z+1\)*) alignedtext
0 0 0 nodecolor
18 /Times-Roman set_font
136.5 331.3 moveto 13 (\(\)) alignedtext
grestore
% paraxyy_start->1
gsave
1 setlinewidth
0 0 0 edgecolor
newpath 144.24 425.72 moveto
144.09 417.27 143.93 408.38 143.77 399.91 curveto
stroke
0 0 0 edgecolor
newpath 147.27 399.78 moveto
143.59 389.84 lineto
140.27 399.9 lineto
closepath fill
1 setlinewidth
solid
0 0 0 edgecolor
newpath 147.27 399.78 moveto
143.59 389.84 lineto
140.27 399.9 lineto
closepath stroke
grestore
% linit
gsave
1 setlinewidth
0 0 0 nodecolor
newpath 773 712 moveto
729 712 lineto
729 666 lineto
773 666 lineto
closepath stroke
0 0 0 nodecolor
18 /Times-Roman set_font
737 691.8 moveto 28 (linit) alignedtext
0 0 0 nodecolor
18 /Times-Roman set_font
739 672.8 moveto 24 (top) alignedtext
grestore
% 10
gsave
0 0 0 nodecolor
18 /Times-Roman set_font
21.5 609.8 moveto 263 (-z+2>=0 and z>=0 and -y+2>=0 and) alignedtext
0 0 0 nodecolor
18 /Times-Roman set_font
42 590.8 moveto 222 (y>=0 and -x+2>=0 and x>=0 ?) alignedtext
0 0 0 nodecolor
18 /Times-Roman set_font
134 571.8 moveto 38 (t := 0) alignedtext
0 0 0 nodecolor
18 /Times-Roman set_font
146.5 552.8 moveto 13 (\(\)) alignedtext
grestore
% linit->10
gsave
1 setlinewidth
0 0 0 edgecolor
newpath 728.82 670.38 moveto
725.98 668.66 723.01 667.14 720 666 curveto
546.89 600.36 487.21 662.79 305 630 curveto
304.09 629.84 303.17 629.67 302.25 629.5 curveto
stroke
0 0 0 edgecolor
newpath 302.82 626.04 moveto
292.34 627.57 lineto
301.48 632.91 lineto
closepath fill
1 setlinewidth
solid
0 0 0 edgecolor
newpath 302.82 626.04 moveto
292.34 627.57 lineto
301.48 632.91 lineto
closepath stroke
grestore
% 11
gsave
0 0 0 nodecolor
18 /Times-Roman set_font
321.5 609.8 moveto 263 (-z+2>=0 and z>=0 and -y+2>=0 and) alignedtext
0 0 0 nodecolor
18 /Times-Roman set_font
342 590.8 moveto 222 (y>=0 and -x+2>=0 and x>=0 ?) alignedtext
0 0 0 nodecolor
18 /Times-Roman set_font
434 571.8 moveto 38 (t := 0) alignedtext
0 0 0 nodecolor
18 /Times-Roman set_font
446.5 552.8 moveto 13 (\(\)) alignedtext
grestore
% linit->11
gsave
1 setlinewidth
0 0 0 edgecolor
newpath 728.91 671.19 moveto
726.01 669.28 723 667.49 720 666 curveto
713.82 662.93 659.86 647.03 602.05 630.38 curveto
stroke
0 0 0 edgecolor
newpath 602.94 626.99 moveto
592.36 627.59 lineto
601.01 633.72 lineto
closepath fill
1 setlinewidth
solid
0 0 0 edgecolor
newpath 602.94 626.99 moveto
592.36 627.59 lineto
601.01 633.72 lineto
closepath stroke
grestore
% 12
gsave
0 0 0 nodecolor
18 /Times-Roman set_font
619.5 609.8 moveto 263 (-z+2>=0 and z>=0 and -y+2>=0 and) alignedtext
0 0 0 nodecolor
18 /Times-Roman set_font
640 590.8 moveto 222 (y>=0 and -x+2>=0 and x>=0 ?) alignedtext
0 0 0 nodecolor
18 /Times-Roman set_font
732 571.8 moveto 38 (t := 0) alignedtext
0 0 0 nodecolor
18 /Times-Roman set_font
744.5 552.8 moveto 13 (\(\)) alignedtext
grestore
% linit->12
gsave
1 setlinewidth
0 0 0 edgecolor
newpath 751 665.83 moveto
751 658.13 751 649.21 751 640.22 curveto
stroke
0 0 0 edgecolor
newpath 754.5 640.11 moveto
751 630.11 lineto
747.5 640.11 lineto
closepath fill
1 setlinewidth
solid
0 0 0 edgecolor
newpath 754.5 640.11 moveto
751 630.11 lineto
747.5 640.11 lineto
closepath stroke
grestore
% 13
gsave
0 0 0 nodecolor
18 /Times-Roman set_font
917.5 609.8 moveto 263 (-z+2>=0 and z>=0 and -y+2>=0 and) alignedtext
0 0 0 nodecolor
18 /Times-Roman set_font
938 590.8 moveto 222 (y>=0 and -x+2>=0 and x>=0 ?) alignedtext
0 0 0 nodecolor
18 /Times-Roman set_font
1030 571.8 moveto 38 (t := 0) alignedtext
0 0 0 nodecolor
18 /Times-Roman set_font
1042.5 552.8 moveto 13 (\(\)) alignedtext
grestore
% linit->13
gsave
1 setlinewidth
0 0 0 edgecolor
newpath 773.4 681.41 moveto
803.85 671.09 860.76 651.8 914.99 633.42 curveto
stroke
0 0 0 edgecolor
newpath 916.38 636.64 moveto
924.73 630.12 lineto
914.13 630.01 lineto
closepath fill
1 setlinewidth
solid
0 0 0 edgecolor
newpath 916.38 636.64 moveto
924.73 630.12 lineto
914.13 630.01 lineto
closepath stroke
grestore
% 14
gsave
0 0 0 nodecolor
18 /Times-Roman set_font
1216.5 609.8 moveto 263 (-z+2>=0 and z>=0 and -y+2>=0 and) alignedtext
0 0 0 nodecolor
18 /Times-Roman set_font
1237 590.8 moveto 222 (y>=0 and -x+2>=0 and x>=0 ?) alignedtext
0 0 0 nodecolor
18 /Times-Roman set_font
1329 571.8 moveto 38 (t := 0) alignedtext
0 0 0 nodecolor
18 /Times-Roman set_font
1341.5 552.8 moveto 13 (\(\)) alignedtext
grestore
% linit->14
gsave
1 setlinewidth
0 0 0 edgecolor
newpath 773.46 687.15 moveto
839.13 681.49 1036.29 662.81 1197 630 curveto
1197.6 629.88 1198.21 629.75 1198.82 629.63 curveto
stroke
0 0 0 edgecolor
newpath 1199.67 633.02 moveto
1208.72 627.5 lineto
1198.21 626.18 lineto
closepath fill
1 setlinewidth
solid
0 0 0 edgecolor
newpath 1199.67 633.02 moveto
1208.72 627.5 lineto
1198.21 626.18 lineto
closepath stroke
grestore
% paray_start
gsave
1 setlinewidth
0 0 0 nodecolor
newpath 1163 510 moveto
943 510 lineto
943 426 lineto
1163 426 lineto
closepath stroke
0 0 0 nodecolor
18 /Times-Roman set_font
1012 489.8 moveto 82 (paray_start) alignedtext
0 0 0 nodecolor
18 /Times-Roman set_font
950.5 470.8 moveto 205 ([|t=0; x in [0 , 2]; y in [0 , 2];) alignedtext
0 0 0 nodecolor
18 /Times-Roman set_font
1007 451.8 moveto 92 (  z in [0 , 2]|]) alignedtext
0 0 0 nodecolor
18 /Times-Roman set_font
958 432.8 moveto 190 (7 constraints, 8 generators) alignedtext
grestore
% 7
gsave
0 0 0 nodecolor
18 /Times-Roman set_font
1014.5 369.3 moveto 81 (\(-y+7>=0 ?) alignedtext
0 0 0 nodecolor
18 /Times-Roman set_font
920 350.3 moveto 270 (t := t+1; x := x+y; y := y+z; z := z+1\)*) alignedtext
0 0 0 nodecolor
18 /Times-Roman set_font
1048.5 331.3 moveto 13 (\(\)) alignedtext
grestore
% paray_start->7
gsave
1 setlinewidth
0 0 0 edgecolor
newpath 1053.76 425.72 moveto
1053.91 417.27 1054.07 408.38 1054.23 399.91 curveto
stroke
0 0 0 edgecolor
newpath 1057.73 399.9 moveto
1054.41 389.84 lineto
1050.73 399.78 lineto
closepath fill
1 setlinewidth
solid
0 0 0 edgecolor
newpath 1057.73 399.9 moveto
1054.41 389.84 lineto
1050.73 399.78 lineto
closepath stroke
grestore
% paraye
gsave
1 setlinewidth
0 0 0 nodecolor
newpath 1169 84 moveto
941 84 lineto
941 0 lineto
1169 0 lineto
closepath stroke
0 0 0 nodecolor
18 /Times-Roman set_font
1030.5 63.8 moveto 49 (paraye) alignedtext
0 0 0 nodecolor
18 /Times-Roman set_font
979 44.8 moveto 152 ([|t in [0.8571 , INF]; ;) alignedtext
0 0 0 nodecolor
18 /Times-Roman set_font
948.5 25.8 moveto 213 (  y in [8 , INF]; z in [2 , INF]|]) alignedtext
0 0 0 nodecolor
18 /Times-Roman set_font
960 6.8 moveto 190 (6 constraints, 8 generators) alignedtext
grestore
% para
gsave
1 setlinewidth
0 0 0 nodecolor
newpath 1480 278.5 moveto
1238 278.5 lineto
1238 213.5 lineto
1480 213.5 lineto
closepath stroke
0 0 0 nodecolor
18 /Times-Roman set_font
1343 258.3 moveto 32 (para) alignedtext
0 0 0 nodecolor
18 /Times-Roman set_font
1245.5 239.3 moveto 227 ([|t in [0 , INF]; ; ; z in [0 , INF]|]) alignedtext
0 0 0 nodecolor
18 /Times-Roman set_font
1264 220.3 moveto 190 (3 constraints, 5 generators) alignedtext
grestore
% 8
gsave
0 0 0 nodecolor
18 /Times-Roman set_font
1352.5 126.8 moveto 13 (\(\)) alignedtext
grestore
% para->8
gsave
1 setlinewidth
0 0 0 edgecolor
newpath 1359 213.45 moveto
1359 202.2 1359 189.56 1359 178.19 curveto
stroke
0 0 0 edgecolor
newpath 1362.5 178.17 moveto
1359 168.17 lineto
1355.5 178.17 lineto
closepath fill
1 setlinewidth
solid
0 0 0 edgecolor
newpath 1362.5 178.17 moveto
1359 168.17 lineto
1355.5 178.17 lineto
closepath stroke
grestore
% paraxy
gsave
1 setlinewidth
0 0 0 nodecolor
newpath 569 288 moveto
325 288 lineto
325 204 lineto
569 204 lineto
closepath stroke
0 0 0 nodecolor
18 /Times-Roman set_font
422 267.8 moveto 50 (paraxy) alignedtext
0 0 0 nodecolor
18 /Times-Roman set_font
332.5 248.8 moveto 229 ([|t in [0 , INF]; x in [-INF , 30]; ;) alignedtext
0 0 0 nodecolor
18 /Times-Roman set_font
391.5 229.8 moveto 111 (  z in [0 , INF]|]) alignedtext
0 0 0 nodecolor
18 /Times-Roman set_font
352 210.8 moveto 190 (5 constraints, 7 generators) alignedtext
grestore
% 2
gsave
0 0 0 nodecolor
18 /Times-Roman set_font
398.5 146.8 moveto 97 (x+y-31>=0 ? ) alignedtext
0 0 0 nodecolor
18 /Times-Roman set_font
440.5 127.8 moveto 13 (\(\)) alignedtext
grestore
% paraxy->2
gsave
1 setlinewidth
0 0 0 edgecolor
newpath 447 203.92 moveto
447 195.05 447 185.8 447 177.3 curveto
stroke
0 0 0 edgecolor
newpath 450.5 177.02 moveto
447 167.02 lineto
443.5 177.02 lineto
closepath fill
1 setlinewidth
solid
0 0 0 edgecolor
newpath 450.5 177.02 moveto
447 167.02 lineto
443.5 177.02 lineto
closepath stroke
grestore
% parae
gsave
1 setlinewidth
0 0 0 nodecolor
newpath 1480 74.5 moveto
1238 74.5 lineto
1238 9.5 lineto
1480 9.5 lineto
closepath stroke
0 0 0 nodecolor
18 /Times-Roman set_font
1339 54.3 moveto 40 (parae) alignedtext
0 0 0 nodecolor
18 /Times-Roman set_font
1245.5 35.3 moveto 227 ([|t in [0 , INF]; ; ; z in [0 , INF]|]) alignedtext
0 0 0 nodecolor
18 /Times-Roman set_font
1264 16.3 moveto 190 (3 constraints, 5 generators) alignedtext
grestore
% parax_start
gsave
1 setlinewidth
0 0 0 nodecolor
newpath 861 510 moveto
641 510 lineto
641 426 lineto
861 426 lineto
closepath stroke
0 0 0 nodecolor
18 /Times-Roman set_font
710 489.8 moveto 82 (parax_start) alignedtext
0 0 0 nodecolor
18 /Times-Roman set_font
648.5 470.8 moveto 205 ([|t=0; x in [0 , 2]; y in [0 , 2];) alignedtext
0 0 0 nodecolor
18 /Times-Roman set_font
705 451.8 moveto 92 (  z in [0 , 2]|]) alignedtext
0 0 0 nodecolor
18 /Times-Roman set_font
656 432.8 moveto 190 (7 constraints, 8 generators) alignedtext
grestore
% 5
gsave
0 0 0 nodecolor
18 /Times-Roman set_font
706 369.3 moveto 90 (\(-x+30>=0 ?) alignedtext
0 0 0 nodecolor
18 /Times-Roman set_font
616 350.3 moveto 270 (t := t+1; x := x+y; y := y+z; z := z+1\)*) alignedtext
0 0 0 nodecolor
18 /Times-Roman set_font
744.5 331.3 moveto 13 (\(\)) alignedtext
grestore
% parax_start->5
gsave
1 setlinewidth
0 0 0 edgecolor
newpath 751 425.72 moveto
751 417.27 751 408.38 751 399.91 curveto
stroke
0 0 0 edgecolor
newpath 754.5 399.84 moveto
751 389.84 lineto
747.5 399.84 lineto
closepath fill
1 setlinewidth
solid
0 0 0 edgecolor
newpath 754.5 399.84 moveto
751 389.84 lineto
747.5 399.84 lineto
closepath stroke
grestore
% paraxy_start
gsave
1 setlinewidth
0 0 0 nodecolor
newpath 561 510 moveto
341 510 lineto
341 426 lineto
561 426 lineto
closepath stroke
0 0 0 nodecolor
18 /Times-Roman set_font
405.5 489.8 moveto 91 (paraxy_start) alignedtext
0 0 0 nodecolor
18 /Times-Roman set_font
348.5 470.8 moveto 205 ([|t=0; x in [0 , 2]; y in [0 , 2];) alignedtext
0 0 0 nodecolor
18 /Times-Roman set_font
405 451.8 moveto 92 (  z in [0 , 2]|]) alignedtext
0 0 0 nodecolor
18 /Times-Roman set_font
356 432.8 moveto 190 (7 constraints, 8 generators) alignedtext
grestore
% 3
gsave
0 0 0 nodecolor
18 /Times-Roman set_font
394.5 369.3 moveto 105 (\(-x-y+30>=0 ?) alignedtext
0 0 0 nodecolor
18 /Times-Roman set_font
312 350.3 moveto 270 (t := t+1; x := x+y; y := y+z; z := z+1\)*) alignedtext
0 0 0 nodecolor
18 /Times-Roman set_font
440.5 331.3 moveto 13 (\(\)) alignedtext
grestore
% paraxy_start->3
gsave
1 setlinewidth
0 0 0 edgecolor
newpath 449.48 425.72 moveto
449.17 417.27 448.85 408.38 448.55 399.91 curveto
stroke
0 0 0 edgecolor
newpath 452.04 399.71 moveto
448.18 389.84 lineto
445.05 399.96 lineto
closepath fill
1 setlinewidth
solid
0 0 0 edgecolor
newpath 452.04 399.71 moveto
448.18 389.84 lineto
445.05 399.96 lineto
closepath stroke
grestore
% paraxyye
gsave
1 setlinewidth
0 0 0 nodecolor
newpath 258 84 moveto
28 84 lineto
28 0 lineto
258 0 lineto
closepath stroke
0 0 0 nodecolor
18 /Times-Roman set_font
109.5 63.8 moveto 67 (paraxyye) alignedtext
0 0 0 nodecolor
18 /Times-Roman set_font
36 44.8 moveto 214 ([|t in [0 , INF]; x in [33 , INF];) alignedtext
0 0 0 nodecolor
18 /Times-Roman set_font
36.5 25.8 moveto 213 (  y in [1 , INF]; z in [0 , INF]|]) alignedtext
0 0 0 nodecolor
18 /Times-Roman set_font
48 6.8 moveto 190 (7 constraints, 7 generators) alignedtext
grestore
% paraxyy
gsave
1 setlinewidth
0 0 0 nodecolor
newpath 264 278.5 moveto
22 278.5 lineto
22 213.5 lineto
264 213.5 lineto
closepath stroke
0 0 0 nodecolor
18 /Times-Roman set_font
113.5 258.3 moveto 59 (paraxyy) alignedtext
0 0 0 nodecolor
18 /Times-Roman set_font
29.5 239.3 moveto 227 ([|t in [0 , INF]; ; ; z in [0 , INF]|]) alignedtext
0 0 0 nodecolor
18 /Times-Roman set_font
48 220.3 moveto 190 (6 constraints, 7 generators) alignedtext
grestore
% 0
gsave
0 0 0 nodecolor
18 /Times-Roman set_font
91.5 146.8 moveto 103 (x-2y-31>=0 ? ) alignedtext
0 0 0 nodecolor
18 /Times-Roman set_font
136.5 127.8 moveto 13 (\(\)) alignedtext
grestore
% paraxyy->0
gsave
1 setlinewidth
0 0 0 edgecolor
newpath 143 213.45 moveto
143 201.93 143 188.96 143 177.38 curveto
stroke
0 0 0 edgecolor
newpath 146.5 177.21 moveto
143 167.21 lineto
139.5 177.21 lineto
closepath fill
1 setlinewidth
solid
0 0 0 edgecolor
newpath 146.5 177.21 moveto
143 167.21 lineto
139.5 177.21 lineto
closepath stroke
grestore
% paraxe
gsave
1 setlinewidth
0 0 0 nodecolor
newpath 866 84 moveto
636 84 lineto
636 0 lineto
866 0 lineto
closepath stroke
0 0 0 nodecolor
18 /Times-Roman set_font
726.5 63.8 moveto 49 (paraxe) alignedtext
0 0 0 nodecolor
18 /Times-Roman set_font
644 44.8 moveto 214 ([|t in [0 , INF]; x in [31 , INF];) alignedtext
0 0 0 nodecolor
18 /Times-Roman set_font
644.5 25.8 moveto 213 (  y in [1 , INF]; z in [0 , INF]|]) alignedtext
0 0 0 nodecolor
18 /Times-Roman set_font
656 6.8 moveto 190 (7 constraints, 7 generators) alignedtext
grestore
% para_start
gsave
1 setlinewidth
0 0 0 nodecolor
newpath 1466 510 moveto
1246 510 lineto
1246 426 lineto
1466 426 lineto
closepath stroke
0 0 0 nodecolor
18 /Times-Roman set_font
1319.5 489.8 moveto 73 (para_start) alignedtext
0 0 0 nodecolor
18 /Times-Roman set_font
1253.5 470.8 moveto 205 ([|t=0; x in [0 , 2]; y in [0 , 2];) alignedtext
0 0 0 nodecolor
18 /Times-Roman set_font
1310 451.8 moveto 92 (  z in [0 , 2]|]) alignedtext
0 0 0 nodecolor
18 /Times-Roman set_font
1261 432.8 moveto 190 (7 constraints, 8 generators) alignedtext
grestore
% 9
gsave
0 0 0 nodecolor
18 /Times-Roman set_font
1224 359.8 moveto 270 (t := t+1; x := x+y; y := y+z; z := z+1\)*) alignedtext
0 0 0 nodecolor
18 /Times-Roman set_font
1352.5 340.8 moveto 13 (\(\)) alignedtext
grestore
% para_start->9
gsave
1 setlinewidth
0 0 0 edgecolor
newpath 1357.14 425.72 moveto
1357.46 414.02 1357.8 401.49 1358.1 390.37 curveto
stroke
0 0 0 edgecolor
newpath 1361.6 390.31 moveto
1358.37 380.22 lineto
1354.6 390.12 lineto
closepath fill
1 setlinewidth
solid
0 0 0 edgecolor
newpath 1361.6 390.31 moveto
1358.37 380.22 lineto
1354.6 390.12 lineto
closepath stroke
grestore
% 0->paraxyye
gsave
1 setlinewidth
0 0 0 edgecolor
newpath 143 120.85 moveto
143 112.91 143 103.67 143 94.37 curveto
stroke
0 0 0 edgecolor
newpath 146.5 94.31 moveto
143 84.31 lineto
139.5 94.31 lineto
closepath fill
1 setlinewidth
solid
0 0 0 edgecolor
newpath 146.5 94.31 moveto
143 84.31 lineto
139.5 94.31 lineto
closepath stroke
grestore
% 1->paraxyy
gsave
1 setlinewidth
0 0 0 edgecolor
newpath 143 324.3 moveto
143 313.22 143 300.67 143 288.92 curveto
stroke
0 0 0 edgecolor
newpath 146.5 288.85 moveto
143 278.85 lineto
139.5 288.85 lineto
closepath fill
1 setlinewidth
solid
0 0 0 edgecolor
newpath 146.5 288.85 moveto
143 278.85 lineto
139.5 288.85 lineto
closepath stroke
grestore
% 2->paraxye
gsave
1 setlinewidth
0 0 0 edgecolor
newpath 447 120.85 moveto
447 112.91 447 103.67 447 94.37 curveto
stroke
0 0 0 edgecolor
newpath 450.5 94.31 moveto
447 84.31 lineto
443.5 94.31 lineto
closepath fill
1 setlinewidth
solid
0 0 0 edgecolor
newpath 450.5 94.31 moveto
447 84.31 lineto
443.5 94.31 lineto
closepath stroke
grestore
% 3->paraxy
gsave
1 setlinewidth
0 0 0 edgecolor
newpath 447 324.3 moveto
447 316.21 447 307.34 447 298.56 curveto
stroke
0 0 0 edgecolor
newpath 450.5 298.36 moveto
447 288.36 lineto
443.5 298.36 lineto
closepath fill
1 setlinewidth
solid
0 0 0 edgecolor
newpath 450.5 298.36 moveto
447 288.36 lineto
443.5 298.36 lineto
closepath stroke
grestore
% 4->paraxe
gsave
1 setlinewidth
0 0 0 edgecolor
newpath 751 120.85 moveto
751 112.91 751 103.67 751 94.37 curveto
stroke
0 0 0 edgecolor
newpath 754.5 94.31 moveto
751 84.31 lineto
747.5 94.31 lineto
closepath fill
1 setlinewidth
solid
0 0 0 edgecolor
newpath 754.5 94.31 moveto
751 84.31 lineto
747.5 94.31 lineto
closepath stroke
grestore
% 5->parax
gsave
1 setlinewidth
0 0 0 edgecolor
newpath 751 324.3 moveto
751 313.22 751 300.67 751 288.92 curveto
stroke
0 0 0 edgecolor
newpath 754.5 288.85 moveto
751 278.85 lineto
747.5 288.85 lineto
closepath fill
1 setlinewidth
solid
0 0 0 edgecolor
newpath 754.5 288.85 moveto
751 278.85 lineto
747.5 288.85 lineto
closepath stroke
grestore
% 6->paraye
gsave
1 setlinewidth
0 0 0 edgecolor
newpath 1055 120.85 moveto
1055 112.91 1055 103.67 1055 94.37 curveto
stroke
0 0 0 edgecolor
newpath 1058.5 94.31 moveto
1055 84.31 lineto
1051.5 94.31 lineto
closepath fill
1 setlinewidth
solid
0 0 0 edgecolor
newpath 1058.5 94.31 moveto
1055 84.31 lineto
1051.5 94.31 lineto
closepath stroke
grestore
% 7->paray
gsave
1 setlinewidth
0 0 0 edgecolor
newpath 1055 324.3 moveto
1055 313.22 1055 300.67 1055 288.92 curveto
stroke
0 0 0 edgecolor
newpath 1058.5 288.85 moveto
1055 278.85 lineto
1051.5 288.85 lineto
closepath fill
1 setlinewidth
solid
0 0 0 edgecolor
newpath 1058.5 288.85 moveto
1055 278.85 lineto
1051.5 288.85 lineto
closepath stroke
grestore
% 8->parae
gsave
1 setlinewidth
0 0 0 edgecolor
newpath 1359 119.83 moveto
1359 109.44 1359 96.97 1359 85.1 curveto
stroke
0 0 0 edgecolor
newpath 1362.5 84.87 moveto
1359 74.87 lineto
1355.5 84.87 lineto
closepath fill
1 setlinewidth
solid
0 0 0 edgecolor
newpath 1362.5 84.87 moveto
1359 74.87 lineto
1355.5 84.87 lineto
closepath stroke
grestore
% 9->para
gsave
1 setlinewidth
0 0 0 edgecolor
newpath 1359 333.73 moveto
1359 320.82 1359 304.34 1359 289.16 curveto
stroke
0 0 0 edgecolor
newpath 1362.5 288.92 moveto
1359 278.92 lineto
1355.5 288.92 lineto
closepath fill
1 setlinewidth
solid
0 0 0 edgecolor
newpath 1362.5 288.92 moveto
1359 278.92 lineto
1355.5 288.92 lineto
closepath stroke
grestore
% 10->paraxyy_start
gsave
1 setlinewidth
0 0 0 edgecolor
newpath 150.18 545.69 moveto
149.64 537.54 149.06 528.9 148.5 520.47 curveto
stroke
0 0 0 edgecolor
newpath 151.98 520.07 moveto
147.82 510.33 lineto
145 520.54 lineto
closepath fill
1 setlinewidth
solid
0 0 0 edgecolor
newpath 151.98 520.07 moveto
147.82 510.33 lineto
145 520.54 lineto
closepath stroke
grestore
% 11->paraxy_start
gsave
1 setlinewidth
0 0 0 edgecolor
newpath 452.29 545.69 moveto
452.16 537.54 452.02 528.9 451.87 520.47 curveto
stroke
0 0 0 edgecolor
newpath 455.37 520.27 moveto
451.71 510.33 lineto
448.37 520.39 lineto
closepath fill
1 setlinewidth
solid
0 0 0 edgecolor
newpath 455.37 520.27 moveto
451.71 510.33 lineto
448.37 520.39 lineto
closepath stroke
grestore
% 12->parax_start
gsave
1 setlinewidth
0 0 0 edgecolor
newpath 751 545.69 moveto
751 537.54 751 528.9 751 520.47 curveto
stroke
0 0 0 edgecolor
newpath 754.5 520.33 moveto
751 510.33 lineto
747.5 520.33 lineto
closepath fill
1 setlinewidth
solid
0 0 0 edgecolor
newpath 754.5 520.33 moveto
751 510.33 lineto
747.5 520.33 lineto
closepath stroke
grestore
% 13->paray_start
gsave
1 setlinewidth
0 0 0 edgecolor
newpath 1050.41 545.69 moveto
1050.68 537.54 1050.97 528.9 1051.25 520.47 curveto
stroke
0 0 0 edgecolor
newpath 1054.75 520.44 moveto
1051.59 510.33 lineto
1047.76 520.21 lineto
closepath fill
1 setlinewidth
solid
0 0 0 edgecolor
newpath 1054.75 520.44 moveto
1051.59 510.33 lineto
1047.76 520.21 lineto
closepath stroke
grestore
% 14->para_start
gsave
1 setlinewidth
0 0 0 edgecolor
newpath 1350.82 545.69 moveto
1351.36 537.54 1351.94 528.9 1352.5 520.47 curveto
stroke
0 0 0 edgecolor
newpath 1356 520.54 moveto
1353.18 510.33 lineto
1349.02 520.07 lineto
closepath fill
1 setlinewidth
solid
0 0 0 edgecolor
newpath 1356 520.54 moveto
1353.18 510.33 lineto
1349.02 520.07 lineto
closepath stroke
grestore
endpage
showpage
grestore
%%PageTrailer
%%EndPage: 3
%%Trailer
%%Pages: 3
%%BoundingBox: 36 36 2056 794
end
restore
%%EOF
