%!PS-Adobe-3.0
%%Creator: graphviz version 2.26.3 (20100126.1600)
%%Title: G
%%Pages: (atend)
%%BoundingBox: (atend)
%%EndComments
save
%%BeginProlog
/DotDict 200 dict def
DotDict begin

/setupLatin1 {
mark
/EncodingVector 256 array def
 EncodingVector 0

ISOLatin1Encoding 0 255 getinterval putinterval
EncodingVector 45 /hyphen put

% Set up ISO Latin 1 character encoding
/starnetISO {
        dup dup findfont dup length dict begin
        { 1 index /FID ne { def }{ pop pop } ifelse
        } forall
        /Encoding EncodingVector def
        currentdict end definefont
} def
/Times-Roman starnetISO def
/Times-Italic starnetISO def
/Times-Bold starnetISO def
/Times-BoldItalic starnetISO def
/Helvetica starnetISO def
/Helvetica-Oblique starnetISO def
/Helvetica-Bold starnetISO def
/Helvetica-BoldOblique starnetISO def
/Courier starnetISO def
/Courier-Oblique starnetISO def
/Courier-Bold starnetISO def
/Courier-BoldOblique starnetISO def
cleartomark
} bind def

%%BeginResource: procset graphviz 0 0
/coord-font-family /Times-Roman def
/default-font-family /Times-Roman def
/coordfont coord-font-family findfont 8 scalefont def

/InvScaleFactor 1.0 def
/set_scale {
       dup 1 exch div /InvScaleFactor exch def
       scale
} bind def

% styles
/solid { [] 0 setdash } bind def
/dashed { [9 InvScaleFactor mul dup ] 0 setdash } bind def
/dotted { [1 InvScaleFactor mul 6 InvScaleFactor mul] 0 setdash } bind def
/invis {/fill {newpath} def /stroke {newpath} def /show {pop newpath} def} bind def
/bold { 2 setlinewidth } bind def
/filled { } bind def
/unfilled { } bind def
/rounded { } bind def
/diagonals { } bind def

% hooks for setting color 
/nodecolor { sethsbcolor } bind def
/edgecolor { sethsbcolor } bind def
/graphcolor { sethsbcolor } bind def
/nopcolor {pop pop pop} bind def

/beginpage {	% i j npages
	/npages exch def
	/j exch def
	/i exch def
	/str 10 string def
	npages 1 gt {
		gsave
			coordfont setfont
			0 0 moveto
			(\() show i str cvs show (,) show j str cvs show (\)) show
		grestore
	} if
} bind def

/set_font {
	findfont exch
	scalefont setfont
} def

% draw text fitted to its expected width
/alignedtext {			% width text
	/text exch def
	/width exch def
	gsave
		width 0 gt {
			[] 0 setdash
			text stringwidth pop width exch sub text length div 0 text ashow
		} if
	grestore
} def

/boxprim {				% xcorner ycorner xsize ysize
		4 2 roll
		moveto
		2 copy
		exch 0 rlineto
		0 exch rlineto
		pop neg 0 rlineto
		closepath
} bind def

/ellipse_path {
	/ry exch def
	/rx exch def
	/y exch def
	/x exch def
	matrix currentmatrix
	newpath
	x y translate
	rx ry scale
	0 0 1 0 360 arc
	setmatrix
} bind def

/endpage { showpage } bind def
/showpage { } def

/layercolorseq
	[	% layer color sequence - darkest to lightest
		[0 0 0]
		[.2 .8 .8]
		[.4 .8 .8]
		[.6 .8 .8]
		[.8 .8 .8]
	]
def

/layerlen layercolorseq length def

/setlayer {/maxlayer exch def /curlayer exch def
	layercolorseq curlayer 1 sub layerlen mod get
	aload pop sethsbcolor
	/nodecolor {nopcolor} def
	/edgecolor {nopcolor} def
	/graphcolor {nopcolor} def
} bind def

/onlayer { curlayer ne {invis} if } def

/onlayers {
	/myupper exch def
	/mylower exch def
	curlayer mylower lt
	curlayer myupper gt
	or
	{invis} if
} def

/curlayer 0 def

%%EndResource
%%EndProlog
%%BeginSetup
14 default-font-family set_font
1 setmiterlimit
% /arrowlength 10 def
% /arrowwidth 5 def

% make sure pdfmark is harmless for PS-interpreters other than Distiller
/pdfmark where {pop} {userdict /pdfmark /cleartomark load put} ifelse
% make '<<' and '>>' safe on PS Level 1 devices
/languagelevel where {pop languagelevel}{1} ifelse
2 lt {
    userdict (<<) cvn ([) cvn load put
    userdict (>>) cvn ([) cvn load put
} if

%%EndSetup
setupLatin1
%%Page: 1 1
%%PageBoundingBox: 36 36 1596 794
%%PageOrientation: Portrait
0 0 1 beginpage
gsave
36 36 1560 758 boxprim clip newpath
1 1 set_scale 0 rotate 40 41 translate
% 1073741823
gsave
1 setlinewidth
0 0 0 nodecolor
692 727 43.84 19.09 ellipse_path stroke
0 0 0 nodecolor
18 /Times-Roman set_font
669 720.3 moveto 46 (Result) alignedtext
grestore
% paraxye
gsave
1 setlinewidth
0 0 0 nodecolor
newpath 593 112.5 moveto
331 112.5 lineto
331 9.5 lineto
593 9.5 lineto
closepath stroke
0 0 0 nodecolor
18 /Times-Roman set_font
433 92.3 moveto 58 (paraxye) alignedtext
0 0 0 nodecolor
18 /Times-Roman set_font
338.5 73.3 moveto 247 ([|t in [0.7003 , 10]; x in [7.13 , 30];) alignedtext
0 0 0 nodecolor
18 /Times-Roman set_font
387 54.3 moveto 150 (  y in [2.778 , 30.22];) alignedtext
0 0 0 nodecolor
18 /Times-Roman set_font
397.5 35.3 moveto 129 (  z in [-1 , 9.867]|]) alignedtext
0 0 0 nodecolor
18 /Times-Roman set_font
353.5 16.3 moveto 217 (69 constraints, 119 generators) alignedtext
grestore
% parax
gsave
1 setlinewidth
0 0 0 nodecolor
newpath 908 326 moveto
644 326 lineto
644 242 lineto
908 242 lineto
closepath stroke
0 0 0 nodecolor
18 /Times-Roman set_font
755.5 305.8 moveto 41 (parax) alignedtext
0 0 0 nodecolor
18 /Times-Roman set_font
654 286.8 moveto 244 ([|t in [0 , 11]; x in [-31.33 , 61.87];) alignedtext
0 0 0 nodecolor
18 /Times-Roman set_font
651.5 267.8 moveto 249 (  y in [-5 , 41.73]; z in [-2 , 11.33]|]) alignedtext
0 0 0 nodecolor
18 /Times-Roman set_font
672 248.8 moveto 208 (97 constraints, 76 generators) alignedtext
grestore
% 4
gsave
0 0 0 nodecolor
18 /Times-Roman set_font
736.5 184.8 moveto 79 (x-31>=0 ? ) alignedtext
0 0 0 nodecolor
18 /Times-Roman set_font
769.5 165.8 moveto 13 (\(\)) alignedtext
grestore
% parax->4
gsave
1 setlinewidth
0 0 0 edgecolor
newpath 776 241.92 moveto
776 233.05 776 223.8 776 215.3 curveto
stroke
0 0 0 edgecolor
newpath 779.5 215.02 moveto
776 205.02 lineto
772.5 215.02 lineto
closepath fill
1 setlinewidth
solid
0 0 0 edgecolor
newpath 779.5 215.02 moveto
776 205.02 lineto
772.5 215.02 lineto
closepath stroke
grestore
% paray
gsave
1 setlinewidth
0 0 0 nodecolor
newpath 1222 326 moveto
958 326 lineto
958 242 lineto
1222 242 lineto
closepath stroke
0 0 0 nodecolor
18 /Times-Roman set_font
1069.5 305.8 moveto 41 (paray) alignedtext
0 0 0 nodecolor
18 /Times-Roman set_font
972.5 286.8 moveto 235 ([|t in [0 , 8]; x in [-31.33 , 38.36];) alignedtext
0 0 0 nodecolor
18 /Times-Roman set_font
965.5 267.8 moveto 249 (  y in [-5 , 13.14]; z in [-2 , 7.143]|]) alignedtext
0 0 0 nodecolor
18 /Times-Roman set_font
981.5 248.8 moveto 217 (101 constraints, 83 generators) alignedtext
grestore
% 6
gsave
0 0 0 nodecolor
18 /Times-Roman set_font
1055 184.8 moveto 70 (y-8>=0 ? ) alignedtext
0 0 0 nodecolor
18 /Times-Roman set_font
1083.5 165.8 moveto 13 (\(\)) alignedtext
grestore
% paray->6
gsave
1 setlinewidth
0 0 0 edgecolor
newpath 1090 241.92 moveto
1090 233.05 1090 223.8 1090 215.3 curveto
stroke
0 0 0 edgecolor
newpath 1093.5 215.02 moveto
1090 205.02 lineto
1086.5 215.02 lineto
closepath fill
1 setlinewidth
solid
0 0 0 edgecolor
newpath 1093.5 215.02 moveto
1090 205.02 lineto
1086.5 215.02 lineto
closepath stroke
grestore
% paraxyy_start
gsave
1 setlinewidth
0 0 0 nodecolor
newpath 264 548 moveto
32 548 lineto
32 464 lineto
264 464 lineto
closepath stroke
0 0 0 nodecolor
18 /Times-Roman set_font
98 527.8 moveto 100 (paraxyy_start) alignedtext
0 0 0 nodecolor
18 /Times-Roman set_font
39.5 508.8 moveto 217 ([|t=0; x in [-2 , 2]; y in [-2 , 2];) alignedtext
0 0 0 nodecolor
18 /Times-Roman set_font
99 489.8 moveto 98 (  z in [-2 , 2]|]) alignedtext
0 0 0 nodecolor
18 /Times-Roman set_font
53 470.8 moveto 190 (7 constraints, 8 generators) alignedtext
grestore
% 1
gsave
0 0 0 nodecolor
18 /Times-Roman set_font
89.5 407.3 moveto 117 (\(-x+2y+30>=0 ?) alignedtext
0 0 0 nodecolor
18 /Times-Roman set_font
13 388.3 moveto 270 (t := t+1; x := x+y; y := y+z; z := z+1\)*) alignedtext
0 0 0 nodecolor
18 /Times-Roman set_font
141.5 369.3 moveto 13 (\(\)) alignedtext
grestore
% paraxyy_start->1
gsave
1 setlinewidth
0 0 0 edgecolor
newpath 148 463.72 moveto
148 455.27 148 446.38 148 437.91 curveto
stroke
0 0 0 edgecolor
newpath 151.5 437.84 moveto
148 427.84 lineto
144.5 437.84 lineto
closepath fill
1 setlinewidth
solid
0 0 0 edgecolor
newpath 151.5 437.84 moveto
148 427.84 lineto
144.5 437.84 lineto
closepath stroke
grestore
% linit
gsave
1 setlinewidth
0 0 0 nodecolor
newpath 798 750 moveto
754 750 lineto
754 704 lineto
798 704 lineto
closepath stroke
0 0 0 nodecolor
18 /Times-Roman set_font
762 729.8 moveto 28 (linit) alignedtext
0 0 0 nodecolor
18 /Times-Roman set_font
764 710.8 moveto 24 (top) alignedtext
grestore
% 10
gsave
0 0 0 nodecolor
18 /Times-Roman set_font
7.5 647.8 moveto 281 (-z+2>=0 and z+2>=0 and -y+2>=0 and) alignedtext
0 0 0 nodecolor
18 /Times-Roman set_font
19 628.8 moveto 258 (y+2>=0 and -x+2>=0 and x+2>=0 ?) alignedtext
0 0 0 nodecolor
18 /Times-Roman set_font
129 609.8 moveto 38 (t := 0) alignedtext
0 0 0 nodecolor
18 /Times-Roman set_font
141.5 590.8 moveto 13 (\(\)) alignedtext
grestore
% linit->10
gsave
1 setlinewidth
0 0 0 edgecolor
newpath 753.82 708.37 moveto
750.98 706.65 748.01 705.13 745 704 curveto
564.42 636.03 500.46 699.31 306.13 668.06 curveto
stroke
0 0 0 edgecolor
newpath 306.62 664.6 moveto
296.18 666.4 lineto
305.46 671.5 lineto
closepath fill
1 setlinewidth
solid
0 0 0 edgecolor
newpath 306.62 664.6 moveto
296.18 666.4 lineto
305.46 671.5 lineto
closepath stroke
grestore
% 11
gsave
0 0 0 nodecolor
18 /Times-Roman set_font
321.5 647.8 moveto 281 (-z+2>=0 and z+2>=0 and -y+2>=0 and) alignedtext
0 0 0 nodecolor
18 /Times-Roman set_font
333 628.8 moveto 258 (y+2>=0 and -x+2>=0 and x+2>=0 ?) alignedtext
0 0 0 nodecolor
18 /Times-Roman set_font
443 609.8 moveto 38 (t := 0) alignedtext
0 0 0 nodecolor
18 /Times-Roman set_font
455.5 590.8 moveto 13 (\(\)) alignedtext
grestore
% linit->11
gsave
1 setlinewidth
0 0 0 edgecolor
newpath 753.94 709.14 moveto
751.03 707.24 748.01 705.47 745 704 curveto
738.45 700.81 681.26 684.9 619.98 668.27 curveto
stroke
0 0 0 edgecolor
newpath 620.69 664.83 moveto
610.12 665.6 lineto
618.86 671.59 lineto
closepath fill
1 setlinewidth
solid
0 0 0 edgecolor
newpath 620.69 664.83 moveto
610.12 665.6 lineto
618.86 671.59 lineto
closepath stroke
grestore
% 12
gsave
0 0 0 nodecolor
18 /Times-Roman set_font
635.5 647.8 moveto 281 (-z+2>=0 and z+2>=0 and -y+2>=0 and) alignedtext
0 0 0 nodecolor
18 /Times-Roman set_font
647 628.8 moveto 258 (y+2>=0 and -x+2>=0 and x+2>=0 ?) alignedtext
0 0 0 nodecolor
18 /Times-Roman set_font
757 609.8 moveto 38 (t := 0) alignedtext
0 0 0 nodecolor
18 /Times-Roman set_font
769.5 590.8 moveto 13 (\(\)) alignedtext
grestore
% linit->12
gsave
1 setlinewidth
0 0 0 edgecolor
newpath 776 703.83 moveto
776 696.13 776 687.21 776 678.22 curveto
stroke
0 0 0 edgecolor
newpath 779.5 678.11 moveto
776 668.11 lineto
772.5 678.11 lineto
closepath fill
1 setlinewidth
solid
0 0 0 edgecolor
newpath 779.5 678.11 moveto
776 668.11 lineto
772.5 678.11 lineto
closepath stroke
grestore
% 13
gsave
0 0 0 nodecolor
18 /Times-Roman set_font
949.5 647.8 moveto 281 (-z+2>=0 and z+2>=0 and -y+2>=0 and) alignedtext
0 0 0 nodecolor
18 /Times-Roman set_font
961 628.8 moveto 258 (y+2>=0 and -x+2>=0 and x+2>=0 ?) alignedtext
0 0 0 nodecolor
18 /Times-Roman set_font
1071 609.8 moveto 38 (t := 0) alignedtext
0 0 0 nodecolor
18 /Times-Roman set_font
1083.5 590.8 moveto 13 (\(\)) alignedtext
grestore
% linit->13
gsave
1 setlinewidth
0 0 0 edgecolor
newpath 798.08 719.9 moveto
829.88 709.67 891.18 689.95 949.43 671.22 curveto
stroke
0 0 0 edgecolor
newpath 950.67 674.49 moveto
959.12 668.1 lineto
948.53 667.83 lineto
closepath fill
1 setlinewidth
solid
0 0 0 edgecolor
newpath 950.67 674.49 moveto
959.12 668.1 lineto
948.53 667.83 lineto
closepath stroke
grestore
% 14
gsave
0 0 0 nodecolor
18 /Times-Roman set_font
1263.5 647.8 moveto 281 (-z+2>=0 and z+2>=0 and -y+2>=0 and) alignedtext
0 0 0 nodecolor
18 /Times-Roman set_font
1275 628.8 moveto 258 (y+2>=0 and -x+2>=0 and x+2>=0 ?) alignedtext
0 0 0 nodecolor
18 /Times-Roman set_font
1385 609.8 moveto 38 (t := 0) alignedtext
0 0 0 nodecolor
18 /Times-Roman set_font
1397.5 590.8 moveto 13 (\(\)) alignedtext
grestore
% linit->14
gsave
1 setlinewidth
0 0 0 edgecolor
newpath 798.24 725.3 moveto
864.79 719.99 1068.2 702.11 1245.75 668.17 curveto
stroke
0 0 0 edgecolor
newpath 1246.64 671.56 moveto
1255.79 666.23 lineto
1245.31 664.69 lineto
closepath fill
1 setlinewidth
solid
0 0 0 edgecolor
newpath 1246.64 671.56 moveto
1255.79 666.23 lineto
1245.31 664.69 lineto
closepath stroke
grestore
% paray_start
gsave
1 setlinewidth
0 0 0 nodecolor
newpath 1206 548 moveto
974 548 lineto
974 464 lineto
1206 464 lineto
closepath stroke
0 0 0 nodecolor
18 /Times-Roman set_font
1049 527.8 moveto 82 (paray_start) alignedtext
0 0 0 nodecolor
18 /Times-Roman set_font
981.5 508.8 moveto 217 ([|t=0; x in [-2 , 2]; y in [-2 , 2];) alignedtext
0 0 0 nodecolor
18 /Times-Roman set_font
1041 489.8 moveto 98 (  z in [-2 , 2]|]) alignedtext
0 0 0 nodecolor
18 /Times-Roman set_font
995 470.8 moveto 190 (7 constraints, 8 generators) alignedtext
grestore
% 7
gsave
0 0 0 nodecolor
18 /Times-Roman set_font
1049.5 407.3 moveto 81 (\(-y+7>=0 ?) alignedtext
0 0 0 nodecolor
18 /Times-Roman set_font
955 388.3 moveto 270 (t := t+1; x := x+y; y := y+z; z := z+1\)*) alignedtext
0 0 0 nodecolor
18 /Times-Roman set_font
1083.5 369.3 moveto 13 (\(\)) alignedtext
grestore
% paray_start->7
gsave
1 setlinewidth
0 0 0 edgecolor
newpath 1090 463.72 moveto
1090 455.27 1090 446.38 1090 437.91 curveto
stroke
0 0 0 edgecolor
newpath 1093.5 437.84 moveto
1090 427.84 lineto
1086.5 437.84 lineto
closepath fill
1 setlinewidth
solid
0 0 0 edgecolor
newpath 1093.5 437.84 moveto
1090 427.84 lineto
1086.5 437.84 lineto
closepath stroke
grestore
% paraye
gsave
1 setlinewidth
0 0 0 nodecolor
newpath 1216 103 moveto
964 103 lineto
964 19 lineto
1216 19 lineto
closepath stroke
0 0 0 nodecolor
18 /Times-Roman set_font
1065.5 82.8 moveto 49 (paraye) alignedtext
0 0 0 nodecolor
18 /Times-Roman set_font
977 63.8 moveto 226 ([|t in [1.5 , 8]; x in [-22 , 38.36];) alignedtext
0 0 0 nodecolor
18 /Times-Roman set_font
971.5 44.8 moveto 237 (  y in [8 , 13.14]; z in [2 , 7.143]|]) alignedtext
0 0 0 nodecolor
18 /Times-Roman set_font
981.5 25.8 moveto 217 (69 constraints, 111 generators) alignedtext
grestore
% para
gsave
1 setlinewidth
0 0 0 nodecolor
newpath 1533 326 moveto
1275 326 lineto
1275 242 lineto
1533 242 lineto
closepath stroke
0 0 0 nodecolor
18 /Times-Roman set_font
1388 305.8 moveto 32 (para) alignedtext
0 0 0 nodecolor
18 /Times-Roman set_font
1283 286.8 moveto 242 ([|t in [0 , INF]; x in [-31.33 , INF];) alignedtext
0 0 0 nodecolor
18 /Times-Roman set_font
1291.5 267.8 moveto 225 (  y in [-5 , INF]; z in [-2 , INF]|]) alignedtext
0 0 0 nodecolor
18 /Times-Roman set_font
1300 248.8 moveto 208 (27 constraints, 20 generators) alignedtext
grestore
% 8
gsave
0 0 0 nodecolor
18 /Times-Roman set_font
1397.5 164.8 moveto 13 (\(\)) alignedtext
grestore
% para->8
gsave
1 setlinewidth
0 0 0 edgecolor
newpath 1404 241.92 moveto
1404 233.36 1404 224.45 1404 216.19 curveto
stroke
0 0 0 edgecolor
newpath 1407.5 216.17 moveto
1404 206.17 lineto
1400.5 216.17 lineto
closepath fill
1 setlinewidth
solid
0 0 0 edgecolor
newpath 1407.5 216.17 moveto
1404 206.17 lineto
1400.5 216.17 lineto
closepath stroke
grestore
% paraxy
gsave
1 setlinewidth
0 0 0 nodecolor
newpath 594 326 moveto
330 326 lineto
330 242 lineto
594 242 lineto
closepath stroke
0 0 0 nodecolor
18 /Times-Roman set_font
437 305.8 moveto 50 (paraxy) alignedtext
0 0 0 nodecolor
18 /Times-Roman set_font
350.5 286.8 moveto 223 ([|t in [0 , 10]; x in [-31.33 , 30];) alignedtext
0 0 0 nodecolor
18 /Times-Roman set_font
337.5 267.8 moveto 249 (  y in [-5 , 30.22]; z in [-2 , 9.867]|]) alignedtext
0 0 0 nodecolor
18 /Times-Roman set_font
358 248.8 moveto 208 (95 constraints, 84 generators) alignedtext
grestore
% 2
gsave
0 0 0 nodecolor
18 /Times-Roman set_font
413.5 184.8 moveto 97 (x+y-31>=0 ? ) alignedtext
0 0 0 nodecolor
18 /Times-Roman set_font
455.5 165.8 moveto 13 (\(\)) alignedtext
grestore
% paraxy->2
gsave
1 setlinewidth
0 0 0 edgecolor
newpath 462 241.92 moveto
462 233.05 462 223.8 462 215.3 curveto
stroke
0 0 0 edgecolor
newpath 465.5 215.02 moveto
462 205.02 lineto
458.5 215.02 lineto
closepath fill
1 setlinewidth
solid
0 0 0 edgecolor
newpath 465.5 215.02 moveto
462 205.02 lineto
458.5 215.02 lineto
closepath stroke
grestore
% parae
gsave
1 setlinewidth
0 0 0 nodecolor
newpath 1533 103 moveto
1275 103 lineto
1275 19 lineto
1533 19 lineto
closepath stroke
0 0 0 nodecolor
18 /Times-Roman set_font
1384 82.8 moveto 40 (parae) alignedtext
0 0 0 nodecolor
18 /Times-Roman set_font
1283 63.8 moveto 242 ([|t in [0 , INF]; x in [-31.33 , INF];) alignedtext
0 0 0 nodecolor
18 /Times-Roman set_font
1291.5 44.8 moveto 225 (  y in [-5 , INF]; z in [-2 , INF]|]) alignedtext
0 0 0 nodecolor
18 /Times-Roman set_font
1300 25.8 moveto 208 (27 constraints, 20 generators) alignedtext
grestore
% parax_start
gsave
1 setlinewidth
0 0 0 nodecolor
newpath 892 548 moveto
660 548 lineto
660 464 lineto
892 464 lineto
closepath stroke
0 0 0 nodecolor
18 /Times-Roman set_font
735 527.8 moveto 82 (parax_start) alignedtext
0 0 0 nodecolor
18 /Times-Roman set_font
667.5 508.8 moveto 217 ([|t=0; x in [-2 , 2]; y in [-2 , 2];) alignedtext
0 0 0 nodecolor
18 /Times-Roman set_font
727 489.8 moveto 98 (  z in [-2 , 2]|]) alignedtext
0 0 0 nodecolor
18 /Times-Roman set_font
681 470.8 moveto 190 (7 constraints, 8 generators) alignedtext
grestore
% 5
gsave
0 0 0 nodecolor
18 /Times-Roman set_font
731 407.3 moveto 90 (\(-x+30>=0 ?) alignedtext
0 0 0 nodecolor
18 /Times-Roman set_font
641 388.3 moveto 270 (t := t+1; x := x+y; y := y+z; z := z+1\)*) alignedtext
0 0 0 nodecolor
18 /Times-Roman set_font
769.5 369.3 moveto 13 (\(\)) alignedtext
grestore
% parax_start->5
gsave
1 setlinewidth
0 0 0 edgecolor
newpath 776 463.72 moveto
776 455.27 776 446.38 776 437.91 curveto
stroke
0 0 0 edgecolor
newpath 779.5 437.84 moveto
776 427.84 lineto
772.5 437.84 lineto
closepath fill
1 setlinewidth
solid
0 0 0 edgecolor
newpath 779.5 437.84 moveto
776 427.84 lineto
772.5 437.84 lineto
closepath stroke
grestore
% paraxy_start
gsave
1 setlinewidth
0 0 0 nodecolor
newpath 578 548 moveto
346 548 lineto
346 464 lineto
578 464 lineto
closepath stroke
0 0 0 nodecolor
18 /Times-Roman set_font
416.5 527.8 moveto 91 (paraxy_start) alignedtext
0 0 0 nodecolor
18 /Times-Roman set_font
353.5 508.8 moveto 217 ([|t=0; x in [-2 , 2]; y in [-2 , 2];) alignedtext
0 0 0 nodecolor
18 /Times-Roman set_font
413 489.8 moveto 98 (  z in [-2 , 2]|]) alignedtext
0 0 0 nodecolor
18 /Times-Roman set_font
367 470.8 moveto 190 (7 constraints, 8 generators) alignedtext
grestore
% 3
gsave
0 0 0 nodecolor
18 /Times-Roman set_font
409.5 407.3 moveto 105 (\(-x-y+30>=0 ?) alignedtext
0 0 0 nodecolor
18 /Times-Roman set_font
327 388.3 moveto 270 (t := t+1; x := x+y; y := y+z; z := z+1\)*) alignedtext
0 0 0 nodecolor
18 /Times-Roman set_font
455.5 369.3 moveto 13 (\(\)) alignedtext
grestore
% paraxy_start->3
gsave
1 setlinewidth
0 0 0 edgecolor
newpath 462 463.72 moveto
462 455.27 462 446.38 462 437.91 curveto
stroke
0 0 0 edgecolor
newpath 465.5 437.84 moveto
462 427.84 lineto
458.5 437.84 lineto
closepath fill
1 setlinewidth
solid
0 0 0 edgecolor
newpath 465.5 437.84 moveto
462 427.84 lineto
458.5 437.84 lineto
closepath stroke
grestore
% paraxyye
gsave
1 setlinewidth
0 0 0 nodecolor
newpath 260 122 moveto
36 122 lineto
36 0 lineto
260 0 lineto
closepath stroke
0 0 0 nodecolor
18 /Times-Roman set_font
114.5 101.8 moveto 67 (paraxyye) alignedtext
0 0 0 nodecolor
18 /Times-Roman set_font
81.5 82.8 moveto 133 ([|t in [0.2174 , 18];) alignedtext
0 0 0 nodecolor
18 /Times-Roman set_font
84 63.8 moveto 128 (  x in [22.5 , 409];) alignedtext
0 0 0 nodecolor
18 /Times-Roman set_font
74.5 44.8 moveto 147 (  y in [-4.25 , 142.9];) alignedtext
0 0 0 nodecolor
18 /Times-Roman set_font
79 25.8 moveto 138 (  z in [-1.783 , 20]|]) alignedtext
0 0 0 nodecolor
18 /Times-Roman set_font
44 6.8 moveto 208 (27 constraints, 45 generators) alignedtext
grestore
% paraxyy
gsave
1 setlinewidth
0 0 0 nodecolor
newpath 272 326 moveto
24 326 lineto
24 242 lineto
272 242 lineto
closepath stroke
0 0 0 nodecolor
18 /Times-Roman set_font
118.5 305.8 moveto 59 (paraxyy) alignedtext
0 0 0 nodecolor
18 /Times-Roman set_font
32 286.8 moveto 232 ([|t in [0 , 18]; x in [-31.33 , 409];) alignedtext
0 0 0 nodecolor
18 /Times-Roman set_font
34.5 267.8 moveto 227 (  y in [-5 , 142.9]; z in [-2 , 20]|]) alignedtext
0 0 0 nodecolor
18 /Times-Roman set_font
44 248.8 moveto 208 (59 constraints, 46 generators) alignedtext
grestore
% 0
gsave
0 0 0 nodecolor
18 /Times-Roman set_font
96.5 184.8 moveto 103 (x-2y-31>=0 ? ) alignedtext
0 0 0 nodecolor
18 /Times-Roman set_font
141.5 165.8 moveto 13 (\(\)) alignedtext
grestore
% paraxyy->0
gsave
1 setlinewidth
0 0 0 edgecolor
newpath 148 241.92 moveto
148 233.05 148 223.8 148 215.3 curveto
stroke
0 0 0 edgecolor
newpath 151.5 215.02 moveto
148 205.02 lineto
144.5 215.02 lineto
closepath fill
1 setlinewidth
solid
0 0 0 edgecolor
newpath 151.5 215.02 moveto
148 205.02 lineto
144.5 215.02 lineto
closepath stroke
grestore
% paraxe
gsave
1 setlinewidth
0 0 0 nodecolor
newpath 892 122 moveto
660 122 lineto
660 0 lineto
892 0 lineto
closepath stroke
0 0 0 nodecolor
18 /Times-Roman set_font
751.5 101.8 moveto 49 (paraxe) alignedtext
0 0 0 nodecolor
18 /Times-Roman set_font
709.5 82.8 moveto 133 ([|t in [0.6444 , 11];) alignedtext
0 0 0 nodecolor
18 /Times-Roman set_font
712 63.8 moveto 128 (  x in [31 , 61.87];) alignedtext
0 0 0 nodecolor
18 /Times-Roman set_font
701 44.8 moveto 150 (  y in [2.447 , 41.73];) alignedtext
0 0 0 nodecolor
18 /Times-Roman set_font
696 25.8 moveto 160 (  z in [-1.094 , 11.33]|]) alignedtext
0 0 0 nodecolor
18 /Times-Roman set_font
667.5 6.8 moveto 217 (68 constraints, 115 generators) alignedtext
grestore
% para_start
gsave
1 setlinewidth
0 0 0 nodecolor
newpath 1520 548 moveto
1288 548 lineto
1288 464 lineto
1520 464 lineto
closepath stroke
0 0 0 nodecolor
18 /Times-Roman set_font
1367.5 527.8 moveto 73 (para_start) alignedtext
0 0 0 nodecolor
18 /Times-Roman set_font
1295.5 508.8 moveto 217 ([|t=0; x in [-2 , 2]; y in [-2 , 2];) alignedtext
0 0 0 nodecolor
18 /Times-Roman set_font
1355 489.8 moveto 98 (  z in [-2 , 2]|]) alignedtext
0 0 0 nodecolor
18 /Times-Roman set_font
1309 470.8 moveto 190 (7 constraints, 8 generators) alignedtext
grestore
% 9
gsave
0 0 0 nodecolor
18 /Times-Roman set_font
1269 397.8 moveto 270 (t := t+1; x := x+y; y := y+z; z := z+1\)*) alignedtext
0 0 0 nodecolor
18 /Times-Roman set_font
1397.5 378.8 moveto 13 (\(\)) alignedtext
grestore
% para_start->9
gsave
1 setlinewidth
0 0 0 edgecolor
newpath 1404 463.72 moveto
1404 452.02 1404 439.49 1404 428.37 curveto
stroke
0 0 0 edgecolor
newpath 1407.5 428.22 moveto
1404 418.22 lineto
1400.5 428.22 lineto
closepath fill
1 setlinewidth
solid
0 0 0 edgecolor
newpath 1407.5 428.22 moveto
1404 418.22 lineto
1400.5 428.22 lineto
closepath stroke
grestore
% 0->paraxyye
gsave
1 setlinewidth
0 0 0 edgecolor
newpath 148 158.96 moveto
148 151.12 148 141.9 148 132.3 curveto
stroke
0 0 0 edgecolor
newpath 151.5 132.21 moveto
148 122.21 lineto
144.5 132.21 lineto
closepath fill
1 setlinewidth
solid
0 0 0 edgecolor
newpath 151.5 132.21 moveto
148 122.21 lineto
144.5 132.21 lineto
closepath stroke
grestore
% 1->paraxyy
gsave
1 setlinewidth
0 0 0 edgecolor
newpath 148 362.3 moveto
148 354.21 148 345.34 148 336.56 curveto
stroke
0 0 0 edgecolor
newpath 151.5 336.36 moveto
148 326.36 lineto
144.5 336.36 lineto
closepath fill
1 setlinewidth
solid
0 0 0 edgecolor
newpath 151.5 336.36 moveto
148 326.36 lineto
144.5 336.36 lineto
closepath stroke
grestore
% 2->paraxye
gsave
1 setlinewidth
0 0 0 edgecolor
newpath 462 158.96 moveto
462 148.57 462 135.75 462 122.85 curveto
stroke
0 0 0 edgecolor
newpath 465.5 122.53 moveto
462 112.53 lineto
458.5 122.53 lineto
closepath fill
1 setlinewidth
solid
0 0 0 edgecolor
newpath 465.5 122.53 moveto
462 112.53 lineto
458.5 122.53 lineto
closepath stroke
grestore
% 3->paraxy
gsave
1 setlinewidth
0 0 0 edgecolor
newpath 462 362.3 moveto
462 354.21 462 345.34 462 336.56 curveto
stroke
0 0 0 edgecolor
newpath 465.5 336.36 moveto
462 326.36 lineto
458.5 336.36 lineto
closepath fill
1 setlinewidth
solid
0 0 0 edgecolor
newpath 465.5 336.36 moveto
462 326.36 lineto
458.5 336.36 lineto
closepath stroke
grestore
% 4->paraxe
gsave
1 setlinewidth
0 0 0 edgecolor
newpath 776 158.96 moveto
776 151.12 776 141.9 776 132.3 curveto
stroke
0 0 0 edgecolor
newpath 779.5 132.21 moveto
776 122.21 lineto
772.5 132.21 lineto
closepath fill
1 setlinewidth
solid
0 0 0 edgecolor
newpath 779.5 132.21 moveto
776 122.21 lineto
772.5 132.21 lineto
closepath stroke
grestore
% 5->parax
gsave
1 setlinewidth
0 0 0 edgecolor
newpath 776 362.3 moveto
776 354.21 776 345.34 776 336.56 curveto
stroke
0 0 0 edgecolor
newpath 779.5 336.36 moveto
776 326.36 lineto
772.5 336.36 lineto
closepath fill
1 setlinewidth
solid
0 0 0 edgecolor
newpath 779.5 336.36 moveto
776 326.36 lineto
772.5 336.36 lineto
closepath stroke
grestore
% 6->paraye
gsave
1 setlinewidth
0 0 0 edgecolor
newpath 1090 158.96 moveto
1090 146.02 1090 129.32 1090 113.38 curveto
stroke
0 0 0 edgecolor
newpath 1093.5 113.06 moveto
1090 103.06 lineto
1086.5 113.06 lineto
closepath fill
1 setlinewidth
solid
0 0 0 edgecolor
newpath 1093.5 113.06 moveto
1090 103.06 lineto
1086.5 113.06 lineto
closepath stroke
grestore
% 7->paray
gsave
1 setlinewidth
0 0 0 edgecolor
newpath 1090 362.3 moveto
1090 354.21 1090 345.34 1090 336.56 curveto
stroke
0 0 0 edgecolor
newpath 1093.5 336.36 moveto
1090 326.36 lineto
1086.5 336.36 lineto
closepath fill
1 setlinewidth
solid
0 0 0 edgecolor
newpath 1093.5 336.36 moveto
1090 326.36 lineto
1086.5 336.36 lineto
closepath stroke
grestore
% 8->parae
gsave
1 setlinewidth
0 0 0 edgecolor
newpath 1404 157.8 moveto
1404 145.02 1404 128.8 1404 113.31 curveto
stroke
0 0 0 edgecolor
newpath 1407.5 113.28 moveto
1404 103.28 lineto
1400.5 113.28 lineto
closepath fill
1 setlinewidth
solid
0 0 0 edgecolor
newpath 1407.5 113.28 moveto
1404 103.28 lineto
1400.5 113.28 lineto
closepath stroke
grestore
% 9->para
gsave
1 setlinewidth
0 0 0 edgecolor
newpath 1404 371.73 moveto
1404 361.4 1404 348.79 1404 336.39 curveto
stroke
0 0 0 edgecolor
newpath 1407.5 336.07 moveto
1404 326.07 lineto
1400.5 336.07 lineto
closepath fill
1 setlinewidth
solid
0 0 0 edgecolor
newpath 1407.5 336.07 moveto
1404 326.07 lineto
1400.5 336.07 lineto
closepath stroke
grestore
% 10->paraxyy_start
gsave
1 setlinewidth
0 0 0 edgecolor
newpath 148 583.69 moveto
148 575.54 148 566.9 148 558.47 curveto
stroke
0 0 0 edgecolor
newpath 151.5 558.33 moveto
148 548.33 lineto
144.5 558.33 lineto
closepath fill
1 setlinewidth
solid
0 0 0 edgecolor
newpath 151.5 558.33 moveto
148 548.33 lineto
144.5 558.33 lineto
closepath stroke
grestore
% 11->paraxy_start
gsave
1 setlinewidth
0 0 0 edgecolor
newpath 462 583.69 moveto
462 575.54 462 566.9 462 558.47 curveto
stroke
0 0 0 edgecolor
newpath 465.5 558.33 moveto
462 548.33 lineto
458.5 558.33 lineto
closepath fill
1 setlinewidth
solid
0 0 0 edgecolor
newpath 465.5 558.33 moveto
462 548.33 lineto
458.5 558.33 lineto
closepath stroke
grestore
% 12->parax_start
gsave
1 setlinewidth
0 0 0 edgecolor
newpath 776 583.69 moveto
776 575.54 776 566.9 776 558.47 curveto
stroke
0 0 0 edgecolor
newpath 779.5 558.33 moveto
776 548.33 lineto
772.5 558.33 lineto
closepath fill
1 setlinewidth
solid
0 0 0 edgecolor
newpath 779.5 558.33 moveto
776 548.33 lineto
772.5 558.33 lineto
closepath stroke
grestore
% 13->paray_start
gsave
1 setlinewidth
0 0 0 edgecolor
newpath 1090 583.69 moveto
1090 575.54 1090 566.9 1090 558.47 curveto
stroke
0 0 0 edgecolor
newpath 1093.5 558.33 moveto
1090 548.33 lineto
1086.5 558.33 lineto
closepath fill
1 setlinewidth
solid
0 0 0 edgecolor
newpath 1093.5 558.33 moveto
1090 548.33 lineto
1086.5 558.33 lineto
closepath stroke
grestore
% 14->para_start
gsave
1 setlinewidth
0 0 0 edgecolor
newpath 1404 583.69 moveto
1404 575.54 1404 566.9 1404 558.47 curveto
stroke
0 0 0 edgecolor
newpath 1407.5 558.33 moveto
1404 548.33 lineto
1400.5 558.33 lineto
closepath fill
1 setlinewidth
solid
0 0 0 edgecolor
newpath 1407.5 558.33 moveto
1404 548.33 lineto
1400.5 558.33 lineto
closepath stroke
grestore
endpage
showpage
grestore
%%PageTrailer
%%EndPage: 1
setupLatin1
%%Page: 2 2
%%PageBoundingBox: 36 36 2062 552
%%PageOrientation: Portrait
0 0 1 beginpage
gsave
36 36 2026 516 boxprim clip newpath
1 1 set_scale 0 rotate 40 41 translate
% 1073741823
gsave
1 setlinewidth
0 0 0 nodecolor
1073 485 43.84 19.09 ellipse_path stroke
0 0 0 nodecolor
18 /Times-Roman set_font
1050 478.3 moveto 46 (Result) alignedtext
grestore
% parax
gsave
1 setlinewidth
0 0 0 nodecolor
newpath 1275 306 moveto
1039 306 lineto
1039 222 lineto
1275 222 lineto
closepath stroke
0 0 0 nodecolor
18 /Times-Roman set_font
1136.5 285.8 moveto 41 (parax) alignedtext
0 0 0 nodecolor
18 /Times-Roman set_font
1047 266.8 moveto 220 ([|t in [0 , INF]; ; y in [-5 , INF];) alignedtext
0 0 0 nodecolor
18 /Times-Roman set_font
1098.5 247.8 moveto 117 (  z in [-2 , INF]|]) alignedtext
0 0 0 nodecolor
18 /Times-Roman set_font
1053 228.8 moveto 208 (17 constraints, 13 generators) alignedtext
grestore
% 4
gsave
0 0 0 nodecolor
18 /Times-Roman set_font
917.5 155.8 moveto 79 (x-31>=0 ? ) alignedtext
0 0 0 nodecolor
18 /Times-Roman set_font
950.5 136.8 moveto 13 (\(\)) alignedtext
grestore
% parax->4
gsave
1 setlinewidth
0 0 0 edgecolor
newpath 1077.87 221.8 moveto
1056.71 210.34 1033.92 197.82 1013 186 curveto
1010.2 184.42 1007.33 182.78 1004.44 181.11 curveto
stroke
0 0 0 edgecolor
newpath 1006.16 178.07 moveto
995.76 176.08 lineto
1002.65 184.13 lineto
closepath fill
1 setlinewidth
solid
0 0 0 edgecolor
newpath 1006.16 178.07 moveto
995.76 176.08 lineto
1002.65 184.13 lineto
closepath stroke
grestore
% 5
gsave
0 0 0 nodecolor
18 /Times-Roman set_font
1115 165.3 moveto 84 (-x+30>=0 ?) alignedtext
0 0 0 nodecolor
18 /Times-Roman set_font
1029.5 146.3 moveto 255 (t := t+1; x := x+y; y := y+z; z := z+1) alignedtext
0 0 0 nodecolor
18 /Times-Roman set_font
1150.5 127.3 moveto 13 (\(\)) alignedtext
grestore
% parax->5
gsave
1 setlinewidth
0 0 0 edgecolor
newpath 1150.42 221.72 moveto
1150.2 213.27 1150.19 204.38 1150.41 195.91 curveto
stroke
0 0 0 edgecolor
newpath 1153.91 195.96 moveto
1150.78 185.84 lineto
1146.91 195.71 lineto
closepath fill
1 setlinewidth
solid
0 0 0 edgecolor
newpath 1153.91 195.96 moveto
1150.78 185.84 lineto
1146.91 195.71 lineto
closepath stroke
grestore
% paraxye
gsave
1 setlinewidth
0 0 0 nodecolor
newpath 666 84 moveto
430 84 lineto
430 0 lineto
666 0 lineto
closepath stroke
0 0 0 nodecolor
18 /Times-Roman set_font
519 63.8 moveto 58 (paraxye) alignedtext
0 0 0 nodecolor
18 /Times-Roman set_font
438 44.8 moveto 220 ([|t in [0 , INF]; x in [-INF , 30];) alignedtext
0 0 0 nodecolor
18 /Times-Roman set_font
438.5 25.8 moveto 219 (  y in [1 , INF]; z in [-2 , INF]|]) alignedtext
0 0 0 nodecolor
18 /Times-Roman set_font
444 6.8 moveto 208 (11 constraints, 18 generators) alignedtext
grestore
% paray
gsave
1 setlinewidth
0 0 0 nodecolor
newpath 1647 306 moveto
1411 306 lineto
1411 222 lineto
1647 222 lineto
closepath stroke
0 0 0 nodecolor
18 /Times-Roman set_font
1508.5 285.8 moveto 41 (paray) alignedtext
0 0 0 nodecolor
18 /Times-Roman set_font
1419 266.8 moveto 220 ([|t in [0 , INF]; ; y in [-5 , INF];) alignedtext
0 0 0 nodecolor
18 /Times-Roman set_font
1470.5 247.8 moveto 117 (  z in [-2 , INF]|]) alignedtext
0 0 0 nodecolor
18 /Times-Roman set_font
1425 228.8 moveto 208 (11 constraints, 13 generators) alignedtext
grestore
% 6
gsave
0 0 0 nodecolor
18 /Times-Roman set_font
1318 155.8 moveto 70 (y-8>=0 ? ) alignedtext
0 0 0 nodecolor
18 /Times-Roman set_font
1346.5 136.8 moveto 13 (\(\)) alignedtext
grestore
% paray->6
gsave
1 setlinewidth
0 0 0 edgecolor
newpath 1462.04 221.95 moveto
1443.55 210.32 1423.49 197.68 1405 186 curveto
1402.79 184.6 1400.52 183.17 1398.23 181.72 curveto
stroke
0 0 0 edgecolor
newpath 1399.68 178.49 moveto
1389.36 176.1 lineto
1395.93 184.41 lineto
closepath fill
1 setlinewidth
solid
0 0 0 edgecolor
newpath 1399.68 178.49 moveto
1389.36 176.1 lineto
1395.93 184.41 lineto
closepath stroke
grestore
% 7
gsave
0 0 0 nodecolor
18 /Times-Roman set_font
1511.5 165.3 moveto 75 (-y+7>=0 ?) alignedtext
0 0 0 nodecolor
18 /Times-Roman set_font
1421.5 146.3 moveto 255 (t := t+1; x := x+y; y := y+z; z := z+1) alignedtext
0 0 0 nodecolor
18 /Times-Roman set_font
1542.5 127.3 moveto 13 (\(\)) alignedtext
grestore
% paray->7
gsave
1 setlinewidth
0 0 0 edgecolor
newpath 1530.04 221.72 moveto
1531.35 213.18 1532.97 204.19 1534.73 195.63 curveto
stroke
0 0 0 edgecolor
newpath 1538.16 196.36 moveto
1536.86 185.84 lineto
1531.32 194.87 lineto
closepath fill
1 setlinewidth
solid
0 0 0 edgecolor
newpath 1538.16 196.36 moveto
1536.86 185.84 lineto
1531.32 194.87 lineto
closepath stroke
grestore
% linit
gsave
1 setlinewidth
0 0 0 nodecolor
newpath 1179 508 moveto
1135 508 lineto
1135 462 lineto
1179 462 lineto
closepath stroke
0 0 0 nodecolor
18 /Times-Roman set_font
1143 487.8 moveto 28 (linit) alignedtext
0 0 0 nodecolor
18 /Times-Roman set_font
1145 468.8 moveto 24 (top) alignedtext
grestore
% 10
gsave
0 0 0 nodecolor
18 /Times-Roman set_font
250.5 405.8 moveto 281 (-z+2>=0 and z+2>=0 and -y+2>=0 and) alignedtext
0 0 0 nodecolor
18 /Times-Roman set_font
262 386.8 moveto 258 (y+2>=0 and -x+2>=0 and x+2>=0 ?) alignedtext
0 0 0 nodecolor
18 /Times-Roman set_font
372 367.8 moveto 38 (t := 0) alignedtext
0 0 0 nodecolor
18 /Times-Roman set_font
384.5 348.8 moveto 13 (\(\)) alignedtext
grestore
% linit->10
gsave
1 setlinewidth
0 0 0 edgecolor
newpath 1134.83 466.35 moveto
1131.99 464.63 1129.01 463.12 1126 462 curveto
1025.13 424.45 749.86 438.86 643 426 curveto
612.6 422.34 580.28 417.6 549.27 412.63 curveto
stroke
0 0 0 edgecolor
newpath 549.68 409.15 moveto
539.25 411.01 lineto
548.57 416.06 lineto
closepath fill
1 setlinewidth
solid
0 0 0 edgecolor
newpath 549.68 409.15 moveto
539.25 411.01 lineto
548.57 416.06 lineto
closepath stroke
grestore
% 11
gsave
0 0 0 nodecolor
18 /Times-Roman set_font
659.5 405.8 moveto 281 (-z+2>=0 and z+2>=0 and -y+2>=0 and) alignedtext
0 0 0 nodecolor
18 /Times-Roman set_font
671 386.8 moveto 258 (y+2>=0 and -x+2>=0 and x+2>=0 ?) alignedtext
0 0 0 nodecolor
18 /Times-Roman set_font
781 367.8 moveto 38 (t := 0) alignedtext
0 0 0 nodecolor
18 /Times-Roman set_font
793.5 348.8 moveto 13 (\(\)) alignedtext
grestore
% linit->11
gsave
1 setlinewidth
0 0 0 edgecolor
newpath 1134.98 467.04 moveto
1132.07 465.16 1129.04 463.42 1126 462 curveto
1109.69 454.39 1033.03 435.92 958.15 418.87 curveto
stroke
0 0 0 edgecolor
newpath 958.61 415.38 moveto
948.08 416.58 lineto
957.06 422.21 lineto
closepath fill
1 setlinewidth
solid
0 0 0 edgecolor
newpath 958.61 415.38 moveto
948.08 416.58 lineto
957.06 422.21 lineto
closepath stroke
grestore
% 12
gsave
0 0 0 nodecolor
18 /Times-Roman set_font
1016.5 405.8 moveto 281 (-z+2>=0 and z+2>=0 and -y+2>=0 and) alignedtext
0 0 0 nodecolor
18 /Times-Roman set_font
1028 386.8 moveto 258 (y+2>=0 and -x+2>=0 and x+2>=0 ?) alignedtext
0 0 0 nodecolor
18 /Times-Roman set_font
1138 367.8 moveto 38 (t := 0) alignedtext
0 0 0 nodecolor
18 /Times-Roman set_font
1150.5 348.8 moveto 13 (\(\)) alignedtext
grestore
% linit->12
gsave
1 setlinewidth
0 0 0 edgecolor
newpath 1157 461.83 moveto
1157 454.13 1157 445.21 1157 436.22 curveto
stroke
0 0 0 edgecolor
newpath 1160.5 436.11 moveto
1157 426.11 lineto
1153.5 436.11 lineto
closepath fill
1 setlinewidth
solid
0 0 0 edgecolor
newpath 1160.5 436.11 moveto
1157 426.11 lineto
1153.5 436.11 lineto
closepath stroke
grestore
% 13
gsave
0 0 0 nodecolor
18 /Times-Roman set_font
1349.5 405.8 moveto 281 (-z+2>=0 and z+2>=0 and -y+2>=0 and) alignedtext
0 0 0 nodecolor
18 /Times-Roman set_font
1361 386.8 moveto 258 (y+2>=0 and -x+2>=0 and x+2>=0 ?) alignedtext
0 0 0 nodecolor
18 /Times-Roman set_font
1471 367.8 moveto 38 (t := 0) alignedtext
0 0 0 nodecolor
18 /Times-Roman set_font
1483.5 348.8 moveto 13 (\(\)) alignedtext
grestore
% linit->13
gsave
1 setlinewidth
0 0 0 edgecolor
newpath 1179.11 478.29 moveto
1212.54 468.15 1278.75 448.07 1341.51 429.04 curveto
stroke
0 0 0 edgecolor
newpath 1342.59 432.37 moveto
1351.14 426.12 lineto
1340.56 425.67 lineto
closepath fill
1 setlinewidth
solid
0 0 0 edgecolor
newpath 1342.59 432.37 moveto
1351.14 426.12 lineto
1340.56 425.67 lineto
closepath stroke
grestore
% 14
gsave
0 0 0 nodecolor
18 /Times-Roman set_font
1678.5 405.8 moveto 281 (-z+2>=0 and z+2>=0 and -y+2>=0 and) alignedtext
0 0 0 nodecolor
18 /Times-Roman set_font
1690 386.8 moveto 258 (y+2>=0 and -x+2>=0 and x+2>=0 ?) alignedtext
0 0 0 nodecolor
18 /Times-Roman set_font
1800 367.8 moveto 38 (t := 0) alignedtext
0 0 0 nodecolor
18 /Times-Roman set_font
1812.5 348.8 moveto 13 (\(\)) alignedtext
grestore
% linit->14
gsave
1 setlinewidth
0 0 0 edgecolor
newpath 1179.12 483.29 moveto
1248.49 477.71 1467.85 458.54 1647 426 curveto
1651.46 425.19 1655.97 424.33 1660.53 423.44 curveto
stroke
0 0 0 edgecolor
newpath 1661.42 426.83 moveto
1670.54 421.43 lineto
1660.04 419.97 lineto
closepath fill
1 setlinewidth
solid
0 0 0 edgecolor
newpath 1661.42 426.83 moveto
1670.54 421.43 lineto
1660.04 419.97 lineto
closepath stroke
grestore
% para
gsave
1 setlinewidth
0 0 0 nodecolor
newpath 1986 306 moveto
1750 306 lineto
1750 222 lineto
1986 222 lineto
closepath stroke
0 0 0 nodecolor
18 /Times-Roman set_font
1852 285.8 moveto 32 (para) alignedtext
0 0 0 nodecolor
18 /Times-Roman set_font
1758 266.8 moveto 220 ([|t in [0 , INF]; ; y in [-5 , INF];) alignedtext
0 0 0 nodecolor
18 /Times-Roman set_font
1809.5 247.8 moveto 117 (  z in [-2 , INF]|]) alignedtext
0 0 0 nodecolor
18 /Times-Roman set_font
1773 228.8 moveto 190 (6 constraints, 7 generators) alignedtext
grestore
% 8
gsave
0 0 0 nodecolor
18 /Times-Roman set_font
1709.5 135.8 moveto 13 (\(\)) alignedtext
grestore
% para->8
gsave
1 setlinewidth
0 0 0 edgecolor
newpath 1786.53 221.87 moveto
1769.87 211.35 1753.13 199.24 1739 186 curveto
1738.21 185.26 1737.43 184.49 1736.67 183.69 curveto
stroke
0 0 0 edgecolor
newpath 1739.3 181.39 moveto
1730.16 176.03 lineto
1733.97 185.92 lineto
closepath fill
1 setlinewidth
solid
0 0 0 edgecolor
newpath 1739.3 181.39 moveto
1730.16 176.03 lineto
1733.97 185.92 lineto
closepath stroke
grestore
% 9
gsave
0 0 0 nodecolor
18 /Times-Roman set_font
1755.5 155.8 moveto 255 (t := t+1; x := x+y; y := y+z; z := z+1) alignedtext
0 0 0 nodecolor
18 /Times-Roman set_font
1876.5 136.8 moveto 13 (\(\)) alignedtext
grestore
% para->9
gsave
1 setlinewidth
0 0 0 edgecolor
newpath 1867.14 221.72 moveto
1868.41 210.02 1870.21 197.49 1872.24 186.37 curveto
stroke
0 0 0 edgecolor
newpath 1875.74 186.71 moveto
1874.25 176.22 lineto
1868.88 185.35 lineto
closepath fill
1 setlinewidth
solid
0 0 0 edgecolor
newpath 1875.74 186.71 moveto
1874.25 176.22 lineto
1868.88 185.35 lineto
closepath stroke
grestore
% paraye
gsave
1 setlinewidth
0 0 0 nodecolor
newpath 1483 84 moveto
1223 84 lineto
1223 0 lineto
1483 0 lineto
closepath stroke
0 0 0 nodecolor
18 /Times-Roman set_font
1328.5 63.8 moveto 49 (paraye) alignedtext
0 0 0 nodecolor
18 /Times-Roman set_font
1230.5 44.8 moveto 245 ([|t in [1.333 , INF]; ; y in [8 , INF];) alignedtext
0 0 0 nodecolor
18 /Times-Roman set_font
1297.5 25.8 moveto 111 (  z in [2 , INF]|]) alignedtext
0 0 0 nodecolor
18 /Times-Roman set_font
1253.5 6.8 moveto 199 (7 constraints, 10 generators) alignedtext
grestore
% paraxy
gsave
1 setlinewidth
0 0 0 nodecolor
newpath 877 306 moveto
637 306 lineto
637 222 lineto
877 222 lineto
closepath stroke
0 0 0 nodecolor
18 /Times-Roman set_font
732 285.8 moveto 50 (paraxy) alignedtext
0 0 0 nodecolor
18 /Times-Roman set_font
647 266.8 moveto 220 ([|t in [0 , INF]; x in [-INF , 30];) alignedtext
0 0 0 nodecolor
18 /Times-Roman set_font
644.5 247.8 moveto 225 (  y in [-5 , INF]; z in [-2 , INF]|]) alignedtext
0 0 0 nodecolor
18 /Times-Roman set_font
653 228.8 moveto 208 (15 constraints, 12 generators) alignedtext
grestore
% 2
gsave
0 0 0 nodecolor
18 /Times-Roman set_font
499.5 155.8 moveto 97 (x+y-31>=0 ? ) alignedtext
0 0 0 nodecolor
18 /Times-Roman set_font
541.5 136.8 moveto 13 (\(\)) alignedtext
grestore
% paraxy->2
gsave
1 setlinewidth
0 0 0 edgecolor
newpath 677.69 221.88 moveto
651.9 208.18 623.93 193.32 600.59 180.93 curveto
stroke
0 0 0 edgecolor
newpath 602.03 177.73 moveto
591.56 176.13 lineto
598.75 183.91 lineto
closepath fill
1 setlinewidth
solid
0 0 0 edgecolor
newpath 602.03 177.73 moveto
591.56 176.13 lineto
598.75 183.91 lineto
closepath stroke
grestore
% 3
gsave
0 0 0 nodecolor
18 /Times-Roman set_font
707.5 165.3 moveto 99 (-x-y+30>=0 ?) alignedtext
0 0 0 nodecolor
18 /Times-Roman set_font
629.5 146.3 moveto 255 (t := t+1; x := x+y; y := y+z; z := z+1) alignedtext
0 0 0 nodecolor
18 /Times-Roman set_font
750.5 127.3 moveto 13 (\(\)) alignedtext
grestore
% paraxy->3
gsave
1 setlinewidth
0 0 0 edgecolor
newpath 750.42 221.72 moveto
750.2 213.27 750.19 204.38 750.41 195.91 curveto
stroke
0 0 0 edgecolor
newpath 753.91 195.96 moveto
750.78 185.84 lineto
746.91 195.71 lineto
closepath fill
1 setlinewidth
solid
0 0 0 edgecolor
newpath 753.91 195.96 moveto
750.78 185.84 lineto
746.91 195.71 lineto
closepath stroke
grestore
% parae
gsave
1 setlinewidth
0 0 0 nodecolor
newpath 1834 84 moveto
1598 84 lineto
1598 0 lineto
1834 0 lineto
closepath stroke
0 0 0 nodecolor
18 /Times-Roman set_font
1696 63.8 moveto 40 (parae) alignedtext
0 0 0 nodecolor
18 /Times-Roman set_font
1606 44.8 moveto 220 ([|t in [0 , INF]; ; y in [-5 , INF];) alignedtext
0 0 0 nodecolor
18 /Times-Roman set_font
1657.5 25.8 moveto 117 (  z in [-2 , INF]|]) alignedtext
0 0 0 nodecolor
18 /Times-Roman set_font
1621 6.8 moveto 190 (6 constraints, 7 generators) alignedtext
grestore
% paraxyye
gsave
1 setlinewidth
0 0 0 nodecolor
newpath 254 84 moveto
0 84 lineto
0 0 lineto
254 0 lineto
closepath stroke
0 0 0 nodecolor
18 /Times-Roman set_font
93.5 63.8 moveto 67 (paraxyye) alignedtext
0 0 0 nodecolor
18 /Times-Roman set_font
20 44.8 moveto 214 ([|t in [0 , INF]; x in [26 , INF];) alignedtext
0 0 0 nodecolor
18 /Times-Roman set_font
8 25.8 moveto 238 (  y in [-2.5 , INF]; z in [-2 , INF]|]) alignedtext
0 0 0 nodecolor
18 /Times-Roman set_font
23 6.8 moveto 208 (11 constraints, 16 generators) alignedtext
grestore
% paraxyy
gsave
1 setlinewidth
0 0 0 nodecolor
newpath 457 306 moveto
221 306 lineto
221 222 lineto
457 222 lineto
closepath stroke
0 0 0 nodecolor
18 /Times-Roman set_font
309.5 285.8 moveto 59 (paraxyy) alignedtext
0 0 0 nodecolor
18 /Times-Roman set_font
229 266.8 moveto 220 ([|t in [0 , INF]; ; y in [-5 , INF];) alignedtext
0 0 0 nodecolor
18 /Times-Roman set_font
280.5 247.8 moveto 117 (  z in [-2 , INF]|]) alignedtext
0 0 0 nodecolor
18 /Times-Roman set_font
235 228.8 moveto 208 (19 constraints, 16 generators) alignedtext
grestore
% 0
gsave
0 0 0 nodecolor
18 /Times-Roman set_font
75.5 155.8 moveto 103 (x-2y-31>=0 ? ) alignedtext
0 0 0 nodecolor
18 /Times-Roman set_font
120.5 136.8 moveto 13 (\(\)) alignedtext
grestore
% paraxyy->0
gsave
1 setlinewidth
0 0 0 edgecolor
newpath 258.55 221.88 moveto
232.39 208.18 204.02 193.32 180.34 180.93 curveto
stroke
0 0 0 edgecolor
newpath 181.66 177.67 moveto
171.18 176.13 lineto
178.42 183.87 lineto
closepath fill
1 setlinewidth
solid
0 0 0 edgecolor
newpath 181.66 177.67 moveto
171.18 176.13 lineto
178.42 183.87 lineto
closepath stroke
grestore
% 1
gsave
0 0 0 nodecolor
18 /Times-Roman set_font
283.5 165.3 moveto 111 (-x+2y+30>=0 ?) alignedtext
0 0 0 nodecolor
18 /Times-Roman set_font
211.5 146.3 moveto 255 (t := t+1; x := x+y; y := y+z; z := z+1) alignedtext
0 0 0 nodecolor
18 /Times-Roman set_font
332.5 127.3 moveto 13 (\(\)) alignedtext
grestore
% paraxyy->1
gsave
1 setlinewidth
0 0 0 edgecolor
newpath 332.42 221.72 moveto
332.2 213.27 332.19 204.38 332.41 195.91 curveto
stroke
0 0 0 edgecolor
newpath 335.91 195.96 moveto
332.78 185.84 lineto
328.91 195.71 lineto
closepath fill
1 setlinewidth
solid
0 0 0 edgecolor
newpath 335.91 195.96 moveto
332.78 185.84 lineto
328.91 195.71 lineto
closepath stroke
grestore
% paraxe
gsave
1 setlinewidth
0 0 0 nodecolor
newpath 1097 84 moveto
817 84 lineto
817 0 lineto
1097 0 lineto
closepath stroke
0 0 0 nodecolor
18 /Times-Roman set_font
932.5 63.8 moveto 49 (paraxe) alignedtext
0 0 0 nodecolor
18 /Times-Roman set_font
850 44.8 moveto 214 ([|t in [0 , INF]; x in [31 , INF];) alignedtext
0 0 0 nodecolor
18 /Times-Roman set_font
824.5 25.8 moveto 265 (  y in [-0.1071 , INF]; z in [-2 , INF]|]) alignedtext
0 0 0 nodecolor
18 /Times-Roman set_font
853 6.8 moveto 208 (12 constraints, 18 generators) alignedtext
grestore
% 0->paraxyye
gsave
1 setlinewidth
0 0 0 edgecolor
newpath 127 129.73 moveto
127 119.4 127 106.79 127 94.39 curveto
stroke
0 0 0 edgecolor
newpath 130.5 94.07 moveto
127 84.07 lineto
123.5 94.07 lineto
closepath fill
1 setlinewidth
solid
0 0 0 edgecolor
newpath 130.5 94.07 moveto
127 84.07 lineto
123.5 94.07 lineto
closepath stroke
grestore
% 1->paraxyy
gsave
1 setlinewidth
0 0 0 edgecolor
newpath 345.22 185.84 moveto
345.62 193.93 345.79 202.78 345.74 211.54 curveto
stroke
0 0 0 edgecolor
newpath 342.24 211.66 moveto
345.58 221.72 lineto
349.24 211.78 lineto
closepath fill
1 setlinewidth
solid
0 0 0 edgecolor
newpath 342.24 211.66 moveto
345.58 221.72 lineto
349.24 211.78 lineto
closepath stroke
grestore
% 2->paraxye
gsave
1 setlinewidth
0 0 0 edgecolor
newpath 548 129.73 moveto
548 119.4 548 106.79 548 94.39 curveto
stroke
0 0 0 edgecolor
newpath 551.5 94.07 moveto
548 84.07 lineto
544.5 94.07 lineto
closepath fill
1 setlinewidth
solid
0 0 0 edgecolor
newpath 551.5 94.07 moveto
548 84.07 lineto
544.5 94.07 lineto
closepath stroke
grestore
% 3->paraxy
gsave
1 setlinewidth
0 0 0 edgecolor
newpath 763.22 185.84 moveto
763.62 193.93 763.79 202.78 763.74 211.54 curveto
stroke
0 0 0 edgecolor
newpath 760.24 211.66 moveto
763.58 221.72 lineto
767.24 211.78 lineto
closepath fill
1 setlinewidth
solid
0 0 0 edgecolor
newpath 760.24 211.66 moveto
763.58 221.72 lineto
767.24 211.78 lineto
closepath stroke
grestore
% 4->paraxe
gsave
1 setlinewidth
0 0 0 edgecolor
newpath 957 129.73 moveto
957 119.4 957 106.79 957 94.39 curveto
stroke
0 0 0 edgecolor
newpath 960.5 94.07 moveto
957 84.07 lineto
953.5 94.07 lineto
closepath fill
1 setlinewidth
solid
0 0 0 edgecolor
newpath 960.5 94.07 moveto
957 84.07 lineto
953.5 94.07 lineto
closepath stroke
grestore
% 5->parax
gsave
1 setlinewidth
0 0 0 edgecolor
newpath 1163.22 185.84 moveto
1163.62 193.93 1163.79 202.78 1163.74 211.54 curveto
stroke
0 0 0 edgecolor
newpath 1160.24 211.66 moveto
1163.58 221.72 lineto
1167.24 211.78 lineto
closepath fill
1 setlinewidth
solid
0 0 0 edgecolor
newpath 1160.24 211.66 moveto
1163.58 221.72 lineto
1167.24 211.78 lineto
closepath stroke
grestore
% 6->paraye
gsave
1 setlinewidth
0 0 0 edgecolor
newpath 1353 129.73 moveto
1353 119.4 1353 106.79 1353 94.39 curveto
stroke
0 0 0 edgecolor
newpath 1356.5 94.07 moveto
1353 84.07 lineto
1349.5 94.07 lineto
closepath fill
1 setlinewidth
solid
0 0 0 edgecolor
newpath 1356.5 94.07 moveto
1353 84.07 lineto
1349.5 94.07 lineto
closepath stroke
grestore
% 7->paray
gsave
1 setlinewidth
0 0 0 edgecolor
newpath 1549.31 185.84 moveto
1548.23 194.01 1546.79 202.98 1545.14 211.82 curveto
stroke
0 0 0 edgecolor
newpath 1541.69 211.23 moveto
1543.2 221.72 lineto
1548.56 212.58 lineto
closepath fill
1 setlinewidth
solid
0 0 0 edgecolor
newpath 1541.69 211.23 moveto
1543.2 221.72 lineto
1548.56 212.58 lineto
closepath stroke
grestore
% 8->parae
gsave
1 setlinewidth
0 0 0 edgecolor
newpath 1716 128.91 moveto
1716 118.75 1716 106.5 1716 94.43 curveto
stroke
0 0 0 edgecolor
newpath 1719.5 94.39 moveto
1716 84.39 lineto
1712.5 94.39 lineto
closepath fill
1 setlinewidth
solid
0 0 0 edgecolor
newpath 1719.5 94.39 moveto
1716 84.39 lineto
1712.5 94.39 lineto
closepath stroke
grestore
% 9->para
gsave
1 setlinewidth
0 0 0 edgecolor
newpath 1885.47 176.22 moveto
1884.9 186.61 1883.56 199.32 1881.79 211.8 curveto
stroke
0 0 0 edgecolor
newpath 1878.33 211.31 moveto
1880.29 221.72 lineto
1885.25 212.36 lineto
closepath fill
1 setlinewidth
solid
0 0 0 edgecolor
newpath 1878.33 211.31 moveto
1880.29 221.72 lineto
1885.25 212.36 lineto
closepath stroke
grestore
% 10->paraxyy
gsave
1 setlinewidth
0 0 0 edgecolor
newpath 372.67 341.69 moveto
369.02 333.27 365.14 324.33 361.38 315.64 curveto
stroke
0 0 0 edgecolor
newpath 364.53 314.11 moveto
357.34 306.33 lineto
358.11 316.9 lineto
closepath fill
1 setlinewidth
solid
0 0 0 edgecolor
newpath 364.53 314.11 moveto
357.34 306.33 lineto
358.11 316.9 lineto
closepath stroke
grestore
% 11->paraxy
gsave
1 setlinewidth
0 0 0 edgecolor
newpath 784.84 341.69 moveto
781.85 333.36 778.69 324.52 775.6 315.91 curveto
stroke
0 0 0 edgecolor
newpath 778.84 314.56 moveto
772.17 306.33 lineto
772.25 316.92 lineto
closepath fill
1 setlinewidth
solid
0 0 0 edgecolor
newpath 778.84 314.56 moveto
772.17 306.33 lineto
772.25 316.92 lineto
closepath stroke
grestore
% 12->parax
gsave
1 setlinewidth
0 0 0 edgecolor
newpath 1157 341.69 moveto
1157 333.54 1157 324.9 1157 316.47 curveto
stroke
0 0 0 edgecolor
newpath 1160.5 316.33 moveto
1157 306.33 lineto
1153.5 316.33 lineto
closepath fill
1 setlinewidth
solid
0 0 0 edgecolor
newpath 1160.5 316.33 moveto
1157 306.33 lineto
1153.5 316.33 lineto
closepath stroke
grestore
% 13->paray
gsave
1 setlinewidth
0 0 0 edgecolor
newpath 1503.75 341.69 moveto
1506.46 333.36 1509.33 324.52 1512.13 315.91 curveto
stroke
0 0 0 edgecolor
newpath 1515.48 316.92 moveto
1515.24 306.33 lineto
1508.82 314.76 lineto
closepath fill
1 setlinewidth
solid
0 0 0 edgecolor
newpath 1515.48 316.92 moveto
1515.24 306.33 lineto
1508.82 314.76 lineto
closepath stroke
grestore
% 14->para
gsave
1 setlinewidth
0 0 0 edgecolor
newpath 1836.28 341.69 moveto
1839.72 333.27 1843.36 324.33 1846.91 315.64 curveto
stroke
0 0 0 edgecolor
newpath 1850.18 316.91 moveto
1850.72 306.33 lineto
1843.69 314.26 lineto
closepath fill
1 setlinewidth
solid
0 0 0 edgecolor
newpath 1850.18 316.91 moveto
1850.72 306.33 lineto
1843.69 314.26 lineto
closepath stroke
grestore
endpage
showpage
grestore
%%PageTrailer
%%EndPage: 2
setupLatin1
%%Page: 3 3
%%PageBoundingBox: 36 36 1596 756
%%PageOrientation: Portrait
0 0 1 beginpage
gsave
36 36 1560 720 boxprim clip newpath
1 1 set_scale 0 rotate 40 41 translate
% 1073741823
gsave
1 setlinewidth
0 0 0 nodecolor
692 689 43.84 19.09 ellipse_path stroke
0 0 0 nodecolor
18 /Times-Roman set_font
669 682.3 moveto 46 (Result) alignedtext
grestore
% paraxye
gsave
1 setlinewidth
0 0 0 nodecolor
newpath 580 84 moveto
344 84 lineto
344 0 lineto
580 0 lineto
closepath stroke
0 0 0 nodecolor
18 /Times-Roman set_font
433 63.8 moveto 58 (paraxye) alignedtext
0 0 0 nodecolor
18 /Times-Roman set_font
352 44.8 moveto 220 ([|t in [0 , INF]; x in [-INF , 30];) alignedtext
0 0 0 nodecolor
18 /Times-Roman set_font
352.5 25.8 moveto 219 (  y in [1 , INF]; z in [-2 , INF]|]) alignedtext
0 0 0 nodecolor
18 /Times-Roman set_font
367 6.8 moveto 190 (6 constraints, 7 generators) alignedtext
grestore
% parax
gsave
1 setlinewidth
0 0 0 nodecolor
newpath 900 278.5 moveto
652 278.5 lineto
652 213.5 lineto
900 213.5 lineto
closepath stroke
0 0 0 nodecolor
18 /Times-Roman set_font
755.5 258.3 moveto 41 (parax) alignedtext
0 0 0 nodecolor
18 /Times-Roman set_font
659.5 239.3 moveto 233 ([|t in [0 , INF]; ; ; z in [-2 , INF]|]) alignedtext
0 0 0 nodecolor
18 /Times-Roman set_font
681 220.3 moveto 190 (6 constraints, 7 generators) alignedtext
grestore
% 4
gsave
0 0 0 nodecolor
18 /Times-Roman set_font
736.5 146.8 moveto 79 (x-31>=0 ? ) alignedtext
0 0 0 nodecolor
18 /Times-Roman set_font
769.5 127.8 moveto 13 (\(\)) alignedtext
grestore
% parax->4
gsave
1 setlinewidth
0 0 0 edgecolor
newpath 776 213.45 moveto
776 201.93 776 188.96 776 177.38 curveto
stroke
0 0 0 edgecolor
newpath 779.5 177.21 moveto
776 167.21 lineto
772.5 177.21 lineto
closepath fill
1 setlinewidth
solid
0 0 0 edgecolor
newpath 779.5 177.21 moveto
776 167.21 lineto
772.5 177.21 lineto
closepath stroke
grestore
% paray
gsave
1 setlinewidth
0 0 0 nodecolor
newpath 1214 278.5 moveto
966 278.5 lineto
966 213.5 lineto
1214 213.5 lineto
closepath stroke
0 0 0 nodecolor
18 /Times-Roman set_font
1069.5 258.3 moveto 41 (paray) alignedtext
0 0 0 nodecolor
18 /Times-Roman set_font
973.5 239.3 moveto 233 ([|t in [0 , INF]; ; ; z in [-2 , INF]|]) alignedtext
0 0 0 nodecolor
18 /Times-Roman set_font
995 220.3 moveto 190 (6 constraints, 7 generators) alignedtext
grestore
% 6
gsave
0 0 0 nodecolor
18 /Times-Roman set_font
1055 146.8 moveto 70 (y-8>=0 ? ) alignedtext
0 0 0 nodecolor
18 /Times-Roman set_font
1083.5 127.8 moveto 13 (\(\)) alignedtext
grestore
% paray->6
gsave
1 setlinewidth
0 0 0 edgecolor
newpath 1090 213.45 moveto
1090 201.93 1090 188.96 1090 177.38 curveto
stroke
0 0 0 edgecolor
newpath 1093.5 177.21 moveto
1090 167.21 lineto
1086.5 177.21 lineto
closepath fill
1 setlinewidth
solid
0 0 0 edgecolor
newpath 1093.5 177.21 moveto
1090 167.21 lineto
1086.5 177.21 lineto
closepath stroke
grestore
% paraxyy_start
gsave
1 setlinewidth
0 0 0 nodecolor
newpath 264 510 moveto
32 510 lineto
32 426 lineto
264 426 lineto
closepath stroke
0 0 0 nodecolor
18 /Times-Roman set_font
98 489.8 moveto 100 (paraxyy_start) alignedtext
0 0 0 nodecolor
18 /Times-Roman set_font
39.5 470.8 moveto 217 ([|t=0; x in [-2 , 2]; y in [-2 , 2];) alignedtext
0 0 0 nodecolor
18 /Times-Roman set_font
99 451.8 moveto 98 (  z in [-2 , 2]|]) alignedtext
0 0 0 nodecolor
18 /Times-Roman set_font
53 432.8 moveto 190 (7 constraints, 8 generators) alignedtext
grestore
% 1
gsave
0 0 0 nodecolor
18 /Times-Roman set_font
89.5 369.3 moveto 117 (\(-x+2y+30>=0 ?) alignedtext
0 0 0 nodecolor
18 /Times-Roman set_font
13 350.3 moveto 270 (t := t+1; x := x+y; y := y+z; z := z+1\)*) alignedtext
0 0 0 nodecolor
18 /Times-Roman set_font
141.5 331.3 moveto 13 (\(\)) alignedtext
grestore
% paraxyy_start->1
gsave
1 setlinewidth
0 0 0 edgecolor
newpath 148 425.72 moveto
148 417.27 148 408.38 148 399.91 curveto
stroke
0 0 0 edgecolor
newpath 151.5 399.84 moveto
148 389.84 lineto
144.5 399.84 lineto
closepath fill
1 setlinewidth
solid
0 0 0 edgecolor
newpath 151.5 399.84 moveto
148 389.84 lineto
144.5 399.84 lineto
closepath stroke
grestore
% linit
gsave
1 setlinewidth
0 0 0 nodecolor
newpath 798 712 moveto
754 712 lineto
754 666 lineto
798 666 lineto
closepath stroke
0 0 0 nodecolor
18 /Times-Roman set_font
762 691.8 moveto 28 (linit) alignedtext
0 0 0 nodecolor
18 /Times-Roman set_font
764 672.8 moveto 24 (top) alignedtext
grestore
% 10
gsave
0 0 0 nodecolor
18 /Times-Roman set_font
7.5 609.8 moveto 281 (-z+2>=0 and z+2>=0 and -y+2>=0 and) alignedtext
0 0 0 nodecolor
18 /Times-Roman set_font
19 590.8 moveto 258 (y+2>=0 and -x+2>=0 and x+2>=0 ?) alignedtext
0 0 0 nodecolor
18 /Times-Roman set_font
129 571.8 moveto 38 (t := 0) alignedtext
0 0 0 nodecolor
18 /Times-Roman set_font
141.5 552.8 moveto 13 (\(\)) alignedtext
grestore
% linit->10
gsave
1 setlinewidth
0 0 0 edgecolor
newpath 753.82 670.37 moveto
750.98 668.65 748.01 667.13 745 666 curveto
564.42 598.03 500.46 661.31 306.13 630.06 curveto
stroke
0 0 0 edgecolor
newpath 306.62 626.6 moveto
296.18 628.4 lineto
305.46 633.5 lineto
closepath fill
1 setlinewidth
solid
0 0 0 edgecolor
newpath 306.62 626.6 moveto
296.18 628.4 lineto
305.46 633.5 lineto
closepath stroke
grestore
% 11
gsave
0 0 0 nodecolor
18 /Times-Roman set_font
321.5 609.8 moveto 281 (-z+2>=0 and z+2>=0 and -y+2>=0 and) alignedtext
0 0 0 nodecolor
18 /Times-Roman set_font
333 590.8 moveto 258 (y+2>=0 and -x+2>=0 and x+2>=0 ?) alignedtext
0 0 0 nodecolor
18 /Times-Roman set_font
443 571.8 moveto 38 (t := 0) alignedtext
0 0 0 nodecolor
18 /Times-Roman set_font
455.5 552.8 moveto 13 (\(\)) alignedtext
grestore
% linit->11
gsave
1 setlinewidth
0 0 0 edgecolor
newpath 753.94 671.14 moveto
751.03 669.24 748.01 667.47 745 666 curveto
738.45 662.81 681.26 646.9 619.98 630.27 curveto
stroke
0 0 0 edgecolor
newpath 620.69 626.83 moveto
610.12 627.6 lineto
618.86 633.59 lineto
closepath fill
1 setlinewidth
solid
0 0 0 edgecolor
newpath 620.69 626.83 moveto
610.12 627.6 lineto
618.86 633.59 lineto
closepath stroke
grestore
% 12
gsave
0 0 0 nodecolor
18 /Times-Roman set_font
635.5 609.8 moveto 281 (-z+2>=0 and z+2>=0 and -y+2>=0 and) alignedtext
0 0 0 nodecolor
18 /Times-Roman set_font
647 590.8 moveto 258 (y+2>=0 and -x+2>=0 and x+2>=0 ?) alignedtext
0 0 0 nodecolor
18 /Times-Roman set_font
757 571.8 moveto 38 (t := 0) alignedtext
0 0 0 nodecolor
18 /Times-Roman set_font
769.5 552.8 moveto 13 (\(\)) alignedtext
grestore
% linit->12
gsave
1 setlinewidth
0 0 0 edgecolor
newpath 776 665.83 moveto
776 658.13 776 649.21 776 640.22 curveto
stroke
0 0 0 edgecolor
newpath 779.5 640.11 moveto
776 630.11 lineto
772.5 640.11 lineto
closepath fill
1 setlinewidth
solid
0 0 0 edgecolor
newpath 779.5 640.11 moveto
776 630.11 lineto
772.5 640.11 lineto
closepath stroke
grestore
% 13
gsave
0 0 0 nodecolor
18 /Times-Roman set_font
949.5 609.8 moveto 281 (-z+2>=0 and z+2>=0 and -y+2>=0 and) alignedtext
0 0 0 nodecolor
18 /Times-Roman set_font
961 590.8 moveto 258 (y+2>=0 and -x+2>=0 and x+2>=0 ?) alignedtext
0 0 0 nodecolor
18 /Times-Roman set_font
1071 571.8 moveto 38 (t := 0) alignedtext
0 0 0 nodecolor
18 /Times-Roman set_font
1083.5 552.8 moveto 13 (\(\)) alignedtext
grestore
% linit->13
gsave
1 setlinewidth
0 0 0 edgecolor
newpath 798.08 681.9 moveto
829.88 671.67 891.18 651.95 949.43 633.22 curveto
stroke
0 0 0 edgecolor
newpath 950.67 636.49 moveto
959.12 630.1 lineto
948.53 629.83 lineto
closepath fill
1 setlinewidth
solid
0 0 0 edgecolor
newpath 950.67 636.49 moveto
959.12 630.1 lineto
948.53 629.83 lineto
closepath stroke
grestore
% 14
gsave
0 0 0 nodecolor
18 /Times-Roman set_font
1263.5 609.8 moveto 281 (-z+2>=0 and z+2>=0 and -y+2>=0 and) alignedtext
0 0 0 nodecolor
18 /Times-Roman set_font
1275 590.8 moveto 258 (y+2>=0 and -x+2>=0 and x+2>=0 ?) alignedtext
0 0 0 nodecolor
18 /Times-Roman set_font
1385 571.8 moveto 38 (t := 0) alignedtext
0 0 0 nodecolor
18 /Times-Roman set_font
1397.5 552.8 moveto 13 (\(\)) alignedtext
grestore
% linit->14
gsave
1 setlinewidth
0 0 0 edgecolor
newpath 798.24 687.3 moveto
864.79 681.99 1068.2 664.11 1245.75 630.17 curveto
stroke
0 0 0 edgecolor
newpath 1246.64 633.56 moveto
1255.79 628.23 lineto
1245.31 626.69 lineto
closepath fill
1 setlinewidth
solid
0 0 0 edgecolor
newpath 1246.64 633.56 moveto
1255.79 628.23 lineto
1245.31 626.69 lineto
closepath stroke
grestore
% paray_start
gsave
1 setlinewidth
0 0 0 nodecolor
newpath 1206 510 moveto
974 510 lineto
974 426 lineto
1206 426 lineto
closepath stroke
0 0 0 nodecolor
18 /Times-Roman set_font
1049 489.8 moveto 82 (paray_start) alignedtext
0 0 0 nodecolor
18 /Times-Roman set_font
981.5 470.8 moveto 217 ([|t=0; x in [-2 , 2]; y in [-2 , 2];) alignedtext
0 0 0 nodecolor
18 /Times-Roman set_font
1041 451.8 moveto 98 (  z in [-2 , 2]|]) alignedtext
0 0 0 nodecolor
18 /Times-Roman set_font
995 432.8 moveto 190 (7 constraints, 8 generators) alignedtext
grestore
% 7
gsave
0 0 0 nodecolor
18 /Times-Roman set_font
1049.5 369.3 moveto 81 (\(-y+7>=0 ?) alignedtext
0 0 0 nodecolor
18 /Times-Roman set_font
955 350.3 moveto 270 (t := t+1; x := x+y; y := y+z; z := z+1\)*) alignedtext
0 0 0 nodecolor
18 /Times-Roman set_font
1083.5 331.3 moveto 13 (\(\)) alignedtext
grestore
% paray_start->7
gsave
1 setlinewidth
0 0 0 edgecolor
newpath 1090 425.72 moveto
1090 417.27 1090 408.38 1090 399.91 curveto
stroke
0 0 0 edgecolor
newpath 1093.5 399.84 moveto
1090 389.84 lineto
1086.5 399.84 lineto
closepath fill
1 setlinewidth
solid
0 0 0 edgecolor
newpath 1093.5 399.84 moveto
1090 389.84 lineto
1086.5 399.84 lineto
closepath stroke
grestore
% paraye
gsave
1 setlinewidth
0 0 0 nodecolor
newpath 1204 84 moveto
976 84 lineto
976 0 lineto
1204 0 lineto
closepath stroke
0 0 0 nodecolor
18 /Times-Roman set_font
1065.5 63.8 moveto 49 (paraye) alignedtext
0 0 0 nodecolor
18 /Times-Roman set_font
1014 44.8 moveto 152 ([|t in [0.8571 , INF]; ;) alignedtext
0 0 0 nodecolor
18 /Times-Roman set_font
983.5 25.8 moveto 213 (  y in [8 , INF]; z in [2 , INF]|]) alignedtext
0 0 0 nodecolor
18 /Times-Roman set_font
995 6.8 moveto 190 (6 constraints, 8 generators) alignedtext
grestore
% para
gsave
1 setlinewidth
0 0 0 nodecolor
newpath 1528 278.5 moveto
1280 278.5 lineto
1280 213.5 lineto
1528 213.5 lineto
closepath stroke
0 0 0 nodecolor
18 /Times-Roman set_font
1388 258.3 moveto 32 (para) alignedtext
0 0 0 nodecolor
18 /Times-Roman set_font
1287.5 239.3 moveto 233 ([|t in [0 , INF]; ; ; z in [-2 , INF]|]) alignedtext
0 0 0 nodecolor
18 /Times-Roman set_font
1309 220.3 moveto 190 (3 constraints, 5 generators) alignedtext
grestore
% 8
gsave
0 0 0 nodecolor
18 /Times-Roman set_font
1397.5 126.8 moveto 13 (\(\)) alignedtext
grestore
% para->8
gsave
1 setlinewidth
0 0 0 edgecolor
newpath 1404 213.45 moveto
1404 202.2 1404 189.56 1404 178.19 curveto
stroke
0 0 0 edgecolor
newpath 1407.5 178.17 moveto
1404 168.17 lineto
1400.5 178.17 lineto
closepath fill
1 setlinewidth
solid
0 0 0 edgecolor
newpath 1407.5 178.17 moveto
1404 168.17 lineto
1400.5 178.17 lineto
closepath stroke
grestore
% paraxy
gsave
1 setlinewidth
0 0 0 nodecolor
newpath 584 288 moveto
340 288 lineto
340 204 lineto
584 204 lineto
closepath stroke
0 0 0 nodecolor
18 /Times-Roman set_font
437 267.8 moveto 50 (paraxy) alignedtext
0 0 0 nodecolor
18 /Times-Roman set_font
347.5 248.8 moveto 229 ([|t in [0 , INF]; x in [-INF , 30]; ;) alignedtext
0 0 0 nodecolor
18 /Times-Roman set_font
403.5 229.8 moveto 117 (  z in [-2 , INF]|]) alignedtext
0 0 0 nodecolor
18 /Times-Roman set_font
367 210.8 moveto 190 (5 constraints, 7 generators) alignedtext
grestore
% 2
gsave
0 0 0 nodecolor
18 /Times-Roman set_font
413.5 146.8 moveto 97 (x+y-31>=0 ? ) alignedtext
0 0 0 nodecolor
18 /Times-Roman set_font
455.5 127.8 moveto 13 (\(\)) alignedtext
grestore
% paraxy->2
gsave
1 setlinewidth
0 0 0 edgecolor
newpath 462 203.92 moveto
462 195.05 462 185.8 462 177.3 curveto
stroke
0 0 0 edgecolor
newpath 465.5 177.02 moveto
462 167.02 lineto
458.5 177.02 lineto
closepath fill
1 setlinewidth
solid
0 0 0 edgecolor
newpath 465.5 177.02 moveto
462 167.02 lineto
458.5 177.02 lineto
closepath stroke
grestore
% parae
gsave
1 setlinewidth
0 0 0 nodecolor
newpath 1528 74.5 moveto
1280 74.5 lineto
1280 9.5 lineto
1528 9.5 lineto
closepath stroke
0 0 0 nodecolor
18 /Times-Roman set_font
1384 54.3 moveto 40 (parae) alignedtext
0 0 0 nodecolor
18 /Times-Roman set_font
1287.5 35.3 moveto 233 ([|t in [0 , INF]; ; ; z in [-2 , INF]|]) alignedtext
0 0 0 nodecolor
18 /Times-Roman set_font
1309 16.3 moveto 190 (3 constraints, 5 generators) alignedtext
grestore
% parax_start
gsave
1 setlinewidth
0 0 0 nodecolor
newpath 892 510 moveto
660 510 lineto
660 426 lineto
892 426 lineto
closepath stroke
0 0 0 nodecolor
18 /Times-Roman set_font
735 489.8 moveto 82 (parax_start) alignedtext
0 0 0 nodecolor
18 /Times-Roman set_font
667.5 470.8 moveto 217 ([|t=0; x in [-2 , 2]; y in [-2 , 2];) alignedtext
0 0 0 nodecolor
18 /Times-Roman set_font
727 451.8 moveto 98 (  z in [-2 , 2]|]) alignedtext
0 0 0 nodecolor
18 /Times-Roman set_font
681 432.8 moveto 190 (7 constraints, 8 generators) alignedtext
grestore
% 5
gsave
0 0 0 nodecolor
18 /Times-Roman set_font
731 369.3 moveto 90 (\(-x+30>=0 ?) alignedtext
0 0 0 nodecolor
18 /Times-Roman set_font
641 350.3 moveto 270 (t := t+1; x := x+y; y := y+z; z := z+1\)*) alignedtext
0 0 0 nodecolor
18 /Times-Roman set_font
769.5 331.3 moveto 13 (\(\)) alignedtext
grestore
% parax_start->5
gsave
1 setlinewidth
0 0 0 edgecolor
newpath 776 425.72 moveto
776 417.27 776 408.38 776 399.91 curveto
stroke
0 0 0 edgecolor
newpath 779.5 399.84 moveto
776 389.84 lineto
772.5 399.84 lineto
closepath fill
1 setlinewidth
solid
0 0 0 edgecolor
newpath 779.5 399.84 moveto
776 389.84 lineto
772.5 399.84 lineto
closepath stroke
grestore
% paraxy_start
gsave
1 setlinewidth
0 0 0 nodecolor
newpath 578 510 moveto
346 510 lineto
346 426 lineto
578 426 lineto
closepath stroke
0 0 0 nodecolor
18 /Times-Roman set_font
416.5 489.8 moveto 91 (paraxy_start) alignedtext
0 0 0 nodecolor
18 /Times-Roman set_font
353.5 470.8 moveto 217 ([|t=0; x in [-2 , 2]; y in [-2 , 2];) alignedtext
0 0 0 nodecolor
18 /Times-Roman set_font
413 451.8 moveto 98 (  z in [-2 , 2]|]) alignedtext
0 0 0 nodecolor
18 /Times-Roman set_font
367 432.8 moveto 190 (7 constraints, 8 generators) alignedtext
grestore
% 3
gsave
0 0 0 nodecolor
18 /Times-Roman set_font
409.5 369.3 moveto 105 (\(-x-y+30>=0 ?) alignedtext
0 0 0 nodecolor
18 /Times-Roman set_font
327 350.3 moveto 270 (t := t+1; x := x+y; y := y+z; z := z+1\)*) alignedtext
0 0 0 nodecolor
18 /Times-Roman set_font
455.5 331.3 moveto 13 (\(\)) alignedtext
grestore
% paraxy_start->3
gsave
1 setlinewidth
0 0 0 edgecolor
newpath 462 425.72 moveto
462 417.27 462 408.38 462 399.91 curveto
stroke
0 0 0 edgecolor
newpath 465.5 399.84 moveto
462 389.84 lineto
458.5 399.84 lineto
closepath fill
1 setlinewidth
solid
0 0 0 edgecolor
newpath 465.5 399.84 moveto
462 389.84 lineto
458.5 399.84 lineto
closepath stroke
grestore
% paraxyye
gsave
1 setlinewidth
0 0 0 nodecolor
newpath 268 84 moveto
28 84 lineto
28 0 lineto
268 0 lineto
closepath stroke
0 0 0 nodecolor
18 /Times-Roman set_font
114.5 63.8 moveto 67 (paraxyye) alignedtext
0 0 0 nodecolor
18 /Times-Roman set_font
41 44.8 moveto 214 ([|t in [0 , INF]; x in [21 , INF];) alignedtext
0 0 0 nodecolor
18 /Times-Roman set_font
35.5 25.8 moveto 225 (  y in [-5 , INF]; z in [-2 , INF]|]) alignedtext
0 0 0 nodecolor
18 /Times-Roman set_font
53 6.8 moveto 190 (7 constraints, 7 generators) alignedtext
grestore
% paraxyy
gsave
1 setlinewidth
0 0 0 nodecolor
newpath 272 278.5 moveto
24 278.5 lineto
24 213.5 lineto
272 213.5 lineto
closepath stroke
0 0 0 nodecolor
18 /Times-Roman set_font
118.5 258.3 moveto 59 (paraxyy) alignedtext
0 0 0 nodecolor
18 /Times-Roman set_font
31.5 239.3 moveto 233 ([|t in [0 , INF]; ; ; z in [-2 , INF]|]) alignedtext
0 0 0 nodecolor
18 /Times-Roman set_font
53 220.3 moveto 190 (6 constraints, 7 generators) alignedtext
grestore
% 0
gsave
0 0 0 nodecolor
18 /Times-Roman set_font
96.5 146.8 moveto 103 (x-2y-31>=0 ? ) alignedtext
0 0 0 nodecolor
18 /Times-Roman set_font
141.5 127.8 moveto 13 (\(\)) alignedtext
grestore
% paraxyy->0
gsave
1 setlinewidth
0 0 0 edgecolor
newpath 148 213.45 moveto
148 201.93 148 188.96 148 177.38 curveto
stroke
0 0 0 edgecolor
newpath 151.5 177.21 moveto
148 167.21 lineto
144.5 177.21 lineto
closepath fill
1 setlinewidth
solid
0 0 0 edgecolor
newpath 151.5 177.21 moveto
148 167.21 lineto
144.5 177.21 lineto
closepath stroke
grestore
% paraxe
gsave
1 setlinewidth
0 0 0 nodecolor
newpath 896 84 moveto
656 84 lineto
656 0 lineto
896 0 lineto
closepath stroke
0 0 0 nodecolor
18 /Times-Roman set_font
751.5 63.8 moveto 49 (paraxe) alignedtext
0 0 0 nodecolor
18 /Times-Roman set_font
669 44.8 moveto 214 ([|t in [0 , INF]; x in [31 , INF];) alignedtext
0 0 0 nodecolor
18 /Times-Roman set_font
663.5 25.8 moveto 225 (  y in [-1 , INF]; z in [-2 , INF]|]) alignedtext
0 0 0 nodecolor
18 /Times-Roman set_font
681 6.8 moveto 190 (7 constraints, 7 generators) alignedtext
grestore
% para_start
gsave
1 setlinewidth
0 0 0 nodecolor
newpath 1520 510 moveto
1288 510 lineto
1288 426 lineto
1520 426 lineto
closepath stroke
0 0 0 nodecolor
18 /Times-Roman set_font
1367.5 489.8 moveto 73 (para_start) alignedtext
0 0 0 nodecolor
18 /Times-Roman set_font
1295.5 470.8 moveto 217 ([|t=0; x in [-2 , 2]; y in [-2 , 2];) alignedtext
0 0 0 nodecolor
18 /Times-Roman set_font
1355 451.8 moveto 98 (  z in [-2 , 2]|]) alignedtext
0 0 0 nodecolor
18 /Times-Roman set_font
1309 432.8 moveto 190 (7 constraints, 8 generators) alignedtext
grestore
% 9
gsave
0 0 0 nodecolor
18 /Times-Roman set_font
1269 359.8 moveto 270 (t := t+1; x := x+y; y := y+z; z := z+1\)*) alignedtext
0 0 0 nodecolor
18 /Times-Roman set_font
1397.5 340.8 moveto 13 (\(\)) alignedtext
grestore
% para_start->9
gsave
1 setlinewidth
0 0 0 edgecolor
newpath 1404 425.72 moveto
1404 414.02 1404 401.49 1404 390.37 curveto
stroke
0 0 0 edgecolor
newpath 1407.5 390.22 moveto
1404 380.22 lineto
1400.5 390.22 lineto
closepath fill
1 setlinewidth
solid
0 0 0 edgecolor
newpath 1407.5 390.22 moveto
1404 380.22 lineto
1400.5 390.22 lineto
closepath stroke
grestore
% 0->paraxyye
gsave
1 setlinewidth
0 0 0 edgecolor
newpath 148 120.85 moveto
148 112.91 148 103.67 148 94.37 curveto
stroke
0 0 0 edgecolor
newpath 151.5 94.31 moveto
148 84.31 lineto
144.5 94.31 lineto
closepath fill
1 setlinewidth
solid
0 0 0 edgecolor
newpath 151.5 94.31 moveto
148 84.31 lineto
144.5 94.31 lineto
closepath stroke
grestore
% 1->paraxyy
gsave
1 setlinewidth
0 0 0 edgecolor
newpath 148 324.3 moveto
148 313.22 148 300.67 148 288.92 curveto
stroke
0 0 0 edgecolor
newpath 151.5 288.85 moveto
148 278.85 lineto
144.5 288.85 lineto
closepath fill
1 setlinewidth
solid
0 0 0 edgecolor
newpath 151.5 288.85 moveto
148 278.85 lineto
144.5 288.85 lineto
closepath stroke
grestore
% 2->paraxye
gsave
1 setlinewidth
0 0 0 edgecolor
newpath 462 120.85 moveto
462 112.91 462 103.67 462 94.37 curveto
stroke
0 0 0 edgecolor
newpath 465.5 94.31 moveto
462 84.31 lineto
458.5 94.31 lineto
closepath fill
1 setlinewidth
solid
0 0 0 edgecolor
newpath 465.5 94.31 moveto
462 84.31 lineto
458.5 94.31 lineto
closepath stroke
grestore
% 3->paraxy
gsave
1 setlinewidth
0 0 0 edgecolor
newpath 462 324.3 moveto
462 316.21 462 307.34 462 298.56 curveto
stroke
0 0 0 edgecolor
newpath 465.5 298.36 moveto
462 288.36 lineto
458.5 298.36 lineto
closepath fill
1 setlinewidth
solid
0 0 0 edgecolor
newpath 465.5 298.36 moveto
462 288.36 lineto
458.5 298.36 lineto
closepath stroke
grestore
% 4->paraxe
gsave
1 setlinewidth
0 0 0 edgecolor
newpath 776 120.85 moveto
776 112.91 776 103.67 776 94.37 curveto
stroke
0 0 0 edgecolor
newpath 779.5 94.31 moveto
776 84.31 lineto
772.5 94.31 lineto
closepath fill
1 setlinewidth
solid
0 0 0 edgecolor
newpath 779.5 94.31 moveto
776 84.31 lineto
772.5 94.31 lineto
closepath stroke
grestore
% 5->parax
gsave
1 setlinewidth
0 0 0 edgecolor
newpath 776 324.3 moveto
776 313.22 776 300.67 776 288.92 curveto
stroke
0 0 0 edgecolor
newpath 779.5 288.85 moveto
776 278.85 lineto
772.5 288.85 lineto
closepath fill
1 setlinewidth
solid
0 0 0 edgecolor
newpath 779.5 288.85 moveto
776 278.85 lineto
772.5 288.85 lineto
closepath stroke
grestore
% 6->paraye
gsave
1 setlinewidth
0 0 0 edgecolor
newpath 1090 120.85 moveto
1090 112.91 1090 103.67 1090 94.37 curveto
stroke
0 0 0 edgecolor
newpath 1093.5 94.31 moveto
1090 84.31 lineto
1086.5 94.31 lineto
closepath fill
1 setlinewidth
solid
0 0 0 edgecolor
newpath 1093.5 94.31 moveto
1090 84.31 lineto
1086.5 94.31 lineto
closepath stroke
grestore
% 7->paray
gsave
1 setlinewidth
0 0 0 edgecolor
newpath 1090 324.3 moveto
1090 313.22 1090 300.67 1090 288.92 curveto
stroke
0 0 0 edgecolor
newpath 1093.5 288.85 moveto
1090 278.85 lineto
1086.5 288.85 lineto
closepath fill
1 setlinewidth
solid
0 0 0 edgecolor
newpath 1093.5 288.85 moveto
1090 278.85 lineto
1086.5 288.85 lineto
closepath stroke
grestore
% 8->parae
gsave
1 setlinewidth
0 0 0 edgecolor
newpath 1404 119.83 moveto
1404 109.44 1404 96.97 1404 85.1 curveto
stroke
0 0 0 edgecolor
newpath 1407.5 84.87 moveto
1404 74.87 lineto
1400.5 84.87 lineto
closepath fill
1 setlinewidth
solid
0 0 0 edgecolor
newpath 1407.5 84.87 moveto
1404 74.87 lineto
1400.5 84.87 lineto
closepath stroke
grestore
% 9->para
gsave
1 setlinewidth
0 0 0 edgecolor
newpath 1404 333.73 moveto
1404 320.82 1404 304.34 1404 289.16 curveto
stroke
0 0 0 edgecolor
newpath 1407.5 288.92 moveto
1404 278.92 lineto
1400.5 288.92 lineto
closepath fill
1 setlinewidth
solid
0 0 0 edgecolor
newpath 1407.5 288.92 moveto
1404 278.92 lineto
1400.5 288.92 lineto
closepath stroke
grestore
% 10->paraxyy_start
gsave
1 setlinewidth
0 0 0 edgecolor
newpath 148 545.69 moveto
148 537.54 148 528.9 148 520.47 curveto
stroke
0 0 0 edgecolor
newpath 151.5 520.33 moveto
148 510.33 lineto
144.5 520.33 lineto
closepath fill
1 setlinewidth
solid
0 0 0 edgecolor
newpath 151.5 520.33 moveto
148 510.33 lineto
144.5 520.33 lineto
closepath stroke
grestore
% 11->paraxy_start
gsave
1 setlinewidth
0 0 0 edgecolor
newpath 462 545.69 moveto
462 537.54 462 528.9 462 520.47 curveto
stroke
0 0 0 edgecolor
newpath 465.5 520.33 moveto
462 510.33 lineto
458.5 520.33 lineto
closepath fill
1 setlinewidth
solid
0 0 0 edgecolor
newpath 465.5 520.33 moveto
462 510.33 lineto
458.5 520.33 lineto
closepath stroke
grestore
% 12->parax_start
gsave
1 setlinewidth
0 0 0 edgecolor
newpath 776 545.69 moveto
776 537.54 776 528.9 776 520.47 curveto
stroke
0 0 0 edgecolor
newpath 779.5 520.33 moveto
776 510.33 lineto
772.5 520.33 lineto
closepath fill
1 setlinewidth
solid
0 0 0 edgecolor
newpath 779.5 520.33 moveto
776 510.33 lineto
772.5 520.33 lineto
closepath stroke
grestore
% 13->paray_start
gsave
1 setlinewidth
0 0 0 edgecolor
newpath 1090 545.69 moveto
1090 537.54 1090 528.9 1090 520.47 curveto
stroke
0 0 0 edgecolor
newpath 1093.5 520.33 moveto
1090 510.33 lineto
1086.5 520.33 lineto
closepath fill
1 setlinewidth
solid
0 0 0 edgecolor
newpath 1093.5 520.33 moveto
1090 510.33 lineto
1086.5 520.33 lineto
closepath stroke
grestore
% 14->para_start
gsave
1 setlinewidth
0 0 0 edgecolor
newpath 1404 545.69 moveto
1404 537.54 1404 528.9 1404 520.47 curveto
stroke
0 0 0 edgecolor
newpath 1407.5 520.33 moveto
1404 510.33 lineto
1400.5 520.33 lineto
closepath fill
1 setlinewidth
solid
0 0 0 edgecolor
newpath 1407.5 520.33 moveto
1404 510.33 lineto
1400.5 520.33 lineto
closepath stroke
grestore
endpage
showpage
grestore
%%PageTrailer
%%EndPage: 3
%%Trailer
%%Pages: 3
%%BoundingBox: 36 36 2062 794
end
restore
%%EOF
