%!PS-Adobe-3.0
%%Creator: graphviz version 2.26.3 (20100126.1600)
%%Title: G
%%Pages: (atend)
%%BoundingBox: (atend)
%%EndComments
save
%%BeginProlog
/DotDict 200 dict def
DotDict begin

/setupLatin1 {
mark
/EncodingVector 256 array def
 EncodingVector 0

ISOLatin1Encoding 0 255 getinterval putinterval
EncodingVector 45 /hyphen put

% Set up ISO Latin 1 character encoding
/starnetISO {
        dup dup findfont dup length dict begin
        { 1 index /FID ne { def }{ pop pop } ifelse
        } forall
        /Encoding EncodingVector def
        currentdict end definefont
} def
/Times-Roman starnetISO def
/Times-Italic starnetISO def
/Times-Bold starnetISO def
/Times-BoldItalic starnetISO def
/Helvetica starnetISO def
/Helvetica-Oblique starnetISO def
/Helvetica-Bold starnetISO def
/Helvetica-BoldOblique starnetISO def
/Courier starnetISO def
/Courier-Oblique starnetISO def
/Courier-Bold starnetISO def
/Courier-BoldOblique starnetISO def
cleartomark
} bind def

%%BeginResource: procset graphviz 0 0
/coord-font-family /Times-Roman def
/default-font-family /Times-Roman def
/coordfont coord-font-family findfont 8 scalefont def

/InvScaleFactor 1.0 def
/set_scale {
       dup 1 exch div /InvScaleFactor exch def
       scale
} bind def

% styles
/solid { [] 0 setdash } bind def
/dashed { [9 InvScaleFactor mul dup ] 0 setdash } bind def
/dotted { [1 InvScaleFactor mul 6 InvScaleFactor mul] 0 setdash } bind def
/invis {/fill {newpath} def /stroke {newpath} def /show {pop newpath} def} bind def
/bold { 2 setlinewidth } bind def
/filled { } bind def
/unfilled { } bind def
/rounded { } bind def
/diagonals { } bind def

% hooks for setting color 
/nodecolor { sethsbcolor } bind def
/edgecolor { sethsbcolor } bind def
/graphcolor { sethsbcolor } bind def
/nopcolor {pop pop pop} bind def

/beginpage {	% i j npages
	/npages exch def
	/j exch def
	/i exch def
	/str 10 string def
	npages 1 gt {
		gsave
			coordfont setfont
			0 0 moveto
			(\() show i str cvs show (,) show j str cvs show (\)) show
		grestore
	} if
} bind def

/set_font {
	findfont exch
	scalefont setfont
} def

% draw text fitted to its expected width
/alignedtext {			% width text
	/text exch def
	/width exch def
	gsave
		width 0 gt {
			[] 0 setdash
			text stringwidth pop width exch sub text length div 0 text ashow
		} if
	grestore
} def

/boxprim {				% xcorner ycorner xsize ysize
		4 2 roll
		moveto
		2 copy
		exch 0 rlineto
		0 exch rlineto
		pop neg 0 rlineto
		closepath
} bind def

/ellipse_path {
	/ry exch def
	/rx exch def
	/y exch def
	/x exch def
	matrix currentmatrix
	newpath
	x y translate
	rx ry scale
	0 0 1 0 360 arc
	setmatrix
} bind def

/endpage { showpage } bind def
/showpage { } def

/layercolorseq
	[	% layer color sequence - darkest to lightest
		[0 0 0]
		[.2 .8 .8]
		[.4 .8 .8]
		[.6 .8 .8]
		[.8 .8 .8]
	]
def

/layerlen layercolorseq length def

/setlayer {/maxlayer exch def /curlayer exch def
	layercolorseq curlayer 1 sub layerlen mod get
	aload pop sethsbcolor
	/nodecolor {nopcolor} def
	/edgecolor {nopcolor} def
	/graphcolor {nopcolor} def
} bind def

/onlayer { curlayer ne {invis} if } def

/onlayers {
	/myupper exch def
	/mylower exch def
	curlayer mylower lt
	curlayer myupper gt
	or
	{invis} if
} def

/curlayer 0 def

%%EndResource
%%EndProlog
%%BeginSetup
14 default-font-family set_font
1 setmiterlimit
% /arrowlength 10 def
% /arrowwidth 5 def

% make sure pdfmark is harmless for PS-interpreters other than Distiller
/pdfmark where {pop} {userdict /pdfmark /cleartomark load put} ifelse
% make '<<' and '>>' safe on PS Level 1 devices
/languagelevel where {pop languagelevel}{1} ifelse
2 lt {
    userdict (<<) cvn ([) cvn load put
    userdict (>>) cvn ([) cvn load put
} if

%%EndSetup
setupLatin1
%%Page: 1 1
%%PageBoundingBox: 36 36 1596 814
%%PageOrientation: Portrait
0 0 1 beginpage
gsave
36 36 1560 778 boxprim clip newpath
1 1 set_scale 0 rotate 40 41 translate
% 1073741823
gsave
1 setlinewidth
0 0 0 nodecolor
692 747 43.84 19.09 ellipse_path stroke
0 0 0 nodecolor
18 /Times-Roman set_font
669 740.3 moveto 46 (Result) alignedtext
grestore
% paraxye
gsave
1 setlinewidth
0 0 0 nodecolor
newpath 583 112.5 moveto
341 112.5 lineto
341 9.5 lineto
583 9.5 lineto
closepath stroke
0 0 0 nodecolor
18 /Times-Roman set_font
433 92.3 moveto 58 (paraxye) alignedtext
0 0 0 nodecolor
18 /Times-Roman set_font
353.5 73.3 moveto 217 ([|t in [1.386 , 10]; x in [8 , 30];) alignedtext
0 0 0 nodecolor
18 /Times-Roman set_font
387 54.3 moveto 150 (  y in [4.201 , 28.03];) alignedtext
0 0 0 nodecolor
18 /Times-Roman set_font
368.5 35.3 moveto 187 (  z in [-0.007562 , 8.526]|]) alignedtext
0 0 0 nodecolor
18 /Times-Roman set_font
349 16.3 moveto 226 (237 constraints, 380 generators) alignedtext
grestore
% parax
gsave
1 setlinewidth
0 0 0 nodecolor
newpath 908 336 moveto
644 336 lineto
644 252 lineto
908 252 lineto
closepath stroke
0 0 0 nodecolor
18 /Times-Roman set_font
755.5 315.8 moveto 41 (parax) alignedtext
0 0 0 nodecolor
18 /Times-Roman set_font
654 296.8 moveto 244 ([|t in [0 , 11]; x in [-24.48 , 58.18];) alignedtext
0 0 0 nodecolor
18 /Times-Roman set_font
651.5 277.8 moveto 249 (  y in [-5 , 36.74]; z in [-2 , 9.556]|]) alignedtext
0 0 0 nodecolor
18 /Times-Roman set_font
663 258.8 moveto 226 (270 constraints, 185 generators) alignedtext
grestore
% 4
gsave
0 0 0 nodecolor
18 /Times-Roman set_font
736.5 184.8 moveto 79 (x-31>=0 ? ) alignedtext
0 0 0 nodecolor
18 /Times-Roman set_font
769.5 165.8 moveto 13 (\(\)) alignedtext
grestore
% parax->4
gsave
1 setlinewidth
0 0 0 edgecolor
newpath 776 251.98 moveto
776 239.81 776 226.7 776 215.16 curveto
stroke
0 0 0 edgecolor
newpath 779.5 215.07 moveto
776 205.07 lineto
772.5 215.07 lineto
closepath fill
1 setlinewidth
solid
0 0 0 edgecolor
newpath 779.5 215.07 moveto
776 205.07 lineto
772.5 215.07 lineto
closepath stroke
grestore
% paray
gsave
1 setlinewidth
0 0 0 nodecolor
newpath 1222 336 moveto
958 336 lineto
958 252 lineto
1222 252 lineto
closepath stroke
0 0 0 nodecolor
18 /Times-Roman set_font
1069.5 315.8 moveto 41 (paray) alignedtext
0 0 0 nodecolor
18 /Times-Roman set_font
972.5 296.8 moveto 235 ([|t in [0 , 8]; x in [-24.48 , 32.11];) alignedtext
0 0 0 nodecolor
18 /Times-Roman set_font
965.5 277.8 moveto 249 (  y in [-5 , 12.31]; z in [-2 , 6.311]|]) alignedtext
0 0 0 nodecolor
18 /Times-Roman set_font
977 258.8 moveto 226 (207 constraints, 159 generators) alignedtext
grestore
% 6
gsave
0 0 0 nodecolor
18 /Times-Roman set_font
1055 184.8 moveto 70 (y-8>=0 ? ) alignedtext
0 0 0 nodecolor
18 /Times-Roman set_font
1083.5 165.8 moveto 13 (\(\)) alignedtext
grestore
% paray->6
gsave
1 setlinewidth
0 0 0 edgecolor
newpath 1090 251.98 moveto
1090 239.81 1090 226.7 1090 215.16 curveto
stroke
0 0 0 edgecolor
newpath 1093.5 215.07 moveto
1090 205.07 lineto
1086.5 215.07 lineto
closepath fill
1 setlinewidth
solid
0 0 0 edgecolor
newpath 1093.5 215.07 moveto
1090 205.07 lineto
1086.5 215.07 lineto
closepath stroke
grestore
% paraxyy_start
gsave
1 setlinewidth
0 0 0 nodecolor
newpath 264 568 moveto
32 568 lineto
32 484 lineto
264 484 lineto
closepath stroke
0 0 0 nodecolor
18 /Times-Roman set_font
98 547.8 moveto 100 (paraxyy_start) alignedtext
0 0 0 nodecolor
18 /Times-Roman set_font
39.5 528.8 moveto 217 ([|t=0; x in [-2 , 2]; y in [-2 , 2];) alignedtext
0 0 0 nodecolor
18 /Times-Roman set_font
99 509.8 moveto 98 (  z in [-2 , 2]|]) alignedtext
0 0 0 nodecolor
18 /Times-Roman set_font
53 490.8 moveto 190 (7 constraints, 8 generators) alignedtext
grestore
% 1
gsave
0 0 0 nodecolor
18 /Times-Roman set_font
89.5 427.3 moveto 117 (\(-x+2y+30>=0 ?) alignedtext
0 0 0 nodecolor
18 /Times-Roman set_font
13 408.3 moveto 270 (t := t+1; x := x+y; y := y+z; z := z+1\)*) alignedtext
0 0 0 nodecolor
18 /Times-Roman set_font
141.5 389.3 moveto 13 (\(\)) alignedtext
grestore
% paraxyy_start->1
gsave
1 setlinewidth
0 0 0 edgecolor
newpath 148 483.72 moveto
148 475.27 148 466.38 148 457.91 curveto
stroke
0 0 0 edgecolor
newpath 151.5 457.84 moveto
148 447.84 lineto
144.5 457.84 lineto
closepath fill
1 setlinewidth
solid
0 0 0 edgecolor
newpath 151.5 457.84 moveto
148 447.84 lineto
144.5 457.84 lineto
closepath stroke
grestore
% linit
gsave
1 setlinewidth
0 0 0 nodecolor
newpath 798 770 moveto
754 770 lineto
754 724 lineto
798 724 lineto
closepath stroke
0 0 0 nodecolor
18 /Times-Roman set_font
762 749.8 moveto 28 (linit) alignedtext
0 0 0 nodecolor
18 /Times-Roman set_font
764 730.8 moveto 24 (top) alignedtext
grestore
% 10
gsave
0 0 0 nodecolor
18 /Times-Roman set_font
7.5 667.8 moveto 281 (-z+2>=0 and z+2>=0 and -y+2>=0 and) alignedtext
0 0 0 nodecolor
18 /Times-Roman set_font
19 648.8 moveto 258 (y+2>=0 and -x+2>=0 and x+2>=0 ?) alignedtext
0 0 0 nodecolor
18 /Times-Roman set_font
129 629.8 moveto 38 (t := 0) alignedtext
0 0 0 nodecolor
18 /Times-Roman set_font
141.5 610.8 moveto 13 (\(\)) alignedtext
grestore
% linit->10
gsave
1 setlinewidth
0 0 0 edgecolor
newpath 753.82 728.37 moveto
750.98 726.65 748.01 725.13 745 724 curveto
564.42 656.03 500.46 719.31 306.13 688.06 curveto
stroke
0 0 0 edgecolor
newpath 306.62 684.6 moveto
296.18 686.4 lineto
305.46 691.5 lineto
closepath fill
1 setlinewidth
solid
0 0 0 edgecolor
newpath 306.62 684.6 moveto
296.18 686.4 lineto
305.46 691.5 lineto
closepath stroke
grestore
% 11
gsave
0 0 0 nodecolor
18 /Times-Roman set_font
321.5 667.8 moveto 281 (-z+2>=0 and z+2>=0 and -y+2>=0 and) alignedtext
0 0 0 nodecolor
18 /Times-Roman set_font
333 648.8 moveto 258 (y+2>=0 and -x+2>=0 and x+2>=0 ?) alignedtext
0 0 0 nodecolor
18 /Times-Roman set_font
443 629.8 moveto 38 (t := 0) alignedtext
0 0 0 nodecolor
18 /Times-Roman set_font
455.5 610.8 moveto 13 (\(\)) alignedtext
grestore
% linit->11
gsave
1 setlinewidth
0 0 0 edgecolor
newpath 753.94 729.14 moveto
751.03 727.24 748.01 725.47 745 724 curveto
738.45 720.81 681.26 704.9 619.98 688.27 curveto
stroke
0 0 0 edgecolor
newpath 620.69 684.83 moveto
610.12 685.6 lineto
618.86 691.59 lineto
closepath fill
1 setlinewidth
solid
0 0 0 edgecolor
newpath 620.69 684.83 moveto
610.12 685.6 lineto
618.86 691.59 lineto
closepath stroke
grestore
% 12
gsave
0 0 0 nodecolor
18 /Times-Roman set_font
635.5 667.8 moveto 281 (-z+2>=0 and z+2>=0 and -y+2>=0 and) alignedtext
0 0 0 nodecolor
18 /Times-Roman set_font
647 648.8 moveto 258 (y+2>=0 and -x+2>=0 and x+2>=0 ?) alignedtext
0 0 0 nodecolor
18 /Times-Roman set_font
757 629.8 moveto 38 (t := 0) alignedtext
0 0 0 nodecolor
18 /Times-Roman set_font
769.5 610.8 moveto 13 (\(\)) alignedtext
grestore
% linit->12
gsave
1 setlinewidth
0 0 0 edgecolor
newpath 776 723.83 moveto
776 716.13 776 707.21 776 698.22 curveto
stroke
0 0 0 edgecolor
newpath 779.5 698.11 moveto
776 688.11 lineto
772.5 698.11 lineto
closepath fill
1 setlinewidth
solid
0 0 0 edgecolor
newpath 779.5 698.11 moveto
776 688.11 lineto
772.5 698.11 lineto
closepath stroke
grestore
% 13
gsave
0 0 0 nodecolor
18 /Times-Roman set_font
949.5 667.8 moveto 281 (-z+2>=0 and z+2>=0 and -y+2>=0 and) alignedtext
0 0 0 nodecolor
18 /Times-Roman set_font
961 648.8 moveto 258 (y+2>=0 and -x+2>=0 and x+2>=0 ?) alignedtext
0 0 0 nodecolor
18 /Times-Roman set_font
1071 629.8 moveto 38 (t := 0) alignedtext
0 0 0 nodecolor
18 /Times-Roman set_font
1083.5 610.8 moveto 13 (\(\)) alignedtext
grestore
% linit->13
gsave
1 setlinewidth
0 0 0 edgecolor
newpath 798.08 739.9 moveto
829.88 729.67 891.18 709.95 949.43 691.22 curveto
stroke
0 0 0 edgecolor
newpath 950.67 694.49 moveto
959.12 688.1 lineto
948.53 687.83 lineto
closepath fill
1 setlinewidth
solid
0 0 0 edgecolor
newpath 950.67 694.49 moveto
959.12 688.1 lineto
948.53 687.83 lineto
closepath stroke
grestore
% 14
gsave
0 0 0 nodecolor
18 /Times-Roman set_font
1263.5 667.8 moveto 281 (-z+2>=0 and z+2>=0 and -y+2>=0 and) alignedtext
0 0 0 nodecolor
18 /Times-Roman set_font
1275 648.8 moveto 258 (y+2>=0 and -x+2>=0 and x+2>=0 ?) alignedtext
0 0 0 nodecolor
18 /Times-Roman set_font
1385 629.8 moveto 38 (t := 0) alignedtext
0 0 0 nodecolor
18 /Times-Roman set_font
1397.5 610.8 moveto 13 (\(\)) alignedtext
grestore
% linit->14
gsave
1 setlinewidth
0 0 0 edgecolor
newpath 798.24 745.3 moveto
864.79 739.99 1068.2 722.11 1245.75 688.17 curveto
stroke
0 0 0 edgecolor
newpath 1246.64 691.56 moveto
1255.79 686.23 lineto
1245.31 684.69 lineto
closepath fill
1 setlinewidth
solid
0 0 0 edgecolor
newpath 1246.64 691.56 moveto
1255.79 686.23 lineto
1245.31 684.69 lineto
closepath stroke
grestore
% paray_start
gsave
1 setlinewidth
0 0 0 nodecolor
newpath 1206 568 moveto
974 568 lineto
974 484 lineto
1206 484 lineto
closepath stroke
0 0 0 nodecolor
18 /Times-Roman set_font
1049 547.8 moveto 82 (paray_start) alignedtext
0 0 0 nodecolor
18 /Times-Roman set_font
981.5 528.8 moveto 217 ([|t=0; x in [-2 , 2]; y in [-2 , 2];) alignedtext
0 0 0 nodecolor
18 /Times-Roman set_font
1041 509.8 moveto 98 (  z in [-2 , 2]|]) alignedtext
0 0 0 nodecolor
18 /Times-Roman set_font
995 490.8 moveto 190 (7 constraints, 8 generators) alignedtext
grestore
% 7
gsave
0 0 0 nodecolor
18 /Times-Roman set_font
1049.5 427.3 moveto 81 (\(-y+7>=0 ?) alignedtext
0 0 0 nodecolor
18 /Times-Roman set_font
955 408.3 moveto 270 (t := t+1; x := x+y; y := y+z; z := z+1\)*) alignedtext
0 0 0 nodecolor
18 /Times-Roman set_font
1083.5 389.3 moveto 13 (\(\)) alignedtext
grestore
% paray_start->7
gsave
1 setlinewidth
0 0 0 edgecolor
newpath 1090 483.72 moveto
1090 475.27 1090 466.38 1090 457.91 curveto
stroke
0 0 0 edgecolor
newpath 1093.5 457.84 moveto
1090 447.84 lineto
1086.5 457.84 lineto
closepath fill
1 setlinewidth
solid
0 0 0 edgecolor
newpath 1093.5 457.84 moveto
1090 447.84 lineto
1086.5 457.84 lineto
closepath stroke
grestore
% paraye
gsave
1 setlinewidth
0 0 0 nodecolor
newpath 1216 112.5 moveto
964 112.5 lineto
964 9.5 lineto
1216 9.5 lineto
closepath stroke
0 0 0 nodecolor
18 /Times-Roman set_font
1065.5 92.3 moveto 49 (paraye) alignedtext
0 0 0 nodecolor
18 /Times-Roman set_font
1041.5 73.3 moveto 97 ([|t in [1.5 , 8];) alignedtext
0 0 0 nodecolor
18 /Times-Roman set_font
1012 54.3 moveto 156 (  x in [-20.84 , 32.11];) alignedtext
0 0 0 nodecolor
18 /Times-Roman set_font
971.5 35.3 moveto 237 (  y in [8 , 12.31]; z in [2 , 6.311]|]) alignedtext
0 0 0 nodecolor
18 /Times-Roman set_font
977 16.3 moveto 226 (139 constraints, 209 generators) alignedtext
grestore
% para
gsave
1 setlinewidth
0 0 0 nodecolor
newpath 1533 336 moveto
1275 336 lineto
1275 252 lineto
1533 252 lineto
closepath stroke
0 0 0 nodecolor
18 /Times-Roman set_font
1388 315.8 moveto 32 (para) alignedtext
0 0 0 nodecolor
18 /Times-Roman set_font
1283 296.8 moveto 242 ([|t in [0 , INF]; x in [-24.48 , INF];) alignedtext
0 0 0 nodecolor
18 /Times-Roman set_font
1291.5 277.8 moveto 225 (  y in [-5 , INF]; z in [-2 , INF]|]) alignedtext
0 0 0 nodecolor
18 /Times-Roman set_font
1295.5 258.8 moveto 217 (144 constraints, 63 generators) alignedtext
grestore
% 8
gsave
0 0 0 nodecolor
18 /Times-Roman set_font
1397.5 164.8 moveto 13 (\(\)) alignedtext
grestore
% para->8
gsave
1 setlinewidth
0 0 0 edgecolor
newpath 1404 251.98 moveto
1404 240.22 1404 227.58 1404 216.32 curveto
stroke
0 0 0 edgecolor
newpath 1407.5 216.03 moveto
1404 206.03 lineto
1400.5 216.03 lineto
closepath fill
1 setlinewidth
solid
0 0 0 edgecolor
newpath 1407.5 216.03 moveto
1404 206.03 lineto
1400.5 216.03 lineto
closepath stroke
grestore
% paraxy
gsave
1 setlinewidth
0 0 0 nodecolor
newpath 594 336 moveto
330 336 lineto
330 252 lineto
594 252 lineto
closepath stroke
0 0 0 nodecolor
18 /Times-Roman set_font
437 315.8 moveto 50 (paraxy) alignedtext
0 0 0 nodecolor
18 /Times-Roman set_font
350.5 296.8 moveto 223 ([|t in [0 , 10]; x in [-24.48 , 30];) alignedtext
0 0 0 nodecolor
18 /Times-Roman set_font
337.5 277.8 moveto 249 (  y in [-5 , 28.03]; z in [-2 , 8.526]|]) alignedtext
0 0 0 nodecolor
18 /Times-Roman set_font
349 258.8 moveto 226 (299 constraints, 217 generators) alignedtext
grestore
% 2
gsave
0 0 0 nodecolor
18 /Times-Roman set_font
413.5 184.8 moveto 97 (x+y-31>=0 ? ) alignedtext
0 0 0 nodecolor
18 /Times-Roman set_font
455.5 165.8 moveto 13 (\(\)) alignedtext
grestore
% paraxy->2
gsave
1 setlinewidth
0 0 0 edgecolor
newpath 462 251.98 moveto
462 239.81 462 226.7 462 215.16 curveto
stroke
0 0 0 edgecolor
newpath 465.5 215.07 moveto
462 205.07 lineto
458.5 215.07 lineto
closepath fill
1 setlinewidth
solid
0 0 0 edgecolor
newpath 465.5 215.07 moveto
462 205.07 lineto
458.5 215.07 lineto
closepath stroke
grestore
% parae
gsave
1 setlinewidth
0 0 0 nodecolor
newpath 1533 103 moveto
1275 103 lineto
1275 19 lineto
1533 19 lineto
closepath stroke
0 0 0 nodecolor
18 /Times-Roman set_font
1384 82.8 moveto 40 (parae) alignedtext
0 0 0 nodecolor
18 /Times-Roman set_font
1283 63.8 moveto 242 ([|t in [0 , INF]; x in [-24.48 , INF];) alignedtext
0 0 0 nodecolor
18 /Times-Roman set_font
1291.5 44.8 moveto 225 (  y in [-5 , INF]; z in [-2 , INF]|]) alignedtext
0 0 0 nodecolor
18 /Times-Roman set_font
1295.5 25.8 moveto 217 (144 constraints, 63 generators) alignedtext
grestore
% parax_start
gsave
1 setlinewidth
0 0 0 nodecolor
newpath 892 568 moveto
660 568 lineto
660 484 lineto
892 484 lineto
closepath stroke
0 0 0 nodecolor
18 /Times-Roman set_font
735 547.8 moveto 82 (parax_start) alignedtext
0 0 0 nodecolor
18 /Times-Roman set_font
667.5 528.8 moveto 217 ([|t=0; x in [-2 , 2]; y in [-2 , 2];) alignedtext
0 0 0 nodecolor
18 /Times-Roman set_font
727 509.8 moveto 98 (  z in [-2 , 2]|]) alignedtext
0 0 0 nodecolor
18 /Times-Roman set_font
681 490.8 moveto 190 (7 constraints, 8 generators) alignedtext
grestore
% 5
gsave
0 0 0 nodecolor
18 /Times-Roman set_font
731 427.3 moveto 90 (\(-x+30>=0 ?) alignedtext
0 0 0 nodecolor
18 /Times-Roman set_font
641 408.3 moveto 270 (t := t+1; x := x+y; y := y+z; z := z+1\)*) alignedtext
0 0 0 nodecolor
18 /Times-Roman set_font
769.5 389.3 moveto 13 (\(\)) alignedtext
grestore
% parax_start->5
gsave
1 setlinewidth
0 0 0 edgecolor
newpath 776 483.72 moveto
776 475.27 776 466.38 776 457.91 curveto
stroke
0 0 0 edgecolor
newpath 779.5 457.84 moveto
776 447.84 lineto
772.5 457.84 lineto
closepath fill
1 setlinewidth
solid
0 0 0 edgecolor
newpath 779.5 457.84 moveto
776 447.84 lineto
772.5 457.84 lineto
closepath stroke
grestore
% paraxy_start
gsave
1 setlinewidth
0 0 0 nodecolor
newpath 578 568 moveto
346 568 lineto
346 484 lineto
578 484 lineto
closepath stroke
0 0 0 nodecolor
18 /Times-Roman set_font
416.5 547.8 moveto 91 (paraxy_start) alignedtext
0 0 0 nodecolor
18 /Times-Roman set_font
353.5 528.8 moveto 217 ([|t=0; x in [-2 , 2]; y in [-2 , 2];) alignedtext
0 0 0 nodecolor
18 /Times-Roman set_font
413 509.8 moveto 98 (  z in [-2 , 2]|]) alignedtext
0 0 0 nodecolor
18 /Times-Roman set_font
367 490.8 moveto 190 (7 constraints, 8 generators) alignedtext
grestore
% 3
gsave
0 0 0 nodecolor
18 /Times-Roman set_font
409.5 427.3 moveto 105 (\(-x-y+30>=0 ?) alignedtext
0 0 0 nodecolor
18 /Times-Roman set_font
327 408.3 moveto 270 (t := t+1; x := x+y; y := y+z; z := z+1\)*) alignedtext
0 0 0 nodecolor
18 /Times-Roman set_font
455.5 389.3 moveto 13 (\(\)) alignedtext
grestore
% paraxy_start->3
gsave
1 setlinewidth
0 0 0 edgecolor
newpath 462 483.72 moveto
462 475.27 462 466.38 462 457.91 curveto
stroke
0 0 0 edgecolor
newpath 465.5 457.84 moveto
462 447.84 lineto
458.5 457.84 lineto
closepath fill
1 setlinewidth
solid
0 0 0 edgecolor
newpath 465.5 457.84 moveto
462 447.84 lineto
458.5 457.84 lineto
closepath stroke
grestore
% paraxyye
gsave
1 setlinewidth
0 0 0 nodecolor
newpath 269 122 moveto
27 122 lineto
27 0 lineto
269 0 lineto
closepath stroke
0 0 0 nodecolor
18 /Times-Roman set_font
114.5 101.8 moveto 67 (paraxyye) alignedtext
0 0 0 nodecolor
18 /Times-Roman set_font
75 82.8 moveto 146 ([|t in [1.013 , 15.21];) alignedtext
0 0 0 nodecolor
18 /Times-Roman set_font
77.5 63.8 moveto 141 (  x in [31.6 , 242.6];) alignedtext
0 0 0 nodecolor
18 /Times-Roman set_font
68.5 44.8 moveto 159 (  y in [0.2984 , 80.04];) alignedtext
0 0 0 nodecolor
18 /Times-Roman set_font
63.5 25.8 moveto 169 (  z in [-0.8974 , 13.26]|]) alignedtext
0 0 0 nodecolor
18 /Times-Roman set_font
35 6.8 moveto 226 (100 constraints, 157 generators) alignedtext
grestore
% paraxyy
gsave
1 setlinewidth
0 0 0 nodecolor
newpath 280 345.5 moveto
16 345.5 lineto
16 242.5 lineto
280 242.5 lineto
closepath stroke
0 0 0 nodecolor
18 /Times-Roman set_font
118.5 325.3 moveto 59 (paraxyy) alignedtext
0 0 0 nodecolor
18 /Times-Roman set_font
90.5 306.3 moveto 115 ([|t in [0 , 15.21];) alignedtext
0 0 0 nodecolor
18 /Times-Roman set_font
70 287.3 moveto 156 (  x in [-24.48 , 242.6];) alignedtext
0 0 0 nodecolor
18 /Times-Roman set_font
23.5 268.3 moveto 249 (  y in [-5 , 80.04]; z in [-2 , 13.26]|]) alignedtext
0 0 0 nodecolor
18 /Times-Roman set_font
35 249.3 moveto 226 (225 constraints, 154 generators) alignedtext
grestore
% 0
gsave
0 0 0 nodecolor
18 /Times-Roman set_font
96.5 184.8 moveto 103 (x-2y-31>=0 ? ) alignedtext
0 0 0 nodecolor
18 /Times-Roman set_font
141.5 165.8 moveto 13 (\(\)) alignedtext
grestore
% paraxyy->0
gsave
1 setlinewidth
0 0 0 edgecolor
newpath 148 242.26 moveto
148 233.15 148 223.89 148 215.46 curveto
stroke
0 0 0 edgecolor
newpath 151.5 215.28 moveto
148 205.28 lineto
144.5 215.28 lineto
closepath fill
1 setlinewidth
solid
0 0 0 edgecolor
newpath 151.5 215.28 moveto
148 205.28 lineto
144.5 215.28 lineto
closepath stroke
grestore
% paraxe
gsave
1 setlinewidth
0 0 0 nodecolor
newpath 907 112.5 moveto
645 112.5 lineto
645 9.5 lineto
907 9.5 lineto
closepath stroke
0 0 0 nodecolor
18 /Times-Roman set_font
751.5 92.3 moveto 49 (paraxe) alignedtext
0 0 0 nodecolor
18 /Times-Roman set_font
652.5 73.3 moveto 247 ([|t in [1.506 , 11]; x in [31 , 58.18];) alignedtext
0 0 0 nodecolor
18 /Times-Roman set_font
701 54.3 moveto 150 (  y in [4.605 , 36.74];) alignedtext
0 0 0 nodecolor
18 /Times-Roman set_font
690 35.3 moveto 172 (  z in [0.06858 , 9.556]|]) alignedtext
0 0 0 nodecolor
18 /Times-Roman set_font
663 16.3 moveto 226 (195 constraints, 307 generators) alignedtext
grestore
% para_start
gsave
1 setlinewidth
0 0 0 nodecolor
newpath 1520 568 moveto
1288 568 lineto
1288 484 lineto
1520 484 lineto
closepath stroke
0 0 0 nodecolor
18 /Times-Roman set_font
1367.5 547.8 moveto 73 (para_start) alignedtext
0 0 0 nodecolor
18 /Times-Roman set_font
1295.5 528.8 moveto 217 ([|t=0; x in [-2 , 2]; y in [-2 , 2];) alignedtext
0 0 0 nodecolor
18 /Times-Roman set_font
1355 509.8 moveto 98 (  z in [-2 , 2]|]) alignedtext
0 0 0 nodecolor
18 /Times-Roman set_font
1309 490.8 moveto 190 (7 constraints, 8 generators) alignedtext
grestore
% 9
gsave
0 0 0 nodecolor
18 /Times-Roman set_font
1269 417.8 moveto 270 (t := t+1; x := x+y; y := y+z; z := z+1\)*) alignedtext
0 0 0 nodecolor
18 /Times-Roman set_font
1397.5 398.8 moveto 13 (\(\)) alignedtext
grestore
% para_start->9
gsave
1 setlinewidth
0 0 0 edgecolor
newpath 1404 483.72 moveto
1404 472.02 1404 459.49 1404 448.37 curveto
stroke
0 0 0 edgecolor
newpath 1407.5 448.22 moveto
1404 438.22 lineto
1400.5 448.22 lineto
closepath fill
1 setlinewidth
solid
0 0 0 edgecolor
newpath 1407.5 448.22 moveto
1404 438.22 lineto
1400.5 448.22 lineto
closepath stroke
grestore
% 0->paraxyye
gsave
1 setlinewidth
0 0 0 edgecolor
newpath 148 158.96 moveto
148 151.12 148 141.9 148 132.3 curveto
stroke
0 0 0 edgecolor
newpath 151.5 132.21 moveto
148 122.21 lineto
144.5 132.21 lineto
closepath fill
1 setlinewidth
solid
0 0 0 edgecolor
newpath 151.5 132.21 moveto
148 122.21 lineto
144.5 132.21 lineto
closepath stroke
grestore
% 1->paraxyy
gsave
1 setlinewidth
0 0 0 edgecolor
newpath 148 382.26 moveto
148 374.12 148 365.13 148 356.09 curveto
stroke
0 0 0 edgecolor
newpath 151.5 355.91 moveto
148 345.91 lineto
144.5 355.91 lineto
closepath fill
1 setlinewidth
solid
0 0 0 edgecolor
newpath 151.5 355.91 moveto
148 345.91 lineto
144.5 355.91 lineto
closepath stroke
grestore
% 2->paraxye
gsave
1 setlinewidth
0 0 0 edgecolor
newpath 462 158.96 moveto
462 148.57 462 135.75 462 122.85 curveto
stroke
0 0 0 edgecolor
newpath 465.5 122.53 moveto
462 112.53 lineto
458.5 122.53 lineto
closepath fill
1 setlinewidth
solid
0 0 0 edgecolor
newpath 465.5 122.53 moveto
462 112.53 lineto
458.5 122.53 lineto
closepath stroke
grestore
% 3->paraxy
gsave
1 setlinewidth
0 0 0 edgecolor
newpath 462 382.26 moveto
462 371.21 462 358.59 462 346.41 curveto
stroke
0 0 0 edgecolor
newpath 465.5 346.33 moveto
462 336.33 lineto
458.5 346.33 lineto
closepath fill
1 setlinewidth
solid
0 0 0 edgecolor
newpath 465.5 346.33 moveto
462 336.33 lineto
458.5 346.33 lineto
closepath stroke
grestore
% 4->paraxe
gsave
1 setlinewidth
0 0 0 edgecolor
newpath 776 158.96 moveto
776 148.57 776 135.75 776 122.85 curveto
stroke
0 0 0 edgecolor
newpath 779.5 122.53 moveto
776 112.53 lineto
772.5 122.53 lineto
closepath fill
1 setlinewidth
solid
0 0 0 edgecolor
newpath 779.5 122.53 moveto
776 112.53 lineto
772.5 122.53 lineto
closepath stroke
grestore
% 5->parax
gsave
1 setlinewidth
0 0 0 edgecolor
newpath 776 382.26 moveto
776 371.21 776 358.59 776 346.41 curveto
stroke
0 0 0 edgecolor
newpath 779.5 346.33 moveto
776 336.33 lineto
772.5 346.33 lineto
closepath fill
1 setlinewidth
solid
0 0 0 edgecolor
newpath 779.5 346.33 moveto
776 336.33 lineto
772.5 346.33 lineto
closepath stroke
grestore
% 6->paraye
gsave
1 setlinewidth
0 0 0 edgecolor
newpath 1090 158.96 moveto
1090 148.57 1090 135.75 1090 122.85 curveto
stroke
0 0 0 edgecolor
newpath 1093.5 122.53 moveto
1090 112.53 lineto
1086.5 122.53 lineto
closepath fill
1 setlinewidth
solid
0 0 0 edgecolor
newpath 1093.5 122.53 moveto
1090 112.53 lineto
1086.5 122.53 lineto
closepath stroke
grestore
% 7->paray
gsave
1 setlinewidth
0 0 0 edgecolor
newpath 1090 382.26 moveto
1090 371.21 1090 358.59 1090 346.41 curveto
stroke
0 0 0 edgecolor
newpath 1093.5 346.33 moveto
1090 336.33 lineto
1086.5 346.33 lineto
closepath fill
1 setlinewidth
solid
0 0 0 edgecolor
newpath 1093.5 346.33 moveto
1090 336.33 lineto
1086.5 346.33 lineto
closepath stroke
grestore
% 8->parae
gsave
1 setlinewidth
0 0 0 edgecolor
newpath 1404 157.8 moveto
1404 145.02 1404 128.8 1404 113.31 curveto
stroke
0 0 0 edgecolor
newpath 1407.5 113.28 moveto
1404 103.28 lineto
1400.5 113.28 lineto
closepath fill
1 setlinewidth
solid
0 0 0 edgecolor
newpath 1407.5 113.28 moveto
1404 103.28 lineto
1400.5 113.28 lineto
closepath stroke
grestore
% 9->para
gsave
1 setlinewidth
0 0 0 edgecolor
newpath 1404 391.96 moveto
1404 379.02 1404 362.32 1404 346.38 curveto
stroke
0 0 0 edgecolor
newpath 1407.5 346.06 moveto
1404 336.06 lineto
1400.5 346.06 lineto
closepath fill
1 setlinewidth
solid
0 0 0 edgecolor
newpath 1407.5 346.06 moveto
1404 336.06 lineto
1400.5 346.06 lineto
closepath stroke
grestore
% 10->paraxyy_start
gsave
1 setlinewidth
0 0 0 edgecolor
newpath 148 603.69 moveto
148 595.54 148 586.9 148 578.47 curveto
stroke
0 0 0 edgecolor
newpath 151.5 578.33 moveto
148 568.33 lineto
144.5 578.33 lineto
closepath fill
1 setlinewidth
solid
0 0 0 edgecolor
newpath 151.5 578.33 moveto
148 568.33 lineto
144.5 578.33 lineto
closepath stroke
grestore
% 11->paraxy_start
gsave
1 setlinewidth
0 0 0 edgecolor
newpath 462 603.69 moveto
462 595.54 462 586.9 462 578.47 curveto
stroke
0 0 0 edgecolor
newpath 465.5 578.33 moveto
462 568.33 lineto
458.5 578.33 lineto
closepath fill
1 setlinewidth
solid
0 0 0 edgecolor
newpath 465.5 578.33 moveto
462 568.33 lineto
458.5 578.33 lineto
closepath stroke
grestore
% 12->parax_start
gsave
1 setlinewidth
0 0 0 edgecolor
newpath 776 603.69 moveto
776 595.54 776 586.9 776 578.47 curveto
stroke
0 0 0 edgecolor
newpath 779.5 578.33 moveto
776 568.33 lineto
772.5 578.33 lineto
closepath fill
1 setlinewidth
solid
0 0 0 edgecolor
newpath 779.5 578.33 moveto
776 568.33 lineto
772.5 578.33 lineto
closepath stroke
grestore
% 13->paray_start
gsave
1 setlinewidth
0 0 0 edgecolor
newpath 1090 603.69 moveto
1090 595.54 1090 586.9 1090 578.47 curveto
stroke
0 0 0 edgecolor
newpath 1093.5 578.33 moveto
1090 568.33 lineto
1086.5 578.33 lineto
closepath fill
1 setlinewidth
solid
0 0 0 edgecolor
newpath 1093.5 578.33 moveto
1090 568.33 lineto
1086.5 578.33 lineto
closepath stroke
grestore
% 14->para_start
gsave
1 setlinewidth
0 0 0 edgecolor
newpath 1404 603.69 moveto
1404 595.54 1404 586.9 1404 578.47 curveto
stroke
0 0 0 edgecolor
newpath 1407.5 578.33 moveto
1404 568.33 lineto
1400.5 578.33 lineto
closepath fill
1 setlinewidth
solid
0 0 0 edgecolor
newpath 1407.5 578.33 moveto
1404 568.33 lineto
1400.5 578.33 lineto
closepath stroke
grestore
endpage
showpage
grestore
%%PageTrailer
%%EndPage: 1
setupLatin1
%%Page: 2 2
%%PageBoundingBox: 36 36 2062 552
%%PageOrientation: Portrait
0 0 1 beginpage
gsave
36 36 2026 516 boxprim clip newpath
1 1 set_scale 0 rotate 40 41 translate
% 1073741823
gsave
1 setlinewidth
0 0 0 nodecolor
1073 485 43.84 19.09 ellipse_path stroke
0 0 0 nodecolor
18 /Times-Roman set_font
1050 478.3 moveto 46 (Result) alignedtext
grestore
% parax
gsave
1 setlinewidth
0 0 0 nodecolor
newpath 1275 306 moveto
1039 306 lineto
1039 222 lineto
1275 222 lineto
closepath stroke
0 0 0 nodecolor
18 /Times-Roman set_font
1136.5 285.8 moveto 41 (parax) alignedtext
0 0 0 nodecolor
18 /Times-Roman set_font
1047 266.8 moveto 220 ([|t in [0 , INF]; ; y in [-5 , INF];) alignedtext
0 0 0 nodecolor
18 /Times-Roman set_font
1098.5 247.8 moveto 117 (  z in [-2 , INF]|]) alignedtext
0 0 0 nodecolor
18 /Times-Roman set_font
1053 228.8 moveto 208 (17 constraints, 13 generators) alignedtext
grestore
% 4
gsave
0 0 0 nodecolor
18 /Times-Roman set_font
917.5 155.8 moveto 79 (x-31>=0 ? ) alignedtext
0 0 0 nodecolor
18 /Times-Roman set_font
950.5 136.8 moveto 13 (\(\)) alignedtext
grestore
% parax->4
gsave
1 setlinewidth
0 0 0 edgecolor
newpath 1077.87 221.8 moveto
1056.71 210.34 1033.92 197.82 1013 186 curveto
1010.2 184.42 1007.33 182.78 1004.44 181.11 curveto
stroke
0 0 0 edgecolor
newpath 1006.16 178.07 moveto
995.76 176.08 lineto
1002.65 184.13 lineto
closepath fill
1 setlinewidth
solid
0 0 0 edgecolor
newpath 1006.16 178.07 moveto
995.76 176.08 lineto
1002.65 184.13 lineto
closepath stroke
grestore
% 5
gsave
0 0 0 nodecolor
18 /Times-Roman set_font
1115 165.3 moveto 84 (-x+30>=0 ?) alignedtext
0 0 0 nodecolor
18 /Times-Roman set_font
1029.5 146.3 moveto 255 (t := t+1; x := x+y; y := y+z; z := z+1) alignedtext
0 0 0 nodecolor
18 /Times-Roman set_font
1150.5 127.3 moveto 13 (\(\)) alignedtext
grestore
% parax->5
gsave
1 setlinewidth
0 0 0 edgecolor
newpath 1150.42 221.72 moveto
1150.2 213.27 1150.19 204.38 1150.41 195.91 curveto
stroke
0 0 0 edgecolor
newpath 1153.91 195.96 moveto
1150.78 185.84 lineto
1146.91 195.71 lineto
closepath fill
1 setlinewidth
solid
0 0 0 edgecolor
newpath 1153.91 195.96 moveto
1150.78 185.84 lineto
1146.91 195.71 lineto
closepath stroke
grestore
% paraxye
gsave
1 setlinewidth
0 0 0 nodecolor
newpath 666 84 moveto
430 84 lineto
430 0 lineto
666 0 lineto
closepath stroke
0 0 0 nodecolor
18 /Times-Roman set_font
519 63.8 moveto 58 (paraxye) alignedtext
0 0 0 nodecolor
18 /Times-Roman set_font
438 44.8 moveto 220 ([|t in [0 , INF]; x in [-INF , 30];) alignedtext
0 0 0 nodecolor
18 /Times-Roman set_font
438.5 25.8 moveto 219 (  y in [1 , INF]; z in [-2 , INF]|]) alignedtext
0 0 0 nodecolor
18 /Times-Roman set_font
444 6.8 moveto 208 (11 constraints, 18 generators) alignedtext
grestore
% paray
gsave
1 setlinewidth
0 0 0 nodecolor
newpath 1647 306 moveto
1411 306 lineto
1411 222 lineto
1647 222 lineto
closepath stroke
0 0 0 nodecolor
18 /Times-Roman set_font
1508.5 285.8 moveto 41 (paray) alignedtext
0 0 0 nodecolor
18 /Times-Roman set_font
1419 266.8 moveto 220 ([|t in [0 , INF]; ; y in [-5 , INF];) alignedtext
0 0 0 nodecolor
18 /Times-Roman set_font
1470.5 247.8 moveto 117 (  z in [-2 , INF]|]) alignedtext
0 0 0 nodecolor
18 /Times-Roman set_font
1425 228.8 moveto 208 (11 constraints, 13 generators) alignedtext
grestore
% 6
gsave
0 0 0 nodecolor
18 /Times-Roman set_font
1318 155.8 moveto 70 (y-8>=0 ? ) alignedtext
0 0 0 nodecolor
18 /Times-Roman set_font
1346.5 136.8 moveto 13 (\(\)) alignedtext
grestore
% paray->6
gsave
1 setlinewidth
0 0 0 edgecolor
newpath 1462.04 221.95 moveto
1443.55 210.32 1423.49 197.68 1405 186 curveto
1402.79 184.6 1400.52 183.17 1398.23 181.72 curveto
stroke
0 0 0 edgecolor
newpath 1399.68 178.49 moveto
1389.36 176.1 lineto
1395.93 184.41 lineto
closepath fill
1 setlinewidth
solid
0 0 0 edgecolor
newpath 1399.68 178.49 moveto
1389.36 176.1 lineto
1395.93 184.41 lineto
closepath stroke
grestore
% 7
gsave
0 0 0 nodecolor
18 /Times-Roman set_font
1511.5 165.3 moveto 75 (-y+7>=0 ?) alignedtext
0 0 0 nodecolor
18 /Times-Roman set_font
1421.5 146.3 moveto 255 (t := t+1; x := x+y; y := y+z; z := z+1) alignedtext
0 0 0 nodecolor
18 /Times-Roman set_font
1542.5 127.3 moveto 13 (\(\)) alignedtext
grestore
% paray->7
gsave
1 setlinewidth
0 0 0 edgecolor
newpath 1530.04 221.72 moveto
1531.35 213.18 1532.97 204.19 1534.73 195.63 curveto
stroke
0 0 0 edgecolor
newpath 1538.16 196.36 moveto
1536.86 185.84 lineto
1531.32 194.87 lineto
closepath fill
1 setlinewidth
solid
0 0 0 edgecolor
newpath 1538.16 196.36 moveto
1536.86 185.84 lineto
1531.32 194.87 lineto
closepath stroke
grestore
% linit
gsave
1 setlinewidth
0 0 0 nodecolor
newpath 1179 508 moveto
1135 508 lineto
1135 462 lineto
1179 462 lineto
closepath stroke
0 0 0 nodecolor
18 /Times-Roman set_font
1143 487.8 moveto 28 (linit) alignedtext
0 0 0 nodecolor
18 /Times-Roman set_font
1145 468.8 moveto 24 (top) alignedtext
grestore
% 10
gsave
0 0 0 nodecolor
18 /Times-Roman set_font
250.5 405.8 moveto 281 (-z+2>=0 and z+2>=0 and -y+2>=0 and) alignedtext
0 0 0 nodecolor
18 /Times-Roman set_font
262 386.8 moveto 258 (y+2>=0 and -x+2>=0 and x+2>=0 ?) alignedtext
0 0 0 nodecolor
18 /Times-Roman set_font
372 367.8 moveto 38 (t := 0) alignedtext
0 0 0 nodecolor
18 /Times-Roman set_font
384.5 348.8 moveto 13 (\(\)) alignedtext
grestore
% linit->10
gsave
1 setlinewidth
0 0 0 edgecolor
newpath 1134.83 466.35 moveto
1131.99 464.63 1129.01 463.12 1126 462 curveto
1025.13 424.45 749.86 438.86 643 426 curveto
612.6 422.34 580.28 417.6 549.27 412.63 curveto
stroke
0 0 0 edgecolor
newpath 549.68 409.15 moveto
539.25 411.01 lineto
548.57 416.06 lineto
closepath fill
1 setlinewidth
solid
0 0 0 edgecolor
newpath 549.68 409.15 moveto
539.25 411.01 lineto
548.57 416.06 lineto
closepath stroke
grestore
% 11
gsave
0 0 0 nodecolor
18 /Times-Roman set_font
659.5 405.8 moveto 281 (-z+2>=0 and z+2>=0 and -y+2>=0 and) alignedtext
0 0 0 nodecolor
18 /Times-Roman set_font
671 386.8 moveto 258 (y+2>=0 and -x+2>=0 and x+2>=0 ?) alignedtext
0 0 0 nodecolor
18 /Times-Roman set_font
781 367.8 moveto 38 (t := 0) alignedtext
0 0 0 nodecolor
18 /Times-Roman set_font
793.5 348.8 moveto 13 (\(\)) alignedtext
grestore
% linit->11
gsave
1 setlinewidth
0 0 0 edgecolor
newpath 1134.98 467.04 moveto
1132.07 465.16 1129.04 463.42 1126 462 curveto
1109.69 454.39 1033.03 435.92 958.15 418.87 curveto
stroke
0 0 0 edgecolor
newpath 958.61 415.38 moveto
948.08 416.58 lineto
957.06 422.21 lineto
closepath fill
1 setlinewidth
solid
0 0 0 edgecolor
newpath 958.61 415.38 moveto
948.08 416.58 lineto
957.06 422.21 lineto
closepath stroke
grestore
% 12
gsave
0 0 0 nodecolor
18 /Times-Roman set_font
1016.5 405.8 moveto 281 (-z+2>=0 and z+2>=0 and -y+2>=0 and) alignedtext
0 0 0 nodecolor
18 /Times-Roman set_font
1028 386.8 moveto 258 (y+2>=0 and -x+2>=0 and x+2>=0 ?) alignedtext
0 0 0 nodecolor
18 /Times-Roman set_font
1138 367.8 moveto 38 (t := 0) alignedtext
0 0 0 nodecolor
18 /Times-Roman set_font
1150.5 348.8 moveto 13 (\(\)) alignedtext
grestore
% linit->12
gsave
1 setlinewidth
0 0 0 edgecolor
newpath 1157 461.83 moveto
1157 454.13 1157 445.21 1157 436.22 curveto
stroke
0 0 0 edgecolor
newpath 1160.5 436.11 moveto
1157 426.11 lineto
1153.5 436.11 lineto
closepath fill
1 setlinewidth
solid
0 0 0 edgecolor
newpath 1160.5 436.11 moveto
1157 426.11 lineto
1153.5 436.11 lineto
closepath stroke
grestore
% 13
gsave
0 0 0 nodecolor
18 /Times-Roman set_font
1349.5 405.8 moveto 281 (-z+2>=0 and z+2>=0 and -y+2>=0 and) alignedtext
0 0 0 nodecolor
18 /Times-Roman set_font
1361 386.8 moveto 258 (y+2>=0 and -x+2>=0 and x+2>=0 ?) alignedtext
0 0 0 nodecolor
18 /Times-Roman set_font
1471 367.8 moveto 38 (t := 0) alignedtext
0 0 0 nodecolor
18 /Times-Roman set_font
1483.5 348.8 moveto 13 (\(\)) alignedtext
grestore
% linit->13
gsave
1 setlinewidth
0 0 0 edgecolor
newpath 1179.11 478.29 moveto
1212.54 468.15 1278.75 448.07 1341.51 429.04 curveto
stroke
0 0 0 edgecolor
newpath 1342.59 432.37 moveto
1351.14 426.12 lineto
1340.56 425.67 lineto
closepath fill
1 setlinewidth
solid
0 0 0 edgecolor
newpath 1342.59 432.37 moveto
1351.14 426.12 lineto
1340.56 425.67 lineto
closepath stroke
grestore
% 14
gsave
0 0 0 nodecolor
18 /Times-Roman set_font
1678.5 405.8 moveto 281 (-z+2>=0 and z+2>=0 and -y+2>=0 and) alignedtext
0 0 0 nodecolor
18 /Times-Roman set_font
1690 386.8 moveto 258 (y+2>=0 and -x+2>=0 and x+2>=0 ?) alignedtext
0 0 0 nodecolor
18 /Times-Roman set_font
1800 367.8 moveto 38 (t := 0) alignedtext
0 0 0 nodecolor
18 /Times-Roman set_font
1812.5 348.8 moveto 13 (\(\)) alignedtext
grestore
% linit->14
gsave
1 setlinewidth
0 0 0 edgecolor
newpath 1179.12 483.29 moveto
1248.49 477.71 1467.85 458.54 1647 426 curveto
1651.46 425.19 1655.97 424.33 1660.53 423.44 curveto
stroke
0 0 0 edgecolor
newpath 1661.42 426.83 moveto
1670.54 421.43 lineto
1660.04 419.97 lineto
closepath fill
1 setlinewidth
solid
0 0 0 edgecolor
newpath 1661.42 426.83 moveto
1670.54 421.43 lineto
1660.04 419.97 lineto
closepath stroke
grestore
% para
gsave
1 setlinewidth
0 0 0 nodecolor
newpath 1986 306 moveto
1750 306 lineto
1750 222 lineto
1986 222 lineto
closepath stroke
0 0 0 nodecolor
18 /Times-Roman set_font
1852 285.8 moveto 32 (para) alignedtext
0 0 0 nodecolor
18 /Times-Roman set_font
1758 266.8 moveto 220 ([|t in [0 , INF]; ; y in [-5 , INF];) alignedtext
0 0 0 nodecolor
18 /Times-Roman set_font
1809.5 247.8 moveto 117 (  z in [-2 , INF]|]) alignedtext
0 0 0 nodecolor
18 /Times-Roman set_font
1773 228.8 moveto 190 (6 constraints, 7 generators) alignedtext
grestore
% 8
gsave
0 0 0 nodecolor
18 /Times-Roman set_font
1709.5 135.8 moveto 13 (\(\)) alignedtext
grestore
% para->8
gsave
1 setlinewidth
0 0 0 edgecolor
newpath 1786.53 221.87 moveto
1769.87 211.35 1753.13 199.24 1739 186 curveto
1738.21 185.26 1737.43 184.49 1736.67 183.69 curveto
stroke
0 0 0 edgecolor
newpath 1739.3 181.39 moveto
1730.16 176.03 lineto
1733.97 185.92 lineto
closepath fill
1 setlinewidth
solid
0 0 0 edgecolor
newpath 1739.3 181.39 moveto
1730.16 176.03 lineto
1733.97 185.92 lineto
closepath stroke
grestore
% 9
gsave
0 0 0 nodecolor
18 /Times-Roman set_font
1755.5 155.8 moveto 255 (t := t+1; x := x+y; y := y+z; z := z+1) alignedtext
0 0 0 nodecolor
18 /Times-Roman set_font
1876.5 136.8 moveto 13 (\(\)) alignedtext
grestore
% para->9
gsave
1 setlinewidth
0 0 0 edgecolor
newpath 1867.14 221.72 moveto
1868.41 210.02 1870.21 197.49 1872.24 186.37 curveto
stroke
0 0 0 edgecolor
newpath 1875.74 186.71 moveto
1874.25 176.22 lineto
1868.88 185.35 lineto
closepath fill
1 setlinewidth
solid
0 0 0 edgecolor
newpath 1875.74 186.71 moveto
1874.25 176.22 lineto
1868.88 185.35 lineto
closepath stroke
grestore
% paraye
gsave
1 setlinewidth
0 0 0 nodecolor
newpath 1483 84 moveto
1223 84 lineto
1223 0 lineto
1483 0 lineto
closepath stroke
0 0 0 nodecolor
18 /Times-Roman set_font
1328.5 63.8 moveto 49 (paraye) alignedtext
0 0 0 nodecolor
18 /Times-Roman set_font
1230.5 44.8 moveto 245 ([|t in [1.333 , INF]; ; y in [8 , INF];) alignedtext
0 0 0 nodecolor
18 /Times-Roman set_font
1297.5 25.8 moveto 111 (  z in [2 , INF]|]) alignedtext
0 0 0 nodecolor
18 /Times-Roman set_font
1253.5 6.8 moveto 199 (7 constraints, 10 generators) alignedtext
grestore
% paraxy
gsave
1 setlinewidth
0 0 0 nodecolor
newpath 877 306 moveto
637 306 lineto
637 222 lineto
877 222 lineto
closepath stroke
0 0 0 nodecolor
18 /Times-Roman set_font
732 285.8 moveto 50 (paraxy) alignedtext
0 0 0 nodecolor
18 /Times-Roman set_font
647 266.8 moveto 220 ([|t in [0 , INF]; x in [-INF , 30];) alignedtext
0 0 0 nodecolor
18 /Times-Roman set_font
644.5 247.8 moveto 225 (  y in [-5 , INF]; z in [-2 , INF]|]) alignedtext
0 0 0 nodecolor
18 /Times-Roman set_font
653 228.8 moveto 208 (15 constraints, 12 generators) alignedtext
grestore
% 2
gsave
0 0 0 nodecolor
18 /Times-Roman set_font
499.5 155.8 moveto 97 (x+y-31>=0 ? ) alignedtext
0 0 0 nodecolor
18 /Times-Roman set_font
541.5 136.8 moveto 13 (\(\)) alignedtext
grestore
% paraxy->2
gsave
1 setlinewidth
0 0 0 edgecolor
newpath 677.69 221.88 moveto
651.9 208.18 623.93 193.32 600.59 180.93 curveto
stroke
0 0 0 edgecolor
newpath 602.03 177.73 moveto
591.56 176.13 lineto
598.75 183.91 lineto
closepath fill
1 setlinewidth
solid
0 0 0 edgecolor
newpath 602.03 177.73 moveto
591.56 176.13 lineto
598.75 183.91 lineto
closepath stroke
grestore
% 3
gsave
0 0 0 nodecolor
18 /Times-Roman set_font
707.5 165.3 moveto 99 (-x-y+30>=0 ?) alignedtext
0 0 0 nodecolor
18 /Times-Roman set_font
629.5 146.3 moveto 255 (t := t+1; x := x+y; y := y+z; z := z+1) alignedtext
0 0 0 nodecolor
18 /Times-Roman set_font
750.5 127.3 moveto 13 (\(\)) alignedtext
grestore
% paraxy->3
gsave
1 setlinewidth
0 0 0 edgecolor
newpath 750.42 221.72 moveto
750.2 213.27 750.19 204.38 750.41 195.91 curveto
stroke
0 0 0 edgecolor
newpath 753.91 195.96 moveto
750.78 185.84 lineto
746.91 195.71 lineto
closepath fill
1 setlinewidth
solid
0 0 0 edgecolor
newpath 753.91 195.96 moveto
750.78 185.84 lineto
746.91 195.71 lineto
closepath stroke
grestore
% parae
gsave
1 setlinewidth
0 0 0 nodecolor
newpath 1834 84 moveto
1598 84 lineto
1598 0 lineto
1834 0 lineto
closepath stroke
0 0 0 nodecolor
18 /Times-Roman set_font
1696 63.8 moveto 40 (parae) alignedtext
0 0 0 nodecolor
18 /Times-Roman set_font
1606 44.8 moveto 220 ([|t in [0 , INF]; ; y in [-5 , INF];) alignedtext
0 0 0 nodecolor
18 /Times-Roman set_font
1657.5 25.8 moveto 117 (  z in [-2 , INF]|]) alignedtext
0 0 0 nodecolor
18 /Times-Roman set_font
1621 6.8 moveto 190 (6 constraints, 7 generators) alignedtext
grestore
% paraxyye
gsave
1 setlinewidth
0 0 0 nodecolor
newpath 254 84 moveto
0 84 lineto
0 0 lineto
254 0 lineto
closepath stroke
0 0 0 nodecolor
18 /Times-Roman set_font
93.5 63.8 moveto 67 (paraxyye) alignedtext
0 0 0 nodecolor
18 /Times-Roman set_font
20 44.8 moveto 214 ([|t in [0 , INF]; x in [26 , INF];) alignedtext
0 0 0 nodecolor
18 /Times-Roman set_font
8 25.8 moveto 238 (  y in [-2.5 , INF]; z in [-2 , INF]|]) alignedtext
0 0 0 nodecolor
18 /Times-Roman set_font
23 6.8 moveto 208 (11 constraints, 16 generators) alignedtext
grestore
% paraxyy
gsave
1 setlinewidth
0 0 0 nodecolor
newpath 457 306 moveto
221 306 lineto
221 222 lineto
457 222 lineto
closepath stroke
0 0 0 nodecolor
18 /Times-Roman set_font
309.5 285.8 moveto 59 (paraxyy) alignedtext
0 0 0 nodecolor
18 /Times-Roman set_font
229 266.8 moveto 220 ([|t in [0 , INF]; ; y in [-5 , INF];) alignedtext
0 0 0 nodecolor
18 /Times-Roman set_font
280.5 247.8 moveto 117 (  z in [-2 , INF]|]) alignedtext
0 0 0 nodecolor
18 /Times-Roman set_font
235 228.8 moveto 208 (19 constraints, 16 generators) alignedtext
grestore
% 0
gsave
0 0 0 nodecolor
18 /Times-Roman set_font
75.5 155.8 moveto 103 (x-2y-31>=0 ? ) alignedtext
0 0 0 nodecolor
18 /Times-Roman set_font
120.5 136.8 moveto 13 (\(\)) alignedtext
grestore
% paraxyy->0
gsave
1 setlinewidth
0 0 0 edgecolor
newpath 258.55 221.88 moveto
232.39 208.18 204.02 193.32 180.34 180.93 curveto
stroke
0 0 0 edgecolor
newpath 181.66 177.67 moveto
171.18 176.13 lineto
178.42 183.87 lineto
closepath fill
1 setlinewidth
solid
0 0 0 edgecolor
newpath 181.66 177.67 moveto
171.18 176.13 lineto
178.42 183.87 lineto
closepath stroke
grestore
% 1
gsave
0 0 0 nodecolor
18 /Times-Roman set_font
283.5 165.3 moveto 111 (-x+2y+30>=0 ?) alignedtext
0 0 0 nodecolor
18 /Times-Roman set_font
211.5 146.3 moveto 255 (t := t+1; x := x+y; y := y+z; z := z+1) alignedtext
0 0 0 nodecolor
18 /Times-Roman set_font
332.5 127.3 moveto 13 (\(\)) alignedtext
grestore
% paraxyy->1
gsave
1 setlinewidth
0 0 0 edgecolor
newpath 332.42 221.72 moveto
332.2 213.27 332.19 204.38 332.41 195.91 curveto
stroke
0 0 0 edgecolor
newpath 335.91 195.96 moveto
332.78 185.84 lineto
328.91 195.71 lineto
closepath fill
1 setlinewidth
solid
0 0 0 edgecolor
newpath 335.91 195.96 moveto
332.78 185.84 lineto
328.91 195.71 lineto
closepath stroke
grestore
% paraxe
gsave
1 setlinewidth
0 0 0 nodecolor
newpath 1097 84 moveto
817 84 lineto
817 0 lineto
1097 0 lineto
closepath stroke
0 0 0 nodecolor
18 /Times-Roman set_font
932.5 63.8 moveto 49 (paraxe) alignedtext
0 0 0 nodecolor
18 /Times-Roman set_font
850 44.8 moveto 214 ([|t in [0 , INF]; x in [31 , INF];) alignedtext
0 0 0 nodecolor
18 /Times-Roman set_font
824.5 25.8 moveto 265 (  y in [-0.1071 , INF]; z in [-2 , INF]|]) alignedtext
0 0 0 nodecolor
18 /Times-Roman set_font
853 6.8 moveto 208 (12 constraints, 18 generators) alignedtext
grestore
% 0->paraxyye
gsave
1 setlinewidth
0 0 0 edgecolor
newpath 127 129.73 moveto
127 119.4 127 106.79 127 94.39 curveto
stroke
0 0 0 edgecolor
newpath 130.5 94.07 moveto
127 84.07 lineto
123.5 94.07 lineto
closepath fill
1 setlinewidth
solid
0 0 0 edgecolor
newpath 130.5 94.07 moveto
127 84.07 lineto
123.5 94.07 lineto
closepath stroke
grestore
% 1->paraxyy
gsave
1 setlinewidth
0 0 0 edgecolor
newpath 345.22 185.84 moveto
345.62 193.93 345.79 202.78 345.74 211.54 curveto
stroke
0 0 0 edgecolor
newpath 342.24 211.66 moveto
345.58 221.72 lineto
349.24 211.78 lineto
closepath fill
1 setlinewidth
solid
0 0 0 edgecolor
newpath 342.24 211.66 moveto
345.58 221.72 lineto
349.24 211.78 lineto
closepath stroke
grestore
% 2->paraxye
gsave
1 setlinewidth
0 0 0 edgecolor
newpath 548 129.73 moveto
548 119.4 548 106.79 548 94.39 curveto
stroke
0 0 0 edgecolor
newpath 551.5 94.07 moveto
548 84.07 lineto
544.5 94.07 lineto
closepath fill
1 setlinewidth
solid
0 0 0 edgecolor
newpath 551.5 94.07 moveto
548 84.07 lineto
544.5 94.07 lineto
closepath stroke
grestore
% 3->paraxy
gsave
1 setlinewidth
0 0 0 edgecolor
newpath 763.22 185.84 moveto
763.62 193.93 763.79 202.78 763.74 211.54 curveto
stroke
0 0 0 edgecolor
newpath 760.24 211.66 moveto
763.58 221.72 lineto
767.24 211.78 lineto
closepath fill
1 setlinewidth
solid
0 0 0 edgecolor
newpath 760.24 211.66 moveto
763.58 221.72 lineto
767.24 211.78 lineto
closepath stroke
grestore
% 4->paraxe
gsave
1 setlinewidth
0 0 0 edgecolor
newpath 957 129.73 moveto
957 119.4 957 106.79 957 94.39 curveto
stroke
0 0 0 edgecolor
newpath 960.5 94.07 moveto
957 84.07 lineto
953.5 94.07 lineto
closepath fill
1 setlinewidth
solid
0 0 0 edgecolor
newpath 960.5 94.07 moveto
957 84.07 lineto
953.5 94.07 lineto
closepath stroke
grestore
% 5->parax
gsave
1 setlinewidth
0 0 0 edgecolor
newpath 1163.22 185.84 moveto
1163.62 193.93 1163.79 202.78 1163.74 211.54 curveto
stroke
0 0 0 edgecolor
newpath 1160.24 211.66 moveto
1163.58 221.72 lineto
1167.24 211.78 lineto
closepath fill
1 setlinewidth
solid
0 0 0 edgecolor
newpath 1160.24 211.66 moveto
1163.58 221.72 lineto
1167.24 211.78 lineto
closepath stroke
grestore
% 6->paraye
gsave
1 setlinewidth
0 0 0 edgecolor
newpath 1353 129.73 moveto
1353 119.4 1353 106.79 1353 94.39 curveto
stroke
0 0 0 edgecolor
newpath 1356.5 94.07 moveto
1353 84.07 lineto
1349.5 94.07 lineto
closepath fill
1 setlinewidth
solid
0 0 0 edgecolor
newpath 1356.5 94.07 moveto
1353 84.07 lineto
1349.5 94.07 lineto
closepath stroke
grestore
% 7->paray
gsave
1 setlinewidth
0 0 0 edgecolor
newpath 1549.31 185.84 moveto
1548.23 194.01 1546.79 202.98 1545.14 211.82 curveto
stroke
0 0 0 edgecolor
newpath 1541.69 211.23 moveto
1543.2 221.72 lineto
1548.56 212.58 lineto
closepath fill
1 setlinewidth
solid
0 0 0 edgecolor
newpath 1541.69 211.23 moveto
1543.2 221.72 lineto
1548.56 212.58 lineto
closepath stroke
grestore
% 8->parae
gsave
1 setlinewidth
0 0 0 edgecolor
newpath 1716 128.91 moveto
1716 118.75 1716 106.5 1716 94.43 curveto
stroke
0 0 0 edgecolor
newpath 1719.5 94.39 moveto
1716 84.39 lineto
1712.5 94.39 lineto
closepath fill
1 setlinewidth
solid
0 0 0 edgecolor
newpath 1719.5 94.39 moveto
1716 84.39 lineto
1712.5 94.39 lineto
closepath stroke
grestore
% 9->para
gsave
1 setlinewidth
0 0 0 edgecolor
newpath 1885.47 176.22 moveto
1884.9 186.61 1883.56 199.32 1881.79 211.8 curveto
stroke
0 0 0 edgecolor
newpath 1878.33 211.31 moveto
1880.29 221.72 lineto
1885.25 212.36 lineto
closepath fill
1 setlinewidth
solid
0 0 0 edgecolor
newpath 1878.33 211.31 moveto
1880.29 221.72 lineto
1885.25 212.36 lineto
closepath stroke
grestore
% 10->paraxyy
gsave
1 setlinewidth
0 0 0 edgecolor
newpath 372.67 341.69 moveto
369.02 333.27 365.14 324.33 361.38 315.64 curveto
stroke
0 0 0 edgecolor
newpath 364.53 314.11 moveto
357.34 306.33 lineto
358.11 316.9 lineto
closepath fill
1 setlinewidth
solid
0 0 0 edgecolor
newpath 364.53 314.11 moveto
357.34 306.33 lineto
358.11 316.9 lineto
closepath stroke
grestore
% 11->paraxy
gsave
1 setlinewidth
0 0 0 edgecolor
newpath 784.84 341.69 moveto
781.85 333.36 778.69 324.52 775.6 315.91 curveto
stroke
0 0 0 edgecolor
newpath 778.84 314.56 moveto
772.17 306.33 lineto
772.25 316.92 lineto
closepath fill
1 setlinewidth
solid
0 0 0 edgecolor
newpath 778.84 314.56 moveto
772.17 306.33 lineto
772.25 316.92 lineto
closepath stroke
grestore
% 12->parax
gsave
1 setlinewidth
0 0 0 edgecolor
newpath 1157 341.69 moveto
1157 333.54 1157 324.9 1157 316.47 curveto
stroke
0 0 0 edgecolor
newpath 1160.5 316.33 moveto
1157 306.33 lineto
1153.5 316.33 lineto
closepath fill
1 setlinewidth
solid
0 0 0 edgecolor
newpath 1160.5 316.33 moveto
1157 306.33 lineto
1153.5 316.33 lineto
closepath stroke
grestore
% 13->paray
gsave
1 setlinewidth
0 0 0 edgecolor
newpath 1503.75 341.69 moveto
1506.46 333.36 1509.33 324.52 1512.13 315.91 curveto
stroke
0 0 0 edgecolor
newpath 1515.48 316.92 moveto
1515.24 306.33 lineto
1508.82 314.76 lineto
closepath fill
1 setlinewidth
solid
0 0 0 edgecolor
newpath 1515.48 316.92 moveto
1515.24 306.33 lineto
1508.82 314.76 lineto
closepath stroke
grestore
% 14->para
gsave
1 setlinewidth
0 0 0 edgecolor
newpath 1836.28 341.69 moveto
1839.72 333.27 1843.36 324.33 1846.91 315.64 curveto
stroke
0 0 0 edgecolor
newpath 1850.18 316.91 moveto
1850.72 306.33 lineto
1843.69 314.26 lineto
closepath fill
1 setlinewidth
solid
0 0 0 edgecolor
newpath 1850.18 316.91 moveto
1850.72 306.33 lineto
1843.69 314.26 lineto
closepath stroke
grestore
endpage
showpage
grestore
%%PageTrailer
%%EndPage: 2
setupLatin1
%%Page: 3 3
%%PageBoundingBox: 36 36 1596 756
%%PageOrientation: Portrait
0 0 1 beginpage
gsave
36 36 1560 720 boxprim clip newpath
1 1 set_scale 0 rotate 40 41 translate
% 1073741823
gsave
1 setlinewidth
0 0 0 nodecolor
692 689 43.84 19.09 ellipse_path stroke
0 0 0 nodecolor
18 /Times-Roman set_font
669 682.3 moveto 46 (Result) alignedtext
grestore
% paraxye
gsave
1 setlinewidth
0 0 0 nodecolor
newpath 580 84 moveto
344 84 lineto
344 0 lineto
580 0 lineto
closepath stroke
0 0 0 nodecolor
18 /Times-Roman set_font
433 63.8 moveto 58 (paraxye) alignedtext
0 0 0 nodecolor
18 /Times-Roman set_font
352 44.8 moveto 220 ([|t in [0 , INF]; x in [-INF , 30];) alignedtext
0 0 0 nodecolor
18 /Times-Roman set_font
352.5 25.8 moveto 219 (  y in [1 , INF]; z in [-2 , INF]|]) alignedtext
0 0 0 nodecolor
18 /Times-Roman set_font
367 6.8 moveto 190 (6 constraints, 7 generators) alignedtext
grestore
% parax
gsave
1 setlinewidth
0 0 0 nodecolor
newpath 900 278.5 moveto
652 278.5 lineto
652 213.5 lineto
900 213.5 lineto
closepath stroke
0 0 0 nodecolor
18 /Times-Roman set_font
755.5 258.3 moveto 41 (parax) alignedtext
0 0 0 nodecolor
18 /Times-Roman set_font
659.5 239.3 moveto 233 ([|t in [0 , INF]; ; ; z in [-2 , INF]|]) alignedtext
0 0 0 nodecolor
18 /Times-Roman set_font
681 220.3 moveto 190 (6 constraints, 7 generators) alignedtext
grestore
% 4
gsave
0 0 0 nodecolor
18 /Times-Roman set_font
736.5 146.8 moveto 79 (x-31>=0 ? ) alignedtext
0 0 0 nodecolor
18 /Times-Roman set_font
769.5 127.8 moveto 13 (\(\)) alignedtext
grestore
% parax->4
gsave
1 setlinewidth
0 0 0 edgecolor
newpath 776 213.45 moveto
776 201.93 776 188.96 776 177.38 curveto
stroke
0 0 0 edgecolor
newpath 779.5 177.21 moveto
776 167.21 lineto
772.5 177.21 lineto
closepath fill
1 setlinewidth
solid
0 0 0 edgecolor
newpath 779.5 177.21 moveto
776 167.21 lineto
772.5 177.21 lineto
closepath stroke
grestore
% paray
gsave
1 setlinewidth
0 0 0 nodecolor
newpath 1214 278.5 moveto
966 278.5 lineto
966 213.5 lineto
1214 213.5 lineto
closepath stroke
0 0 0 nodecolor
18 /Times-Roman set_font
1069.5 258.3 moveto 41 (paray) alignedtext
0 0 0 nodecolor
18 /Times-Roman set_font
973.5 239.3 moveto 233 ([|t in [0 , INF]; ; ; z in [-2 , INF]|]) alignedtext
0 0 0 nodecolor
18 /Times-Roman set_font
995 220.3 moveto 190 (6 constraints, 7 generators) alignedtext
grestore
% 6
gsave
0 0 0 nodecolor
18 /Times-Roman set_font
1055 146.8 moveto 70 (y-8>=0 ? ) alignedtext
0 0 0 nodecolor
18 /Times-Roman set_font
1083.5 127.8 moveto 13 (\(\)) alignedtext
grestore
% paray->6
gsave
1 setlinewidth
0 0 0 edgecolor
newpath 1090 213.45 moveto
1090 201.93 1090 188.96 1090 177.38 curveto
stroke
0 0 0 edgecolor
newpath 1093.5 177.21 moveto
1090 167.21 lineto
1086.5 177.21 lineto
closepath fill
1 setlinewidth
solid
0 0 0 edgecolor
newpath 1093.5 177.21 moveto
1090 167.21 lineto
1086.5 177.21 lineto
closepath stroke
grestore
% paraxyy_start
gsave
1 setlinewidth
0 0 0 nodecolor
newpath 264 510 moveto
32 510 lineto
32 426 lineto
264 426 lineto
closepath stroke
0 0 0 nodecolor
18 /Times-Roman set_font
98 489.8 moveto 100 (paraxyy_start) alignedtext
0 0 0 nodecolor
18 /Times-Roman set_font
39.5 470.8 moveto 217 ([|t=0; x in [-2 , 2]; y in [-2 , 2];) alignedtext
0 0 0 nodecolor
18 /Times-Roman set_font
99 451.8 moveto 98 (  z in [-2 , 2]|]) alignedtext
0 0 0 nodecolor
18 /Times-Roman set_font
53 432.8 moveto 190 (7 constraints, 8 generators) alignedtext
grestore
% 1
gsave
0 0 0 nodecolor
18 /Times-Roman set_font
89.5 369.3 moveto 117 (\(-x+2y+30>=0 ?) alignedtext
0 0 0 nodecolor
18 /Times-Roman set_font
13 350.3 moveto 270 (t := t+1; x := x+y; y := y+z; z := z+1\)*) alignedtext
0 0 0 nodecolor
18 /Times-Roman set_font
141.5 331.3 moveto 13 (\(\)) alignedtext
grestore
% paraxyy_start->1
gsave
1 setlinewidth
0 0 0 edgecolor
newpath 148 425.72 moveto
148 417.27 148 408.38 148 399.91 curveto
stroke
0 0 0 edgecolor
newpath 151.5 399.84 moveto
148 389.84 lineto
144.5 399.84 lineto
closepath fill
1 setlinewidth
solid
0 0 0 edgecolor
newpath 151.5 399.84 moveto
148 389.84 lineto
144.5 399.84 lineto
closepath stroke
grestore
% linit
gsave
1 setlinewidth
0 0 0 nodecolor
newpath 798 712 moveto
754 712 lineto
754 666 lineto
798 666 lineto
closepath stroke
0 0 0 nodecolor
18 /Times-Roman set_font
762 691.8 moveto 28 (linit) alignedtext
0 0 0 nodecolor
18 /Times-Roman set_font
764 672.8 moveto 24 (top) alignedtext
grestore
% 10
gsave
0 0 0 nodecolor
18 /Times-Roman set_font
7.5 609.8 moveto 281 (-z+2>=0 and z+2>=0 and -y+2>=0 and) alignedtext
0 0 0 nodecolor
18 /Times-Roman set_font
19 590.8 moveto 258 (y+2>=0 and -x+2>=0 and x+2>=0 ?) alignedtext
0 0 0 nodecolor
18 /Times-Roman set_font
129 571.8 moveto 38 (t := 0) alignedtext
0 0 0 nodecolor
18 /Times-Roman set_font
141.5 552.8 moveto 13 (\(\)) alignedtext
grestore
% linit->10
gsave
1 setlinewidth
0 0 0 edgecolor
newpath 753.82 670.37 moveto
750.98 668.65 748.01 667.13 745 666 curveto
564.42 598.03 500.46 661.31 306.13 630.06 curveto
stroke
0 0 0 edgecolor
newpath 306.62 626.6 moveto
296.18 628.4 lineto
305.46 633.5 lineto
closepath fill
1 setlinewidth
solid
0 0 0 edgecolor
newpath 306.62 626.6 moveto
296.18 628.4 lineto
305.46 633.5 lineto
closepath stroke
grestore
% 11
gsave
0 0 0 nodecolor
18 /Times-Roman set_font
321.5 609.8 moveto 281 (-z+2>=0 and z+2>=0 and -y+2>=0 and) alignedtext
0 0 0 nodecolor
18 /Times-Roman set_font
333 590.8 moveto 258 (y+2>=0 and -x+2>=0 and x+2>=0 ?) alignedtext
0 0 0 nodecolor
18 /Times-Roman set_font
443 571.8 moveto 38 (t := 0) alignedtext
0 0 0 nodecolor
18 /Times-Roman set_font
455.5 552.8 moveto 13 (\(\)) alignedtext
grestore
% linit->11
gsave
1 setlinewidth
0 0 0 edgecolor
newpath 753.94 671.14 moveto
751.03 669.24 748.01 667.47 745 666 curveto
738.45 662.81 681.26 646.9 619.98 630.27 curveto
stroke
0 0 0 edgecolor
newpath 620.69 626.83 moveto
610.12 627.6 lineto
618.86 633.59 lineto
closepath fill
1 setlinewidth
solid
0 0 0 edgecolor
newpath 620.69 626.83 moveto
610.12 627.6 lineto
618.86 633.59 lineto
closepath stroke
grestore
% 12
gsave
0 0 0 nodecolor
18 /Times-Roman set_font
635.5 609.8 moveto 281 (-z+2>=0 and z+2>=0 and -y+2>=0 and) alignedtext
0 0 0 nodecolor
18 /Times-Roman set_font
647 590.8 moveto 258 (y+2>=0 and -x+2>=0 and x+2>=0 ?) alignedtext
0 0 0 nodecolor
18 /Times-Roman set_font
757 571.8 moveto 38 (t := 0) alignedtext
0 0 0 nodecolor
18 /Times-Roman set_font
769.5 552.8 moveto 13 (\(\)) alignedtext
grestore
% linit->12
gsave
1 setlinewidth
0 0 0 edgecolor
newpath 776 665.83 moveto
776 658.13 776 649.21 776 640.22 curveto
stroke
0 0 0 edgecolor
newpath 779.5 640.11 moveto
776 630.11 lineto
772.5 640.11 lineto
closepath fill
1 setlinewidth
solid
0 0 0 edgecolor
newpath 779.5 640.11 moveto
776 630.11 lineto
772.5 640.11 lineto
closepath stroke
grestore
% 13
gsave
0 0 0 nodecolor
18 /Times-Roman set_font
949.5 609.8 moveto 281 (-z+2>=0 and z+2>=0 and -y+2>=0 and) alignedtext
0 0 0 nodecolor
18 /Times-Roman set_font
961 590.8 moveto 258 (y+2>=0 and -x+2>=0 and x+2>=0 ?) alignedtext
0 0 0 nodecolor
18 /Times-Roman set_font
1071 571.8 moveto 38 (t := 0) alignedtext
0 0 0 nodecolor
18 /Times-Roman set_font
1083.5 552.8 moveto 13 (\(\)) alignedtext
grestore
% linit->13
gsave
1 setlinewidth
0 0 0 edgecolor
newpath 798.08 681.9 moveto
829.88 671.67 891.18 651.95 949.43 633.22 curveto
stroke
0 0 0 edgecolor
newpath 950.67 636.49 moveto
959.12 630.1 lineto
948.53 629.83 lineto
closepath fill
1 setlinewidth
solid
0 0 0 edgecolor
newpath 950.67 636.49 moveto
959.12 630.1 lineto
948.53 629.83 lineto
closepath stroke
grestore
% 14
gsave
0 0 0 nodecolor
18 /Times-Roman set_font
1263.5 609.8 moveto 281 (-z+2>=0 and z+2>=0 and -y+2>=0 and) alignedtext
0 0 0 nodecolor
18 /Times-Roman set_font
1275 590.8 moveto 258 (y+2>=0 and -x+2>=0 and x+2>=0 ?) alignedtext
0 0 0 nodecolor
18 /Times-Roman set_font
1385 571.8 moveto 38 (t := 0) alignedtext
0 0 0 nodecolor
18 /Times-Roman set_font
1397.5 552.8 moveto 13 (\(\)) alignedtext
grestore
% linit->14
gsave
1 setlinewidth
0 0 0 edgecolor
newpath 798.24 687.3 moveto
864.79 681.99 1068.2 664.11 1245.75 630.17 curveto
stroke
0 0 0 edgecolor
newpath 1246.64 633.56 moveto
1255.79 628.23 lineto
1245.31 626.69 lineto
closepath fill
1 setlinewidth
solid
0 0 0 edgecolor
newpath 1246.64 633.56 moveto
1255.79 628.23 lineto
1245.31 626.69 lineto
closepath stroke
grestore
% paray_start
gsave
1 setlinewidth
0 0 0 nodecolor
newpath 1206 510 moveto
974 510 lineto
974 426 lineto
1206 426 lineto
closepath stroke
0 0 0 nodecolor
18 /Times-Roman set_font
1049 489.8 moveto 82 (paray_start) alignedtext
0 0 0 nodecolor
18 /Times-Roman set_font
981.5 470.8 moveto 217 ([|t=0; x in [-2 , 2]; y in [-2 , 2];) alignedtext
0 0 0 nodecolor
18 /Times-Roman set_font
1041 451.8 moveto 98 (  z in [-2 , 2]|]) alignedtext
0 0 0 nodecolor
18 /Times-Roman set_font
995 432.8 moveto 190 (7 constraints, 8 generators) alignedtext
grestore
% 7
gsave
0 0 0 nodecolor
18 /Times-Roman set_font
1049.5 369.3 moveto 81 (\(-y+7>=0 ?) alignedtext
0 0 0 nodecolor
18 /Times-Roman set_font
955 350.3 moveto 270 (t := t+1; x := x+y; y := y+z; z := z+1\)*) alignedtext
0 0 0 nodecolor
18 /Times-Roman set_font
1083.5 331.3 moveto 13 (\(\)) alignedtext
grestore
% paray_start->7
gsave
1 setlinewidth
0 0 0 edgecolor
newpath 1090 425.72 moveto
1090 417.27 1090 408.38 1090 399.91 curveto
stroke
0 0 0 edgecolor
newpath 1093.5 399.84 moveto
1090 389.84 lineto
1086.5 399.84 lineto
closepath fill
1 setlinewidth
solid
0 0 0 edgecolor
newpath 1093.5 399.84 moveto
1090 389.84 lineto
1086.5 399.84 lineto
closepath stroke
grestore
% paraye
gsave
1 setlinewidth
0 0 0 nodecolor
newpath 1204 84 moveto
976 84 lineto
976 0 lineto
1204 0 lineto
closepath stroke
0 0 0 nodecolor
18 /Times-Roman set_font
1065.5 63.8 moveto 49 (paraye) alignedtext
0 0 0 nodecolor
18 /Times-Roman set_font
1014 44.8 moveto 152 ([|t in [0.8571 , INF]; ;) alignedtext
0 0 0 nodecolor
18 /Times-Roman set_font
983.5 25.8 moveto 213 (  y in [8 , INF]; z in [2 , INF]|]) alignedtext
0 0 0 nodecolor
18 /Times-Roman set_font
995 6.8 moveto 190 (6 constraints, 8 generators) alignedtext
grestore
% para
gsave
1 setlinewidth
0 0 0 nodecolor
newpath 1528 278.5 moveto
1280 278.5 lineto
1280 213.5 lineto
1528 213.5 lineto
closepath stroke
0 0 0 nodecolor
18 /Times-Roman set_font
1388 258.3 moveto 32 (para) alignedtext
0 0 0 nodecolor
18 /Times-Roman set_font
1287.5 239.3 moveto 233 ([|t in [0 , INF]; ; ; z in [-2 , INF]|]) alignedtext
0 0 0 nodecolor
18 /Times-Roman set_font
1309 220.3 moveto 190 (3 constraints, 5 generators) alignedtext
grestore
% 8
gsave
0 0 0 nodecolor
18 /Times-Roman set_font
1397.5 126.8 moveto 13 (\(\)) alignedtext
grestore
% para->8
gsave
1 setlinewidth
0 0 0 edgecolor
newpath 1404 213.45 moveto
1404 202.2 1404 189.56 1404 178.19 curveto
stroke
0 0 0 edgecolor
newpath 1407.5 178.17 moveto
1404 168.17 lineto
1400.5 178.17 lineto
closepath fill
1 setlinewidth
solid
0 0 0 edgecolor
newpath 1407.5 178.17 moveto
1404 168.17 lineto
1400.5 178.17 lineto
closepath stroke
grestore
% paraxy
gsave
1 setlinewidth
0 0 0 nodecolor
newpath 584 288 moveto
340 288 lineto
340 204 lineto
584 204 lineto
closepath stroke
0 0 0 nodecolor
18 /Times-Roman set_font
437 267.8 moveto 50 (paraxy) alignedtext
0 0 0 nodecolor
18 /Times-Roman set_font
347.5 248.8 moveto 229 ([|t in [0 , INF]; x in [-INF , 30]; ;) alignedtext
0 0 0 nodecolor
18 /Times-Roman set_font
403.5 229.8 moveto 117 (  z in [-2 , INF]|]) alignedtext
0 0 0 nodecolor
18 /Times-Roman set_font
367 210.8 moveto 190 (5 constraints, 7 generators) alignedtext
grestore
% 2
gsave
0 0 0 nodecolor
18 /Times-Roman set_font
413.5 146.8 moveto 97 (x+y-31>=0 ? ) alignedtext
0 0 0 nodecolor
18 /Times-Roman set_font
455.5 127.8 moveto 13 (\(\)) alignedtext
grestore
% paraxy->2
gsave
1 setlinewidth
0 0 0 edgecolor
newpath 462 203.92 moveto
462 195.05 462 185.8 462 177.3 curveto
stroke
0 0 0 edgecolor
newpath 465.5 177.02 moveto
462 167.02 lineto
458.5 177.02 lineto
closepath fill
1 setlinewidth
solid
0 0 0 edgecolor
newpath 465.5 177.02 moveto
462 167.02 lineto
458.5 177.02 lineto
closepath stroke
grestore
% parae
gsave
1 setlinewidth
0 0 0 nodecolor
newpath 1528 74.5 moveto
1280 74.5 lineto
1280 9.5 lineto
1528 9.5 lineto
closepath stroke
0 0 0 nodecolor
18 /Times-Roman set_font
1384 54.3 moveto 40 (parae) alignedtext
0 0 0 nodecolor
18 /Times-Roman set_font
1287.5 35.3 moveto 233 ([|t in [0 , INF]; ; ; z in [-2 , INF]|]) alignedtext
0 0 0 nodecolor
18 /Times-Roman set_font
1309 16.3 moveto 190 (3 constraints, 5 generators) alignedtext
grestore
% parax_start
gsave
1 setlinewidth
0 0 0 nodecolor
newpath 892 510 moveto
660 510 lineto
660 426 lineto
892 426 lineto
closepath stroke
0 0 0 nodecolor
18 /Times-Roman set_font
735 489.8 moveto 82 (parax_start) alignedtext
0 0 0 nodecolor
18 /Times-Roman set_font
667.5 470.8 moveto 217 ([|t=0; x in [-2 , 2]; y in [-2 , 2];) alignedtext
0 0 0 nodecolor
18 /Times-Roman set_font
727 451.8 moveto 98 (  z in [-2 , 2]|]) alignedtext
0 0 0 nodecolor
18 /Times-Roman set_font
681 432.8 moveto 190 (7 constraints, 8 generators) alignedtext
grestore
% 5
gsave
0 0 0 nodecolor
18 /Times-Roman set_font
731 369.3 moveto 90 (\(-x+30>=0 ?) alignedtext
0 0 0 nodecolor
18 /Times-Roman set_font
641 350.3 moveto 270 (t := t+1; x := x+y; y := y+z; z := z+1\)*) alignedtext
0 0 0 nodecolor
18 /Times-Roman set_font
769.5 331.3 moveto 13 (\(\)) alignedtext
grestore
% parax_start->5
gsave
1 setlinewidth
0 0 0 edgecolor
newpath 776 425.72 moveto
776 417.27 776 408.38 776 399.91 curveto
stroke
0 0 0 edgecolor
newpath 779.5 399.84 moveto
776 389.84 lineto
772.5 399.84 lineto
closepath fill
1 setlinewidth
solid
0 0 0 edgecolor
newpath 779.5 399.84 moveto
776 389.84 lineto
772.5 399.84 lineto
closepath stroke
grestore
% paraxy_start
gsave
1 setlinewidth
0 0 0 nodecolor
newpath 578 510 moveto
346 510 lineto
346 426 lineto
578 426 lineto
closepath stroke
0 0 0 nodecolor
18 /Times-Roman set_font
416.5 489.8 moveto 91 (paraxy_start) alignedtext
0 0 0 nodecolor
18 /Times-Roman set_font
353.5 470.8 moveto 217 ([|t=0; x in [-2 , 2]; y in [-2 , 2];) alignedtext
0 0 0 nodecolor
18 /Times-Roman set_font
413 451.8 moveto 98 (  z in [-2 , 2]|]) alignedtext
0 0 0 nodecolor
18 /Times-Roman set_font
367 432.8 moveto 190 (7 constraints, 8 generators) alignedtext
grestore
% 3
gsave
0 0 0 nodecolor
18 /Times-Roman set_font
409.5 369.3 moveto 105 (\(-x-y+30>=0 ?) alignedtext
0 0 0 nodecolor
18 /Times-Roman set_font
327 350.3 moveto 270 (t := t+1; x := x+y; y := y+z; z := z+1\)*) alignedtext
0 0 0 nodecolor
18 /Times-Roman set_font
455.5 331.3 moveto 13 (\(\)) alignedtext
grestore
% paraxy_start->3
gsave
1 setlinewidth
0 0 0 edgecolor
newpath 462 425.72 moveto
462 417.27 462 408.38 462 399.91 curveto
stroke
0 0 0 edgecolor
newpath 465.5 399.84 moveto
462 389.84 lineto
458.5 399.84 lineto
closepath fill
1 setlinewidth
solid
0 0 0 edgecolor
newpath 465.5 399.84 moveto
462 389.84 lineto
458.5 399.84 lineto
closepath stroke
grestore
% paraxyye
gsave
1 setlinewidth
0 0 0 nodecolor
newpath 268 84 moveto
28 84 lineto
28 0 lineto
268 0 lineto
closepath stroke
0 0 0 nodecolor
18 /Times-Roman set_font
114.5 63.8 moveto 67 (paraxyye) alignedtext
0 0 0 nodecolor
18 /Times-Roman set_font
41 44.8 moveto 214 ([|t in [0 , INF]; x in [21 , INF];) alignedtext
0 0 0 nodecolor
18 /Times-Roman set_font
35.5 25.8 moveto 225 (  y in [-5 , INF]; z in [-2 , INF]|]) alignedtext
0 0 0 nodecolor
18 /Times-Roman set_font
53 6.8 moveto 190 (7 constraints, 7 generators) alignedtext
grestore
% paraxyy
gsave
1 setlinewidth
0 0 0 nodecolor
newpath 272 278.5 moveto
24 278.5 lineto
24 213.5 lineto
272 213.5 lineto
closepath stroke
0 0 0 nodecolor
18 /Times-Roman set_font
118.5 258.3 moveto 59 (paraxyy) alignedtext
0 0 0 nodecolor
18 /Times-Roman set_font
31.5 239.3 moveto 233 ([|t in [0 , INF]; ; ; z in [-2 , INF]|]) alignedtext
0 0 0 nodecolor
18 /Times-Roman set_font
53 220.3 moveto 190 (6 constraints, 7 generators) alignedtext
grestore
% 0
gsave
0 0 0 nodecolor
18 /Times-Roman set_font
96.5 146.8 moveto 103 (x-2y-31>=0 ? ) alignedtext
0 0 0 nodecolor
18 /Times-Roman set_font
141.5 127.8 moveto 13 (\(\)) alignedtext
grestore
% paraxyy->0
gsave
1 setlinewidth
0 0 0 edgecolor
newpath 148 213.45 moveto
148 201.93 148 188.96 148 177.38 curveto
stroke
0 0 0 edgecolor
newpath 151.5 177.21 moveto
148 167.21 lineto
144.5 177.21 lineto
closepath fill
1 setlinewidth
solid
0 0 0 edgecolor
newpath 151.5 177.21 moveto
148 167.21 lineto
144.5 177.21 lineto
closepath stroke
grestore
% paraxe
gsave
1 setlinewidth
0 0 0 nodecolor
newpath 896 84 moveto
656 84 lineto
656 0 lineto
896 0 lineto
closepath stroke
0 0 0 nodecolor
18 /Times-Roman set_font
751.5 63.8 moveto 49 (paraxe) alignedtext
0 0 0 nodecolor
18 /Times-Roman set_font
669 44.8 moveto 214 ([|t in [0 , INF]; x in [31 , INF];) alignedtext
0 0 0 nodecolor
18 /Times-Roman set_font
663.5 25.8 moveto 225 (  y in [-1 , INF]; z in [-2 , INF]|]) alignedtext
0 0 0 nodecolor
18 /Times-Roman set_font
681 6.8 moveto 190 (7 constraints, 7 generators) alignedtext
grestore
% para_start
gsave
1 setlinewidth
0 0 0 nodecolor
newpath 1520 510 moveto
1288 510 lineto
1288 426 lineto
1520 426 lineto
closepath stroke
0 0 0 nodecolor
18 /Times-Roman set_font
1367.5 489.8 moveto 73 (para_start) alignedtext
0 0 0 nodecolor
18 /Times-Roman set_font
1295.5 470.8 moveto 217 ([|t=0; x in [-2 , 2]; y in [-2 , 2];) alignedtext
0 0 0 nodecolor
18 /Times-Roman set_font
1355 451.8 moveto 98 (  z in [-2 , 2]|]) alignedtext
0 0 0 nodecolor
18 /Times-Roman set_font
1309 432.8 moveto 190 (7 constraints, 8 generators) alignedtext
grestore
% 9
gsave
0 0 0 nodecolor
18 /Times-Roman set_font
1269 359.8 moveto 270 (t := t+1; x := x+y; y := y+z; z := z+1\)*) alignedtext
0 0 0 nodecolor
18 /Times-Roman set_font
1397.5 340.8 moveto 13 (\(\)) alignedtext
grestore
% para_start->9
gsave
1 setlinewidth
0 0 0 edgecolor
newpath 1404 425.72 moveto
1404 414.02 1404 401.49 1404 390.37 curveto
stroke
0 0 0 edgecolor
newpath 1407.5 390.22 moveto
1404 380.22 lineto
1400.5 390.22 lineto
closepath fill
1 setlinewidth
solid
0 0 0 edgecolor
newpath 1407.5 390.22 moveto
1404 380.22 lineto
1400.5 390.22 lineto
closepath stroke
grestore
% 0->paraxyye
gsave
1 setlinewidth
0 0 0 edgecolor
newpath 148 120.85 moveto
148 112.91 148 103.67 148 94.37 curveto
stroke
0 0 0 edgecolor
newpath 151.5 94.31 moveto
148 84.31 lineto
144.5 94.31 lineto
closepath fill
1 setlinewidth
solid
0 0 0 edgecolor
newpath 151.5 94.31 moveto
148 84.31 lineto
144.5 94.31 lineto
closepath stroke
grestore
% 1->paraxyy
gsave
1 setlinewidth
0 0 0 edgecolor
newpath 148 324.3 moveto
148 313.22 148 300.67 148 288.92 curveto
stroke
0 0 0 edgecolor
newpath 151.5 288.85 moveto
148 278.85 lineto
144.5 288.85 lineto
closepath fill
1 setlinewidth
solid
0 0 0 edgecolor
newpath 151.5 288.85 moveto
148 278.85 lineto
144.5 288.85 lineto
closepath stroke
grestore
% 2->paraxye
gsave
1 setlinewidth
0 0 0 edgecolor
newpath 462 120.85 moveto
462 112.91 462 103.67 462 94.37 curveto
stroke
0 0 0 edgecolor
newpath 465.5 94.31 moveto
462 84.31 lineto
458.5 94.31 lineto
closepath fill
1 setlinewidth
solid
0 0 0 edgecolor
newpath 465.5 94.31 moveto
462 84.31 lineto
458.5 94.31 lineto
closepath stroke
grestore
% 3->paraxy
gsave
1 setlinewidth
0 0 0 edgecolor
newpath 462 324.3 moveto
462 316.21 462 307.34 462 298.56 curveto
stroke
0 0 0 edgecolor
newpath 465.5 298.36 moveto
462 288.36 lineto
458.5 298.36 lineto
closepath fill
1 setlinewidth
solid
0 0 0 edgecolor
newpath 465.5 298.36 moveto
462 288.36 lineto
458.5 298.36 lineto
closepath stroke
grestore
% 4->paraxe
gsave
1 setlinewidth
0 0 0 edgecolor
newpath 776 120.85 moveto
776 112.91 776 103.67 776 94.37 curveto
stroke
0 0 0 edgecolor
newpath 779.5 94.31 moveto
776 84.31 lineto
772.5 94.31 lineto
closepath fill
1 setlinewidth
solid
0 0 0 edgecolor
newpath 779.5 94.31 moveto
776 84.31 lineto
772.5 94.31 lineto
closepath stroke
grestore
% 5->parax
gsave
1 setlinewidth
0 0 0 edgecolor
newpath 776 324.3 moveto
776 313.22 776 300.67 776 288.92 curveto
stroke
0 0 0 edgecolor
newpath 779.5 288.85 moveto
776 278.85 lineto
772.5 288.85 lineto
closepath fill
1 setlinewidth
solid
0 0 0 edgecolor
newpath 779.5 288.85 moveto
776 278.85 lineto
772.5 288.85 lineto
closepath stroke
grestore
% 6->paraye
gsave
1 setlinewidth
0 0 0 edgecolor
newpath 1090 120.85 moveto
1090 112.91 1090 103.67 1090 94.37 curveto
stroke
0 0 0 edgecolor
newpath 1093.5 94.31 moveto
1090 84.31 lineto
1086.5 94.31 lineto
closepath fill
1 setlinewidth
solid
0 0 0 edgecolor
newpath 1093.5 94.31 moveto
1090 84.31 lineto
1086.5 94.31 lineto
closepath stroke
grestore
% 7->paray
gsave
1 setlinewidth
0 0 0 edgecolor
newpath 1090 324.3 moveto
1090 313.22 1090 300.67 1090 288.92 curveto
stroke
0 0 0 edgecolor
newpath 1093.5 288.85 moveto
1090 278.85 lineto
1086.5 288.85 lineto
closepath fill
1 setlinewidth
solid
0 0 0 edgecolor
newpath 1093.5 288.85 moveto
1090 278.85 lineto
1086.5 288.85 lineto
closepath stroke
grestore
% 8->parae
gsave
1 setlinewidth
0 0 0 edgecolor
newpath 1404 119.83 moveto
1404 109.44 1404 96.97 1404 85.1 curveto
stroke
0 0 0 edgecolor
newpath 1407.5 84.87 moveto
1404 74.87 lineto
1400.5 84.87 lineto
closepath fill
1 setlinewidth
solid
0 0 0 edgecolor
newpath 1407.5 84.87 moveto
1404 74.87 lineto
1400.5 84.87 lineto
closepath stroke
grestore
% 9->para
gsave
1 setlinewidth
0 0 0 edgecolor
newpath 1404 333.73 moveto
1404 320.82 1404 304.34 1404 289.16 curveto
stroke
0 0 0 edgecolor
newpath 1407.5 288.92 moveto
1404 278.92 lineto
1400.5 288.92 lineto
closepath fill
1 setlinewidth
solid
0 0 0 edgecolor
newpath 1407.5 288.92 moveto
1404 278.92 lineto
1400.5 288.92 lineto
closepath stroke
grestore
% 10->paraxyy_start
gsave
1 setlinewidth
0 0 0 edgecolor
newpath 148 545.69 moveto
148 537.54 148 528.9 148 520.47 curveto
stroke
0 0 0 edgecolor
newpath 151.5 520.33 moveto
148 510.33 lineto
144.5 520.33 lineto
closepath fill
1 setlinewidth
solid
0 0 0 edgecolor
newpath 151.5 520.33 moveto
148 510.33 lineto
144.5 520.33 lineto
closepath stroke
grestore
% 11->paraxy_start
gsave
1 setlinewidth
0 0 0 edgecolor
newpath 462 545.69 moveto
462 537.54 462 528.9 462 520.47 curveto
stroke
0 0 0 edgecolor
newpath 465.5 520.33 moveto
462 510.33 lineto
458.5 520.33 lineto
closepath fill
1 setlinewidth
solid
0 0 0 edgecolor
newpath 465.5 520.33 moveto
462 510.33 lineto
458.5 520.33 lineto
closepath stroke
grestore
% 12->parax_start
gsave
1 setlinewidth
0 0 0 edgecolor
newpath 776 545.69 moveto
776 537.54 776 528.9 776 520.47 curveto
stroke
0 0 0 edgecolor
newpath 779.5 520.33 moveto
776 510.33 lineto
772.5 520.33 lineto
closepath fill
1 setlinewidth
solid
0 0 0 edgecolor
newpath 779.5 520.33 moveto
776 510.33 lineto
772.5 520.33 lineto
closepath stroke
grestore
% 13->paray_start
gsave
1 setlinewidth
0 0 0 edgecolor
newpath 1090 545.69 moveto
1090 537.54 1090 528.9 1090 520.47 curveto
stroke
0 0 0 edgecolor
newpath 1093.5 520.33 moveto
1090 510.33 lineto
1086.5 520.33 lineto
closepath fill
1 setlinewidth
solid
0 0 0 edgecolor
newpath 1093.5 520.33 moveto
1090 510.33 lineto
1086.5 520.33 lineto
closepath stroke
grestore
% 14->para_start
gsave
1 setlinewidth
0 0 0 edgecolor
newpath 1404 545.69 moveto
1404 537.54 1404 528.9 1404 520.47 curveto
stroke
0 0 0 edgecolor
newpath 1407.5 520.33 moveto
1404 510.33 lineto
1400.5 520.33 lineto
closepath fill
1 setlinewidth
solid
0 0 0 edgecolor
newpath 1407.5 520.33 moveto
1404 510.33 lineto
1400.5 520.33 lineto
closepath stroke
grestore
endpage
showpage
grestore
%%PageTrailer
%%EndPage: 3
%%Trailer
%%Pages: 3
%%BoundingBox: 36 36 2062 814
end
restore
%%EOF
