%!PS-Adobe-3.0
%%Creator: graphviz version 2.26.3 (20100126.1600)
%%Title: G
%%Pages: (atend)
%%BoundingBox: (atend)
%%EndComments
save
%%BeginProlog
/DotDict 200 dict def
DotDict begin

/setupLatin1 {
mark
/EncodingVector 256 array def
 EncodingVector 0

ISOLatin1Encoding 0 255 getinterval putinterval
EncodingVector 45 /hyphen put

% Set up ISO Latin 1 character encoding
/starnetISO {
        dup dup findfont dup length dict begin
        { 1 index /FID ne { def }{ pop pop } ifelse
        } forall
        /Encoding EncodingVector def
        currentdict end definefont
} def
/Times-Roman starnetISO def
/Times-Italic starnetISO def
/Times-Bold starnetISO def
/Times-BoldItalic starnetISO def
/Helvetica starnetISO def
/Helvetica-Oblique starnetISO def
/Helvetica-Bold starnetISO def
/Helvetica-BoldOblique starnetISO def
/Courier starnetISO def
/Courier-Oblique starnetISO def
/Courier-Bold starnetISO def
/Courier-BoldOblique starnetISO def
cleartomark
} bind def

%%BeginResource: procset graphviz 0 0
/coord-font-family /Times-Roman def
/default-font-family /Times-Roman def
/coordfont coord-font-family findfont 8 scalefont def

/InvScaleFactor 1.0 def
/set_scale {
       dup 1 exch div /InvScaleFactor exch def
       scale
} bind def

% styles
/solid { [] 0 setdash } bind def
/dashed { [9 InvScaleFactor mul dup ] 0 setdash } bind def
/dotted { [1 InvScaleFactor mul 6 InvScaleFactor mul] 0 setdash } bind def
/invis {/fill {newpath} def /stroke {newpath} def /show {pop newpath} def} bind def
/bold { 2 setlinewidth } bind def
/filled { } bind def
/unfilled { } bind def
/rounded { } bind def
/diagonals { } bind def

% hooks for setting color 
/nodecolor { sethsbcolor } bind def
/edgecolor { sethsbcolor } bind def
/graphcolor { sethsbcolor } bind def
/nopcolor {pop pop pop} bind def

/beginpage {	% i j npages
	/npages exch def
	/j exch def
	/i exch def
	/str 10 string def
	npages 1 gt {
		gsave
			coordfont setfont
			0 0 moveto
			(\() show i str cvs show (,) show j str cvs show (\)) show
		grestore
	} if
} bind def

/set_font {
	findfont exch
	scalefont setfont
} def

% draw text fitted to its expected width
/alignedtext {			% width text
	/text exch def
	/width exch def
	gsave
		width 0 gt {
			[] 0 setdash
			text stringwidth pop width exch sub text length div 0 text ashow
		} if
	grestore
} def

/boxprim {				% xcorner ycorner xsize ysize
		4 2 roll
		moveto
		2 copy
		exch 0 rlineto
		0 exch rlineto
		pop neg 0 rlineto
		closepath
} bind def

/ellipse_path {
	/ry exch def
	/rx exch def
	/y exch def
	/x exch def
	matrix currentmatrix
	newpath
	x y translate
	rx ry scale
	0 0 1 0 360 arc
	setmatrix
} bind def

/endpage { showpage } bind def
/showpage { } def

/layercolorseq
	[	% layer color sequence - darkest to lightest
		[0 0 0]
		[.2 .8 .8]
		[.4 .8 .8]
		[.6 .8 .8]
		[.8 .8 .8]
	]
def

/layerlen layercolorseq length def

/setlayer {/maxlayer exch def /curlayer exch def
	layercolorseq curlayer 1 sub layerlen mod get
	aload pop sethsbcolor
	/nodecolor {nopcolor} def
	/edgecolor {nopcolor} def
	/graphcolor {nopcolor} def
} bind def

/onlayer { curlayer ne {invis} if } def

/onlayers {
	/myupper exch def
	/mylower exch def
	curlayer mylower lt
	curlayer myupper gt
	or
	{invis} if
} def

/curlayer 0 def

%%EndResource
%%EndProlog
%%BeginSetup
14 default-font-family set_font
1 setmiterlimit
% /arrowlength 10 def
% /arrowwidth 5 def

% make sure pdfmark is harmless for PS-interpreters other than Distiller
/pdfmark where {pop} {userdict /pdfmark /cleartomark load put} ifelse
% make '<<' and '>>' safe on PS Level 1 devices
/languagelevel where {pop languagelevel}{1} ifelse
2 lt {
    userdict (<<) cvn ([) cvn load put
    userdict (>>) cvn ([) cvn load put
} if

%%EndSetup
setupLatin1
%%Page: 1 1
%%PageBoundingBox: 36 36 1546 700
%%PageOrientation: Portrait
0 0 1 beginpage
gsave
36 36 1510 664 boxprim clip newpath
1 1 set_scale 0 rotate 40 41 translate
% 1073741823
gsave
1 setlinewidth
0 0 0 nodecolor
667 633 43.84 19.09 ellipse_path stroke
0 0 0 nodecolor
18 /Times-Roman set_font
644 626.3 moveto 46 (Result) alignedtext
grestore
% paraxye
gsave
1 setlinewidth
0 0 0 nodecolor
newpath 559 84 moveto
335 84 lineto
335 0 lineto
559 0 lineto
closepath stroke
0 0 0 nodecolor
18 /Times-Roman set_font
418 63.8 moveto 58 (paraxye) alignedtext
0 0 0 nodecolor
18 /Times-Roman set_font
343 44.8 moveto 208 ([|t in [5 , 6]; x in [16.67 , 20];) alignedtext
0 0 0 nodecolor
18 /Times-Roman set_font
350.5 25.8 moveto 193 (  y in [13 , 15]; z in [5 , 6]|]) alignedtext
0 0 0 nodecolor
18 /Times-Roman set_font
352 6.8 moveto 190 (6 constraints, 6 generators) alignedtext
grestore
% parax
gsave
1 setlinewidth
0 0 0 nodecolor
newpath 863 288 moveto
639 288 lineto
639 204 lineto
863 204 lineto
closepath stroke
0 0 0 nodecolor
18 /Times-Roman set_font
730.5 267.8 moveto 41 (parax) alignedtext
0 0 0 nodecolor
18 /Times-Roman set_font
662.5 248.8 moveto 177 ([|t in [0 , 7]; x in [0 , 35];) alignedtext
0 0 0 nodecolor
18 /Times-Roman set_font
659 229.8 moveto 184 (  y in [0 , 21]; z in [0 , 7]|]) alignedtext
0 0 0 nodecolor
18 /Times-Roman set_font
647 210.8 moveto 208 (14 constraints, 14 generators) alignedtext
grestore
% 4
gsave
0 0 0 nodecolor
18 /Times-Roman set_font
711.5 146.8 moveto 79 (x-31>=0 ? ) alignedtext
0 0 0 nodecolor
18 /Times-Roman set_font
744.5 127.8 moveto 13 (\(\)) alignedtext
grestore
% parax->4
gsave
1 setlinewidth
0 0 0 edgecolor
newpath 751 203.92 moveto
751 195.05 751 185.8 751 177.3 curveto
stroke
0 0 0 edgecolor
newpath 754.5 177.02 moveto
751 167.02 lineto
747.5 177.02 lineto
closepath fill
1 setlinewidth
solid
0 0 0 edgecolor
newpath 754.5 177.02 moveto
751 167.02 lineto
747.5 177.02 lineto
closepath stroke
grestore
% paray
gsave
1 setlinewidth
0 0 0 nodecolor
newpath 1167 288 moveto
943 288 lineto
943 204 lineto
1167 204 lineto
closepath stroke
0 0 0 nodecolor
18 /Times-Roman set_font
1034.5 267.8 moveto 41 (paray) alignedtext
0 0 0 nodecolor
18 /Times-Roman set_font
966.5 248.8 moveto 177 ([|t in [0 , 5]; x in [0 , 10];) alignedtext
0 0 0 nodecolor
18 /Times-Roman set_font
963 229.8 moveto 184 (  y in [0 , 10]; z in [0 , 5]|]) alignedtext
0 0 0 nodecolor
18 /Times-Roman set_font
951 210.8 moveto 208 (10 constraints, 10 generators) alignedtext
grestore
% 6
gsave
0 0 0 nodecolor
18 /Times-Roman set_font
1020 146.8 moveto 70 (y-8>=0 ? ) alignedtext
0 0 0 nodecolor
18 /Times-Roman set_font
1048.5 127.8 moveto 13 (\(\)) alignedtext
grestore
% paray->6
gsave
1 setlinewidth
0 0 0 edgecolor
newpath 1055 203.92 moveto
1055 195.05 1055 185.8 1055 177.3 curveto
stroke
0 0 0 edgecolor
newpath 1058.5 177.02 moveto
1055 167.02 lineto
1051.5 177.02 lineto
closepath fill
1 setlinewidth
solid
0 0 0 edgecolor
newpath 1058.5 177.02 moveto
1055 167.02 lineto
1051.5 177.02 lineto
closepath stroke
grestore
% paraxyy_start
gsave
1 setlinewidth
0 0 0 nodecolor
newpath 324 491.5 moveto
118 491.5 lineto
118 426.5 lineto
324 426.5 lineto
closepath stroke
0 0 0 nodecolor
18 /Times-Roman set_font
171 471.3 moveto 100 (paraxyy_start) alignedtext
0 0 0 nodecolor
18 /Times-Roman set_font
145 452.3 moveto 152 ([|t=0; x=0; y=0; z=0|]) alignedtext
0 0 0 nodecolor
18 /Times-Roman set_font
126 433.3 moveto 190 (4 constraints, 1 generators) alignedtext
grestore
% 1
gsave
0 0 0 nodecolor
18 /Times-Roman set_font
84.5 369.3 moveto 117 (\(-x+2y+30>=0 ?) alignedtext
0 0 0 nodecolor
18 /Times-Roman set_font
8 350.3 moveto 270 (t := t+1; x := x+y; y := y+z; z := z+1\)*) alignedtext
0 0 0 nodecolor
18 /Times-Roman set_font
136.5 331.3 moveto 13 (\(\)) alignedtext
grestore
% paraxyy_start->1
gsave
1 setlinewidth
0 0 0 edgecolor
newpath 196.11 426.45 moveto
189.14 417.34 181.48 407.32 174.2 397.8 curveto
stroke
0 0 0 edgecolor
newpath 176.78 395.41 moveto
167.93 389.59 lineto
171.22 399.66 lineto
closepath fill
1 setlinewidth
solid
0 0 0 edgecolor
newpath 176.78 395.41 moveto
167.93 389.59 lineto
171.22 399.66 lineto
closepath stroke
grestore
% linit
gsave
1 setlinewidth
0 0 0 nodecolor
newpath 773 656 moveto
729 656 lineto
729 610 lineto
773 610 lineto
closepath stroke
0 0 0 nodecolor
18 /Times-Roman set_font
737 635.8 moveto 28 (linit) alignedtext
0 0 0 nodecolor
18 /Times-Roman set_font
739 616.8 moveto 24 (top) alignedtext
grestore
% 10
gsave
0 0 0 nodecolor
18 /Times-Roman set_font
143 553.8 moveto 208 (z=0 and y=0 and x=0 ? t := 0) alignedtext
0 0 0 nodecolor
18 /Times-Roman set_font
240.5 534.8 moveto 13 (\(\)) alignedtext
grestore
% linit->10
gsave
1 setlinewidth
0 0 0 edgecolor
newpath 728.8 614.44 moveto
725.96 612.71 723 611.17 720 610 curveto
578.85 554.92 531.08 594.83 381 574 curveto
377.1 573.46 373.14 572.89 369.14 572.3 curveto
stroke
0 0 0 edgecolor
newpath 369.56 568.82 moveto
359.15 570.79 lineto
368.51 575.75 lineto
closepath fill
1 setlinewidth
solid
0 0 0 edgecolor
newpath 369.56 568.82 moveto
359.15 570.79 lineto
368.51 575.75 lineto
closepath stroke
grestore
% 11
gsave
0 0 0 nodecolor
18 /Times-Roman set_font
398 553.8 moveto 208 (z=0 and y=0 and x=0 ? t := 0) alignedtext
0 0 0 nodecolor
18 /Times-Roman set_font
495.5 534.8 moveto 13 (\(\)) alignedtext
grestore
% linit->11
gsave
1 setlinewidth
0 0 0 edgecolor
newpath 728.94 615.13 moveto
726.04 613.23 723.02 611.46 720 610 curveto
690.1 595.51 656.11 584.15 624.02 575.43 curveto
stroke
0 0 0 edgecolor
newpath 624.69 571.99 moveto
614.12 572.81 lineto
622.89 578.75 lineto
closepath fill
1 setlinewidth
solid
0 0 0 edgecolor
newpath 624.69 571.99 moveto
614.12 572.81 lineto
622.89 578.75 lineto
closepath stroke
grestore
% 12
gsave
0 0 0 nodecolor
18 /Times-Roman set_font
647 553.8 moveto 208 (z=0 and y=0 and x=0 ? t := 0) alignedtext
0 0 0 nodecolor
18 /Times-Roman set_font
744.5 534.8 moveto 13 (\(\)) alignedtext
grestore
% linit->12
gsave
1 setlinewidth
0 0 0 edgecolor
newpath 751 609.72 moveto
751 601.78 751 592.73 751 584.16 curveto
stroke
0 0 0 edgecolor
newpath 754.5 584.05 moveto
751 574.05 lineto
747.5 584.05 lineto
closepath fill
1 setlinewidth
solid
0 0 0 edgecolor
newpath 754.5 584.05 moveto
751 574.05 lineto
747.5 584.05 lineto
closepath stroke
grestore
% 13
gsave
0 0 0 nodecolor
18 /Times-Roman set_font
904 553.8 moveto 208 (z=0 and y=0 and x=0 ? t := 0) alignedtext
0 0 0 nodecolor
18 /Times-Roman set_font
1001.5 534.8 moveto 13 (\(\)) alignedtext
grestore
% linit->13
gsave
1 setlinewidth
0 0 0 edgecolor
newpath 773.36 625.87 moveto
807.1 615.1 872.76 594.15 926.06 577.14 curveto
stroke
0 0 0 edgecolor
newpath 927.39 580.39 moveto
935.86 574.02 lineto
925.27 573.72 lineto
closepath fill
1 setlinewidth
solid
0 0 0 edgecolor
newpath 927.39 580.39 moveto
935.86 574.02 lineto
925.27 573.72 lineto
closepath stroke
grestore
% 14
gsave
0 0 0 nodecolor
18 /Times-Roman set_font
1169 553.8 moveto 208 (z=0 and y=0 and x=0 ? t := 0) alignedtext
0 0 0 nodecolor
18 /Times-Roman set_font
1266.5 534.8 moveto 13 (\(\)) alignedtext
grestore
% linit->14
gsave
1 setlinewidth
0 0 0 edgecolor
newpath 773.16 629.57 moveto
831.44 620.54 993.85 595.34 1129 574 curveto
1136.13 572.87 1143.47 571.71 1150.87 570.54 curveto
stroke
0 0 0 edgecolor
newpath 1151.66 573.96 moveto
1160.98 568.93 lineto
1150.56 567.04 lineto
closepath fill
1 setlinewidth
solid
0 0 0 edgecolor
newpath 1151.66 573.96 moveto
1160.98 568.93 lineto
1150.56 567.04 lineto
closepath stroke
grestore
% paray_start
gsave
1 setlinewidth
0 0 0 nodecolor
newpath 1142 491.5 moveto
936 491.5 lineto
936 426.5 lineto
1142 426.5 lineto
closepath stroke
0 0 0 nodecolor
18 /Times-Roman set_font
998 471.3 moveto 82 (paray_start) alignedtext
0 0 0 nodecolor
18 /Times-Roman set_font
963 452.3 moveto 152 ([|t=0; x=0; y=0; z=0|]) alignedtext
0 0 0 nodecolor
18 /Times-Roman set_font
944 433.3 moveto 190 (4 constraints, 1 generators) alignedtext
grestore
% 7
gsave
0 0 0 nodecolor
18 /Times-Roman set_font
1014.5 369.3 moveto 81 (\(-y+7>=0 ?) alignedtext
0 0 0 nodecolor
18 /Times-Roman set_font
920 350.3 moveto 270 (t := t+1; x := x+y; y := y+z; z := z+1\)*) alignedtext
0 0 0 nodecolor
18 /Times-Roman set_font
1048.5 331.3 moveto 13 (\(\)) alignedtext
grestore
% paray_start->7
gsave
1 setlinewidth
0 0 0 edgecolor
newpath 1044.11 426.45 moveto
1045.45 417.89 1046.92 408.53 1048.33 399.54 curveto
stroke
0 0 0 edgecolor
newpath 1051.8 400.02 moveto
1049.89 389.59 lineto
1044.88 398.93 lineto
closepath fill
1 setlinewidth
solid
0 0 0 edgecolor
newpath 1051.8 400.02 moveto
1049.89 389.59 lineto
1044.88 398.93 lineto
closepath stroke
grestore
% paraye
gsave
1 setlinewidth
0 0 0 nodecolor
newpath 1158 84 moveto
952 84 lineto
952 0 lineto
1158 0 lineto
closepath stroke
0 0 0 nodecolor
18 /Times-Roman set_font
1030.5 63.8 moveto 49 (paraye) alignedtext
0 0 0 nodecolor
18 /Times-Roman set_font
966.5 44.8 moveto 177 ([|t in [4 , 5]; x in [6 , 10];) alignedtext
0 0 0 nodecolor
18 /Times-Roman set_font
963 25.8 moveto 184 (  y in [8 , 10]; z in [4 , 5]|]) alignedtext
0 0 0 nodecolor
18 /Times-Roman set_font
960 6.8 moveto 190 (5 constraints, 4 generators) alignedtext
grestore
% para
gsave
1 setlinewidth
0 0 0 nodecolor
newpath 1473 288 moveto
1245 288 lineto
1245 204 lineto
1473 204 lineto
closepath stroke
0 0 0 nodecolor
18 /Times-Roman set_font
1343 267.8 moveto 32 (para) alignedtext
0 0 0 nodecolor
18 /Times-Roman set_font
1256.5 248.8 moveto 205 ([|t in [0 , INF]; x in [0 , INF];) alignedtext
0 0 0 nodecolor
18 /Times-Roman set_font
1252.5 229.8 moveto 213 (  y in [0 , INF]; z in [0 , INF]|]) alignedtext
0 0 0 nodecolor
18 /Times-Roman set_font
1259.5 210.8 moveto 199 (10 constraints, 8 generators) alignedtext
grestore
% 8
gsave
0 0 0 nodecolor
18 /Times-Roman set_font
1352.5 126.8 moveto 13 (\(\)) alignedtext
grestore
% para->8
gsave
1 setlinewidth
0 0 0 edgecolor
newpath 1359 203.92 moveto
1359 195.36 1359 186.45 1359 178.19 curveto
stroke
0 0 0 edgecolor
newpath 1362.5 178.17 moveto
1359 168.17 lineto
1355.5 178.17 lineto
closepath fill
1 setlinewidth
solid
0 0 0 edgecolor
newpath 1362.5 178.17 moveto
1359 168.17 lineto
1355.5 178.17 lineto
closepath stroke
grestore
% paraxy
gsave
1 setlinewidth
0 0 0 nodecolor
newpath 559 288 moveto
335 288 lineto
335 204 lineto
559 204 lineto
closepath stroke
0 0 0 nodecolor
18 /Times-Roman set_font
422 267.8 moveto 50 (paraxy) alignedtext
0 0 0 nodecolor
18 /Times-Roman set_font
358.5 248.8 moveto 177 ([|t in [0 , 6]; x in [0 , 20];) alignedtext
0 0 0 nodecolor
18 /Times-Roman set_font
355 229.8 moveto 184 (  y in [0 , 15]; z in [0 , 6]|]) alignedtext
0 0 0 nodecolor
18 /Times-Roman set_font
343 210.8 moveto 208 (12 constraints, 12 generators) alignedtext
grestore
% 2
gsave
0 0 0 nodecolor
18 /Times-Roman set_font
398.5 146.8 moveto 97 (x+y-31>=0 ? ) alignedtext
0 0 0 nodecolor
18 /Times-Roman set_font
440.5 127.8 moveto 13 (\(\)) alignedtext
grestore
% paraxy->2
gsave
1 setlinewidth
0 0 0 edgecolor
newpath 447 203.92 moveto
447 195.05 447 185.8 447 177.3 curveto
stroke
0 0 0 edgecolor
newpath 450.5 177.02 moveto
447 167.02 lineto
443.5 177.02 lineto
closepath fill
1 setlinewidth
solid
0 0 0 edgecolor
newpath 450.5 177.02 moveto
447 167.02 lineto
443.5 177.02 lineto
closepath stroke
grestore
% parae
gsave
1 setlinewidth
0 0 0 nodecolor
newpath 1473 84 moveto
1245 84 lineto
1245 0 lineto
1473 0 lineto
closepath stroke
0 0 0 nodecolor
18 /Times-Roman set_font
1339 63.8 moveto 40 (parae) alignedtext
0 0 0 nodecolor
18 /Times-Roman set_font
1256.5 44.8 moveto 205 ([|t in [0 , INF]; x in [0 , INF];) alignedtext
0 0 0 nodecolor
18 /Times-Roman set_font
1252.5 25.8 moveto 213 (  y in [0 , INF]; z in [0 , INF]|]) alignedtext
0 0 0 nodecolor
18 /Times-Roman set_font
1259.5 6.8 moveto 199 (10 constraints, 8 generators) alignedtext
grestore
% parax_start
gsave
1 setlinewidth
0 0 0 nodecolor
newpath 854 491.5 moveto
648 491.5 lineto
648 426.5 lineto
854 426.5 lineto
closepath stroke
0 0 0 nodecolor
18 /Times-Roman set_font
710 471.3 moveto 82 (parax_start) alignedtext
0 0 0 nodecolor
18 /Times-Roman set_font
675 452.3 moveto 152 ([|t=0; x=0; y=0; z=0|]) alignedtext
0 0 0 nodecolor
18 /Times-Roman set_font
656 433.3 moveto 190 (4 constraints, 1 generators) alignedtext
grestore
% 5
gsave
0 0 0 nodecolor
18 /Times-Roman set_font
706 369.3 moveto 90 (\(-x+30>=0 ?) alignedtext
0 0 0 nodecolor
18 /Times-Roman set_font
616 350.3 moveto 270 (t := t+1; x := x+y; y := y+z; z := z+1\)*) alignedtext
0 0 0 nodecolor
18 /Times-Roman set_font
744.5 331.3 moveto 13 (\(\)) alignedtext
grestore
% parax_start->5
gsave
1 setlinewidth
0 0 0 edgecolor
newpath 751 426.45 moveto
751 417.98 751 408.73 751 399.83 curveto
stroke
0 0 0 edgecolor
newpath 754.5 399.59 moveto
751 389.59 lineto
747.5 399.59 lineto
closepath fill
1 setlinewidth
solid
0 0 0 edgecolor
newpath 754.5 399.59 moveto
751 389.59 lineto
747.5 399.59 lineto
closepath stroke
grestore
% paraxy_start
gsave
1 setlinewidth
0 0 0 nodecolor
newpath 557 491.5 moveto
351 491.5 lineto
351 426.5 lineto
557 426.5 lineto
closepath stroke
0 0 0 nodecolor
18 /Times-Roman set_font
408.5 471.3 moveto 91 (paraxy_start) alignedtext
0 0 0 nodecolor
18 /Times-Roman set_font
378 452.3 moveto 152 ([|t=0; x=0; y=0; z=0|]) alignedtext
0 0 0 nodecolor
18 /Times-Roman set_font
359 433.3 moveto 190 (4 constraints, 1 generators) alignedtext
grestore
% 3
gsave
0 0 0 nodecolor
18 /Times-Roman set_font
394.5 369.3 moveto 105 (\(-x-y+30>=0 ?) alignedtext
0 0 0 nodecolor
18 /Times-Roman set_font
312 350.3 moveto 270 (t := t+1; x := x+y; y := y+z; z := z+1\)*) alignedtext
0 0 0 nodecolor
18 /Times-Roman set_font
440.5 331.3 moveto 13 (\(\)) alignedtext
grestore
% paraxy_start->3
gsave
1 setlinewidth
0 0 0 edgecolor
newpath 451.77 426.45 moveto
451.18 417.98 450.55 408.73 449.94 399.83 curveto
stroke
0 0 0 edgecolor
newpath 453.41 399.33 moveto
449.24 389.59 lineto
446.43 399.81 lineto
closepath fill
1 setlinewidth
solid
0 0 0 edgecolor
newpath 453.41 399.33 moveto
449.24 389.59 lineto
446.43 399.81 lineto
closepath stroke
grestore
% paraxyye
gsave
1 setlinewidth
0 0 0 nodecolor
newpath 273 84 moveto
13 84 lineto
13 0 lineto
273 0 lineto
closepath stroke
0 0 0 nodecolor
18 /Times-Roman set_font
109.5 63.8 moveto 67 (paraxyye) alignedtext
0 0 0 nodecolor
18 /Times-Roman set_font
21 44.8 moveto 244 ([|t in [0.4769 , 11]; x in [33 , 165];) alignedtext
0 0 0 nodecolor
18 /Times-Roman set_font
26.5 25.8 moveto 233 (  y in [1 , 55]; z in [0.4769 , 11]|]) alignedtext
0 0 0 nodecolor
18 /Times-Roman set_font
48 6.8 moveto 190 (7 constraints, 7 generators) alignedtext
grestore
% paraxyy
gsave
1 setlinewidth
0 0 0 nodecolor
newpath 255 288 moveto
31 288 lineto
31 204 lineto
255 204 lineto
closepath stroke
0 0 0 nodecolor
18 /Times-Roman set_font
113.5 267.8 moveto 59 (paraxyy) alignedtext
0 0 0 nodecolor
18 /Times-Roman set_font
45.5 248.8 moveto 195 ([|t in [0 , 11]; x in [0 , 165];) alignedtext
0 0 0 nodecolor
18 /Times-Roman set_font
46.5 229.8 moveto 193 (  y in [0 , 55]; z in [0 , 11]|]) alignedtext
0 0 0 nodecolor
18 /Times-Roman set_font
39 210.8 moveto 208 (14 constraints, 14 generators) alignedtext
grestore
% 0
gsave
0 0 0 nodecolor
18 /Times-Roman set_font
91.5 146.8 moveto 103 (x-2y-31>=0 ? ) alignedtext
0 0 0 nodecolor
18 /Times-Roman set_font
136.5 127.8 moveto 13 (\(\)) alignedtext
grestore
% paraxyy->0
gsave
1 setlinewidth
0 0 0 edgecolor
newpath 143 203.92 moveto
143 195.05 143 185.8 143 177.3 curveto
stroke
0 0 0 edgecolor
newpath 146.5 177.02 moveto
143 167.02 lineto
139.5 177.02 lineto
closepath fill
1 setlinewidth
solid
0 0 0 edgecolor
newpath 146.5 177.02 moveto
143 167.02 lineto
139.5 177.02 lineto
closepath stroke
grestore
% paraxe
gsave
1 setlinewidth
0 0 0 nodecolor
newpath 855 84 moveto
647 84 lineto
647 0 lineto
855 0 lineto
closepath stroke
0 0 0 nodecolor
18 /Times-Roman set_font
726.5 63.8 moveto 49 (paraxe) alignedtext
0 0 0 nodecolor
18 /Times-Roman set_font
658 44.8 moveto 186 ([|t in [5 , 7]; x in [31 , 35];) alignedtext
0 0 0 nodecolor
18 /Times-Roman set_font
654.5 25.8 moveto 193 (  y in [17 , 21]; z in [5 , 7]|]) alignedtext
0 0 0 nodecolor
18 /Times-Roman set_font
656 6.8 moveto 190 (5 constraints, 4 generators) alignedtext
grestore
% para_start
gsave
1 setlinewidth
0 0 0 nodecolor
newpath 1438 491.5 moveto
1232 491.5 lineto
1232 426.5 lineto
1438 426.5 lineto
closepath stroke
0 0 0 nodecolor
18 /Times-Roman set_font
1298.5 471.3 moveto 73 (para_start) alignedtext
0 0 0 nodecolor
18 /Times-Roman set_font
1259 452.3 moveto 152 ([|t=0; x=0; y=0; z=0|]) alignedtext
0 0 0 nodecolor
18 /Times-Roman set_font
1240 433.3 moveto 190 (4 constraints, 1 generators) alignedtext
grestore
% 9
gsave
0 0 0 nodecolor
18 /Times-Roman set_font
1224 359.8 moveto 270 (t := t+1; x := x+y; y := y+z; z := z+1\)*) alignedtext
0 0 0 nodecolor
18 /Times-Roman set_font
1352.5 340.8 moveto 13 (\(\)) alignedtext
grestore
% para_start->9
gsave
1 setlinewidth
0 0 0 edgecolor
newpath 1342.66 426.45 moveto
1345.4 414.81 1348.48 401.7 1351.23 390.02 curveto
stroke
0 0 0 edgecolor
newpath 1354.66 390.75 moveto
1353.54 380.21 lineto
1347.84 389.14 lineto
closepath fill
1 setlinewidth
solid
0 0 0 edgecolor
newpath 1354.66 390.75 moveto
1353.54 380.21 lineto
1347.84 389.14 lineto
closepath stroke
grestore
% 0->paraxyye
gsave
1 setlinewidth
0 0 0 edgecolor
newpath 143 120.85 moveto
143 112.91 143 103.67 143 94.37 curveto
stroke
0 0 0 edgecolor
newpath 146.5 94.31 moveto
143 84.31 lineto
139.5 94.31 lineto
closepath fill
1 setlinewidth
solid
0 0 0 edgecolor
newpath 146.5 94.31 moveto
143 84.31 lineto
139.5 94.31 lineto
closepath stroke
grestore
% 1->paraxyy
gsave
1 setlinewidth
0 0 0 edgecolor
newpath 143 324.3 moveto
143 316.21 143 307.34 143 298.56 curveto
stroke
0 0 0 edgecolor
newpath 146.5 298.36 moveto
143 288.36 lineto
139.5 298.36 lineto
closepath fill
1 setlinewidth
solid
0 0 0 edgecolor
newpath 146.5 298.36 moveto
143 288.36 lineto
139.5 298.36 lineto
closepath stroke
grestore
% 2->paraxye
gsave
1 setlinewidth
0 0 0 edgecolor
newpath 447 120.85 moveto
447 112.91 447 103.67 447 94.37 curveto
stroke
0 0 0 edgecolor
newpath 450.5 94.31 moveto
447 84.31 lineto
443.5 94.31 lineto
closepath fill
1 setlinewidth
solid
0 0 0 edgecolor
newpath 450.5 94.31 moveto
447 84.31 lineto
443.5 94.31 lineto
closepath stroke
grestore
% 3->paraxy
gsave
1 setlinewidth
0 0 0 edgecolor
newpath 447 324.3 moveto
447 316.21 447 307.34 447 298.56 curveto
stroke
0 0 0 edgecolor
newpath 450.5 298.36 moveto
447 288.36 lineto
443.5 298.36 lineto
closepath fill
1 setlinewidth
solid
0 0 0 edgecolor
newpath 450.5 298.36 moveto
447 288.36 lineto
443.5 298.36 lineto
closepath stroke
grestore
% 4->paraxe
gsave
1 setlinewidth
0 0 0 edgecolor
newpath 751 120.85 moveto
751 112.91 751 103.67 751 94.37 curveto
stroke
0 0 0 edgecolor
newpath 754.5 94.31 moveto
751 84.31 lineto
747.5 94.31 lineto
closepath fill
1 setlinewidth
solid
0 0 0 edgecolor
newpath 754.5 94.31 moveto
751 84.31 lineto
747.5 94.31 lineto
closepath stroke
grestore
% 5->parax
gsave
1 setlinewidth
0 0 0 edgecolor
newpath 751 324.3 moveto
751 316.21 751 307.34 751 298.56 curveto
stroke
0 0 0 edgecolor
newpath 754.5 298.36 moveto
751 288.36 lineto
747.5 298.36 lineto
closepath fill
1 setlinewidth
solid
0 0 0 edgecolor
newpath 754.5 298.36 moveto
751 288.36 lineto
747.5 298.36 lineto
closepath stroke
grestore
% 6->paraye
gsave
1 setlinewidth
0 0 0 edgecolor
newpath 1055 120.85 moveto
1055 112.91 1055 103.67 1055 94.37 curveto
stroke
0 0 0 edgecolor
newpath 1058.5 94.31 moveto
1055 84.31 lineto
1051.5 94.31 lineto
closepath fill
1 setlinewidth
solid
0 0 0 edgecolor
newpath 1058.5 94.31 moveto
1055 84.31 lineto
1051.5 94.31 lineto
closepath stroke
grestore
% 7->paray
gsave
1 setlinewidth
0 0 0 edgecolor
newpath 1055 324.3 moveto
1055 316.21 1055 307.34 1055 298.56 curveto
stroke
0 0 0 edgecolor
newpath 1058.5 298.36 moveto
1055 288.36 lineto
1051.5 298.36 lineto
closepath fill
1 setlinewidth
solid
0 0 0 edgecolor
newpath 1058.5 298.36 moveto
1055 288.36 lineto
1051.5 298.36 lineto
closepath stroke
grestore
% 8->parae
gsave
1 setlinewidth
0 0 0 edgecolor
newpath 1359 119.83 moveto
1359 112.12 1359 103.28 1359 94.37 curveto
stroke
0 0 0 edgecolor
newpath 1362.5 94.36 moveto
1359 84.36 lineto
1355.5 94.36 lineto
closepath fill
1 setlinewidth
solid
0 0 0 edgecolor
newpath 1362.5 94.36 moveto
1359 84.36 lineto
1355.5 94.36 lineto
closepath stroke
grestore
% 9->para
gsave
1 setlinewidth
0 0 0 edgecolor
newpath 1359 333.73 moveto
1359 323.4 1359 310.79 1359 298.39 curveto
stroke
0 0 0 edgecolor
newpath 1362.5 298.07 moveto
1359 288.07 lineto
1355.5 298.07 lineto
closepath fill
1 setlinewidth
solid
0 0 0 edgecolor
newpath 1362.5 298.07 moveto
1359 288.07 lineto
1355.5 298.07 lineto
closepath stroke
grestore
% 10->paraxyy_start
gsave
1 setlinewidth
0 0 0 edgecolor
newpath 240.44 527.78 moveto
238.16 519.73 235.54 510.43 232.96 501.33 curveto
stroke
0 0 0 edgecolor
newpath 236.3 500.26 moveto
230.21 491.59 lineto
229.56 502.16 lineto
closepath fill
1 setlinewidth
solid
0 0 0 edgecolor
newpath 236.3 500.26 moveto
230.21 491.59 lineto
229.56 502.16 lineto
closepath stroke
grestore
% 11->paraxy_start
gsave
1 setlinewidth
0 0 0 edgecolor
newpath 489.89 527.78 moveto
485.6 519.56 480.63 510.04 475.78 500.75 curveto
stroke
0 0 0 edgecolor
newpath 478.73 498.84 moveto
471 491.59 lineto
472.53 502.07 lineto
closepath fill
1 setlinewidth
solid
0 0 0 edgecolor
newpath 478.73 498.84 moveto
471 491.59 lineto
472.53 502.07 lineto
closepath stroke
grestore
% 12->parax_start
gsave
1 setlinewidth
0 0 0 edgecolor
newpath 751 527.78 moveto
751 519.82 751 510.63 751 501.62 curveto
stroke
0 0 0 edgecolor
newpath 754.5 501.59 moveto
751 491.59 lineto
747.5 501.59 lineto
closepath fill
1 setlinewidth
solid
0 0 0 edgecolor
newpath 754.5 501.59 moveto
751 491.59 lineto
747.5 501.59 lineto
closepath stroke
grestore
% 13->paray_start
gsave
1 setlinewidth
0 0 0 edgecolor
newpath 1015.82 527.78 moveto
1018.54 519.73 1021.67 510.43 1024.74 501.33 curveto
stroke
0 0 0 edgecolor
newpath 1028.14 502.18 moveto
1028.02 491.59 lineto
1021.51 499.95 lineto
closepath fill
1 setlinewidth
solid
0 0 0 edgecolor
newpath 1028.14 502.18 moveto
1028.02 491.59 lineto
1021.51 499.95 lineto
closepath stroke
grestore
% 14->para_start
gsave
1 setlinewidth
0 0 0 edgecolor
newpath 1288.65 527.78 moveto
1294.3 519.39 1300.87 509.64 1307.26 500.17 curveto
stroke
0 0 0 edgecolor
newpath 1310.35 501.84 moveto
1313.04 491.59 lineto
1304.55 497.93 lineto
closepath fill
1 setlinewidth
solid
0 0 0 edgecolor
newpath 1310.35 501.84 moveto
1313.04 491.59 lineto
1304.55 497.93 lineto
closepath stroke
grestore
endpage
showpage
grestore
%%PageTrailer
%%EndPage: 1
%%Trailer
%%Pages: 1
%%BoundingBox: 36 36 1546 700
end
restore
%%EOF
