%!PS-Adobe-3.0
%%Creator: graphviz version 2.26.3 (20100126.1600)
%%Title: G
%%Pages: (atend)
%%BoundingBox: (atend)
%%EndComments
save
%%BeginProlog
/DotDict 200 dict def
DotDict begin

/setupLatin1 {
mark
/EncodingVector 256 array def
 EncodingVector 0

ISOLatin1Encoding 0 255 getinterval putinterval
EncodingVector 45 /hyphen put

% Set up ISO Latin 1 character encoding
/starnetISO {
        dup dup findfont dup length dict begin
        { 1 index /FID ne { def }{ pop pop } ifelse
        } forall
        /Encoding EncodingVector def
        currentdict end definefont
} def
/Times-Roman starnetISO def
/Times-Italic starnetISO def
/Times-Bold starnetISO def
/Times-BoldItalic starnetISO def
/Helvetica starnetISO def
/Helvetica-Oblique starnetISO def
/Helvetica-Bold starnetISO def
/Helvetica-BoldOblique starnetISO def
/Courier starnetISO def
/Courier-Oblique starnetISO def
/Courier-Bold starnetISO def
/Courier-BoldOblique starnetISO def
cleartomark
} bind def

%%BeginResource: procset graphviz 0 0
/coord-font-family /Times-Roman def
/default-font-family /Times-Roman def
/coordfont coord-font-family findfont 8 scalefont def

/InvScaleFactor 1.0 def
/set_scale {
       dup 1 exch div /InvScaleFactor exch def
       scale
} bind def

% styles
/solid { [] 0 setdash } bind def
/dashed { [9 InvScaleFactor mul dup ] 0 setdash } bind def
/dotted { [1 InvScaleFactor mul 6 InvScaleFactor mul] 0 setdash } bind def
/invis {/fill {newpath} def /stroke {newpath} def /show {pop newpath} def} bind def
/bold { 2 setlinewidth } bind def
/filled { } bind def
/unfilled { } bind def
/rounded { } bind def
/diagonals { } bind def

% hooks for setting color 
/nodecolor { sethsbcolor } bind def
/edgecolor { sethsbcolor } bind def
/graphcolor { sethsbcolor } bind def
/nopcolor {pop pop pop} bind def

/beginpage {	% i j npages
	/npages exch def
	/j exch def
	/i exch def
	/str 10 string def
	npages 1 gt {
		gsave
			coordfont setfont
			0 0 moveto
			(\() show i str cvs show (,) show j str cvs show (\)) show
		grestore
	} if
} bind def

/set_font {
	findfont exch
	scalefont setfont
} def

% draw text fitted to its expected width
/alignedtext {			% width text
	/text exch def
	/width exch def
	gsave
		width 0 gt {
			[] 0 setdash
			text stringwidth pop width exch sub text length div 0 text ashow
		} if
	grestore
} def

/boxprim {				% xcorner ycorner xsize ysize
		4 2 roll
		moveto
		2 copy
		exch 0 rlineto
		0 exch rlineto
		pop neg 0 rlineto
		closepath
} bind def

/ellipse_path {
	/ry exch def
	/rx exch def
	/y exch def
	/x exch def
	matrix currentmatrix
	newpath
	x y translate
	rx ry scale
	0 0 1 0 360 arc
	setmatrix
} bind def

/endpage { showpage } bind def
/showpage { } def

/layercolorseq
	[	% layer color sequence - darkest to lightest
		[0 0 0]
		[.2 .8 .8]
		[.4 .8 .8]
		[.6 .8 .8]
		[.8 .8 .8]
	]
def

/layerlen layercolorseq length def

/setlayer {/maxlayer exch def /curlayer exch def
	layercolorseq curlayer 1 sub layerlen mod get
	aload pop sethsbcolor
	/nodecolor {nopcolor} def
	/edgecolor {nopcolor} def
	/graphcolor {nopcolor} def
} bind def

/onlayer { curlayer ne {invis} if } def

/onlayers {
	/myupper exch def
	/mylower exch def
	curlayer mylower lt
	curlayer myupper gt
	or
	{invis} if
} def

/curlayer 0 def

%%EndResource
%%EndProlog
%%BeginSetup
14 default-font-family set_font
1 setmiterlimit
% /arrowlength 10 def
% /arrowwidth 5 def

% make sure pdfmark is harmless for PS-interpreters other than Distiller
/pdfmark where {pop} {userdict /pdfmark /cleartomark load put} ifelse
% make '<<' and '>>' safe on PS Level 1 devices
/languagelevel where {pop languagelevel}{1} ifelse
2 lt {
    userdict (<<) cvn ([) cvn load put
    userdict (>>) cvn ([) cvn load put
} if

%%EndSetup
setupLatin1
%%Page: 1 1
%%PageBoundingBox: 36 36 1498 666
%%PageOrientation: Portrait
0 0 1 beginpage
gsave
36 36 1462 630 boxprim clip newpath
1 1 set_scale 0 rotate 40 41 translate
% 1073741823
gsave
1 setlinewidth
0 0 0 nodecolor
643 599 43.84 19.09 ellipse_path stroke
0 0 0 nodecolor
18 /Times-Roman set_font
620 592.3 moveto 46 (Result) alignedtext
grestore
% l0e
gsave
1 setlinewidth
0 0 0 nodecolor
newpath 1394 65.5 moveto
1164 65.5 lineto
1164 .5 lineto
1394 .5 lineto
closepath stroke
0 0 0 nodecolor
18 /Times-Roman set_font
1268 45.3 moveto 22 (l0e) alignedtext
0 0 0 nodecolor
18 /Times-Roman set_font
1172 26.3 moveto 214 ([|x in [1 , INF]; y in [0 , INF]|]) alignedtext
0 0 0 nodecolor
18 /Times-Roman set_font
1184 7.3 moveto 190 (4 constraints, 5 generators) alignedtext
grestore
% l0_start
gsave
1 setlinewidth
0 0 0 nodecolor
newpath 1382 435.5 moveto
1176 435.5 lineto
1176 370.5 lineto
1382 370.5 lineto
closepath stroke
0 0 0 nodecolor
18 /Times-Roman set_font
1251.5 415.3 moveto 55 (l0_start) alignedtext
0 0 0 nodecolor
18 /Times-Roman set_font
1191 396.3 moveto 176 ([|x in [1 , 3]; y in [0 , 2]|]) alignedtext
0 0 0 nodecolor
18 /Times-Roman set_font
1184 377.3 moveto 190 (4 constraints, 4 generators) alignedtext
grestore
% 7
gsave
0 0 0 nodecolor
18 /Times-Roman set_font
1205.5 313.8 moveto 147 (x := 1.5x; y := y+1\)*) alignedtext
0 0 0 nodecolor
18 /Times-Roman set_font
1272.5 294.8 moveto 13 (\(\)) alignedtext
grestore
% l0_start->7
gsave
1 setlinewidth
0 0 0 edgecolor
newpath 1279 370.31 moveto
1279 361.79 1279 352.6 1279 344.06 curveto
stroke
0 0 0 edgecolor
newpath 1282.5 344.06 moveto
1279 334.06 lineto
1275.5 344.06 lineto
closepath fill
1 setlinewidth
solid
0 0 0 edgecolor
newpath 1282.5 344.06 moveto
1279 334.06 lineto
1275.5 344.06 lineto
closepath stroke
grestore
% l2e
gsave
1 setlinewidth
0 0 0 nodecolor
newpath 677 65.5 moveto
409 65.5 lineto
409 .5 lineto
677 .5 lineto
closepath stroke
0 0 0 nodecolor
18 /Times-Roman set_font
532 45.3 moveto 22 (l2e) alignedtext
0 0 0 nodecolor
18 /Times-Roman set_font
417 26.3 moveto 252 ([|x in [61 , 150]; y in [0.6467 , 13]|]) alignedtext
0 0 0 nodecolor
18 /Times-Roman set_font
448 7.3 moveto 190 (4 constraints, 4 generators) alignedtext
grestore
% linit
gsave
1 setlinewidth
0 0 0 nodecolor
newpath 749 622 moveto
705 622 lineto
705 576 lineto
749 576 lineto
closepath stroke
0 0 0 nodecolor
18 /Times-Roman set_font
713 601.8 moveto 28 (linit) alignedtext
0 0 0 nodecolor
18 /Times-Roman set_font
715 582.8 moveto 24 (top) alignedtext
grestore
% 8
gsave
0 0 0 nodecolor
18 /Times-Roman set_font
8 519.3 moveto 334 (-y+2>=0 and y>=0 and -x+3>=0 and x-1>=0 ?) alignedtext
0 0 0 nodecolor
18 /Times-Roman set_font
168.5 479.3 moveto 13 (\(\)) alignedtext
grestore
% linit->8
gsave
1 setlinewidth
0 0 0 edgecolor
newpath 704.79 580.44 moveto
701.96 578.71 699 577.17 696 576 curveto
558.71 522.37 510.15 560 360.27 540.1 curveto
stroke
0 0 0 edgecolor
newpath 360.64 536.61 moveto
350.25 538.7 lineto
359.68 543.55 lineto
closepath fill
1 setlinewidth
solid
0 0 0 edgecolor
newpath 360.64 536.61 moveto
350.25 538.7 lineto
359.68 543.55 lineto
closepath stroke
grestore
% 9
gsave
0 0 0 nodecolor
18 /Times-Roman set_font
376 519.3 moveto 334 (-y+2>=0 and y>=0 and -x+3>=0 and x-1>=0 ?) alignedtext
0 0 0 nodecolor
18 /Times-Roman set_font
536.5 479.3 moveto 13 (\(\)) alignedtext
grestore
% linit->9
gsave
1 setlinewidth
0 0 0 edgecolor
newpath 704.69 581.6 moveto
701.83 579.62 698.88 577.7 696 576 curveto
676.5 564.48 654.78 553.52 633.97 543.83 curveto
stroke
0 0 0 edgecolor
newpath 635.35 540.61 moveto
624.81 539.62 lineto
632.43 546.97 lineto
closepath fill
1 setlinewidth
solid
0 0 0 edgecolor
newpath 635.35 540.61 moveto
624.81 539.62 lineto
632.43 546.97 lineto
closepath stroke
grestore
% 10
gsave
0 0 0 nodecolor
18 /Times-Roman set_font
744 519.3 moveto 334 (-y+2>=0 and y>=0 and -x+3>=0 and x-1>=0 ?) alignedtext
0 0 0 nodecolor
18 /Times-Roman set_font
904.5 479.3 moveto 13 (\(\)) alignedtext
grestore
% linit->10
gsave
1 setlinewidth
0 0 0 edgecolor
newpath 749.19 587.78 moveto
770.6 576.97 804.22 559.97 835.29 544.27 curveto
stroke
0 0 0 edgecolor
newpath 837.05 547.3 moveto
844.4 539.66 lineto
833.9 541.05 lineto
closepath fill
1 setlinewidth
solid
0 0 0 edgecolor
newpath 837.05 547.3 moveto
844.4 539.66 lineto
833.9 541.05 lineto
closepath stroke
grestore
% 11
gsave
0 0 0 nodecolor
18 /Times-Roman set_font
1112 519.3 moveto 334 (-y+2>=0 and y>=0 and -x+3>=0 and x-1>=0 ?) alignedtext
0 0 0 nodecolor
18 /Times-Roman set_font
1272.5 479.3 moveto 13 (\(\)) alignedtext
grestore
% linit->11
gsave
1 setlinewidth
0 0 0 edgecolor
newpath 749.01 595.66 moveto
804.78 587.15 956.32 563.79 1093.45 540.26 curveto
stroke
0 0 0 edgecolor
newpath 1094.45 543.63 moveto
1103.71 538.49 lineto
1093.26 536.74 lineto
closepath fill
1 setlinewidth
solid
0 0 0 edgecolor
newpath 1094.45 543.63 moveto
1103.71 538.49 lineto
1093.26 536.74 lineto
closepath stroke
grestore
% l3_start
gsave
1 setlinewidth
0 0 0 nodecolor
newpath 278 435.5 moveto
72 435.5 lineto
72 370.5 lineto
278 370.5 lineto
closepath stroke
0 0 0 nodecolor
18 /Times-Roman set_font
147.5 415.3 moveto 55 (l3_start) alignedtext
0 0 0 nodecolor
18 /Times-Roman set_font
87 396.3 moveto 176 ([|x in [1 , 3]; y in [0 , 2]|]) alignedtext
0 0 0 nodecolor
18 /Times-Roman set_font
80 377.3 moveto 190 (4 constraints, 4 generators) alignedtext
grestore
% 1
gsave
0 0 0 nodecolor
18 /Times-Roman set_font
50 313.8 moveto 250 (\(-x+100>=0 ? x := 1.5x; y := y+1\)*) alignedtext
0 0 0 nodecolor
18 /Times-Roman set_font
168.5 294.8 moveto 13 (\(\)) alignedtext
grestore
% l3_start->1
gsave
1 setlinewidth
0 0 0 edgecolor
newpath 175 370.31 moveto
175 361.79 175 352.6 175 344.06 curveto
stroke
0 0 0 edgecolor
newpath 178.5 344.06 moveto
175 334.06 lineto
171.5 344.06 lineto
closepath fill
1 setlinewidth
solid
0 0 0 edgecolor
newpath 178.5 344.06 moveto
175 334.06 lineto
171.5 344.06 lineto
closepath stroke
grestore
% l1e
gsave
1 setlinewidth
0 0 0 nodecolor
newpath 1038 65.5 moveto
784 65.5 lineto
784 .5 lineto
1038 .5 lineto
closepath stroke
0 0 0 nodecolor
18 /Times-Roman set_font
900 45.3 moveto 22 (l1e) alignedtext
0 0 0 nodecolor
18 /Times-Roman set_font
792 26.3 moveto 238 ([|x in [1.286 , 15.19]; y in [3 , 4]|]) alignedtext
0 0 0 nodecolor
18 /Times-Roman set_font
816 7.3 moveto 190 (6 constraints, 6 generators) alignedtext
grestore
% l0
gsave
1 setlinewidth
0 0 0 nodecolor
newpath 1394 251.5 moveto
1164 251.5 lineto
1164 186.5 lineto
1394 186.5 lineto
closepath stroke
0 0 0 nodecolor
18 /Times-Roman set_font
1272 231.3 moveto 14 (l0) alignedtext
0 0 0 nodecolor
18 /Times-Roman set_font
1172 212.3 moveto 214 ([|x in [1 , INF]; y in [0 , INF]|]) alignedtext
0 0 0 nodecolor
18 /Times-Roman set_font
1184 193.3 moveto 190 (4 constraints, 5 generators) alignedtext
grestore
% 6
gsave
0 0 0 nodecolor
18 /Times-Roman set_font
1272.5 108.8 moveto 13 (\(\)) alignedtext
grestore
% l0->6
gsave
1 setlinewidth
0 0 0 edgecolor
newpath 1279 186.47 moveto
1279 177.98 1279 168.81 1279 160.23 curveto
stroke
0 0 0 edgecolor
newpath 1282.5 160.15 moveto
1279 150.15 lineto
1275.5 160.15 lineto
closepath fill
1 setlinewidth
solid
0 0 0 edgecolor
newpath 1282.5 160.15 moveto
1279 150.15 lineto
1275.5 160.15 lineto
closepath stroke
grestore
% l2_start
gsave
1 setlinewidth
0 0 0 nodecolor
newpath 646 435.5 moveto
440 435.5 lineto
440 370.5 lineto
646 370.5 lineto
closepath stroke
0 0 0 nodecolor
18 /Times-Roman set_font
515.5 415.3 moveto 55 (l2_start) alignedtext
0 0 0 nodecolor
18 /Times-Roman set_font
455 396.3 moveto 176 ([|x in [1 , 3]; y in [0 , 2]|]) alignedtext
0 0 0 nodecolor
18 /Times-Roman set_font
448 377.3 moveto 190 (4 constraints, 4 generators) alignedtext
grestore
% 3
gsave
0 0 0 nodecolor
18 /Times-Roman set_font
406 313.8 moveto 274 (\(-x-3y+100>=0 ? x := 1.5x; y := y+1\)*) alignedtext
0 0 0 nodecolor
18 /Times-Roman set_font
536.5 294.8 moveto 13 (\(\)) alignedtext
grestore
% l2_start->3
gsave
1 setlinewidth
0 0 0 edgecolor
newpath 543 370.31 moveto
543 361.79 543 352.6 543 344.06 curveto
stroke
0 0 0 edgecolor
newpath 546.5 344.06 moveto
543 334.06 lineto
539.5 344.06 lineto
closepath fill
1 setlinewidth
solid
0 0 0 edgecolor
newpath 546.5 344.06 moveto
543 334.06 lineto
539.5 344.06 lineto
closepath stroke
grestore
% l1
gsave
1 setlinewidth
0 0 0 nodecolor
newpath 1022 251.5 moveto
800 251.5 lineto
800 186.5 lineto
1022 186.5 lineto
closepath stroke
0 0 0 nodecolor
18 /Times-Roman set_font
904 231.3 moveto 14 (l1) alignedtext
0 0 0 nodecolor
18 /Times-Roman set_font
807.5 212.3 moveto 207 ([|x in [1 , 15.19]; y in [0 , 4]|]) alignedtext
0 0 0 nodecolor
18 /Times-Roman set_font
816 193.3 moveto 190 (7 constraints, 7 generators) alignedtext
grestore
% 4
gsave
0 0 0 nodecolor
18 /Times-Roman set_font
876 128.8 moveto 70 (y-3>=0 ? ) alignedtext
0 0 0 nodecolor
18 /Times-Roman set_font
904.5 109.8 moveto 13 (\(\)) alignedtext
grestore
% l1->4
gsave
1 setlinewidth
0 0 0 edgecolor
newpath 911 186.47 moveto
911 177.76 911 168.32 911 159.56 curveto
stroke
0 0 0 edgecolor
newpath 914.5 159.28 moveto
911 149.28 lineto
907.5 159.28 lineto
closepath fill
1 setlinewidth
solid
0 0 0 edgecolor
newpath 914.5 159.28 moveto
911 149.28 lineto
907.5 159.28 lineto
closepath stroke
grestore
% l2
gsave
1 setlinewidth
0 0 0 nodecolor
newpath 652 251.5 moveto
434 251.5 lineto
434 186.5 lineto
652 186.5 lineto
closepath stroke
0 0 0 nodecolor
18 /Times-Roman set_font
536 231.3 moveto 14 (l2) alignedtext
0 0 0 nodecolor
18 /Times-Roman set_font
441.5 212.3 moveto 203 ([|x in [1 , 150]; y in [0 , 13]|]) alignedtext
0 0 0 nodecolor
18 /Times-Roman set_font
448 193.3 moveto 190 (7 constraints, 7 generators) alignedtext
grestore
% 2
gsave
0 0 0 nodecolor
18 /Times-Roman set_font
485.5 128.8 moveto 115 (x+3y-100>=0 ? ) alignedtext
0 0 0 nodecolor
18 /Times-Roman set_font
536.5 109.8 moveto 13 (\(\)) alignedtext
grestore
% l2->2
gsave
1 setlinewidth
0 0 0 edgecolor
newpath 543 186.47 moveto
543 177.76 543 168.32 543 159.56 curveto
stroke
0 0 0 edgecolor
newpath 546.5 159.28 moveto
543 149.28 lineto
539.5 159.28 lineto
closepath fill
1 setlinewidth
solid
0 0 0 edgecolor
newpath 546.5 159.28 moveto
543 149.28 lineto
539.5 159.28 lineto
closepath stroke
grestore
% l3
gsave
1 setlinewidth
0 0 0 nodecolor
newpath 284 251.5 moveto
66 251.5 lineto
66 186.5 lineto
284 186.5 lineto
closepath stroke
0 0 0 nodecolor
18 /Times-Roman set_font
168 231.3 moveto 14 (l3) alignedtext
0 0 0 nodecolor
18 /Times-Roman set_font
73.5 212.3 moveto 203 ([|x in [1 , 150]; y in [0 , 14]|]) alignedtext
0 0 0 nodecolor
18 /Times-Roman set_font
80 193.3 moveto 190 (7 constraints, 7 generators) alignedtext
grestore
% 0
gsave
0 0 0 nodecolor
18 /Times-Roman set_font
131 128.8 moveto 88 (x-100>=0 ? ) alignedtext
0 0 0 nodecolor
18 /Times-Roman set_font
168.5 109.8 moveto 13 (\(\)) alignedtext
grestore
% l3->0
gsave
1 setlinewidth
0 0 0 edgecolor
newpath 175 186.47 moveto
175 177.76 175 168.32 175 159.56 curveto
stroke
0 0 0 edgecolor
newpath 178.5 159.28 moveto
175 149.28 lineto
171.5 159.28 lineto
closepath fill
1 setlinewidth
solid
0 0 0 edgecolor
newpath 178.5 159.28 moveto
175 149.28 lineto
171.5 159.28 lineto
closepath stroke
grestore
% l3e
gsave
1 setlinewidth
0 0 0 nodecolor
newpath 313 65.5 moveto
37 65.5 lineto
37 .5 lineto
313 .5 lineto
closepath stroke
0 0 0 nodecolor
18 /Times-Roman set_font
164 45.3 moveto 22 (l3e) alignedtext
0 0 0 nodecolor
18 /Times-Roman set_font
44.5 26.3 moveto 261 ([|x in [100 , 150]; y in [0.6599 , 14]|]) alignedtext
0 0 0 nodecolor
18 /Times-Roman set_font
80 7.3 moveto 190 (4 constraints, 4 generators) alignedtext
grestore
% l1_start
gsave
1 setlinewidth
0 0 0 nodecolor
newpath 1014 435.5 moveto
808 435.5 lineto
808 370.5 lineto
1014 370.5 lineto
closepath stroke
0 0 0 nodecolor
18 /Times-Roman set_font
883.5 415.3 moveto 55 (l1_start) alignedtext
0 0 0 nodecolor
18 /Times-Roman set_font
823 396.3 moveto 176 ([|x in [1 , 3]; y in [0 , 2]|]) alignedtext
0 0 0 nodecolor
18 /Times-Roman set_font
816 377.3 moveto 190 (4 constraints, 4 generators) alignedtext
grestore
% 5
gsave
0 0 0 nodecolor
18 /Times-Roman set_font
795 313.8 moveto 232 (\(-y+3>=0 ? x := 1.5x; y := y+1\)*) alignedtext
0 0 0 nodecolor
18 /Times-Roman set_font
904.5 294.8 moveto 13 (\(\)) alignedtext
grestore
% l1_start->5
gsave
1 setlinewidth
0 0 0 edgecolor
newpath 911 370.31 moveto
911 361.79 911 352.6 911 344.06 curveto
stroke
0 0 0 edgecolor
newpath 914.5 344.06 moveto
911 334.06 lineto
907.5 344.06 lineto
closepath fill
1 setlinewidth
solid
0 0 0 edgecolor
newpath 914.5 344.06 moveto
911 334.06 lineto
907.5 344.06 lineto
closepath stroke
grestore
% 0->l3e
gsave
1 setlinewidth
0 0 0 edgecolor
newpath 175 102.53 moveto
175 94.4 175 85.01 175 75.82 curveto
stroke
0 0 0 edgecolor
newpath 178.5 75.59 moveto
175 65.59 lineto
171.5 75.59 lineto
closepath fill
1 setlinewidth
solid
0 0 0 edgecolor
newpath 178.5 75.59 moveto
175 65.59 lineto
171.5 75.59 lineto
closepath stroke
grestore
% 1->l3
gsave
1 setlinewidth
0 0 0 edgecolor
newpath 175 287.78 moveto
175 279.82 175 270.63 175 261.62 curveto
stroke
0 0 0 edgecolor
newpath 178.5 261.59 moveto
175 251.59 lineto
171.5 261.59 lineto
closepath fill
1 setlinewidth
solid
0 0 0 edgecolor
newpath 178.5 261.59 moveto
175 251.59 lineto
171.5 261.59 lineto
closepath stroke
grestore
% 2->l2e
gsave
1 setlinewidth
0 0 0 edgecolor
newpath 543 102.53 moveto
543 94.4 543 85.01 543 75.82 curveto
stroke
0 0 0 edgecolor
newpath 546.5 75.59 moveto
543 65.59 lineto
539.5 75.59 lineto
closepath fill
1 setlinewidth
solid
0 0 0 edgecolor
newpath 546.5 75.59 moveto
543 65.59 lineto
539.5 75.59 lineto
closepath stroke
grestore
% 3->l2
gsave
1 setlinewidth
0 0 0 edgecolor
newpath 543 287.78 moveto
543 279.82 543 270.63 543 261.62 curveto
stroke
0 0 0 edgecolor
newpath 546.5 261.59 moveto
543 251.59 lineto
539.5 261.59 lineto
closepath fill
1 setlinewidth
solid
0 0 0 edgecolor
newpath 546.5 261.59 moveto
543 251.59 lineto
539.5 261.59 lineto
closepath stroke
grestore
% 4->l1e
gsave
1 setlinewidth
0 0 0 edgecolor
newpath 911 102.53 moveto
911 94.4 911 85.01 911 75.82 curveto
stroke
0 0 0 edgecolor
newpath 914.5 75.59 moveto
911 65.59 lineto
907.5 75.59 lineto
closepath fill
1 setlinewidth
solid
0 0 0 edgecolor
newpath 914.5 75.59 moveto
911 65.59 lineto
907.5 75.59 lineto
closepath stroke
grestore
% 5->l1
gsave
1 setlinewidth
0 0 0 edgecolor
newpath 911 287.78 moveto
911 279.82 911 270.63 911 261.62 curveto
stroke
0 0 0 edgecolor
newpath 914.5 261.59 moveto
911 251.59 lineto
907.5 261.59 lineto
closepath fill
1 setlinewidth
solid
0 0 0 edgecolor
newpath 914.5 261.59 moveto
911 251.59 lineto
907.5 261.59 lineto
closepath stroke
grestore
% 6->l0e
gsave
1 setlinewidth
0 0 0 edgecolor
newpath 1279 101.57 moveto
1279 93.67 1279 84.68 1279 75.86 curveto
stroke
0 0 0 edgecolor
newpath 1282.5 75.67 moveto
1279 65.67 lineto
1275.5 75.67 lineto
closepath fill
1 setlinewidth
solid
0 0 0 edgecolor
newpath 1282.5 75.67 moveto
1279 65.67 lineto
1275.5 75.67 lineto
closepath stroke
grestore
% 7->l0
gsave
1 setlinewidth
0 0 0 edgecolor
newpath 1279 287.78 moveto
1279 279.82 1279 270.63 1279 261.62 curveto
stroke
0 0 0 edgecolor
newpath 1282.5 261.59 moveto
1279 251.59 lineto
1275.5 261.59 lineto
closepath fill
1 setlinewidth
solid
0 0 0 edgecolor
newpath 1282.5 261.59 moveto
1279 251.59 lineto
1275.5 261.59 lineto
closepath stroke
grestore
% 8->l3_start
gsave
1 setlinewidth
0 0 0 edgecolor
newpath 175 472.27 moveto
175 463.84 175 454.68 175 445.87 curveto
stroke
0 0 0 edgecolor
newpath 178.5 445.75 moveto
175 435.75 lineto
171.5 445.75 lineto
closepath fill
1 setlinewidth
solid
0 0 0 edgecolor
newpath 178.5 445.75 moveto
175 435.75 lineto
171.5 445.75 lineto
closepath stroke
grestore
% 9->l2_start
gsave
1 setlinewidth
0 0 0 edgecolor
newpath 543 472.27 moveto
543 463.84 543 454.68 543 445.87 curveto
stroke
0 0 0 edgecolor
newpath 546.5 445.75 moveto
543 435.75 lineto
539.5 445.75 lineto
closepath fill
1 setlinewidth
solid
0 0 0 edgecolor
newpath 546.5 445.75 moveto
543 435.75 lineto
539.5 445.75 lineto
closepath stroke
grestore
% 10->l1_start
gsave
1 setlinewidth
0 0 0 edgecolor
newpath 911 472.27 moveto
911 463.84 911 454.68 911 445.87 curveto
stroke
0 0 0 edgecolor
newpath 914.5 445.75 moveto
911 435.75 lineto
907.5 445.75 lineto
closepath fill
1 setlinewidth
solid
0 0 0 edgecolor
newpath 914.5 445.75 moveto
911 435.75 lineto
907.5 445.75 lineto
closepath stroke
grestore
% 11->l0_start
gsave
1 setlinewidth
0 0 0 edgecolor
newpath 1279 472.27 moveto
1279 463.84 1279 454.68 1279 445.87 curveto
stroke
0 0 0 edgecolor
newpath 1282.5 445.75 moveto
1279 435.75 lineto
1275.5 445.75 lineto
closepath fill
1 setlinewidth
solid
0 0 0 edgecolor
newpath 1282.5 445.75 moveto
1279 435.75 lineto
1275.5 445.75 lineto
closepath stroke
grestore
endpage
showpage
grestore
%%PageTrailer
%%EndPage: 1
%%Trailer
%%Pages: 1
%%BoundingBox: 36 36 1498 666
end
restore
%%EOF
