%!PS-Adobe-3.0
%%Creator: graphviz version 2.26.3 (20100126.1600)
%%Title: G
%%Pages: (atend)
%%BoundingBox: (atend)
%%EndComments
save
%%BeginProlog
/DotDict 200 dict def
DotDict begin

/setupLatin1 {
mark
/EncodingVector 256 array def
 EncodingVector 0

ISOLatin1Encoding 0 255 getinterval putinterval
EncodingVector 45 /hyphen put

% Set up ISO Latin 1 character encoding
/starnetISO {
        dup dup findfont dup length dict begin
        { 1 index /FID ne { def }{ pop pop } ifelse
        } forall
        /Encoding EncodingVector def
        currentdict end definefont
} def
/Times-Roman starnetISO def
/Times-Italic starnetISO def
/Times-Bold starnetISO def
/Times-BoldItalic starnetISO def
/Helvetica starnetISO def
/Helvetica-Oblique starnetISO def
/Helvetica-Bold starnetISO def
/Helvetica-BoldOblique starnetISO def
/Courier starnetISO def
/Courier-Oblique starnetISO def
/Courier-Bold starnetISO def
/Courier-BoldOblique starnetISO def
cleartomark
} bind def

%%BeginResource: procset graphviz 0 0
/coord-font-family /Times-Roman def
/default-font-family /Times-Roman def
/coordfont coord-font-family findfont 8 scalefont def

/InvScaleFactor 1.0 def
/set_scale {
       dup 1 exch div /InvScaleFactor exch def
       scale
} bind def

% styles
/solid { [] 0 setdash } bind def
/dashed { [9 InvScaleFactor mul dup ] 0 setdash } bind def
/dotted { [1 InvScaleFactor mul 6 InvScaleFactor mul] 0 setdash } bind def
/invis {/fill {newpath} def /stroke {newpath} def /show {pop newpath} def} bind def
/bold { 2 setlinewidth } bind def
/filled { } bind def
/unfilled { } bind def
/rounded { } bind def
/diagonals { } bind def

% hooks for setting color 
/nodecolor { sethsbcolor } bind def
/edgecolor { sethsbcolor } bind def
/graphcolor { sethsbcolor } bind def
/nopcolor {pop pop pop} bind def

/beginpage {	% i j npages
	/npages exch def
	/j exch def
	/i exch def
	/str 10 string def
	npages 1 gt {
		gsave
			coordfont setfont
			0 0 moveto
			(\() show i str cvs show (,) show j str cvs show (\)) show
		grestore
	} if
} bind def

/set_font {
	findfont exch
	scalefont setfont
} def

% draw text fitted to its expected width
/alignedtext {			% width text
	/text exch def
	/width exch def
	gsave
		width 0 gt {
			[] 0 setdash
			text stringwidth pop width exch sub text length div 0 text ashow
		} if
	grestore
} def

/boxprim {				% xcorner ycorner xsize ysize
		4 2 roll
		moveto
		2 copy
		exch 0 rlineto
		0 exch rlineto
		pop neg 0 rlineto
		closepath
} bind def

/ellipse_path {
	/ry exch def
	/rx exch def
	/y exch def
	/x exch def
	matrix currentmatrix
	newpath
	x y translate
	rx ry scale
	0 0 1 0 360 arc
	setmatrix
} bind def

/endpage { showpage } bind def
/showpage { } def

/layercolorseq
	[	% layer color sequence - darkest to lightest
		[0 0 0]
		[.2 .8 .8]
		[.4 .8 .8]
		[.6 .8 .8]
		[.8 .8 .8]
	]
def

/layerlen layercolorseq length def

/setlayer {/maxlayer exch def /curlayer exch def
	layercolorseq curlayer 1 sub layerlen mod get
	aload pop sethsbcolor
	/nodecolor {nopcolor} def
	/edgecolor {nopcolor} def
	/graphcolor {nopcolor} def
} bind def

/onlayer { curlayer ne {invis} if } def

/onlayers {
	/myupper exch def
	/mylower exch def
	curlayer mylower lt
	curlayer myupper gt
	or
	{invis} if
} def

/curlayer 0 def

%%EndResource
%%EndProlog
%%BeginSetup
14 default-font-family set_font
1 setmiterlimit
% /arrowlength 10 def
% /arrowwidth 5 def

% make sure pdfmark is harmless for PS-interpreters other than Distiller
/pdfmark where {pop} {userdict /pdfmark /cleartomark load put} ifelse
% make '<<' and '>>' safe on PS Level 1 devices
/languagelevel where {pop languagelevel}{1} ifelse
2 lt {
    userdict (<<) cvn ([) cvn load put
    userdict (>>) cvn ([) cvn load put
} if

%%EndSetup
setupLatin1
%%Page: 1 1
%%PageBoundingBox: 36 36 1498 666
%%PageOrientation: Portrait
0 0 1 beginpage
gsave
36 36 1462 630 boxprim clip newpath
1 1 set_scale 0 rotate 40 41 translate
% 1073741823
gsave
1 setlinewidth
0 0 0 nodecolor
643 599 43.84 19.09 ellipse_path stroke
0 0 0 nodecolor
18 /Times-Roman set_font
620 592.3 moveto 46 (Result) alignedtext
grestore
% l0e
gsave
1 setlinewidth
0 0 0 nodecolor
newpath 1394 65.5 moveto
1164 65.5 lineto
1164 .5 lineto
1394 .5 lineto
closepath stroke
0 0 0 nodecolor
18 /Times-Roman set_font
1268 45.3 moveto 22 (l0e) alignedtext
0 0 0 nodecolor
18 /Times-Roman set_font
1172 26.3 moveto 214 ([|x in [1 , INF]; y in [0 , INF]|]) alignedtext
0 0 0 nodecolor
18 /Times-Roman set_font
1184 7.3 moveto 190 (5 constraints, 6 generators) alignedtext
grestore
% l0_start
gsave
1 setlinewidth
0 0 0 nodecolor
newpath 1382 435.5 moveto
1176 435.5 lineto
1176 370.5 lineto
1382 370.5 lineto
closepath stroke
0 0 0 nodecolor
18 /Times-Roman set_font
1251.5 415.3 moveto 55 (l0_start) alignedtext
0 0 0 nodecolor
18 /Times-Roman set_font
1191 396.3 moveto 176 ([|x in [1 , 3]; y in [0 , 2]|]) alignedtext
0 0 0 nodecolor
18 /Times-Roman set_font
1184 377.3 moveto 190 (4 constraints, 4 generators) alignedtext
grestore
% 7
gsave
0 0 0 nodecolor
18 /Times-Roman set_font
1205.5 313.8 moveto 147 (x := 1.5x; y := y+1\)*) alignedtext
0 0 0 nodecolor
18 /Times-Roman set_font
1272.5 294.8 moveto 13 (\(\)) alignedtext
grestore
% l0_start->7
gsave
1 setlinewidth
0 0 0 edgecolor
newpath 1279 370.31 moveto
1279 361.79 1279 352.6 1279 344.06 curveto
stroke
0 0 0 edgecolor
newpath 1282.5 344.06 moveto
1279 334.06 lineto
1275.5 344.06 lineto
closepath fill
1 setlinewidth
solid
0 0 0 edgecolor
newpath 1282.5 344.06 moveto
1279 334.06 lineto
1275.5 344.06 lineto
closepath stroke
grestore
% l2e
gsave
1 setlinewidth
0 0 0 nodecolor
newpath 683 65.5 moveto
403 65.5 lineto
403 .5 lineto
683 .5 lineto
closepath stroke
0 0 0 nodecolor
18 /Times-Roman set_font
532 45.3 moveto 22 (l2e) alignedtext
0 0 0 nodecolor
18 /Times-Roman set_font
410.5 26.3 moveto 265 ([|x in [61 , 143.6]; y in [0.7792 , 13]|]) alignedtext
0 0 0 nodecolor
18 /Times-Roman set_font
448 7.3 moveto 190 (5 constraints, 5 generators) alignedtext
grestore
% linit
gsave
1 setlinewidth
0 0 0 nodecolor
newpath 749 622 moveto
705 622 lineto
705 576 lineto
749 576 lineto
closepath stroke
0 0 0 nodecolor
18 /Times-Roman set_font
713 601.8 moveto 28 (linit) alignedtext
0 0 0 nodecolor
18 /Times-Roman set_font
715 582.8 moveto 24 (top) alignedtext
grestore
% 8
gsave
0 0 0 nodecolor
18 /Times-Roman set_font
8 519.3 moveto 334 (-y+2>=0 and y>=0 and -x+3>=0 and x-1>=0 ?) alignedtext
0 0 0 nodecolor
18 /Times-Roman set_font
168.5 479.3 moveto 13 (\(\)) alignedtext
grestore
% linit->8
gsave
1 setlinewidth
0 0 0 edgecolor
newpath 704.79 580.44 moveto
701.96 578.71 699 577.17 696 576 curveto
558.71 522.37 510.15 560 360.27 540.1 curveto
stroke
0 0 0 edgecolor
newpath 360.64 536.61 moveto
350.25 538.7 lineto
359.68 543.55 lineto
closepath fill
1 setlinewidth
solid
0 0 0 edgecolor
newpath 360.64 536.61 moveto
350.25 538.7 lineto
359.68 543.55 lineto
closepath stroke
grestore
% 9
gsave
0 0 0 nodecolor
18 /Times-Roman set_font
376 519.3 moveto 334 (-y+2>=0 and y>=0 and -x+3>=0 and x-1>=0 ?) alignedtext
0 0 0 nodecolor
18 /Times-Roman set_font
536.5 479.3 moveto 13 (\(\)) alignedtext
grestore
% linit->9
gsave
1 setlinewidth
0 0 0 edgecolor
newpath 704.69 581.6 moveto
701.83 579.62 698.88 577.7 696 576 curveto
676.5 564.48 654.78 553.52 633.97 543.83 curveto
stroke
0 0 0 edgecolor
newpath 635.35 540.61 moveto
624.81 539.62 lineto
632.43 546.97 lineto
closepath fill
1 setlinewidth
solid
0 0 0 edgecolor
newpath 635.35 540.61 moveto
624.81 539.62 lineto
632.43 546.97 lineto
closepath stroke
grestore
% 10
gsave
0 0 0 nodecolor
18 /Times-Roman set_font
744 519.3 moveto 334 (-y+2>=0 and y>=0 and -x+3>=0 and x-1>=0 ?) alignedtext
0 0 0 nodecolor
18 /Times-Roman set_font
904.5 479.3 moveto 13 (\(\)) alignedtext
grestore
% linit->10
gsave
1 setlinewidth
0 0 0 edgecolor
newpath 749.19 587.78 moveto
770.6 576.97 804.22 559.97 835.29 544.27 curveto
stroke
0 0 0 edgecolor
newpath 837.05 547.3 moveto
844.4 539.66 lineto
833.9 541.05 lineto
closepath fill
1 setlinewidth
solid
0 0 0 edgecolor
newpath 837.05 547.3 moveto
844.4 539.66 lineto
833.9 541.05 lineto
closepath stroke
grestore
% 11
gsave
0 0 0 nodecolor
18 /Times-Roman set_font
1112 519.3 moveto 334 (-y+2>=0 and y>=0 and -x+3>=0 and x-1>=0 ?) alignedtext
0 0 0 nodecolor
18 /Times-Roman set_font
1272.5 479.3 moveto 13 (\(\)) alignedtext
grestore
% linit->11
gsave
1 setlinewidth
0 0 0 edgecolor
newpath 749.01 595.66 moveto
804.78 587.15 956.32 563.79 1093.45 540.26 curveto
stroke
0 0 0 edgecolor
newpath 1094.45 543.63 moveto
1103.71 538.49 lineto
1093.26 536.74 lineto
closepath fill
1 setlinewidth
solid
0 0 0 edgecolor
newpath 1094.45 543.63 moveto
1103.71 538.49 lineto
1093.26 536.74 lineto
closepath stroke
grestore
% l3_start
gsave
1 setlinewidth
0 0 0 nodecolor
newpath 278 435.5 moveto
72 435.5 lineto
72 370.5 lineto
278 370.5 lineto
closepath stroke
0 0 0 nodecolor
18 /Times-Roman set_font
147.5 415.3 moveto 55 (l3_start) alignedtext
0 0 0 nodecolor
18 /Times-Roman set_font
87 396.3 moveto 176 ([|x in [1 , 3]; y in [0 , 2]|]) alignedtext
0 0 0 nodecolor
18 /Times-Roman set_font
80 377.3 moveto 190 (4 constraints, 4 generators) alignedtext
grestore
% 1
gsave
0 0 0 nodecolor
18 /Times-Roman set_font
50 313.8 moveto 250 (\(-x+100>=0 ? x := 1.5x; y := y+1\)*) alignedtext
0 0 0 nodecolor
18 /Times-Roman set_font
168.5 294.8 moveto 13 (\(\)) alignedtext
grestore
% l3_start->1
gsave
1 setlinewidth
0 0 0 edgecolor
newpath 175 370.31 moveto
175 361.79 175 352.6 175 344.06 curveto
stroke
0 0 0 edgecolor
newpath 178.5 344.06 moveto
175 334.06 lineto
171.5 344.06 lineto
closepath fill
1 setlinewidth
solid
0 0 0 edgecolor
newpath 178.5 344.06 moveto
175 334.06 lineto
171.5 344.06 lineto
closepath stroke
grestore
% l1e
gsave
1 setlinewidth
0 0 0 nodecolor
newpath 1029 65.5 moveto
793 65.5 lineto
793 .5 lineto
1029 .5 lineto
closepath stroke
0 0 0 nodecolor
18 /Times-Roman set_font
900 45.3 moveto 22 (l1e) alignedtext
0 0 0 nodecolor
18 /Times-Roman set_font
801 26.3 moveto 220 ([|x in [1.5 , 15.19]; y in [3 , 4]|]) alignedtext
0 0 0 nodecolor
18 /Times-Roman set_font
816 7.3 moveto 190 (5 constraints, 5 generators) alignedtext
grestore
% l0
gsave
1 setlinewidth
0 0 0 nodecolor
newpath 1394 251.5 moveto
1164 251.5 lineto
1164 186.5 lineto
1394 186.5 lineto
closepath stroke
0 0 0 nodecolor
18 /Times-Roman set_font
1272 231.3 moveto 14 (l0) alignedtext
0 0 0 nodecolor
18 /Times-Roman set_font
1172 212.3 moveto 214 ([|x in [1 , INF]; y in [0 , INF]|]) alignedtext
0 0 0 nodecolor
18 /Times-Roman set_font
1184 193.3 moveto 190 (5 constraints, 6 generators) alignedtext
grestore
% 6
gsave
0 0 0 nodecolor
18 /Times-Roman set_font
1272.5 108.8 moveto 13 (\(\)) alignedtext
grestore
% l0->6
gsave
1 setlinewidth
0 0 0 edgecolor
newpath 1279 186.47 moveto
1279 177.98 1279 168.81 1279 160.23 curveto
stroke
0 0 0 edgecolor
newpath 1282.5 160.15 moveto
1279 150.15 lineto
1275.5 160.15 lineto
closepath fill
1 setlinewidth
solid
0 0 0 edgecolor
newpath 1282.5 160.15 moveto
1279 150.15 lineto
1275.5 160.15 lineto
closepath stroke
grestore
% l2_start
gsave
1 setlinewidth
0 0 0 nodecolor
newpath 646 435.5 moveto
440 435.5 lineto
440 370.5 lineto
646 370.5 lineto
closepath stroke
0 0 0 nodecolor
18 /Times-Roman set_font
515.5 415.3 moveto 55 (l2_start) alignedtext
0 0 0 nodecolor
18 /Times-Roman set_font
455 396.3 moveto 176 ([|x in [1 , 3]; y in [0 , 2]|]) alignedtext
0 0 0 nodecolor
18 /Times-Roman set_font
448 377.3 moveto 190 (4 constraints, 4 generators) alignedtext
grestore
% 3
gsave
0 0 0 nodecolor
18 /Times-Roman set_font
406 313.8 moveto 274 (\(-x-3y+100>=0 ? x := 1.5x; y := y+1\)*) alignedtext
0 0 0 nodecolor
18 /Times-Roman set_font
536.5 294.8 moveto 13 (\(\)) alignedtext
grestore
% l2_start->3
gsave
1 setlinewidth
0 0 0 edgecolor
newpath 543 370.31 moveto
543 361.79 543 352.6 543 344.06 curveto
stroke
0 0 0 edgecolor
newpath 546.5 344.06 moveto
543 334.06 lineto
539.5 344.06 lineto
closepath fill
1 setlinewidth
solid
0 0 0 edgecolor
newpath 546.5 344.06 moveto
543 334.06 lineto
539.5 344.06 lineto
closepath stroke
grestore
% l1
gsave
1 setlinewidth
0 0 0 nodecolor
newpath 1022 251.5 moveto
800 251.5 lineto
800 186.5 lineto
1022 186.5 lineto
closepath stroke
0 0 0 nodecolor
18 /Times-Roman set_font
904 231.3 moveto 14 (l1) alignedtext
0 0 0 nodecolor
18 /Times-Roman set_font
807.5 212.3 moveto 207 ([|x in [1 , 15.19]; y in [0 , 4]|]) alignedtext
0 0 0 nodecolor
18 /Times-Roman set_font
816 193.3 moveto 190 (6 constraints, 6 generators) alignedtext
grestore
% 4
gsave
0 0 0 nodecolor
18 /Times-Roman set_font
876 128.8 moveto 70 (y-3>=0 ? ) alignedtext
0 0 0 nodecolor
18 /Times-Roman set_font
904.5 109.8 moveto 13 (\(\)) alignedtext
grestore
% l1->4
gsave
1 setlinewidth
0 0 0 edgecolor
newpath 911 186.47 moveto
911 177.76 911 168.32 911 159.56 curveto
stroke
0 0 0 edgecolor
newpath 914.5 159.28 moveto
911 149.28 lineto
907.5 159.28 lineto
closepath fill
1 setlinewidth
solid
0 0 0 edgecolor
newpath 914.5 159.28 moveto
911 149.28 lineto
907.5 159.28 lineto
closepath stroke
grestore
% l2
gsave
1 setlinewidth
0 0 0 nodecolor
newpath 659 251.5 moveto
427 251.5 lineto
427 186.5 lineto
659 186.5 lineto
closepath stroke
0 0 0 nodecolor
18 /Times-Roman set_font
536 231.3 moveto 14 (l2) alignedtext
0 0 0 nodecolor
18 /Times-Roman set_font
435 212.3 moveto 216 ([|x in [1 , 143.6]; y in [0 , 13]|]) alignedtext
0 0 0 nodecolor
18 /Times-Roman set_font
448 193.3 moveto 190 (9 constraints, 9 generators) alignedtext
grestore
% 2
gsave
0 0 0 nodecolor
18 /Times-Roman set_font
485.5 128.8 moveto 115 (x+3y-100>=0 ? ) alignedtext
0 0 0 nodecolor
18 /Times-Roman set_font
536.5 109.8 moveto 13 (\(\)) alignedtext
grestore
% l2->2
gsave
1 setlinewidth
0 0 0 edgecolor
newpath 543 186.47 moveto
543 177.76 543 168.32 543 159.56 curveto
stroke
0 0 0 edgecolor
newpath 546.5 159.28 moveto
543 149.28 lineto
539.5 159.28 lineto
closepath fill
1 setlinewidth
solid
0 0 0 edgecolor
newpath 546.5 159.28 moveto
543 149.28 lineto
539.5 159.28 lineto
closepath stroke
grestore
% l3
gsave
1 setlinewidth
0 0 0 nodecolor
newpath 284 251.5 moveto
66 251.5 lineto
66 186.5 lineto
284 186.5 lineto
closepath stroke
0 0 0 nodecolor
18 /Times-Roman set_font
168 231.3 moveto 14 (l3) alignedtext
0 0 0 nodecolor
18 /Times-Roman set_font
73.5 212.3 moveto 203 ([|x in [1 , 150]; y in [0 , 14]|]) alignedtext
0 0 0 nodecolor
18 /Times-Roman set_font
80 193.3 moveto 190 (8 constraints, 8 generators) alignedtext
grestore
% 0
gsave
0 0 0 nodecolor
18 /Times-Roman set_font
131 128.8 moveto 88 (x-100>=0 ? ) alignedtext
0 0 0 nodecolor
18 /Times-Roman set_font
168.5 109.8 moveto 13 (\(\)) alignedtext
grestore
% l3->0
gsave
1 setlinewidth
0 0 0 edgecolor
newpath 175 186.47 moveto
175 177.76 175 168.32 175 159.56 curveto
stroke
0 0 0 edgecolor
newpath 178.5 159.28 moveto
175 149.28 lineto
171.5 159.28 lineto
closepath fill
1 setlinewidth
solid
0 0 0 edgecolor
newpath 178.5 159.28 moveto
175 149.28 lineto
171.5 159.28 lineto
closepath stroke
grestore
% l3e
gsave
1 setlinewidth
0 0 0 nodecolor
newpath 313 65.5 moveto
37 65.5 lineto
37 .5 lineto
313 .5 lineto
closepath stroke
0 0 0 nodecolor
18 /Times-Roman set_font
164 45.3 moveto 22 (l3e) alignedtext
0 0 0 nodecolor
18 /Times-Roman set_font
44.5 26.3 moveto 261 ([|x in [100 , 150]; y in [0.6599 , 14]|]) alignedtext
0 0 0 nodecolor
18 /Times-Roman set_font
80 7.3 moveto 190 (4 constraints, 4 generators) alignedtext
grestore
% l1_start
gsave
1 setlinewidth
0 0 0 nodecolor
newpath 1014 435.5 moveto
808 435.5 lineto
808 370.5 lineto
1014 370.5 lineto
closepath stroke
0 0 0 nodecolor
18 /Times-Roman set_font
883.5 415.3 moveto 55 (l1_start) alignedtext
0 0 0 nodecolor
18 /Times-Roman set_font
823 396.3 moveto 176 ([|x in [1 , 3]; y in [0 , 2]|]) alignedtext
0 0 0 nodecolor
18 /Times-Roman set_font
816 377.3 moveto 190 (4 constraints, 4 generators) alignedtext
grestore
% 5
gsave
0 0 0 nodecolor
18 /Times-Roman set_font
795 313.8 moveto 232 (\(-y+3>=0 ? x := 1.5x; y := y+1\)*) alignedtext
0 0 0 nodecolor
18 /Times-Roman set_font
904.5 294.8 moveto 13 (\(\)) alignedtext
grestore
% l1_start->5
gsave
1 setlinewidth
0 0 0 edgecolor
newpath 911 370.31 moveto
911 361.79 911 352.6 911 344.06 curveto
stroke
0 0 0 edgecolor
newpath 914.5 344.06 moveto
911 334.06 lineto
907.5 344.06 lineto
closepath fill
1 setlinewidth
solid
0 0 0 edgecolor
newpath 914.5 344.06 moveto
911 334.06 lineto
907.5 344.06 lineto
closepath stroke
grestore
% 0->l3e
gsave
1 setlinewidth
0 0 0 edgecolor
newpath 175 102.53 moveto
175 94.4 175 85.01 175 75.82 curveto
stroke
0 0 0 edgecolor
newpath 178.5 75.59 moveto
175 65.59 lineto
171.5 75.59 lineto
closepath fill
1 setlinewidth
solid
0 0 0 edgecolor
newpath 178.5 75.59 moveto
175 65.59 lineto
171.5 75.59 lineto
closepath stroke
grestore
% 1->l3
gsave
1 setlinewidth
0 0 0 edgecolor
newpath 175 287.78 moveto
175 279.82 175 270.63 175 261.62 curveto
stroke
0 0 0 edgecolor
newpath 178.5 261.59 moveto
175 251.59 lineto
171.5 261.59 lineto
closepath fill
1 setlinewidth
solid
0 0 0 edgecolor
newpath 178.5 261.59 moveto
175 251.59 lineto
171.5 261.59 lineto
closepath stroke
grestore
% 2->l2e
gsave
1 setlinewidth
0 0 0 edgecolor
newpath 543 102.53 moveto
543 94.4 543 85.01 543 75.82 curveto
stroke
0 0 0 edgecolor
newpath 546.5 75.59 moveto
543 65.59 lineto
539.5 75.59 lineto
closepath fill
1 setlinewidth
solid
0 0 0 edgecolor
newpath 546.5 75.59 moveto
543 65.59 lineto
539.5 75.59 lineto
closepath stroke
grestore
% 3->l2
gsave
1 setlinewidth
0 0 0 edgecolor
newpath 543 287.78 moveto
543 279.82 543 270.63 543 261.62 curveto
stroke
0 0 0 edgecolor
newpath 546.5 261.59 moveto
543 251.59 lineto
539.5 261.59 lineto
closepath fill
1 setlinewidth
solid
0 0 0 edgecolor
newpath 546.5 261.59 moveto
543 251.59 lineto
539.5 261.59 lineto
closepath stroke
grestore
% 4->l1e
gsave
1 setlinewidth
0 0 0 edgecolor
newpath 911 102.53 moveto
911 94.4 911 85.01 911 75.82 curveto
stroke
0 0 0 edgecolor
newpath 914.5 75.59 moveto
911 65.59 lineto
907.5 75.59 lineto
closepath fill
1 setlinewidth
solid
0 0 0 edgecolor
newpath 914.5 75.59 moveto
911 65.59 lineto
907.5 75.59 lineto
closepath stroke
grestore
% 5->l1
gsave
1 setlinewidth
0 0 0 edgecolor
newpath 911 287.78 moveto
911 279.82 911 270.63 911 261.62 curveto
stroke
0 0 0 edgecolor
newpath 914.5 261.59 moveto
911 251.59 lineto
907.5 261.59 lineto
closepath fill
1 setlinewidth
solid
0 0 0 edgecolor
newpath 914.5 261.59 moveto
911 251.59 lineto
907.5 261.59 lineto
closepath stroke
grestore
% 6->l0e
gsave
1 setlinewidth
0 0 0 edgecolor
newpath 1279 101.57 moveto
1279 93.67 1279 84.68 1279 75.86 curveto
stroke
0 0 0 edgecolor
newpath 1282.5 75.67 moveto
1279 65.67 lineto
1275.5 75.67 lineto
closepath fill
1 setlinewidth
solid
0 0 0 edgecolor
newpath 1282.5 75.67 moveto
1279 65.67 lineto
1275.5 75.67 lineto
closepath stroke
grestore
% 7->l0
gsave
1 setlinewidth
0 0 0 edgecolor
newpath 1279 287.78 moveto
1279 279.82 1279 270.63 1279 261.62 curveto
stroke
0 0 0 edgecolor
newpath 1282.5 261.59 moveto
1279 251.59 lineto
1275.5 261.59 lineto
closepath fill
1 setlinewidth
solid
0 0 0 edgecolor
newpath 1282.5 261.59 moveto
1279 251.59 lineto
1275.5 261.59 lineto
closepath stroke
grestore
% 8->l3_start
gsave
1 setlinewidth
0 0 0 edgecolor
newpath 175 472.27 moveto
175 463.84 175 454.68 175 445.87 curveto
stroke
0 0 0 edgecolor
newpath 178.5 445.75 moveto
175 435.75 lineto
171.5 445.75 lineto
closepath fill
1 setlinewidth
solid
0 0 0 edgecolor
newpath 178.5 445.75 moveto
175 435.75 lineto
171.5 445.75 lineto
closepath stroke
grestore
% 9->l2_start
gsave
1 setlinewidth
0 0 0 edgecolor
newpath 543 472.27 moveto
543 463.84 543 454.68 543 445.87 curveto
stroke
0 0 0 edgecolor
newpath 546.5 445.75 moveto
543 435.75 lineto
539.5 445.75 lineto
closepath fill
1 setlinewidth
solid
0 0 0 edgecolor
newpath 546.5 445.75 moveto
543 435.75 lineto
539.5 445.75 lineto
closepath stroke
grestore
% 10->l1_start
gsave
1 setlinewidth
0 0 0 edgecolor
newpath 911 472.27 moveto
911 463.84 911 454.68 911 445.87 curveto
stroke
0 0 0 edgecolor
newpath 914.5 445.75 moveto
911 435.75 lineto
907.5 445.75 lineto
closepath fill
1 setlinewidth
solid
0 0 0 edgecolor
newpath 914.5 445.75 moveto
911 435.75 lineto
907.5 445.75 lineto
closepath stroke
grestore
% 11->l0_start
gsave
1 setlinewidth
0 0 0 edgecolor
newpath 1279 472.27 moveto
1279 463.84 1279 454.68 1279 445.87 curveto
stroke
0 0 0 edgecolor
newpath 1282.5 445.75 moveto
1279 435.75 lineto
1275.5 445.75 lineto
closepath fill
1 setlinewidth
solid
0 0 0 edgecolor
newpath 1282.5 445.75 moveto
1279 435.75 lineto
1275.5 445.75 lineto
closepath stroke
grestore
endpage
showpage
grestore
%%PageTrailer
%%EndPage: 1
setupLatin1
%%Page: 2 2
%%PageBoundingBox: 36 36 1708 500
%%PageOrientation: Portrait
0 0 1 beginpage
gsave
36 36 1672 464 boxprim clip newpath
1 1 set_scale 0 rotate 40 41 translate
% 1073741823
gsave
1 setlinewidth
0 0 0 nodecolor
853 433 43.84 19.09 ellipse_path stroke
0 0 0 nodecolor
18 /Times-Roman set_font
830 426.3 moveto 46 (Result) alignedtext
grestore
% l0e
gsave
1 setlinewidth
0 0 0 nodecolor
newpath 1498 74.5 moveto
1268 74.5 lineto
1268 9.5 lineto
1498 9.5 lineto
closepath stroke
0 0 0 nodecolor
18 /Times-Roman set_font
1372 54.3 moveto 22 (l0e) alignedtext
0 0 0 nodecolor
18 /Times-Roman set_font
1276 35.3 moveto 214 ([|x in [1 , INF]; y in [0 , INF]|]) alignedtext
0 0 0 nodecolor
18 /Times-Roman set_font
1288 16.3 moveto 190 (2 constraints, 3 generators) alignedtext
grestore
% l2e
gsave
1 setlinewidth
0 0 0 nodecolor
newpath 639 84 moveto
433 84 lineto
433 0 lineto
639 0 lineto
closepath stroke
0 0 0 nodecolor
18 /Times-Roman set_font
525 63.8 moveto 22 (l2e) alignedtext
0 0 0 nodecolor
18 /Times-Roman set_font
461 44.8 moveto 150 ([|x in [2.176 , 147.1];) alignedtext
0 0 0 nodecolor
18 /Times-Roman set_font
459 25.8 moveto 154 (  y in [1.072 , 33.84]|]) alignedtext
0 0 0 nodecolor
18 /Times-Roman set_font
441 6.8 moveto 190 (4 constraints, 4 generators) alignedtext
grestore
% linit
gsave
1 setlinewidth
0 0 0 nodecolor
newpath 959 456 moveto
915 456 lineto
915 410 lineto
959 410 lineto
closepath stroke
0 0 0 nodecolor
18 /Times-Roman set_font
923 435.8 moveto 28 (linit) alignedtext
0 0 0 nodecolor
18 /Times-Roman set_font
925 416.8 moveto 24 (top) alignedtext
grestore
% 8
gsave
0 0 0 nodecolor
18 /Times-Roman set_font
191 353.3 moveto 334 (-y+2>=0 and y>=0 and -x+3>=0 and x-1>=0 ?) alignedtext
0 0 0 nodecolor
18 /Times-Roman set_font
351.5 313.3 moveto 13 (\(\)) alignedtext
grestore
% linit->8
gsave
1 setlinewidth
0 0 0 edgecolor
newpath 914.79 414.44 moveto
911.96 412.71 909 411.17 906 410 curveto
765.69 355.2 718.3 393.99 569 374 curveto
560.52 372.86 551.85 371.66 543.1 370.4 curveto
stroke
0 0 0 edgecolor
newpath 543.59 366.94 moveto
533.19 368.96 lineto
542.58 373.86 lineto
closepath fill
1 setlinewidth
solid
0 0 0 edgecolor
newpath 543.59 366.94 moveto
533.19 368.96 lineto
542.58 373.86 lineto
closepath stroke
grestore
% 9
gsave
0 0 0 nodecolor
18 /Times-Roman set_font
586 353.3 moveto 334 (-y+2>=0 and y>=0 and -x+3>=0 and x-1>=0 ?) alignedtext
0 0 0 nodecolor
18 /Times-Roman set_font
746.5 313.3 moveto 13 (\(\)) alignedtext
grestore
% linit->9
gsave
1 setlinewidth
0 0 0 edgecolor
newpath 914.69 415.6 moveto
911.83 413.62 908.88 411.7 906 410 curveto
886.5 398.48 864.78 387.52 843.97 377.83 curveto
stroke
0 0 0 edgecolor
newpath 845.35 374.61 moveto
834.81 373.62 lineto
842.43 380.97 lineto
closepath fill
1 setlinewidth
solid
0 0 0 edgecolor
newpath 845.35 374.61 moveto
834.81 373.62 lineto
842.43 380.97 lineto
closepath stroke
grestore
% 10
gsave
0 0 0 nodecolor
18 /Times-Roman set_font
954 353.3 moveto 334 (-y+2>=0 and y>=0 and -x+3>=0 and x-1>=0 ?) alignedtext
0 0 0 nodecolor
18 /Times-Roman set_font
1114.5 313.3 moveto 13 (\(\)) alignedtext
grestore
% linit->10
gsave
1 setlinewidth
0 0 0 edgecolor
newpath 959.19 421.78 moveto
980.6 410.97 1014.22 393.97 1045.29 378.27 curveto
stroke
0 0 0 edgecolor
newpath 1047.05 381.3 moveto
1054.4 373.66 lineto
1043.9 375.05 lineto
closepath fill
1 setlinewidth
solid
0 0 0 edgecolor
newpath 1047.05 381.3 moveto
1054.4 373.66 lineto
1043.9 375.05 lineto
closepath stroke
grestore
% 11
gsave
0 0 0 nodecolor
18 /Times-Roman set_font
1322 353.3 moveto 334 (-y+2>=0 and y>=0 and -x+3>=0 and x-1>=0 ?) alignedtext
0 0 0 nodecolor
18 /Times-Roman set_font
1482.5 313.3 moveto 13 (\(\)) alignedtext
grestore
% linit->11
gsave
1 setlinewidth
0 0 0 edgecolor
newpath 959.01 429.66 moveto
1014.78 421.15 1166.32 397.79 1303.45 374.26 curveto
stroke
0 0 0 edgecolor
newpath 1304.45 377.63 moveto
1313.71 372.49 lineto
1303.26 370.74 lineto
closepath fill
1 setlinewidth
solid
0 0 0 edgecolor
newpath 1304.45 377.63 moveto
1313.71 372.49 lineto
1303.26 370.74 lineto
closepath stroke
grestore
% l0
gsave
1 setlinewidth
0 0 0 nodecolor
newpath 1604 269.5 moveto
1374 269.5 lineto
1374 204.5 lineto
1604 204.5 lineto
closepath stroke
0 0 0 nodecolor
18 /Times-Roman set_font
1482 249.3 moveto 14 (l0) alignedtext
0 0 0 nodecolor
18 /Times-Roman set_font
1382 230.3 moveto 214 ([|x in [1 , INF]; y in [0 , INF]|]) alignedtext
0 0 0 nodecolor
18 /Times-Roman set_font
1394 211.3 moveto 190 (2 constraints, 3 generators) alignedtext
grestore
% 6
gsave
0 0 0 nodecolor
18 /Times-Roman set_font
1376.5 126.8 moveto 13 (\(\)) alignedtext
grestore
% l0->6
gsave
1 setlinewidth
0 0 0 edgecolor
newpath 1447.68 204.2 moveto
1434.12 193.03 1419.16 180.26 1406 168 curveto
1405.45 167.48 1404.89 166.96 1404.33 166.42 curveto
stroke
0 0 0 edgecolor
newpath 1406.66 163.81 moveto
1397.1 159.24 lineto
1401.72 168.77 lineto
closepath fill
1 setlinewidth
solid
0 0 0 edgecolor
newpath 1406.66 163.81 moveto
1397.1 159.24 lineto
1401.72 168.77 lineto
closepath stroke
grestore
% 7
gsave
0 0 0 nodecolor
18 /Times-Roman set_font
1423 146.8 moveto 132 (x := 1.5x; y := y+1) alignedtext
0 0 0 nodecolor
18 /Times-Roman set_font
1482.5 127.8 moveto 13 (\(\)) alignedtext
grestore
% l0->7
gsave
1 setlinewidth
0 0 0 edgecolor
newpath 1482.53 204.47 moveto
1482.17 195.76 1482.16 186.32 1482.49 177.56 curveto
stroke
0 0 0 edgecolor
newpath 1486 177.46 moveto
1483.06 167.28 lineto
1479.01 177.07 lineto
closepath fill
1 setlinewidth
solid
0 0 0 edgecolor
newpath 1486 177.46 moveto
1483.06 167.28 lineto
1479.01 177.07 lineto
closepath stroke
grestore
% l1e
gsave
1 setlinewidth
0 0 0 nodecolor
newpath 1069 74.5 moveto
827 74.5 lineto
827 9.5 lineto
1069 9.5 lineto
closepath stroke
0 0 0 nodecolor
18 /Times-Roman set_font
937 54.3 moveto 22 (l1e) alignedtext
0 0 0 nodecolor
18 /Times-Roman set_font
835 35.3 moveto 226 ([|x in [1.438 , INF]; y in [3 , 4]|]) alignedtext
0 0 0 nodecolor
18 /Times-Roman set_font
853 16.3 moveto 190 (3 constraints, 3 generators) alignedtext
grestore
% l1
gsave
1 setlinewidth
0 0 0 nodecolor
newpath 1226 269.5 moveto
1016 269.5 lineto
1016 204.5 lineto
1226 204.5 lineto
closepath stroke
0 0 0 nodecolor
18 /Times-Roman set_font
1114 249.3 moveto 14 (l1) alignedtext
0 0 0 nodecolor
18 /Times-Roman set_font
1023.5 230.3 moveto 195 ([|x in [1 , INF]; y in [0 , 4]|]) alignedtext
0 0 0 nodecolor
18 /Times-Roman set_font
1026 211.3 moveto 190 (4 constraints, 4 generators) alignedtext
grestore
% 4
gsave
0 0 0 nodecolor
18 /Times-Roman set_font
913 146.8 moveto 70 (y-3>=0 ? ) alignedtext
0 0 0 nodecolor
18 /Times-Roman set_font
941.5 127.8 moveto 13 (\(\)) alignedtext
grestore
% l1->4
gsave
1 setlinewidth
0 0 0 edgecolor
newpath 1060.49 204.47 moveto
1040.73 193.85 1018.96 182.15 999.89 171.89 curveto
stroke
0 0 0 edgecolor
newpath 1001.51 168.79 moveto
991.05 167.14 lineto
998.2 174.96 lineto
closepath fill
1 setlinewidth
solid
0 0 0 edgecolor
newpath 1001.51 168.79 moveto
991.05 167.14 lineto
998.2 174.96 lineto
closepath stroke
grestore
% 5
gsave
0 0 0 nodecolor
18 /Times-Roman set_font
1016.5 146.8 moveto 211 (-y+3>=0 ? x := 1.5x; y := y+1) alignedtext
0 0 0 nodecolor
18 /Times-Roman set_font
1115.5 127.8 moveto 13 (\(\)) alignedtext
grestore
% l1->5
gsave
1 setlinewidth
0 0 0 edgecolor
newpath 1114.88 204.47 moveto
1114.61 195.66 1114.7 186.12 1115.14 177.27 curveto
stroke
0 0 0 edgecolor
newpath 1118.63 177.5 moveto
1115.81 167.28 lineto
1111.65 177.03 lineto
closepath fill
1 setlinewidth
solid
0 0 0 edgecolor
newpath 1118.63 177.5 moveto
1115.81 167.28 lineto
1111.65 177.03 lineto
closepath stroke
grestore
% l2
gsave
1 setlinewidth
0 0 0 nodecolor
newpath 880 269.5 moveto
626 269.5 lineto
626 204.5 lineto
880 204.5 lineto
closepath stroke
0 0 0 nodecolor
18 /Times-Roman set_font
746 249.3 moveto 14 (l2) alignedtext
0 0 0 nodecolor
18 /Times-Roman set_font
634 230.3 moveto 238 ([|x in [1 , 147.1]; y in [0 , 33.84]|]) alignedtext
0 0 0 nodecolor
18 /Times-Roman set_font
658 211.3 moveto 190 (5 constraints, 5 generators) alignedtext
grestore
% 2
gsave
0 0 0 nodecolor
18 /Times-Roman set_font
478.5 146.8 moveto 115 (x+3y-100>=0 ? ) alignedtext
0 0 0 nodecolor
18 /Times-Roman set_font
529.5 127.8 moveto 13 (\(\)) alignedtext
grestore
% l2->2
gsave
1 setlinewidth
0 0 0 edgecolor
newpath 677.1 204.47 moveto
651.75 193.61 623.77 181.62 599.47 171.2 curveto
stroke
0 0 0 edgecolor
newpath 600.56 167.86 moveto
589.99 167.14 lineto
597.81 174.3 lineto
closepath fill
1 setlinewidth
solid
0 0 0 edgecolor
newpath 600.56 167.86 moveto
589.99 167.14 lineto
597.81 174.3 lineto
closepath stroke
grestore
% 3
gsave
0 0 0 nodecolor
18 /Times-Roman set_font
626.5 146.8 moveto 253 (-x-3y+100>=0 ? x := 1.5x; y := y+1) alignedtext
0 0 0 nodecolor
18 /Times-Roman set_font
746.5 127.8 moveto 13 (\(\)) alignedtext
grestore
% l2->3
gsave
1 setlinewidth
0 0 0 edgecolor
newpath 746.53 204.47 moveto
746.17 195.76 746.16 186.32 746.49 177.56 curveto
stroke
0 0 0 edgecolor
newpath 750 177.46 moveto
747.06 167.28 lineto
743.01 177.07 lineto
closepath fill
1 setlinewidth
solid
0 0 0 edgecolor
newpath 750 177.46 moveto
747.06 167.28 lineto
743.01 177.07 lineto
closepath stroke
grestore
% l3
gsave
1 setlinewidth
0 0 0 nodecolor
newpath 445 269.5 moveto
217 269.5 lineto
217 204.5 lineto
445 204.5 lineto
closepath stroke
0 0 0 nodecolor
18 /Times-Roman set_font
324 249.3 moveto 14 (l3) alignedtext
0 0 0 nodecolor
18 /Times-Roman set_font
224.5 230.3 moveto 213 ([|x in [1 , 150]; y in [0 , INF]|]) alignedtext
0 0 0 nodecolor
18 /Times-Roman set_font
236 211.3 moveto 190 (4 constraints, 4 generators) alignedtext
grestore
% 0
gsave
0 0 0 nodecolor
18 /Times-Roman set_font
95 146.8 moveto 88 (x-100>=0 ? ) alignedtext
0 0 0 nodecolor
18 /Times-Roman set_font
132.5 127.8 moveto 13 (\(\)) alignedtext
grestore
% l3->0
gsave
1 setlinewidth
0 0 0 edgecolor
newpath 263.85 204.47 moveto
241.71 193.75 217.32 181.94 196.01 171.62 curveto
stroke
0 0 0 edgecolor
newpath 197.3 168.35 moveto
186.77 167.14 lineto
194.25 174.65 lineto
closepath fill
1 setlinewidth
solid
0 0 0 edgecolor
newpath 197.3 168.35 moveto
186.77 167.14 lineto
194.25 174.65 lineto
closepath stroke
grestore
% 1
gsave
0 0 0 nodecolor
18 /Times-Roman set_font
216.5 146.8 moveto 229 (-x+100>=0 ? x := 1.5x; y := y+1) alignedtext
0 0 0 nodecolor
18 /Times-Roman set_font
324.5 127.8 moveto 13 (\(\)) alignedtext
grestore
% l3->1
gsave
1 setlinewidth
0 0 0 edgecolor
newpath 324.53 204.47 moveto
324.17 195.76 324.16 186.32 324.49 177.56 curveto
stroke
0 0 0 edgecolor
newpath 328 177.46 moveto
325.06 167.28 lineto
321.01 177.07 lineto
closepath fill
1 setlinewidth
solid
0 0 0 edgecolor
newpath 328 177.46 moveto
325.06 167.28 lineto
321.01 177.07 lineto
closepath stroke
grestore
% l3e
gsave
1 setlinewidth
0 0 0 nodecolor
newpath 278 74.5 moveto
0 74.5 lineto
0 9.5 lineto
278 9.5 lineto
closepath stroke
0 0 0 nodecolor
18 /Times-Roman set_font
128 54.3 moveto 22 (l3e) alignedtext
0 0 0 nodecolor
18 /Times-Roman set_font
8 35.3 moveto 262 ([|x in [100 , 150]; y in [1.095 , INF]|]) alignedtext
0 0 0 nodecolor
18 /Times-Roman set_font
44 16.3 moveto 190 (3 constraints, 3 generators) alignedtext
grestore
% 0->l3e
gsave
1 setlinewidth
0 0 0 edgecolor
newpath 139 120.85 moveto
139 110.2 139 97.21 139 84.87 curveto
stroke
0 0 0 edgecolor
newpath 142.5 84.72 moveto
139 74.72 lineto
135.5 84.72 lineto
closepath fill
1 setlinewidth
solid
0 0 0 edgecolor
newpath 142.5 84.72 moveto
139 74.72 lineto
135.5 84.72 lineto
closepath stroke
grestore
% 1->l3
gsave
1 setlinewidth
0 0 0 edgecolor
newpath 336.94 167.28 moveto
337.57 175.54 337.83 185.12 337.73 194.48 curveto
stroke
0 0 0 edgecolor
newpath 334.23 194.39 moveto
337.47 204.47 lineto
341.23 194.57 lineto
closepath fill
1 setlinewidth
solid
0 0 0 edgecolor
newpath 334.23 194.39 moveto
337.47 204.47 lineto
341.23 194.57 lineto
closepath stroke
grestore
% 2->l2e
gsave
1 setlinewidth
0 0 0 edgecolor
newpath 536 120.85 moveto
536 112.91 536 103.67 536 94.37 curveto
stroke
0 0 0 edgecolor
newpath 539.5 94.31 moveto
536 84.31 lineto
532.5 94.31 lineto
closepath fill
1 setlinewidth
solid
0 0 0 edgecolor
newpath 539.5 94.31 moveto
536 84.31 lineto
532.5 94.31 lineto
closepath stroke
grestore
% 3->l2
gsave
1 setlinewidth
0 0 0 edgecolor
newpath 758.94 167.28 moveto
759.57 175.54 759.83 185.12 759.73 194.48 curveto
stroke
0 0 0 edgecolor
newpath 756.23 194.39 moveto
759.47 204.47 lineto
763.23 194.57 lineto
closepath fill
1 setlinewidth
solid
0 0 0 edgecolor
newpath 756.23 194.39 moveto
759.47 204.47 lineto
763.23 194.57 lineto
closepath stroke
grestore
% 4->l1e
gsave
1 setlinewidth
0 0 0 edgecolor
newpath 948 120.85 moveto
948 110.2 948 97.21 948 84.87 curveto
stroke
0 0 0 edgecolor
newpath 951.5 84.72 moveto
948 74.72 lineto
944.5 84.72 lineto
closepath fill
1 setlinewidth
solid
0 0 0 edgecolor
newpath 951.5 84.72 moveto
948 74.72 lineto
944.5 84.72 lineto
closepath stroke
grestore
% 5->l1
gsave
1 setlinewidth
0 0 0 edgecolor
newpath 1127.69 167.28 moveto
1128.23 175.54 1128.39 185.12 1128.19 194.48 curveto
stroke
0 0 0 edgecolor
newpath 1124.69 194.35 moveto
1127.82 204.47 lineto
1131.68 194.61 lineto
closepath fill
1 setlinewidth
solid
0 0 0 edgecolor
newpath 1124.69 194.35 moveto
1127.82 204.47 lineto
1131.68 194.61 lineto
closepath stroke
grestore
% 6->l0e
gsave
1 setlinewidth
0 0 0 edgecolor
newpath 1383 119.83 moveto
1383 109.44 1383 96.97 1383 85.1 curveto
stroke
0 0 0 edgecolor
newpath 1386.5 84.87 moveto
1383 74.87 lineto
1379.5 84.87 lineto
closepath fill
1 setlinewidth
solid
0 0 0 edgecolor
newpath 1386.5 84.87 moveto
1383 74.87 lineto
1379.5 84.87 lineto
closepath stroke
grestore
% 7->l0
gsave
1 setlinewidth
0 0 0 edgecolor
newpath 1494.94 167.28 moveto
1495.57 175.54 1495.83 185.12 1495.73 194.48 curveto
stroke
0 0 0 edgecolor
newpath 1492.23 194.39 moveto
1495.47 204.47 lineto
1499.23 194.57 lineto
closepath fill
1 setlinewidth
solid
0 0 0 edgecolor
newpath 1492.23 194.39 moveto
1495.47 204.47 lineto
1499.23 194.57 lineto
closepath stroke
grestore
% 8->l3
gsave
1 setlinewidth
0 0 0 edgecolor
newpath 349.16 306.27 moveto
346.92 297.75 344.5 288.48 342.16 279.58 curveto
stroke
0 0 0 edgecolor
newpath 345.51 278.53 moveto
339.58 269.75 lineto
338.73 280.31 lineto
closepath fill
1 setlinewidth
solid
0 0 0 edgecolor
newpath 345.51 278.53 moveto
339.58 269.75 lineto
338.73 280.31 lineto
closepath stroke
grestore
% 9->l2
gsave
1 setlinewidth
0 0 0 edgecolor
newpath 753 306.27 moveto
753 297.84 753 288.68 753 279.87 curveto
stroke
0 0 0 edgecolor
newpath 756.5 279.75 moveto
753 269.75 lineto
749.5 279.75 lineto
closepath fill
1 setlinewidth
solid
0 0 0 edgecolor
newpath 756.5 279.75 moveto
753 269.75 lineto
749.5 279.75 lineto
closepath stroke
grestore
% 10->l1
gsave
1 setlinewidth
0 0 0 edgecolor
newpath 1121 306.27 moveto
1121 297.84 1121 288.68 1121 279.87 curveto
stroke
0 0 0 edgecolor
newpath 1124.5 279.75 moveto
1121 269.75 lineto
1117.5 279.75 lineto
closepath fill
1 setlinewidth
solid
0 0 0 edgecolor
newpath 1124.5 279.75 moveto
1121 269.75 lineto
1117.5 279.75 lineto
closepath stroke
grestore
% 11->l0
gsave
1 setlinewidth
0 0 0 edgecolor
newpath 1489 306.27 moveto
1489 297.84 1489 288.68 1489 279.87 curveto
stroke
0 0 0 edgecolor
newpath 1492.5 279.75 moveto
1489 269.75 lineto
1485.5 279.75 lineto
closepath fill
1 setlinewidth
solid
0 0 0 edgecolor
newpath 1492.5 279.75 moveto
1489 269.75 lineto
1485.5 279.75 lineto
closepath stroke
grestore
endpage
showpage
grestore
%%PageTrailer
%%EndPage: 2
setupLatin1
%%Page: 3 3
%%PageBoundingBox: 36 36 1498 684
%%PageOrientation: Portrait
0 0 1 beginpage
gsave
36 36 1462 648 boxprim clip newpath
1 1 set_scale 0 rotate 40 41 translate
% 1073741823
gsave
1 setlinewidth
0 0 0 nodecolor
643 617 43.84 19.09 ellipse_path stroke
0 0 0 nodecolor
18 /Times-Roman set_font
620 610.3 moveto 46 (Result) alignedtext
grestore
% l0e
gsave
1 setlinewidth
0 0 0 nodecolor
newpath 1382 74.5 moveto
1176 74.5 lineto
1176 9.5 lineto
1382 9.5 lineto
closepath stroke
0 0 0 nodecolor
18 /Times-Roman set_font
1268 54.3 moveto 22 (l0e) alignedtext
0 0 0 nodecolor
18 /Times-Roman set_font
1218.5 35.3 moveto 121 ([|; y in [0 , INF]|]) alignedtext
0 0 0 nodecolor
18 /Times-Roman set_font
1184 16.3 moveto 190 (1 constraints, 3 generators) alignedtext
grestore
% l0_start
gsave
1 setlinewidth
0 0 0 nodecolor
newpath 1382 453.5 moveto
1176 453.5 lineto
1176 388.5 lineto
1382 388.5 lineto
closepath stroke
0 0 0 nodecolor
18 /Times-Roman set_font
1251.5 433.3 moveto 55 (l0_start) alignedtext
0 0 0 nodecolor
18 /Times-Roman set_font
1191 414.3 moveto 176 ([|x in [1 , 3]; y in [0 , 2]|]) alignedtext
0 0 0 nodecolor
18 /Times-Roman set_font
1184 395.3 moveto 190 (4 constraints, 4 generators) alignedtext
grestore
% 7
gsave
0 0 0 nodecolor
18 /Times-Roman set_font
1205.5 331.8 moveto 147 (x := 1.5x; y := y+1\)*) alignedtext
0 0 0 nodecolor
18 /Times-Roman set_font
1272.5 312.8 moveto 13 (\(\)) alignedtext
grestore
% l0_start->7
gsave
1 setlinewidth
0 0 0 edgecolor
newpath 1279 388.31 moveto
1279 379.79 1279 370.6 1279 362.06 curveto
stroke
0 0 0 edgecolor
newpath 1282.5 362.06 moveto
1279 352.06 lineto
1275.5 362.06 lineto
closepath fill
1 setlinewidth
solid
0 0 0 edgecolor
newpath 1282.5 362.06 moveto
1279 352.06 lineto
1275.5 362.06 lineto
closepath stroke
grestore
% l2e
gsave
1 setlinewidth
0 0 0 nodecolor
newpath 646 84 moveto
440 84 lineto
440 0 lineto
646 0 lineto
closepath stroke
0 0 0 nodecolor
18 /Times-Roman set_font
532 63.8 moveto 22 (l2e) alignedtext
0 0 0 nodecolor
18 /Times-Roman set_font
487 44.8 moveto 112 ([|x in [-9 , 150];) alignedtext
0 0 0 nodecolor
18 /Times-Roman set_font
461.5 25.8 moveto 163 (  y in [0.6467 , 36.33]|]) alignedtext
0 0 0 nodecolor
18 /Times-Roman set_font
448 6.8 moveto 190 (3 constraints, 3 generators) alignedtext
grestore
% linit
gsave
1 setlinewidth
0 0 0 nodecolor
newpath 749 640 moveto
705 640 lineto
705 594 lineto
749 594 lineto
closepath stroke
0 0 0 nodecolor
18 /Times-Roman set_font
713 619.8 moveto 28 (linit) alignedtext
0 0 0 nodecolor
18 /Times-Roman set_font
715 600.8 moveto 24 (top) alignedtext
grestore
% 8
gsave
0 0 0 nodecolor
18 /Times-Roman set_font
8 537.3 moveto 334 (-y+2>=0 and y>=0 and -x+3>=0 and x-1>=0 ?) alignedtext
0 0 0 nodecolor
18 /Times-Roman set_font
168.5 497.3 moveto 13 (\(\)) alignedtext
grestore
% linit->8
gsave
1 setlinewidth
0 0 0 edgecolor
newpath 704.79 598.44 moveto
701.96 596.71 699 595.17 696 594 curveto
558.71 540.37 510.15 578 360.27 558.1 curveto
stroke
0 0 0 edgecolor
newpath 360.64 554.61 moveto
350.25 556.7 lineto
359.68 561.55 lineto
closepath fill
1 setlinewidth
solid
0 0 0 edgecolor
newpath 360.64 554.61 moveto
350.25 556.7 lineto
359.68 561.55 lineto
closepath stroke
grestore
% 9
gsave
0 0 0 nodecolor
18 /Times-Roman set_font
376 537.3 moveto 334 (-y+2>=0 and y>=0 and -x+3>=0 and x-1>=0 ?) alignedtext
0 0 0 nodecolor
18 /Times-Roman set_font
536.5 497.3 moveto 13 (\(\)) alignedtext
grestore
% linit->9
gsave
1 setlinewidth
0 0 0 edgecolor
newpath 704.69 599.6 moveto
701.83 597.62 698.88 595.7 696 594 curveto
676.5 582.48 654.78 571.52 633.97 561.83 curveto
stroke
0 0 0 edgecolor
newpath 635.35 558.61 moveto
624.81 557.62 lineto
632.43 564.97 lineto
closepath fill
1 setlinewidth
solid
0 0 0 edgecolor
newpath 635.35 558.61 moveto
624.81 557.62 lineto
632.43 564.97 lineto
closepath stroke
grestore
% 10
gsave
0 0 0 nodecolor
18 /Times-Roman set_font
744 537.3 moveto 334 (-y+2>=0 and y>=0 and -x+3>=0 and x-1>=0 ?) alignedtext
0 0 0 nodecolor
18 /Times-Roman set_font
904.5 497.3 moveto 13 (\(\)) alignedtext
grestore
% linit->10
gsave
1 setlinewidth
0 0 0 edgecolor
newpath 749.19 605.78 moveto
770.6 594.97 804.22 577.97 835.29 562.27 curveto
stroke
0 0 0 edgecolor
newpath 837.05 565.3 moveto
844.4 557.66 lineto
833.9 559.05 lineto
closepath fill
1 setlinewidth
solid
0 0 0 edgecolor
newpath 837.05 565.3 moveto
844.4 557.66 lineto
833.9 559.05 lineto
closepath stroke
grestore
% 11
gsave
0 0 0 nodecolor
18 /Times-Roman set_font
1112 537.3 moveto 334 (-y+2>=0 and y>=0 and -x+3>=0 and x-1>=0 ?) alignedtext
0 0 0 nodecolor
18 /Times-Roman set_font
1272.5 497.3 moveto 13 (\(\)) alignedtext
grestore
% linit->11
gsave
1 setlinewidth
0 0 0 edgecolor
newpath 749.01 613.66 moveto
804.78 605.15 956.32 581.79 1093.45 558.26 curveto
stroke
0 0 0 edgecolor
newpath 1094.45 561.63 moveto
1103.71 556.49 lineto
1093.26 554.74 lineto
closepath fill
1 setlinewidth
solid
0 0 0 edgecolor
newpath 1094.45 561.63 moveto
1103.71 556.49 lineto
1093.26 554.74 lineto
closepath stroke
grestore
% l3_start
gsave
1 setlinewidth
0 0 0 nodecolor
newpath 278 453.5 moveto
72 453.5 lineto
72 388.5 lineto
278 388.5 lineto
closepath stroke
0 0 0 nodecolor
18 /Times-Roman set_font
147.5 433.3 moveto 55 (l3_start) alignedtext
0 0 0 nodecolor
18 /Times-Roman set_font
87 414.3 moveto 176 ([|x in [1 , 3]; y in [0 , 2]|]) alignedtext
0 0 0 nodecolor
18 /Times-Roman set_font
80 395.3 moveto 190 (4 constraints, 4 generators) alignedtext
grestore
% 1
gsave
0 0 0 nodecolor
18 /Times-Roman set_font
50 331.8 moveto 250 (\(-x+100>=0 ? x := 1.5x; y := y+1\)*) alignedtext
0 0 0 nodecolor
18 /Times-Roman set_font
168.5 312.8 moveto 13 (\(\)) alignedtext
grestore
% l3_start->1
gsave
1 setlinewidth
0 0 0 edgecolor
newpath 175 388.31 moveto
175 379.79 175 370.6 175 362.06 curveto
stroke
0 0 0 edgecolor
newpath 178.5 362.06 moveto
175 352.06 lineto
171.5 362.06 lineto
closepath fill
1 setlinewidth
solid
0 0 0 edgecolor
newpath 178.5 362.06 moveto
175 352.06 lineto
171.5 362.06 lineto
closepath stroke
grestore
% l1e
gsave
1 setlinewidth
0 0 0 nodecolor
newpath 1014 74.5 moveto
808 74.5 lineto
808 9.5 lineto
1014 9.5 lineto
closepath stroke
0 0 0 nodecolor
18 /Times-Roman set_font
900 54.3 moveto 22 (l1e) alignedtext
0 0 0 nodecolor
18 /Times-Roman set_font
860 35.3 moveto 102 ([|; y in [3 , 4]|]) alignedtext
0 0 0 nodecolor
18 /Times-Roman set_font
816 16.3 moveto 190 (2 constraints, 3 generators) alignedtext
grestore
% l0
gsave
1 setlinewidth
0 0 0 nodecolor
newpath 1382 269.5 moveto
1176 269.5 lineto
1176 204.5 lineto
1382 204.5 lineto
closepath stroke
0 0 0 nodecolor
18 /Times-Roman set_font
1272 249.3 moveto 14 (l0) alignedtext
0 0 0 nodecolor
18 /Times-Roman set_font
1218.5 230.3 moveto 121 ([|; y in [0 , INF]|]) alignedtext
0 0 0 nodecolor
18 /Times-Roman set_font
1184 211.3 moveto 190 (1 constraints, 3 generators) alignedtext
grestore
% 6
gsave
0 0 0 nodecolor
18 /Times-Roman set_font
1272.5 126.8 moveto 13 (\(\)) alignedtext
grestore
% l0->6
gsave
1 setlinewidth
0 0 0 edgecolor
newpath 1279 204.47 moveto
1279 195.98 1279 186.81 1279 178.23 curveto
stroke
0 0 0 edgecolor
newpath 1282.5 178.15 moveto
1279 168.15 lineto
1275.5 178.15 lineto
closepath fill
1 setlinewidth
solid
0 0 0 edgecolor
newpath 1282.5 178.15 moveto
1279 168.15 lineto
1275.5 178.15 lineto
closepath stroke
grestore
% l2_start
gsave
1 setlinewidth
0 0 0 nodecolor
newpath 646 453.5 moveto
440 453.5 lineto
440 388.5 lineto
646 388.5 lineto
closepath stroke
0 0 0 nodecolor
18 /Times-Roman set_font
515.5 433.3 moveto 55 (l2_start) alignedtext
0 0 0 nodecolor
18 /Times-Roman set_font
455 414.3 moveto 176 ([|x in [1 , 3]; y in [0 , 2]|]) alignedtext
0 0 0 nodecolor
18 /Times-Roman set_font
448 395.3 moveto 190 (4 constraints, 4 generators) alignedtext
grestore
% 3
gsave
0 0 0 nodecolor
18 /Times-Roman set_font
406 331.8 moveto 274 (\(-x-3y+100>=0 ? x := 1.5x; y := y+1\)*) alignedtext
0 0 0 nodecolor
18 /Times-Roman set_font
536.5 312.8 moveto 13 (\(\)) alignedtext
grestore
% l2_start->3
gsave
1 setlinewidth
0 0 0 edgecolor
newpath 543 388.31 moveto
543 379.79 543 370.6 543 362.06 curveto
stroke
0 0 0 edgecolor
newpath 546.5 362.06 moveto
543 352.06 lineto
539.5 362.06 lineto
closepath fill
1 setlinewidth
solid
0 0 0 edgecolor
newpath 546.5 362.06 moveto
543 352.06 lineto
539.5 362.06 lineto
closepath stroke
grestore
% l1
gsave
1 setlinewidth
0 0 0 nodecolor
newpath 1014 269.5 moveto
808 269.5 lineto
808 204.5 lineto
1014 204.5 lineto
closepath stroke
0 0 0 nodecolor
18 /Times-Roman set_font
904 249.3 moveto 14 (l1) alignedtext
0 0 0 nodecolor
18 /Times-Roman set_font
860 230.3 moveto 102 ([|; y in [0 , 4]|]) alignedtext
0 0 0 nodecolor
18 /Times-Roman set_font
816 211.3 moveto 190 (2 constraints, 3 generators) alignedtext
grestore
% 4
gsave
0 0 0 nodecolor
18 /Times-Roman set_font
876 146.8 moveto 70 (y-3>=0 ? ) alignedtext
0 0 0 nodecolor
18 /Times-Roman set_font
904.5 127.8 moveto 13 (\(\)) alignedtext
grestore
% l1->4
gsave
1 setlinewidth
0 0 0 edgecolor
newpath 911 204.47 moveto
911 195.76 911 186.32 911 177.56 curveto
stroke
0 0 0 edgecolor
newpath 914.5 177.28 moveto
911 167.28 lineto
907.5 177.28 lineto
closepath fill
1 setlinewidth
solid
0 0 0 edgecolor
newpath 914.5 177.28 moveto
911 167.28 lineto
907.5 177.28 lineto
closepath stroke
grestore
% l2
gsave
1 setlinewidth
0 0 0 nodecolor
newpath 670 269.5 moveto
416 269.5 lineto
416 204.5 lineto
670 204.5 lineto
closepath stroke
0 0 0 nodecolor
18 /Times-Roman set_font
536 249.3 moveto 14 (l2) alignedtext
0 0 0 nodecolor
18 /Times-Roman set_font
424 230.3 moveto 238 ([|x in [-INF , 150]; y in [0 , INF]|]) alignedtext
0 0 0 nodecolor
18 /Times-Roman set_font
448 211.3 moveto 190 (3 constraints, 4 generators) alignedtext
grestore
% 2
gsave
0 0 0 nodecolor
18 /Times-Roman set_font
485.5 146.8 moveto 115 (x+3y-100>=0 ? ) alignedtext
0 0 0 nodecolor
18 /Times-Roman set_font
536.5 127.8 moveto 13 (\(\)) alignedtext
grestore
% l2->2
gsave
1 setlinewidth
0 0 0 edgecolor
newpath 543 204.47 moveto
543 195.76 543 186.32 543 177.56 curveto
stroke
0 0 0 edgecolor
newpath 546.5 177.28 moveto
543 167.28 lineto
539.5 177.28 lineto
closepath fill
1 setlinewidth
solid
0 0 0 edgecolor
newpath 546.5 177.28 moveto
543 167.28 lineto
539.5 177.28 lineto
closepath stroke
grestore
% l3
gsave
1 setlinewidth
0 0 0 nodecolor
newpath 302 269.5 moveto
48 269.5 lineto
48 204.5 lineto
302 204.5 lineto
closepath stroke
0 0 0 nodecolor
18 /Times-Roman set_font
168 249.3 moveto 14 (l3) alignedtext
0 0 0 nodecolor
18 /Times-Roman set_font
56 230.3 moveto 238 ([|x in [-INF , 150]; y in [0 , INF]|]) alignedtext
0 0 0 nodecolor
18 /Times-Roman set_font
80 211.3 moveto 190 (3 constraints, 4 generators) alignedtext
grestore
% 0
gsave
0 0 0 nodecolor
18 /Times-Roman set_font
131 146.8 moveto 88 (x-100>=0 ? ) alignedtext
0 0 0 nodecolor
18 /Times-Roman set_font
168.5 127.8 moveto 13 (\(\)) alignedtext
grestore
% l3->0
gsave
1 setlinewidth
0 0 0 edgecolor
newpath 175 204.47 moveto
175 195.76 175 186.32 175 177.56 curveto
stroke
0 0 0 edgecolor
newpath 178.5 177.28 moveto
175 167.28 lineto
171.5 177.28 lineto
closepath fill
1 setlinewidth
solid
0 0 0 edgecolor
newpath 178.5 177.28 moveto
175 167.28 lineto
171.5 177.28 lineto
closepath stroke
grestore
% l3e
gsave
1 setlinewidth
0 0 0 nodecolor
newpath 318 74.5 moveto
32 74.5 lineto
32 9.5 lineto
318 9.5 lineto
closepath stroke
0 0 0 nodecolor
18 /Times-Roman set_font
164 54.3 moveto 22 (l3e) alignedtext
0 0 0 nodecolor
18 /Times-Roman set_font
39.5 35.3 moveto 271 ([|x in [100 , 150]; y in [0.6599 , INF]|]) alignedtext
0 0 0 nodecolor
18 /Times-Roman set_font
80 16.3 moveto 190 (3 constraints, 3 generators) alignedtext
grestore
% l1_start
gsave
1 setlinewidth
0 0 0 nodecolor
newpath 1014 453.5 moveto
808 453.5 lineto
808 388.5 lineto
1014 388.5 lineto
closepath stroke
0 0 0 nodecolor
18 /Times-Roman set_font
883.5 433.3 moveto 55 (l1_start) alignedtext
0 0 0 nodecolor
18 /Times-Roman set_font
823 414.3 moveto 176 ([|x in [1 , 3]; y in [0 , 2]|]) alignedtext
0 0 0 nodecolor
18 /Times-Roman set_font
816 395.3 moveto 190 (4 constraints, 4 generators) alignedtext
grestore
% 5
gsave
0 0 0 nodecolor
18 /Times-Roman set_font
795 331.8 moveto 232 (\(-y+3>=0 ? x := 1.5x; y := y+1\)*) alignedtext
0 0 0 nodecolor
18 /Times-Roman set_font
904.5 312.8 moveto 13 (\(\)) alignedtext
grestore
% l1_start->5
gsave
1 setlinewidth
0 0 0 edgecolor
newpath 911 388.31 moveto
911 379.79 911 370.6 911 362.06 curveto
stroke
0 0 0 edgecolor
newpath 914.5 362.06 moveto
911 352.06 lineto
907.5 362.06 lineto
closepath fill
1 setlinewidth
solid
0 0 0 edgecolor
newpath 914.5 362.06 moveto
911 352.06 lineto
907.5 362.06 lineto
closepath stroke
grestore
% 0->l3e
gsave
1 setlinewidth
0 0 0 edgecolor
newpath 175 120.85 moveto
175 110.2 175 97.21 175 84.87 curveto
stroke
0 0 0 edgecolor
newpath 178.5 84.72 moveto
175 74.72 lineto
171.5 84.72 lineto
closepath fill
1 setlinewidth
solid
0 0 0 edgecolor
newpath 178.5 84.72 moveto
175 74.72 lineto
171.5 84.72 lineto
closepath stroke
grestore
% 1->l3
gsave
1 setlinewidth
0 0 0 edgecolor
newpath 175 305.78 moveto
175 297.82 175 288.63 175 279.62 curveto
stroke
0 0 0 edgecolor
newpath 178.5 279.59 moveto
175 269.59 lineto
171.5 279.59 lineto
closepath fill
1 setlinewidth
solid
0 0 0 edgecolor
newpath 178.5 279.59 moveto
175 269.59 lineto
171.5 279.59 lineto
closepath stroke
grestore
% 2->l2e
gsave
1 setlinewidth
0 0 0 edgecolor
newpath 543 120.85 moveto
543 112.91 543 103.67 543 94.37 curveto
stroke
0 0 0 edgecolor
newpath 546.5 94.31 moveto
543 84.31 lineto
539.5 94.31 lineto
closepath fill
1 setlinewidth
solid
0 0 0 edgecolor
newpath 546.5 94.31 moveto
543 84.31 lineto
539.5 94.31 lineto
closepath stroke
grestore
% 3->l2
gsave
1 setlinewidth
0 0 0 edgecolor
newpath 543 305.78 moveto
543 297.82 543 288.63 543 279.62 curveto
stroke
0 0 0 edgecolor
newpath 546.5 279.59 moveto
543 269.59 lineto
539.5 279.59 lineto
closepath fill
1 setlinewidth
solid
0 0 0 edgecolor
newpath 546.5 279.59 moveto
543 269.59 lineto
539.5 279.59 lineto
closepath stroke
grestore
% 4->l1e
gsave
1 setlinewidth
0 0 0 edgecolor
newpath 911 120.85 moveto
911 110.2 911 97.21 911 84.87 curveto
stroke
0 0 0 edgecolor
newpath 914.5 84.72 moveto
911 74.72 lineto
907.5 84.72 lineto
closepath fill
1 setlinewidth
solid
0 0 0 edgecolor
newpath 914.5 84.72 moveto
911 74.72 lineto
907.5 84.72 lineto
closepath stroke
grestore
% 5->l1
gsave
1 setlinewidth
0 0 0 edgecolor
newpath 911 305.78 moveto
911 297.82 911 288.63 911 279.62 curveto
stroke
0 0 0 edgecolor
newpath 914.5 279.59 moveto
911 269.59 lineto
907.5 279.59 lineto
closepath fill
1 setlinewidth
solid
0 0 0 edgecolor
newpath 914.5 279.59 moveto
911 269.59 lineto
907.5 279.59 lineto
closepath stroke
grestore
% 6->l0e
gsave
1 setlinewidth
0 0 0 edgecolor
newpath 1279 119.83 moveto
1279 109.44 1279 96.97 1279 85.1 curveto
stroke
0 0 0 edgecolor
newpath 1282.5 84.87 moveto
1279 74.87 lineto
1275.5 84.87 lineto
closepath fill
1 setlinewidth
solid
0 0 0 edgecolor
newpath 1282.5 84.87 moveto
1279 74.87 lineto
1275.5 84.87 lineto
closepath stroke
grestore
% 7->l0
gsave
1 setlinewidth
0 0 0 edgecolor
newpath 1279 305.78 moveto
1279 297.82 1279 288.63 1279 279.62 curveto
stroke
0 0 0 edgecolor
newpath 1282.5 279.59 moveto
1279 269.59 lineto
1275.5 279.59 lineto
closepath fill
1 setlinewidth
solid
0 0 0 edgecolor
newpath 1282.5 279.59 moveto
1279 269.59 lineto
1275.5 279.59 lineto
closepath stroke
grestore
% 8->l3_start
gsave
1 setlinewidth
0 0 0 edgecolor
newpath 175 490.27 moveto
175 481.84 175 472.68 175 463.87 curveto
stroke
0 0 0 edgecolor
newpath 178.5 463.75 moveto
175 453.75 lineto
171.5 463.75 lineto
closepath fill
1 setlinewidth
solid
0 0 0 edgecolor
newpath 178.5 463.75 moveto
175 453.75 lineto
171.5 463.75 lineto
closepath stroke
grestore
% 9->l2_start
gsave
1 setlinewidth
0 0 0 edgecolor
newpath 543 490.27 moveto
543 481.84 543 472.68 543 463.87 curveto
stroke
0 0 0 edgecolor
newpath 546.5 463.75 moveto
543 453.75 lineto
539.5 463.75 lineto
closepath fill
1 setlinewidth
solid
0 0 0 edgecolor
newpath 546.5 463.75 moveto
543 453.75 lineto
539.5 463.75 lineto
closepath stroke
grestore
% 10->l1_start
gsave
1 setlinewidth
0 0 0 edgecolor
newpath 911 490.27 moveto
911 481.84 911 472.68 911 463.87 curveto
stroke
0 0 0 edgecolor
newpath 914.5 463.75 moveto
911 453.75 lineto
907.5 463.75 lineto
closepath fill
1 setlinewidth
solid
0 0 0 edgecolor
newpath 914.5 463.75 moveto
911 453.75 lineto
907.5 463.75 lineto
closepath stroke
grestore
% 11->l0_start
gsave
1 setlinewidth
0 0 0 edgecolor
newpath 1279 490.27 moveto
1279 481.84 1279 472.68 1279 463.87 curveto
stroke
0 0 0 edgecolor
newpath 1282.5 463.75 moveto
1279 453.75 lineto
1275.5 463.75 lineto
closepath fill
1 setlinewidth
solid
0 0 0 edgecolor
newpath 1282.5 463.75 moveto
1279 453.75 lineto
1275.5 463.75 lineto
closepath stroke
grestore
endpage
showpage
grestore
%%PageTrailer
%%EndPage: 3
%%Trailer
%%Pages: 3
%%BoundingBox: 36 36 1708 684
end
restore
%%EOF
