%!PS-Adobe-3.0
%%Creator: graphviz version 2.26.3 (20100126.1600)
%%Title: G
%%Pages: (atend)
%%BoundingBox: (atend)
%%EndComments
save
%%BeginProlog
/DotDict 200 dict def
DotDict begin

/setupLatin1 {
mark
/EncodingVector 256 array def
 EncodingVector 0

ISOLatin1Encoding 0 255 getinterval putinterval
EncodingVector 45 /hyphen put

% Set up ISO Latin 1 character encoding
/starnetISO {
        dup dup findfont dup length dict begin
        { 1 index /FID ne { def }{ pop pop } ifelse
        } forall
        /Encoding EncodingVector def
        currentdict end definefont
} def
/Times-Roman starnetISO def
/Times-Italic starnetISO def
/Times-Bold starnetISO def
/Times-BoldItalic starnetISO def
/Helvetica starnetISO def
/Helvetica-Oblique starnetISO def
/Helvetica-Bold starnetISO def
/Helvetica-BoldOblique starnetISO def
/Courier starnetISO def
/Courier-Oblique starnetISO def
/Courier-Bold starnetISO def
/Courier-BoldOblique starnetISO def
cleartomark
} bind def

%%BeginResource: procset graphviz 0 0
/coord-font-family /Times-Roman def
/default-font-family /Times-Roman def
/coordfont coord-font-family findfont 8 scalefont def

/InvScaleFactor 1.0 def
/set_scale {
       dup 1 exch div /InvScaleFactor exch def
       scale
} bind def

% styles
/solid { [] 0 setdash } bind def
/dashed { [9 InvScaleFactor mul dup ] 0 setdash } bind def
/dotted { [1 InvScaleFactor mul 6 InvScaleFactor mul] 0 setdash } bind def
/invis {/fill {newpath} def /stroke {newpath} def /show {pop newpath} def} bind def
/bold { 2 setlinewidth } bind def
/filled { } bind def
/unfilled { } bind def
/rounded { } bind def
/diagonals { } bind def

% hooks for setting color 
/nodecolor { sethsbcolor } bind def
/edgecolor { sethsbcolor } bind def
/graphcolor { sethsbcolor } bind def
/nopcolor {pop pop pop} bind def

/beginpage {	% i j npages
	/npages exch def
	/j exch def
	/i exch def
	/str 10 string def
	npages 1 gt {
		gsave
			coordfont setfont
			0 0 moveto
			(\() show i str cvs show (,) show j str cvs show (\)) show
		grestore
	} if
} bind def

/set_font {
	findfont exch
	scalefont setfont
} def

% draw text fitted to its expected width
/alignedtext {			% width text
	/text exch def
	/width exch def
	gsave
		width 0 gt {
			[] 0 setdash
			text stringwidth pop width exch sub text length div 0 text ashow
		} if
	grestore
} def

/boxprim {				% xcorner ycorner xsize ysize
		4 2 roll
		moveto
		2 copy
		exch 0 rlineto
		0 exch rlineto
		pop neg 0 rlineto
		closepath
} bind def

/ellipse_path {
	/ry exch def
	/rx exch def
	/y exch def
	/x exch def
	matrix currentmatrix
	newpath
	x y translate
	rx ry scale
	0 0 1 0 360 arc
	setmatrix
} bind def

/endpage { showpage } bind def
/showpage { } def

/layercolorseq
	[	% layer color sequence - darkest to lightest
		[0 0 0]
		[.2 .8 .8]
		[.4 .8 .8]
		[.6 .8 .8]
		[.8 .8 .8]
	]
def

/layerlen layercolorseq length def

/setlayer {/maxlayer exch def /curlayer exch def
	layercolorseq curlayer 1 sub layerlen mod get
	aload pop sethsbcolor
	/nodecolor {nopcolor} def
	/edgecolor {nopcolor} def
	/graphcolor {nopcolor} def
} bind def

/onlayer { curlayer ne {invis} if } def

/onlayers {
	/myupper exch def
	/mylower exch def
	curlayer mylower lt
	curlayer myupper gt
	or
	{invis} if
} def

/curlayer 0 def

%%EndResource
%%EndProlog
%%BeginSetup
14 default-font-family set_font
1 setmiterlimit
% /arrowlength 10 def
% /arrowwidth 5 def

% make sure pdfmark is harmless for PS-interpreters other than Distiller
/pdfmark where {pop} {userdict /pdfmark /cleartomark load put} ifelse
% make '<<' and '>>' safe on PS Level 1 devices
/languagelevel where {pop languagelevel}{1} ifelse
2 lt {
    userdict (<<) cvn ([) cvn load put
    userdict (>>) cvn ([) cvn load put
} if

%%EndSetup
setupLatin1
%%Page: 1 1
%%PageBoundingBox: 36 36 358 648
%%PageOrientation: Portrait
0 0 1 beginpage
gsave
36 36 322 612 boxprim clip newpath
1 1 set_scale 0 rotate 40 41 translate
% 1073741823
gsave
1 setlinewidth
0 0 0 nodecolor
73 581 43.84 19.09 ellipse_path stroke
0 0 0 nodecolor
18 /Times-Roman set_font
50 574.3 moveto 46 (Result) alignedtext
grestore
% l
gsave
1 setlinewidth
0 0 0 nodecolor
newpath 278 122 moveto
36 122 lineto
36 0 lineto
278 0 lineto
closepath stroke
0 0 0 nodecolor
18 /Times-Roman set_font
154.5 101.8 moveto 5 (l) alignedtext
0 0 0 nodecolor
18 /Times-Roman set_font
70.5 82.8 moveto 173 ([|ang in [-2.061 , 2.061];) alignedtext
0 0 0 nodecolor
18 /Times-Roman set_font
57 63.8 moveto 200 (  angDer in [-4.718 , 4.718];) alignedtext
0 0 0 nodecolor
18 /Times-Roman set_font
71 44.8 moveto 172 (  pos in [-3.262 , 3.262];) alignedtext
0 0 0 nodecolor
18 /Times-Roman set_font
69.5 25.8 moveto 175 (  speed in [-6.49 , 6.49]|]) alignedtext
0 0 0 nodecolor
18 /Times-Roman set_font
44 6.8 moveto 226 (268 constraints, 138 generators) alignedtext
grestore
% linit
gsave
1 setlinewidth
0 0 0 nodecolor
newpath 179 604 moveto
135 604 lineto
135 558 lineto
179 558 lineto
closepath stroke
0 0 0 nodecolor
18 /Times-Roman set_font
143 583.8 moveto 28 (linit) alignedtext
0 0 0 nodecolor
18 /Times-Roman set_font
145 564.8 moveto 24 (top) alignedtext
grestore
% 1
gsave
0 0 0 nodecolor
18 /Times-Roman set_font
56.5 501.3 moveto 201 (-ang+1>=0 and ang+1>=0 ?) alignedtext
0 0 0 nodecolor
18 /Times-Roman set_font
39.5 482.3 moveto 235 (angDer := 0; pos := 0; speed := 0) alignedtext
0 0 0 nodecolor
18 /Times-Roman set_font
150.5 463.3 moveto 13 (\(\)) alignedtext
grestore
% linit->1
gsave
1 setlinewidth
0 0 0 edgecolor
newpath 157 557.78 moveto
157 549.82 157 540.63 157 531.62 curveto
stroke
0 0 0 edgecolor
newpath 160.5 531.59 moveto
157 521.59 lineto
153.5 531.59 lineto
closepath fill
1 setlinewidth
solid
0 0 0 edgecolor
newpath 160.5 531.59 moveto
157 521.59 lineto
153.5 531.59 lineto
closepath stroke
grestore
% l_start
gsave
1 setlinewidth
0 0 0 nodecolor
newpath 287 420 moveto
27 420 lineto
27 336 lineto
287 336 lineto
closepath stroke
0 0 0 nodecolor
18 /Times-Roman set_font
134 399.8 moveto 46 (l_start) alignedtext
0 0 0 nodecolor
18 /Times-Roman set_font
34.5 380.8 moveto 245 ([|ang in [-1 , 1]; angDer=0; pos=0;) alignedtext
0 0 0 nodecolor
18 /Times-Roman set_font
117.5 361.8 moveto 79 (  speed=0|]) alignedtext
0 0 0 nodecolor
18 /Times-Roman set_font
62 342.8 moveto 190 (5 constraints, 2 generators) alignedtext
grestore
% 0
gsave
0 0 0 nodecolor
18 /Times-Roman set_font
70 279.3 moveto 174 (ang := ang+0.01angDer;) alignedtext
0 0 0 nodecolor
18 /Times-Roman set_font
8 260.3 moveto 298 (angDer := -0.51ang+0.85angDer+0.04pos) alignedtext
0 0 0 nodecolor
18 /Times-Roman set_font
91.5 241.3 moveto 131 (          +0.07speed;) alignedtext
0 0 0 nodecolor
18 /Times-Roman set_font
77.5 222.3 moveto 159 (pos := pos+0.01speed;) alignedtext
0 0 0 nodecolor
18 /Times-Roman set_font
20 203.3 moveto 274 (speed := -0.3ang-0.06angDer+0.02pos) alignedtext
0 0 0 nodecolor
18 /Times-Roman set_font
88.5 184.3 moveto 137 (         +1.03speed\)*) alignedtext
0 0 0 nodecolor
18 /Times-Roman set_font
150.5 165.3 moveto 13 (\(\)) alignedtext
grestore
% l_start->0
gsave
1 setlinewidth
0 0 0 edgecolor
newpath 157 335.7 moveto
157 327.51 157 318.68 157 309.73 curveto
stroke
0 0 0 edgecolor
newpath 160.5 309.6 moveto
157 299.6 lineto
153.5 309.6 lineto
closepath fill
1 setlinewidth
solid
0 0 0 edgecolor
newpath 160.5 309.6 moveto
157 299.6 lineto
153.5 309.6 lineto
closepath stroke
grestore
% 0->l
gsave
1 setlinewidth
0 0 0 edgecolor
newpath 157 158.24 moveto
157 149.6 157 140.77 157 132.13 curveto
stroke
0 0 0 edgecolor
newpath 160.5 132.1 moveto
157 122.1 lineto
153.5 132.1 lineto
closepath fill
1 setlinewidth
solid
0 0 0 edgecolor
newpath 160.5 132.1 moveto
157 122.1 lineto
153.5 132.1 lineto
closepath stroke
grestore
% 1->l_start
gsave
1 setlinewidth
0 0 0 edgecolor
newpath 157 456.3 moveto
157 448.21 157 439.34 157 430.56 curveto
stroke
0 0 0 edgecolor
newpath 160.5 430.36 moveto
157 420.36 lineto
153.5 430.36 lineto
closepath fill
1 setlinewidth
solid
0 0 0 edgecolor
newpath 160.5 430.36 moveto
157 420.36 lineto
153.5 430.36 lineto
closepath stroke
grestore
endpage
showpage
grestore
%%PageTrailer
%%EndPage: 1
setupLatin1
%%Page: 2 2
%%PageBoundingBox: 36 36 358 452
%%PageOrientation: Portrait
0 0 1 beginpage
gsave
36 36 322 416 boxprim clip newpath
1 1 set_scale 0 rotate 40 41 translate
% 1073741823
gsave
1 setlinewidth
0 0 0 nodecolor
73 385 43.84 19.09 ellipse_path stroke
0 0 0 nodecolor
18 /Times-Roman set_font
50 378.3 moveto 46 (Result) alignedtext
grestore
% linit
gsave
1 setlinewidth
0 0 0 nodecolor
newpath 179 408 moveto
135 408 lineto
135 362 lineto
179 362 lineto
closepath stroke
0 0 0 nodecolor
18 /Times-Roman set_font
143 387.8 moveto 28 (linit) alignedtext
0 0 0 nodecolor
18 /Times-Roman set_font
145 368.8 moveto 24 (top) alignedtext
grestore
% 1
gsave
0 0 0 nodecolor
18 /Times-Roman set_font
56.5 305.3 moveto 201 (-ang+1>=0 and ang+1>=0 ?) alignedtext
0 0 0 nodecolor
18 /Times-Roman set_font
39.5 286.3 moveto 235 (angDer := 0; pos := 0; speed := 0) alignedtext
0 0 0 nodecolor
18 /Times-Roman set_font
150.5 267.3 moveto 13 (\(\)) alignedtext
grestore
% linit->1
gsave
1 setlinewidth
0 0 0 edgecolor
newpath 157 361.78 moveto
157 353.82 157 344.63 157 335.62 curveto
stroke
0 0 0 edgecolor
newpath 160.5 335.59 moveto
157 325.59 lineto
153.5 335.59 lineto
closepath fill
1 setlinewidth
solid
0 0 0 edgecolor
newpath 160.5 335.59 moveto
157 325.59 lineto
153.5 335.59 lineto
closepath stroke
grestore
% l
gsave
1 setlinewidth
0 0 0 nodecolor
newpath 177 224 moveto
137 224 lineto
137 178 lineto
177 178 lineto
closepath stroke
0 0 0 nodecolor
18 /Times-Roman set_font
154.5 203.8 moveto 5 (l) alignedtext
0 0 0 nodecolor
18 /Times-Roman set_font
145 184.8 moveto 24 (top) alignedtext
grestore
% 0
gsave
0 0 0 nodecolor
18 /Times-Roman set_font
70 121.3 moveto 174 (ang := ang+0.01angDer;) alignedtext
0 0 0 nodecolor
18 /Times-Roman set_font
8 102.3 moveto 298 (angDer := -0.51ang+0.85angDer+0.04pos) alignedtext
0 0 0 nodecolor
18 /Times-Roman set_font
91.5 83.3 moveto 131 (          +0.07speed;) alignedtext
0 0 0 nodecolor
18 /Times-Roman set_font
77.5 64.3 moveto 159 (pos := pos+0.01speed;) alignedtext
0 0 0 nodecolor
18 /Times-Roman set_font
20 45.3 moveto 274 (speed := -0.3ang-0.06angDer+0.02pos) alignedtext
0 0 0 nodecolor
18 /Times-Roman set_font
96 26.3 moveto 122 (         +1.03speed) alignedtext
0 0 0 nodecolor
18 /Times-Roman set_font
150.5 7.3 moveto 13 (\(\)) alignedtext
grestore
% l->0
gsave
1 setlinewidth
0 0 0 edgecolor
newpath 151.68 177.76 moveto
151.07 170.2 150.65 161.33 150.43 151.99 curveto
stroke
0 0 0 edgecolor
newpath 153.93 151.65 moveto
150.27 141.71 lineto
146.93 151.76 lineto
closepath fill
1 setlinewidth
solid
0 0 0 edgecolor
newpath 153.93 151.65 moveto
150.27 141.71 lineto
146.93 151.76 lineto
closepath stroke
grestore
% 0->l
gsave
1 setlinewidth
0 0 0 edgecolor
newpath 163.73 141.71 moveto
163.65 150.77 163.4 159.68 162.98 167.73 curveto
stroke
0 0 0 edgecolor
newpath 159.48 167.55 moveto
162.32 177.76 lineto
166.47 168.01 lineto
closepath fill
1 setlinewidth
solid
0 0 0 edgecolor
newpath 159.48 167.55 moveto
162.32 177.76 lineto
166.47 168.01 lineto
closepath stroke
grestore
% 1->l
gsave
1 setlinewidth
0 0 0 edgecolor
newpath 157 260.31 moveto
157 251.79 157 242.6 157 234.06 curveto
stroke
0 0 0 edgecolor
newpath 160.5 234.06 moveto
157 224.06 lineto
153.5 234.06 lineto
closepath fill
1 setlinewidth
solid
0 0 0 edgecolor
newpath 160.5 234.06 moveto
157 224.06 lineto
153.5 234.06 lineto
closepath stroke
grestore
endpage
showpage
grestore
%%PageTrailer
%%EndPage: 2
setupLatin1
%%Page: 3 3
%%PageBoundingBox: 36 36 358 572
%%PageOrientation: Portrait
0 0 1 beginpage
gsave
36 36 322 536 boxprim clip newpath
1 1 set_scale 0 rotate 40 41 translate
% 1073741823
gsave
1 setlinewidth
0 0 0 nodecolor
73 505 43.84 19.09 ellipse_path stroke
0 0 0 nodecolor
18 /Times-Roman set_font
50 498.3 moveto 46 (Result) alignedtext
grestore
% l
gsave
1 setlinewidth
0 0 0 nodecolor
newpath 177 46 moveto
137 46 lineto
137 0 lineto
177 0 lineto
closepath stroke
0 0 0 nodecolor
18 /Times-Roman set_font
154.5 25.8 moveto 5 (l) alignedtext
0 0 0 nodecolor
18 /Times-Roman set_font
145 6.8 moveto 24 (top) alignedtext
grestore
% linit
gsave
1 setlinewidth
0 0 0 nodecolor
newpath 179 528 moveto
135 528 lineto
135 482 lineto
179 482 lineto
closepath stroke
0 0 0 nodecolor
18 /Times-Roman set_font
143 507.8 moveto 28 (linit) alignedtext
0 0 0 nodecolor
18 /Times-Roman set_font
145 488.8 moveto 24 (top) alignedtext
grestore
% 1
gsave
0 0 0 nodecolor
18 /Times-Roman set_font
56.5 425.3 moveto 201 (-ang+1>=0 and ang+1>=0 ?) alignedtext
0 0 0 nodecolor
18 /Times-Roman set_font
39.5 406.3 moveto 235 (angDer := 0; pos := 0; speed := 0) alignedtext
0 0 0 nodecolor
18 /Times-Roman set_font
150.5 387.3 moveto 13 (\(\)) alignedtext
grestore
% linit->1
gsave
1 setlinewidth
0 0 0 edgecolor
newpath 157 481.78 moveto
157 473.82 157 464.63 157 455.62 curveto
stroke
0 0 0 edgecolor
newpath 160.5 455.59 moveto
157 445.59 lineto
153.5 455.59 lineto
closepath fill
1 setlinewidth
solid
0 0 0 edgecolor
newpath 160.5 455.59 moveto
157 445.59 lineto
153.5 455.59 lineto
closepath stroke
grestore
% l_start
gsave
1 setlinewidth
0 0 0 nodecolor
newpath 287 344 moveto
27 344 lineto
27 260 lineto
287 260 lineto
closepath stroke
0 0 0 nodecolor
18 /Times-Roman set_font
134 323.8 moveto 46 (l_start) alignedtext
0 0 0 nodecolor
18 /Times-Roman set_font
34.5 304.8 moveto 245 ([|ang in [-1 , 1]; angDer=0; pos=0;) alignedtext
0 0 0 nodecolor
18 /Times-Roman set_font
117.5 285.8 moveto 79 (  speed=0|]) alignedtext
0 0 0 nodecolor
18 /Times-Roman set_font
62 266.8 moveto 190 (5 constraints, 2 generators) alignedtext
grestore
% 0
gsave
0 0 0 nodecolor
18 /Times-Roman set_font
70 203.3 moveto 174 (ang := ang+0.01angDer;) alignedtext
0 0 0 nodecolor
18 /Times-Roman set_font
8 184.3 moveto 298 (angDer := -0.51ang+0.85angDer+0.04pos) alignedtext
0 0 0 nodecolor
18 /Times-Roman set_font
91.5 165.3 moveto 131 (          +0.07speed;) alignedtext
0 0 0 nodecolor
18 /Times-Roman set_font
77.5 146.3 moveto 159 (pos := pos+0.01speed;) alignedtext
0 0 0 nodecolor
18 /Times-Roman set_font
20 127.3 moveto 274 (speed := -0.3ang-0.06angDer+0.02pos) alignedtext
0 0 0 nodecolor
18 /Times-Roman set_font
88.5 108.3 moveto 137 (         +1.03speed\)*) alignedtext
0 0 0 nodecolor
18 /Times-Roman set_font
150.5 89.3 moveto 13 (\(\)) alignedtext
grestore
% l_start->0
gsave
1 setlinewidth
0 0 0 edgecolor
newpath 157 259.7 moveto
157 251.51 157 242.68 157 233.73 curveto
stroke
0 0 0 edgecolor
newpath 160.5 233.6 moveto
157 223.6 lineto
153.5 233.6 lineto
closepath fill
1 setlinewidth
solid
0 0 0 edgecolor
newpath 160.5 233.6 moveto
157 223.6 lineto
153.5 233.6 lineto
closepath stroke
grestore
% 0->l
gsave
1 setlinewidth
0 0 0 edgecolor
newpath 157 82.29 moveto
157 73.18 157 64.23 157 56.14 curveto
stroke
0 0 0 edgecolor
newpath 160.5 56.08 moveto
157 46.08 lineto
153.5 56.08 lineto
closepath fill
1 setlinewidth
solid
0 0 0 edgecolor
newpath 160.5 56.08 moveto
157 46.08 lineto
153.5 56.08 lineto
closepath stroke
grestore
% 1->l_start
gsave
1 setlinewidth
0 0 0 edgecolor
newpath 157 380.3 moveto
157 372.21 157 363.34 157 354.56 curveto
stroke
0 0 0 edgecolor
newpath 160.5 354.36 moveto
157 344.36 lineto
153.5 354.36 lineto
closepath fill
1 setlinewidth
solid
0 0 0 edgecolor
newpath 160.5 354.36 moveto
157 344.36 lineto
153.5 354.36 lineto
closepath stroke
grestore
endpage
showpage
grestore
%%PageTrailer
%%EndPage: 3
%%Trailer
%%Pages: 3
%%BoundingBox: 36 36 358 648
end
restore
%%EOF
