%!PS-Adobe-3.0
%%Creator: graphviz version 2.26.3 (20100126.1600)
%%Title: G
%%Pages: (atend)
%%BoundingBox: (atend)
%%EndComments
save
%%BeginProlog
/DotDict 200 dict def
DotDict begin

/setupLatin1 {
mark
/EncodingVector 256 array def
 EncodingVector 0

ISOLatin1Encoding 0 255 getinterval putinterval
EncodingVector 45 /hyphen put

% Set up ISO Latin 1 character encoding
/starnetISO {
        dup dup findfont dup length dict begin
        { 1 index /FID ne { def }{ pop pop } ifelse
        } forall
        /Encoding EncodingVector def
        currentdict end definefont
} def
/Times-Roman starnetISO def
/Times-Italic starnetISO def
/Times-Bold starnetISO def
/Times-BoldItalic starnetISO def
/Helvetica starnetISO def
/Helvetica-Oblique starnetISO def
/Helvetica-Bold starnetISO def
/Helvetica-BoldOblique starnetISO def
/Courier starnetISO def
/Courier-Oblique starnetISO def
/Courier-Bold starnetISO def
/Courier-BoldOblique starnetISO def
cleartomark
} bind def

%%BeginResource: procset graphviz 0 0
/coord-font-family /Times-Roman def
/default-font-family /Times-Roman def
/coordfont coord-font-family findfont 8 scalefont def

/InvScaleFactor 1.0 def
/set_scale {
       dup 1 exch div /InvScaleFactor exch def
       scale
} bind def

% styles
/solid { [] 0 setdash } bind def
/dashed { [9 InvScaleFactor mul dup ] 0 setdash } bind def
/dotted { [1 InvScaleFactor mul 6 InvScaleFactor mul] 0 setdash } bind def
/invis {/fill {newpath} def /stroke {newpath} def /show {pop newpath} def} bind def
/bold { 2 setlinewidth } bind def
/filled { } bind def
/unfilled { } bind def
/rounded { } bind def
/diagonals { } bind def

% hooks for setting color 
/nodecolor { sethsbcolor } bind def
/edgecolor { sethsbcolor } bind def
/graphcolor { sethsbcolor } bind def
/nopcolor {pop pop pop} bind def

/beginpage {	% i j npages
	/npages exch def
	/j exch def
	/i exch def
	/str 10 string def
	npages 1 gt {
		gsave
			coordfont setfont
			0 0 moveto
			(\() show i str cvs show (,) show j str cvs show (\)) show
		grestore
	} if
} bind def

/set_font {
	findfont exch
	scalefont setfont
} def

% draw text fitted to its expected width
/alignedtext {			% width text
	/text exch def
	/width exch def
	gsave
		width 0 gt {
			[] 0 setdash
			text stringwidth pop width exch sub text length div 0 text ashow
		} if
	grestore
} def

/boxprim {				% xcorner ycorner xsize ysize
		4 2 roll
		moveto
		2 copy
		exch 0 rlineto
		0 exch rlineto
		pop neg 0 rlineto
		closepath
} bind def

/ellipse_path {
	/ry exch def
	/rx exch def
	/y exch def
	/x exch def
	matrix currentmatrix
	newpath
	x y translate
	rx ry scale
	0 0 1 0 360 arc
	setmatrix
} bind def

/endpage { showpage } bind def
/showpage { } def

/layercolorseq
	[	% layer color sequence - darkest to lightest
		[0 0 0]
		[.2 .8 .8]
		[.4 .8 .8]
		[.6 .8 .8]
		[.8 .8 .8]
	]
def

/layerlen layercolorseq length def

/setlayer {/maxlayer exch def /curlayer exch def
	layercolorseq curlayer 1 sub layerlen mod get
	aload pop sethsbcolor
	/nodecolor {nopcolor} def
	/edgecolor {nopcolor} def
	/graphcolor {nopcolor} def
} bind def

/onlayer { curlayer ne {invis} if } def

/onlayers {
	/myupper exch def
	/mylower exch def
	curlayer mylower lt
	curlayer myupper gt
	or
	{invis} if
} def

/curlayer 0 def

%%EndResource
%%EndProlog
%%BeginSetup
14 default-font-family set_font
1 setmiterlimit
% /arrowlength 10 def
% /arrowwidth 5 def

% make sure pdfmark is harmless for PS-interpreters other than Distiller
/pdfmark where {pop} {userdict /pdfmark /cleartomark load put} ifelse
% make '<<' and '>>' safe on PS Level 1 devices
/languagelevel where {pop languagelevel}{1} ifelse
2 lt {
    userdict (<<) cvn ([) cvn load put
    userdict (>>) cvn ([) cvn load put
} if

%%EndSetup
setupLatin1
%%Page: 1 1
%%PageBoundingBox: 36 36 596 3270
%%PageOrientation: Portrait
0 0 1 beginpage
gsave
36 36 560 3234 boxprim clip newpath
1 1 set_scale 0 rotate 40 41 translate
% 1073741823
gsave
1 setlinewidth
0 0 0 nodecolor
350.4 3203 43.84 19.09 ellipse_path stroke
0 0 0 nodecolor
18 /Times-Roman set_font
327.4 3196.3 moveto 46 (Result) alignedtext
grestore
% freepi
gsave
1 setlinewidth
0 0 0 nodecolor
newpath 546.4 2840 moveto
322.4 2840 lineto
322.4 2756 lineto
546.4 2756 lineto
closepath stroke
0 0 0 nodecolor
18 /Times-Roman set_font
413.9 2819.8 moveto 41 (freepi) alignedtext
0 0 0 nodecolor
18 /Times-Roman set_font
352.4 2800.8 moveto 164 ([|thetap in [3.473 , 10];) alignedtext
0 0 0 nodecolor
18 /Times-Roman set_font
351.4 2781.8 moveto 166 (  thetav in [-1.279 , 0]|]) alignedtext
0 0 0 nodecolor
18 /Times-Roman set_font
330.4 2762.8 moveto 208 (11 constraints, 11 generators) alignedtext
grestore
% 13
gsave
0 0 0 nodecolor
18 /Times-Roman set_font
376.9 2699.8 moveto 115 (-thetap+4>=0 ? ) alignedtext
0 0 0 nodecolor
18 /Times-Roman set_font
427.9 2680.8 moveto 13 (\(\)) alignedtext
grestore
% freepi->13
gsave
1 setlinewidth
0 0 0 edgecolor
newpath 434.4 2755.75 moveto
434.4 2747.26 434.4 2738.44 434.4 2730.31 curveto
stroke
0 0 0 edgecolor
newpath 437.9 2730.08 moveto
434.4 2720.08 lineto
430.9 2730.08 lineto
closepath fill
1 setlinewidth
solid
0 0 0 edgecolor
newpath 437.9 2730.08 moveto
434.4 2720.08 lineto
430.9 2730.08 lineto
closepath stroke
grestore
% dampedp_start
gsave
1 setlinewidth
0 0 0 nodecolor
newpath 543.4 2434 moveto
325.4 2434 lineto
325.4 2350 lineto
543.4 2350 lineto
closepath stroke
0 0 0 nodecolor
18 /Times-Roman set_font
380.9 2413.8 moveto 107 (dampedp_start) alignedtext
0 0 0 nodecolor
18 /Times-Roman set_font
356.9 2394.8 moveto 155 ([|thetap in [3.473 , 4];) alignedtext
0 0 0 nodecolor
18 /Times-Roman set_font
333.4 2375.8 moveto 202 (  thetav in [-1.279 , -1.141]|]) alignedtext
0 0 0 nodecolor
18 /Times-Roman set_font
339.4 2356.8 moveto 190 (5 constraints, 5 generators) alignedtext
grestore
% 15
gsave
0 0 0 nodecolor
18 /Times-Roman set_font
233.4 2293.8 moveto 244 (\(thetap+4>=0 and -thetap+4>=0 ?) alignedtext
0 0 0 nodecolor
18 /Times-Roman set_font
269.4 2274.8 moveto 172 (thetap := thetap+thetav;) alignedtext
0 0 0 nodecolor
18 /Times-Roman set_font
233.9 2255.8 moveto 243 (thetav := -1/64thetap+7/8thetav\)*) alignedtext
0 0 0 nodecolor
18 /Times-Roman set_font
348.9 2236.8 moveto 13 (\(\)) alignedtext
grestore
% dampedp_start->15
gsave
1 setlinewidth
0 0 0 edgecolor
newpath 406.54 2349.69 moveto
400.82 2341 394.74 2331.76 388.84 2322.81 curveto
stroke
0 0 0 edgecolor
newpath 391.69 2320.76 moveto
383.26 2314.33 lineto
385.84 2324.61 lineto
closepath fill
1 setlinewidth
solid
0 0 0 edgecolor
newpath 391.69 2320.76 moveto
383.26 2314.33 lineto
385.84 2324.61 lineto
closepath stroke
grestore
% dampedne2
gsave
1 setlinewidth
0 0 0 nodecolor
newpath 245.4 700 moveto
39.4 700 lineto
39.4 616 lineto
245.4 616 lineto
closepath stroke
0 0 0 nodecolor
18 /Times-Roman set_font
100.4 679.8 moveto 84 (dampedne2) alignedtext
0 0 0 nodecolor
18 /Times-Roman set_font
58.9 660.8 moveto 167 ([|thetap in [-4.253 , -4];) alignedtext
0 0 0 nodecolor
18 /Times-Roman set_font
54.9 641.8 moveto 175 (  thetav in [-0.2531 , 0]|]) alignedtext
0 0 0 nodecolor
18 /Times-Roman set_font
47.4 622.8 moveto 190 (4 constraints, 4 generators) alignedtext
grestore
% 2
gsave
0 0 0 nodecolor
18 /Times-Roman set_font
65.9 538.8 moveto 13 (\(\)) alignedtext
grestore
% dampedne2->2
gsave
1 setlinewidth
0 0 0 edgecolor
newpath 113.52 615.92 moveto
106.37 605.5 98.87 594.57 92.26 584.94 curveto
stroke
0 0 0 edgecolor
newpath 95.02 582.78 moveto
86.47 576.51 lineto
89.24 586.74 lineto
closepath fill
1 setlinewidth
solid
0 0 0 edgecolor
newpath 95.02 582.78 moveto
86.47 576.51 lineto
89.24 586.74 lineto
closepath stroke
grestore
% freen_start
gsave
1 setlinewidth
0 0 0 nodecolor
newpath 274.4 1788 moveto
44.4 1788 lineto
44.4 1704 lineto
274.4 1704 lineto
closepath stroke
0 0 0 nodecolor
18 /Times-Roman set_font
120.9 1767.8 moveto 77 (freen_start) alignedtext
0 0 0 nodecolor
18 /Times-Roman set_font
75.9 1748.8 moveto 167 ([|thetap in [-4.255 , -4];) alignedtext
0 0 0 nodecolor
18 /Times-Roman set_font
52.4 1729.8 moveto 214 (  thetav in [-0.2531 , 0.0625]|]) alignedtext
0 0 0 nodecolor
18 /Times-Roman set_font
64.4 1710.8 moveto 190 (5 constraints, 5 generators) alignedtext
grestore
% 16
gsave
0 0 0 nodecolor
18 /Times-Roman set_font
102.4 1647.8 moveto 114 (\(-thetap-4>=0 ?) alignedtext
0 0 0 nodecolor
18 /Times-Roman set_font
73.4 1628.8 moveto 172 (thetap := thetap+thetav;) alignedtext
0 0 0 nodecolor
18 /Times-Roman set_font
49.4 1609.8 moveto 220 (thetav := -1/64thetap+thetav\)*) alignedtext
0 0 0 nodecolor
18 /Times-Roman set_font
152.9 1590.8 moveto 13 (\(\)) alignedtext
grestore
% freen_start->16
gsave
1 setlinewidth
0 0 0 edgecolor
newpath 159.4 1703.69 moveto
159.4 1695.54 159.4 1686.9 159.4 1678.47 curveto
stroke
0 0 0 edgecolor
newpath 162.9 1678.33 moveto
159.4 1668.33 lineto
155.9 1678.33 lineto
closepath fill
1 setlinewidth
solid
0 0 0 edgecolor
newpath 162.9 1678.33 moveto
159.4 1668.33 lineto
155.9 1678.33 lineto
closepath stroke
grestore
% freen
gsave
1 setlinewidth
0 0 0 nodecolor
newpath 274.4 1548 moveto
44.4 1548 lineto
44.4 1464 lineto
274.4 1464 lineto
closepath stroke
0 0 0 nodecolor
18 /Times-Roman set_font
140.9 1527.8 moveto 37 (freen) alignedtext
0 0 0 nodecolor
18 /Times-Roman set_font
60.4 1508.8 moveto 198 ([|thetap in [-4.635 , -3.679];) alignedtext
0 0 0 nodecolor
18 /Times-Roman set_font
52.4 1489.8 moveto 214 (  thetav in [-0.2531 , 0.3839]|]) alignedtext
0 0 0 nodecolor
18 /Times-Roman set_font
64.4 1470.8 moveto 190 (9 constraints, 9 generators) alignedtext
grestore
% 7
gsave
0 0 0 nodecolor
18 /Times-Roman set_font
104.9 1407.8 moveto 109 (thetap+4>=0 ? ) alignedtext
0 0 0 nodecolor
18 /Times-Roman set_font
152.9 1388.8 moveto 13 (\(\)) alignedtext
grestore
% freen->7
gsave
1 setlinewidth
0 0 0 edgecolor
newpath 159.4 1463.75 moveto
159.4 1455.26 159.4 1446.44 159.4 1438.31 curveto
stroke
0 0 0 edgecolor
newpath 162.9 1438.08 moveto
159.4 1428.08 lineto
155.9 1438.08 lineto
closepath fill
1 setlinewidth
solid
0 0 0 edgecolor
newpath 162.9 1438.08 moveto
159.4 1428.08 lineto
155.9 1438.08 lineto
closepath stroke
grestore
% dampedne
gsave
1 setlinewidth
0 0 0 nodecolor
newpath 401.4 681 moveto
311.4 681 lineto
311.4 635 lineto
401.4 635 lineto
closepath stroke
0 0 0 nodecolor
18 /Times-Roman set_font
318.9 660.8 moveto 75 (dampedne) alignedtext
0 0 0 nodecolor
18 /Times-Roman set_font
330.4 641.8 moveto 52 (bottom) alignedtext
grestore
% 4
gsave
0 0 0 nodecolor
18 /Times-Roman set_font
353.9 538.8 moveto 13 (\(\)) alignedtext
grestore
% dampedne->4
gsave
1 setlinewidth
0 0 0 edgecolor
newpath 357.3 634.85 moveto
357.82 621.71 358.47 604.99 359.05 590.34 curveto
stroke
0 0 0 edgecolor
newpath 362.56 590.25 moveto
359.45 580.12 lineto
355.56 589.97 lineto
closepath fill
1 setlinewidth
solid
0 0 0 edgecolor
newpath 362.56 590.25 moveto
359.45 580.12 lineto
355.56 589.97 lineto
closepath stroke
grestore
% freepi_start
gsave
1 setlinewidth
0 0 0 nodecolor
newpath 537.4 3061.5 moveto
331.4 3061.5 lineto
331.4 2996.5 lineto
537.4 2996.5 lineto
closepath stroke
0 0 0 nodecolor
18 /Times-Roman set_font
393.4 3041.3 moveto 82 (freepi_start) alignedtext
0 0 0 nodecolor
18 /Times-Roman set_font
352.4 3022.3 moveto 164 ([|thetap=10; thetav=0|]) alignedtext
0 0 0 nodecolor
18 /Times-Roman set_font
339.4 3003.3 moveto 190 (2 constraints, 1 generators) alignedtext
grestore
% 18
gsave
0 0 0 nodecolor
18 /Times-Roman set_font
380.4 2939.8 moveto 108 (\(thetap-4>=0 ?) alignedtext
0 0 0 nodecolor
18 /Times-Roman set_font
348.4 2920.8 moveto 172 (thetap := thetap+thetav;) alignedtext
0 0 0 nodecolor
18 /Times-Roman set_font
324.4 2901.8 moveto 220 (thetav := -1/64thetap+thetav\)*) alignedtext
0 0 0 nodecolor
18 /Times-Roman set_font
427.9 2882.8 moveto 13 (\(\)) alignedtext
grestore
% freepi_start->18
gsave
1 setlinewidth
0 0 0 edgecolor
newpath 434.4 2996.3 moveto
434.4 2988.21 434.4 2979.34 434.4 2970.56 curveto
stroke
0 0 0 edgecolor
newpath 437.9 2970.36 moveto
434.4 2960.36 lineto
430.9 2970.36 lineto
closepath fill
1 setlinewidth
solid
0 0 0 edgecolor
newpath 437.9 2970.36 moveto
434.4 2960.36 lineto
430.9 2970.36 lineto
closepath stroke
grestore
% freep
gsave
1 setlinewidth
0 0 0 nodecolor
newpath 415.4 294 moveto
347.4 294 lineto
347.4 248 lineto
415.4 248 lineto
closepath stroke
0 0 0 nodecolor
18 /Times-Roman set_font
362.9 273.8 moveto 37 (freep) alignedtext
0 0 0 nodecolor
18 /Times-Roman set_font
355.4 254.8 moveto 52 (bottom) alignedtext
grestore
% 1
gsave
0 0 0 nodecolor
18 /Times-Roman set_font
349.9 191.8 moveto 115 (-thetap+4>=0 ? ) alignedtext
0 0 0 nodecolor
18 /Times-Roman set_font
400.9 172.8 moveto 13 (\(\)) alignedtext
grestore
% freep->1
gsave
1 setlinewidth
0 0 0 edgecolor
newpath 388.78 247.72 moveto
391.35 239.6 394.29 230.34 397.06 221.6 curveto
stroke
0 0 0 edgecolor
newpath 400.4 222.64 moveto
400.09 212.05 lineto
393.73 220.53 lineto
closepath fill
1 setlinewidth
solid
0 0 0 edgecolor
newpath 400.4 222.64 moveto
400.09 212.05 lineto
393.73 220.53 lineto
closepath stroke
grestore
% dampedpe
gsave
1 setlinewidth
0 0 0 nodecolor
newpath 275.4 1992 moveto
45.4 1992 lineto
45.4 1908 lineto
275.4 1908 lineto
closepath stroke
0 0 0 nodecolor
18 /Times-Roman set_font
122.9 1971.8 moveto 75 (dampedpe) alignedtext
0 0 0 nodecolor
18 /Times-Roman set_font
76.9 1952.8 moveto 167 ([|thetap in [-4.255 , -4];) alignedtext
0 0 0 nodecolor
18 /Times-Roman set_font
53.4 1933.8 moveto 214 (  thetav in [-0.2531 , 0.0625]|]) alignedtext
0 0 0 nodecolor
18 /Times-Roman set_font
65.4 1914.8 moveto 190 (4 constraints, 4 generators) alignedtext
grestore
% 10
gsave
0 0 0 nodecolor
18 /Times-Roman set_font
152.9 1830.8 moveto 13 (\(\)) alignedtext
grestore
% dampedpe->10
gsave
1 setlinewidth
0 0 0 edgecolor
newpath 159.98 1907.92 moveto
159.9 1899.36 159.81 1890.45 159.73 1882.19 curveto
stroke
0 0 0 edgecolor
newpath 163.23 1882.14 moveto
159.63 1872.17 lineto
156.23 1882.2 lineto
closepath fill
1 setlinewidth
solid
0 0 0 edgecolor
newpath 163.23 1882.14 moveto
159.63 1872.17 lineto
156.23 1882.2 lineto
closepath stroke
grestore
% linit
gsave
1 setlinewidth
0 0 0 nodecolor
newpath 456.4 3226 moveto
412.4 3226 lineto
412.4 3180 lineto
456.4 3180 lineto
closepath stroke
0 0 0 nodecolor
18 /Times-Roman set_font
420.4 3205.8 moveto 28 (linit) alignedtext
0 0 0 nodecolor
18 /Times-Roman set_font
422.4 3186.8 moveto 24 (top) alignedtext
grestore
% 19
gsave
0 0 0 nodecolor
18 /Times-Roman set_font
332.4 3123.8 moveto 204 (thetav=0 and thetap-10=0 ? ) alignedtext
0 0 0 nodecolor
18 /Times-Roman set_font
427.9 3104.8 moveto 13 (\(\)) alignedtext
grestore
% linit->19
gsave
1 setlinewidth
0 0 0 edgecolor
newpath 434.4 3179.72 moveto
434.4 3171.78 434.4 3162.73 434.4 3154.16 curveto
stroke
0 0 0 edgecolor
newpath 437.9 3154.05 moveto
434.4 3144.05 lineto
430.9 3154.05 lineto
closepath fill
1 setlinewidth
solid
0 0 0 edgecolor
newpath 437.9 3154.05 moveto
434.4 3144.05 lineto
430.9 3154.05 lineto
closepath stroke
grestore
% dampedn_start
gsave
1 setlinewidth
0 0 0 nodecolor
newpath 274.4 1142 moveto
44.4 1142 lineto
44.4 1058 lineto
274.4 1058 lineto
closepath stroke
0 0 0 nodecolor
18 /Times-Roman set_font
105.9 1121.8 moveto 107 (dampedn_start) alignedtext
0 0 0 nodecolor
18 /Times-Roman set_font
75.9 1102.8 moveto 167 ([|thetap in [-4 , -3.679];) alignedtext
0 0 0 nodecolor
18 /Times-Roman set_font
52.4 1083.8 moveto 214 (  thetav in [-0.2531 , 0.3839]|]) alignedtext
0 0 0 nodecolor
18 /Times-Roman set_font
64.4 1064.8 moveto 190 (5 constraints, 5 generators) alignedtext
grestore
% 14
gsave
0 0 0 nodecolor
18 /Times-Roman set_font
37.4 1001.8 moveto 244 (\(thetap+4>=0 and -thetap+4>=0 ?) alignedtext
0 0 0 nodecolor
18 /Times-Roman set_font
73.4 982.8 moveto 172 (thetap := thetap+thetav;) alignedtext
0 0 0 nodecolor
18 /Times-Roman set_font
37.9 963.8 moveto 243 (thetav := -1/64thetap+7/8thetav\)*) alignedtext
0 0 0 nodecolor
18 /Times-Roman set_font
152.9 944.8 moveto 13 (\(\)) alignedtext
grestore
% dampedn_start->14
gsave
1 setlinewidth
0 0 0 edgecolor
newpath 159.4 1057.69 moveto
159.4 1049.54 159.4 1040.9 159.4 1032.47 curveto
stroke
0 0 0 edgecolor
newpath 162.9 1032.33 moveto
159.4 1022.33 lineto
155.9 1032.33 lineto
closepath fill
1 setlinewidth
solid
0 0 0 edgecolor
newpath 162.9 1032.33 moveto
159.4 1022.33 lineto
155.9 1032.33 lineto
closepath stroke
grestore
% dampedpe2
gsave
1 setlinewidth
0 0 0 nodecolor
newpath 451.4 1973 moveto
351.4 1973 lineto
351.4 1927 lineto
451.4 1927 lineto
closepath stroke
0 0 0 nodecolor
18 /Times-Roman set_font
359.4 1952.8 moveto 84 (dampedpe2) alignedtext
0 0 0 nodecolor
18 /Times-Roman set_font
375.4 1933.8 moveto 52 (bottom) alignedtext
grestore
% 8
gsave
0 0 0 nodecolor
18 /Times-Roman set_font
424.9 1728.8 moveto 13 (\(\)) alignedtext
grestore
% dampedpe2->8
gsave
1 setlinewidth
0 0 0 edgecolor
newpath 404.78 1927 moveto
410.05 1891.16 420.25 1821.82 426.37 1780.15 curveto
stroke
0 0 0 edgecolor
newpath 429.85 1780.59 moveto
427.84 1770.18 lineto
422.92 1779.57 lineto
closepath fill
1 setlinewidth
solid
0 0 0 edgecolor
newpath 429.85 1780.59 moveto
427.84 1770.18 lineto
422.92 1779.57 lineto
closepath stroke
grestore
% freep_start
gsave
1 setlinewidth
0 0 0 nodecolor
newpath 413.4 496 moveto
321.4 496 lineto
321.4 450 lineto
413.4 450 lineto
closepath stroke
0 0 0 nodecolor
18 /Times-Roman set_font
328.9 475.8 moveto 77 (freep_start) alignedtext
0 0 0 nodecolor
18 /Times-Roman set_font
341.4 456.8 moveto 52 (bottom) alignedtext
grestore
% 17
gsave
0 0 0 nodecolor
18 /Times-Roman set_font
313.4 393.8 moveto 108 (\(thetap-4>=0 ?) alignedtext
0 0 0 nodecolor
18 /Times-Roman set_font
281.4 374.8 moveto 172 (thetap := thetap+thetav;) alignedtext
0 0 0 nodecolor
18 /Times-Roman set_font
257.4 355.8 moveto 220 (thetav := -1/64thetap+thetav\)*) alignedtext
0 0 0 nodecolor
18 /Times-Roman set_font
360.9 336.8 moveto 13 (\(\)) alignedtext
grestore
% freep_start->17
gsave
1 setlinewidth
0 0 0 edgecolor
newpath 367.4 449.83 moveto
367.4 442.13 367.4 433.21 367.4 424.22 curveto
stroke
0 0 0 edgecolor
newpath 370.9 424.11 moveto
367.4 414.11 lineto
363.9 424.11 lineto
closepath fill
1 setlinewidth
solid
0 0 0 edgecolor
newpath 370.9 424.11 moveto
367.4 414.11 lineto
363.9 424.11 lineto
closepath stroke
grestore
% freene
gsave
1 setlinewidth
0 0 0 nodecolor
newpath 274.4 1346 moveto
44.4 1346 lineto
44.4 1262 lineto
274.4 1262 lineto
closepath stroke
0 0 0 nodecolor
18 /Times-Roman set_font
136.9 1325.8 moveto 45 (freene) alignedtext
0 0 0 nodecolor
18 /Times-Roman set_font
75.9 1306.8 moveto 167 ([|thetap in [-4 , -3.679];) alignedtext
0 0 0 nodecolor
18 /Times-Roman set_font
52.4 1287.8 moveto 214 (  thetav in [-0.2531 , 0.3839]|]) alignedtext
0 0 0 nodecolor
18 /Times-Roman set_font
64.4 1268.8 moveto 190 (5 constraints, 5 generators) alignedtext
grestore
% 6
gsave
0 0 0 nodecolor
18 /Times-Roman set_font
152.9 1184.8 moveto 13 (\(\)) alignedtext
grestore
% freene->6
gsave
1 setlinewidth
0 0 0 edgecolor
newpath 159.4 1261.92 moveto
159.4 1253.36 159.4 1244.45 159.4 1236.19 curveto
stroke
0 0 0 edgecolor
newpath 162.9 1236.17 moveto
159.4 1226.17 lineto
155.9 1236.17 lineto
closepath fill
1 setlinewidth
solid
0 0 0 edgecolor
newpath 162.9 1236.17 moveto
159.4 1226.17 lineto
155.9 1236.17 lineto
closepath stroke
grestore
% freepie
gsave
1 setlinewidth
0 0 0 nodecolor
newpath 543.4 2638 moveto
325.4 2638 lineto
325.4 2554 lineto
543.4 2554 lineto
closepath stroke
0 0 0 nodecolor
18 /Times-Roman set_font
409.9 2617.8 moveto 49 (freepie) alignedtext
0 0 0 nodecolor
18 /Times-Roman set_font
356.9 2598.8 moveto 155 ([|thetap in [3.473 , 4];) alignedtext
0 0 0 nodecolor
18 /Times-Roman set_font
333.4 2579.8 moveto 202 (  thetav in [-1.279 , -1.141]|]) alignedtext
0 0 0 nodecolor
18 /Times-Roman set_font
339.4 2560.8 moveto 190 (5 constraints, 5 generators) alignedtext
grestore
% 12
gsave
0 0 0 nodecolor
18 /Times-Roman set_font
427.9 2476.8 moveto 13 (\(\)) alignedtext
grestore
% freepie->12
gsave
1 setlinewidth
0 0 0 edgecolor
newpath 434.4 2553.92 moveto
434.4 2545.36 434.4 2536.45 434.4 2528.19 curveto
stroke
0 0 0 edgecolor
newpath 437.9 2528.17 moveto
434.4 2518.17 lineto
430.9 2528.17 lineto
closepath fill
1 setlinewidth
solid
0 0 0 edgecolor
newpath 437.9 2528.17 moveto
434.4 2518.17 lineto
430.9 2528.17 lineto
closepath stroke
grestore
% dampedn
gsave
1 setlinewidth
0 0 0 nodecolor
newpath 271.4 902 moveto
47.4 902 lineto
47.4 818 lineto
271.4 818 lineto
closepath stroke
0 0 0 nodecolor
18 /Times-Roman set_font
125.9 881.8 moveto 67 (dampedn) alignedtext
0 0 0 nodecolor
18 /Times-Roman set_font
63.4 862.8 moveto 192 ([|thetap in [-4.253 , 1.109];) alignedtext
0 0 0 nodecolor
18 /Times-Roman set_font
56.9 843.8 moveto 205 (  thetav in [-0.2531 , 0.397]|]) alignedtext
0 0 0 nodecolor
18 /Times-Roman set_font
55.4 824.8 moveto 208 (23 constraints, 23 generators) alignedtext
grestore
% 3
gsave
0 0 0 nodecolor
18 /Times-Roman set_font
37.4 761.8 moveto 228 (-thetav>=0 and -thetap-4>=0 ? ) alignedtext
0 0 0 nodecolor
18 /Times-Roman set_font
144.9 742.8 moveto 13 (\(\)) alignedtext
grestore
% dampedn->3
gsave
1 setlinewidth
0 0 0 edgecolor
newpath 156.05 817.75 moveto
155.38 809.26 154.68 800.44 154.03 792.31 curveto
stroke
0 0 0 edgecolor
newpath 157.5 791.77 moveto
153.22 782.08 lineto
150.52 792.33 lineto
closepath fill
1 setlinewidth
solid
0 0 0 edgecolor
newpath 157.5 791.77 moveto
153.22 782.08 lineto
150.52 792.33 lineto
closepath stroke
grestore
% 5
gsave
0 0 0 nodecolor
18 /Times-Roman set_font
299.4 761.8 moveto 106 (thetap-4>=0 ? ) alignedtext
0 0 0 nodecolor
18 /Times-Roman set_font
345.9 742.8 moveto 13 (\(\)) alignedtext
grestore
% dampedn->5
gsave
1 setlinewidth
0 0 0 edgecolor
newpath 239.85 817.9 moveto
259.93 807.39 280.97 796.38 299.35 786.76 curveto
stroke
0 0 0 edgecolor
newpath 301.19 789.75 moveto
308.43 782.01 lineto
297.94 783.55 lineto
closepath fill
1 setlinewidth
solid
0 0 0 edgecolor
newpath 301.19 789.75 moveto
308.43 782.01 lineto
297.94 783.55 lineto
closepath stroke
grestore
% freepe
gsave
1 setlinewidth
0 0 0 nodecolor
newpath 463.4 130 moveto
395.4 130 lineto
395.4 84 lineto
463.4 84 lineto
closepath stroke
0 0 0 nodecolor
18 /Times-Roman set_font
406.9 109.8 moveto 45 (freepe) alignedtext
0 0 0 nodecolor
18 /Times-Roman set_font
403.4 90.8 moveto 52 (bottom) alignedtext
grestore
% 0
gsave
0 0 0 nodecolor
18 /Times-Roman set_font
464.9 6.8 moveto 13 (\(\)) alignedtext
grestore
% freepe->0
gsave
1 setlinewidth
0 0 0 edgecolor
newpath 441.1 83.88 moveto
445.27 75.62 450.07 66.14 454.59 57.2 curveto
stroke
0 0 0 edgecolor
newpath 457.78 58.66 moveto
459.17 48.15 lineto
451.54 55.5 lineto
closepath fill
1 setlinewidth
solid
0 0 0 edgecolor
newpath 457.78 58.66 moveto
459.17 48.15 lineto
451.54 55.5 lineto
closepath stroke
grestore
% dampedp
gsave
1 setlinewidth
0 0 0 nodecolor
newpath 467.4 2194 moveto
243.4 2194 lineto
243.4 2110 lineto
467.4 2110 lineto
closepath stroke
0 0 0 nodecolor
18 /Times-Roman set_font
321.9 2173.8 moveto 67 (dampedp) alignedtext
0 0 0 nodecolor
18 /Times-Roman set_font
274.9 2154.8 moveto 161 ([|thetap in [-4.255 , 4];) alignedtext
0 0 0 nodecolor
18 /Times-Roman set_font
252.9 2135.8 moveto 205 (  thetav in [-1.279 , 0.3319]|]) alignedtext
0 0 0 nodecolor
18 /Times-Roman set_font
251.4 2116.8 moveto 208 (24 constraints, 24 generators) alignedtext
grestore
% 9
gsave
0 0 0 nodecolor
18 /Times-Roman set_font
258.4 2053.8 moveto 216 (thetav>=0 and thetap-4>=0 ? ) alignedtext
0 0 0 nodecolor
18 /Times-Roman set_font
359.9 2034.8 moveto 13 (\(\)) alignedtext
grestore
% dampedp->9
gsave
1 setlinewidth
0 0 0 edgecolor
newpath 360 2109.75 moveto
360.93 2101.16 361.9 2092.25 362.8 2084.03 curveto
stroke
0 0 0 edgecolor
newpath 366.28 2084.4 moveto
363.88 2074.08 lineto
359.32 2083.64 lineto
closepath fill
1 setlinewidth
solid
0 0 0 edgecolor
newpath 366.28 2084.4 moveto
363.88 2074.08 lineto
359.32 2083.64 lineto
closepath stroke
grestore
% 11
gsave
0 0 0 nodecolor
18 /Times-Roman set_font
106.4 2053.8 moveto 112 (-thetap-4>=0 ? ) alignedtext
0 0 0 nodecolor
18 /Times-Roman set_font
155.9 2034.8 moveto 13 (\(\)) alignedtext
grestore
% dampedp->11
gsave
1 setlinewidth
0 0 0 edgecolor
newpath 274.94 2109.9 moveto
254.86 2099.39 233.82 2088.38 215.44 2078.76 curveto
stroke
0 0 0 edgecolor
newpath 216.85 2075.55 moveto
206.37 2074.01 lineto
213.6 2081.75 lineto
closepath fill
1 setlinewidth
solid
0 0 0 edgecolor
newpath 216.85 2075.55 moveto
206.37 2074.01 lineto
213.6 2081.75 lineto
closepath stroke
grestore
% 0->dampedp_start
gsave
1 setlinewidth
0 0 0 edgecolor
newpath 481.56 48.11 moveto
493.99 79.82 513.4 137.57 513.4 189 curveto
513.4 2152 513.4 2152 513.4 2152 curveto
513.4 2224.49 521.7 2246.85 494.4 2314 curveto
490.54 2323.47 485.21 2332.78 479.3 2341.49 curveto
stroke
0 0 0 edgecolor
newpath 476.45 2339.46 moveto
473.49 2349.63 lineto
482.15 2343.52 lineto
closepath fill
1 setlinewidth
solid
0 0 0 edgecolor
newpath 476.45 2339.46 moveto
473.49 2349.63 lineto
482.15 2343.52 lineto
closepath stroke
grestore
% 1->freepe
gsave
1 setlinewidth
0 0 0 edgecolor
newpath 413.64 165.72 moveto
415.8 157.69 418.25 148.53 420.57 139.88 curveto
stroke
0 0 0 edgecolor
newpath 424 140.62 moveto
423.21 130.05 lineto
417.24 138.8 lineto
closepath fill
1 setlinewidth
solid
0 0 0 edgecolor
newpath 424 140.62 moveto
423.21 130.05 lineto
417.24 138.8 lineto
closepath stroke
grestore
% 2->freen_start
gsave
1 setlinewidth
0 0 0 edgecolor
newpath 58.26 572.21 moveto
48.98 583.7 37.32 599.88 30.4 616 curveto
4.82 675.59 1.4 694.15 1.4 759 curveto
1.4 1506 1.4 1506 1.4 1506 curveto
1.4 1579.31 -9.27 1607.69 32.4 1668 curveto
40.15 1679.22 50.09 1689.13 60.99 1697.79 curveto
stroke
0 0 0 edgecolor
newpath 58.99 1700.66 moveto
69.09 1703.87 lineto
63.2 1695.06 lineto
closepath fill
1 setlinewidth
solid
0 0 0 edgecolor
newpath 58.99 1700.66 moveto
69.09 1703.87 lineto
63.2 1695.06 lineto
closepath stroke
grestore
% 3->dampedne2
gsave
1 setlinewidth
0 0 0 edgecolor
newpath 149.33 735.83 moveto
148.64 728.13 147.85 719.21 147.05 710.22 curveto
stroke
0 0 0 edgecolor
newpath 150.52 709.76 moveto
146.15 700.11 lineto
143.55 710.38 lineto
closepath fill
1 setlinewidth
solid
0 0 0 edgecolor
newpath 150.52 709.76 moveto
146.15 700.11 lineto
143.55 710.38 lineto
closepath stroke
grestore
% 4->freep_start
gsave
1 setlinewidth
0 0 0 edgecolor
newpath 362.42 531.99 moveto
363.1 523.96 363.87 514.86 364.59 506.25 curveto
stroke
0 0 0 edgecolor
newpath 368.1 506.35 moveto
365.45 496.1 lineto
361.12 505.77 lineto
closepath fill
1 setlinewidth
solid
0 0 0 edgecolor
newpath 368.1 506.35 moveto
365.45 496.1 lineto
361.12 505.77 lineto
closepath stroke
grestore
% 5->dampedne
gsave
1 setlinewidth
0 0 0 edgecolor
newpath 353.31 735.83 moveto
353.84 722.61 354.5 705.82 355.08 691.22 curveto
stroke
0 0 0 edgecolor
newpath 358.58 691.19 moveto
355.48 681.06 lineto
351.59 690.92 lineto
closepath fill
1 setlinewidth
solid
0 0 0 edgecolor
newpath 358.58 691.19 moveto
355.48 681.06 lineto
351.59 690.92 lineto
closepath stroke
grestore
% 6->dampedn_start
gsave
1 setlinewidth
0 0 0 edgecolor
newpath 159.4 1177.83 moveto
159.4 1170.12 159.4 1161.28 159.4 1152.37 curveto
stroke
0 0 0 edgecolor
newpath 162.9 1152.36 moveto
159.4 1142.36 lineto
155.9 1152.36 lineto
closepath fill
1 setlinewidth
solid
0 0 0 edgecolor
newpath 162.9 1152.36 moveto
159.4 1142.36 lineto
155.9 1152.36 lineto
closepath stroke
grestore
% 7->freene
gsave
1 setlinewidth
0 0 0 edgecolor
newpath 159.4 1381.83 moveto
159.4 1374.13 159.4 1365.21 159.4 1356.22 curveto
stroke
0 0 0 edgecolor
newpath 162.9 1356.11 moveto
159.4 1346.11 lineto
155.9 1356.11 lineto
closepath fill
1 setlinewidth
solid
0 0 0 edgecolor
newpath 162.9 1356.11 moveto
159.4 1346.11 lineto
155.9 1356.11 lineto
closepath stroke
grestore
% 8->freep_start
gsave
1 setlinewidth
0 0 0 edgecolor
newpath 433.07 1721.83 moveto
435.92 1678.56 441.4 1585.03 441.4 1506 curveto
441.4 1506 441.4 1506 441.4 658 curveto
441.4 600.76 410.48 540.22 388.61 504.56 curveto
stroke
0 0 0 edgecolor
newpath 391.55 502.66 moveto
383.27 496.05 lineto
385.62 506.38 lineto
closepath fill
1 setlinewidth
solid
0 0 0 edgecolor
newpath 391.55 502.66 moveto
383.27 496.05 lineto
385.62 506.38 lineto
closepath stroke
grestore
% 9->dampedpe2
gsave
1 setlinewidth
0 0 0 edgecolor
newpath 374.43 2027.83 moveto
379.05 2014.48 384.94 1997.5 390.03 1982.8 curveto
stroke
0 0 0 edgecolor
newpath 393.44 1983.66 moveto
393.4 1973.06 lineto
386.82 1981.37 lineto
closepath fill
1 setlinewidth
solid
0 0 0 edgecolor
newpath 393.44 1983.66 moveto
393.4 1973.06 lineto
386.82 1981.37 lineto
closepath stroke
grestore
% 10->freen_start
gsave
1 setlinewidth
0 0 0 edgecolor
newpath 159.4 1823.83 moveto
159.4 1816.12 159.4 1807.28 159.4 1798.37 curveto
stroke
0 0 0 edgecolor
newpath 162.9 1798.36 moveto
159.4 1788.36 lineto
155.9 1798.36 lineto
closepath fill
1 setlinewidth
solid
0 0 0 edgecolor
newpath 162.9 1798.36 moveto
159.4 1788.36 lineto
155.9 1798.36 lineto
closepath stroke
grestore
% 11->dampedpe
gsave
1 setlinewidth
0 0 0 edgecolor
newpath 161.94 2027.83 moveto
161.78 2020.13 161.61 2011.21 161.43 2002.22 curveto
stroke
0 0 0 edgecolor
newpath 164.93 2002.04 moveto
161.23 1992.11 lineto
157.93 2002.17 lineto
closepath fill
1 setlinewidth
solid
0 0 0 edgecolor
newpath 164.93 2002.04 moveto
161.23 1992.11 lineto
157.93 2002.17 lineto
closepath stroke
grestore
% 12->dampedp_start
gsave
1 setlinewidth
0 0 0 edgecolor
newpath 434.4 2469.83 moveto
434.4 2462.12 434.4 2453.28 434.4 2444.37 curveto
stroke
0 0 0 edgecolor
newpath 437.9 2444.36 moveto
434.4 2434.36 lineto
430.9 2444.36 lineto
closepath fill
1 setlinewidth
solid
0 0 0 edgecolor
newpath 437.9 2444.36 moveto
434.4 2434.36 lineto
430.9 2444.36 lineto
closepath stroke
grestore
% 13->freepie
gsave
1 setlinewidth
0 0 0 edgecolor
newpath 434.4 2673.83 moveto
434.4 2666.13 434.4 2657.21 434.4 2648.22 curveto
stroke
0 0 0 edgecolor
newpath 437.9 2648.11 moveto
434.4 2638.11 lineto
430.9 2648.11 lineto
closepath fill
1 setlinewidth
solid
0 0 0 edgecolor
newpath 437.9 2648.11 moveto
434.4 2638.11 lineto
430.9 2648.11 lineto
closepath stroke
grestore
% 14->dampedn
gsave
1 setlinewidth
0 0 0 edgecolor
newpath 159.4 937.69 moveto
159.4 929.54 159.4 920.9 159.4 912.47 curveto
stroke
0 0 0 edgecolor
newpath 162.9 912.33 moveto
159.4 902.33 lineto
155.9 912.33 lineto
closepath fill
1 setlinewidth
solid
0 0 0 edgecolor
newpath 162.9 912.33 moveto
159.4 902.33 lineto
155.9 912.33 lineto
closepath stroke
grestore
% 15->dampedp
gsave
1 setlinewidth
0 0 0 edgecolor
newpath 355.4 2229.69 moveto
355.4 2221.54 355.4 2212.9 355.4 2204.47 curveto
stroke
0 0 0 edgecolor
newpath 358.9 2204.33 moveto
355.4 2194.33 lineto
351.9 2204.33 lineto
closepath fill
1 setlinewidth
solid
0 0 0 edgecolor
newpath 358.9 2204.33 moveto
355.4 2194.33 lineto
351.9 2204.33 lineto
closepath stroke
grestore
% 16->freen
gsave
1 setlinewidth
0 0 0 edgecolor
newpath 159.4 1583.69 moveto
159.4 1575.54 159.4 1566.9 159.4 1558.47 curveto
stroke
0 0 0 edgecolor
newpath 162.9 1558.33 moveto
159.4 1548.33 lineto
155.9 1558.33 lineto
closepath fill
1 setlinewidth
solid
0 0 0 edgecolor
newpath 162.9 1558.33 moveto
159.4 1548.33 lineto
155.9 1558.33 lineto
closepath stroke
grestore
% 17->freep
gsave
1 setlinewidth
0 0 0 edgecolor
newpath 373.25 329.75 moveto
374.44 321.16 375.68 312.25 376.82 304.03 curveto
stroke
0 0 0 edgecolor
newpath 380.29 304.47 moveto
378.2 294.08 lineto
373.36 303.51 lineto
closepath fill
1 setlinewidth
solid
0 0 0 edgecolor
newpath 380.29 304.47 moveto
378.2 294.08 lineto
373.36 303.51 lineto
closepath stroke
grestore
% 18->freepi
gsave
1 setlinewidth
0 0 0 edgecolor
newpath 434.4 2875.69 moveto
434.4 2867.54 434.4 2858.9 434.4 2850.47 curveto
stroke
0 0 0 edgecolor
newpath 437.9 2850.33 moveto
434.4 2840.33 lineto
430.9 2850.33 lineto
closepath fill
1 setlinewidth
solid
0 0 0 edgecolor
newpath 437.9 2850.33 moveto
434.4 2840.33 lineto
430.9 2850.33 lineto
closepath stroke
grestore
% 19->freepi_start
gsave
1 setlinewidth
0 0 0 edgecolor
newpath 434.4 3097.78 moveto
434.4 3089.82 434.4 3080.63 434.4 3071.62 curveto
stroke
0 0 0 edgecolor
newpath 437.9 3071.59 moveto
434.4 3061.59 lineto
430.9 3071.59 lineto
closepath fill
1 setlinewidth
solid
0 0 0 edgecolor
newpath 437.9 3071.59 moveto
434.4 3061.59 lineto
430.9 3071.59 lineto
closepath stroke
grestore
endpage
showpage
grestore
%%PageTrailer
%%EndPage: 1
setupLatin1
%%Page: 2 2
%%PageBoundingBox: 36 36 964 2150
%%PageOrientation: Portrait
0 0 1 beginpage
gsave
36 36 928 2114 boxprim clip newpath
1 1 set_scale 0 rotate 40 41 translate
% 1073741823
gsave
1 setlinewidth
0 0 0 nodecolor
726 2083 43.84 19.09 ellipse_path stroke
0 0 0 nodecolor
18 /Times-Roman set_font
703 2076.3 moveto 46 (Result) alignedtext
grestore
% freepi
gsave
1 setlinewidth
0 0 0 nodecolor
newpath 838 1942 moveto
782 1942 lineto
782 1896 lineto
838 1896 lineto
closepath stroke
0 0 0 nodecolor
18 /Times-Roman set_font
789.5 1921.8 moveto 41 (freepi) alignedtext
0 0 0 nodecolor
18 /Times-Roman set_font
798 1902.8 moveto 24 (top) alignedtext
grestore
% 13
gsave
0 0 0 nodecolor
18 /Times-Roman set_font
559.5 1820.8 moveto 115 (-thetap+4>=0 ? ) alignedtext
0 0 0 nodecolor
18 /Times-Roman set_font
610.5 1801.8 moveto 13 (\(\)) alignedtext
grestore
% freepi->13
gsave
1 setlinewidth
0 0 0 edgecolor
newpath 781.88 1905.61 moveto
757.63 1893.93 721.75 1876.33 691 1860 curveto
682.76 1855.62 674.08 1850.85 665.68 1846.14 curveto
stroke
0 0 0 edgecolor
newpath 667.14 1842.95 moveto
656.71 1841.08 lineto
663.7 1849.04 lineto
closepath fill
1 setlinewidth
solid
0 0 0 edgecolor
newpath 667.14 1842.95 moveto
656.71 1841.08 lineto
663.7 1849.04 lineto
closepath stroke
grestore
% 18
gsave
0 0 0 nodecolor
18 /Times-Roman set_font
759 1839.8 moveto 102 (thetap-4>=0 ?) alignedtext
0 0 0 nodecolor
18 /Times-Roman set_font
724 1820.8 moveto 172 (thetap := thetap+thetav;) alignedtext
0 0 0 nodecolor
18 /Times-Roman set_font
707.5 1801.8 moveto 205 (thetav := -1/64thetap+thetav) alignedtext
0 0 0 nodecolor
18 /Times-Roman set_font
803.5 1782.8 moveto 13 (\(\)) alignedtext
grestore
% freepi->18
gsave
1 setlinewidth
0 0 0 edgecolor
newpath 804.22 1895.83 moveto
803.61 1888.13 803.29 1879.21 803.25 1870.22 curveto
stroke
0 0 0 edgecolor
newpath 806.75 1870.13 moveto
803.33 1860.11 lineto
799.75 1870.08 lineto
closepath fill
1 setlinewidth
solid
0 0 0 edgecolor
newpath 806.75 1870.13 moveto
803.33 1860.11 lineto
799.75 1870.08 lineto
closepath stroke
grestore
% dampedne2
gsave
1 setlinewidth
0 0 0 nodecolor
newpath 305 556 moveto
99 556 lineto
99 472 lineto
305 472 lineto
closepath stroke
0 0 0 nodecolor
18 /Times-Roman set_font
160 535.8 moveto 84 (dampedne2) alignedtext
0 0 0 nodecolor
18 /Times-Roman set_font
124.5 516.8 moveto 155 ([|thetap in [-INF , -4];) alignedtext
0 0 0 nodecolor
18 /Times-Roman set_font
125 497.8 moveto 154 (  thetav in [-INF , 0]|]) alignedtext
0 0 0 nodecolor
18 /Times-Roman set_font
107 478.8 moveto 190 (2 constraints, 3 generators) alignedtext
grestore
% 2
gsave
0 0 0 nodecolor
18 /Times-Roman set_font
132.5 394.8 moveto 13 (\(\)) alignedtext
grestore
% dampedne2->2
gsave
1 setlinewidth
0 0 0 edgecolor
newpath 176.01 471.92 moveto
170.11 462.38 163.95 452.4 158.38 443.38 curveto
stroke
0 0 0 edgecolor
newpath 161.28 441.41 moveto
153.05 434.74 lineto
155.32 445.09 lineto
closepath fill
1 setlinewidth
solid
0 0 0 edgecolor
newpath 161.28 441.41 moveto
153.05 434.74 lineto
155.32 445.09 lineto
closepath stroke
grestore
% dampedne
gsave
1 setlinewidth
0 0 0 nodecolor
newpath 529 546.5 moveto
323 546.5 lineto
323 481.5 lineto
529 481.5 lineto
closepath stroke
0 0 0 nodecolor
18 /Times-Roman set_font
388.5 526.3 moveto 75 (dampedne) alignedtext
0 0 0 nodecolor
18 /Times-Roman set_font
347.5 507.3 moveto 157 ([|thetap in [4 , INF]; |]) alignedtext
0 0 0 nodecolor
18 /Times-Roman set_font
331 488.3 moveto 190 (1 constraints, 3 generators) alignedtext
grestore
% 4
gsave
0 0 0 nodecolor
18 /Times-Roman set_font
419.5 394.8 moveto 13 (\(\)) alignedtext
grestore
% dampedne->4
gsave
1 setlinewidth
0 0 0 edgecolor
newpath 426 481.45 moveto
426 470.2 426 457.56 426 446.19 curveto
stroke
0 0 0 edgecolor
newpath 429.5 446.17 moveto
426 436.17 lineto
422.5 446.17 lineto
closepath fill
1 setlinewidth
solid
0 0 0 edgecolor
newpath 429.5 446.17 moveto
426 436.17 lineto
422.5 446.17 lineto
closepath stroke
grestore
% freen
gsave
1 setlinewidth
0 0 0 nodecolor
newpath 434 1147 moveto
382 1147 lineto
382 1101 lineto
434 1101 lineto
closepath stroke
0 0 0 nodecolor
18 /Times-Roman set_font
389.5 1126.8 moveto 37 (freen) alignedtext
0 0 0 nodecolor
18 /Times-Roman set_font
396 1107.8 moveto 24 (top) alignedtext
grestore
% 7
gsave
0 0 0 nodecolor
18 /Times-Roman set_font
258.5 1024.8 moveto 109 (thetap+4>=0 ? ) alignedtext
0 0 0 nodecolor
18 /Times-Roman set_font
306.5 1005.8 moveto 13 (\(\)) alignedtext
grestore
% freen->7
gsave
1 setlinewidth
0 0 0 edgecolor
newpath 386.44 1100.85 moveto
373.08 1086.51 355.77 1067.92 341.31 1052.4 curveto
stroke
0 0 0 edgecolor
newpath 343.85 1049.99 moveto
334.47 1045.05 lineto
338.73 1054.76 lineto
closepath fill
1 setlinewidth
solid
0 0 0 edgecolor
newpath 343.85 1049.99 moveto
334.47 1045.05 lineto
338.73 1054.76 lineto
closepath stroke
grestore
% 16
gsave
0 0 0 nodecolor
18 /Times-Roman set_font
449 1043.8 moveto 108 (-thetap-4>=0 ?) alignedtext
0 0 0 nodecolor
18 /Times-Roman set_font
417 1024.8 moveto 172 (thetap := thetap+thetav;) alignedtext
0 0 0 nodecolor
18 /Times-Roman set_font
400.5 1005.8 moveto 205 (thetav := -1/64thetap+thetav) alignedtext
0 0 0 nodecolor
18 /Times-Roman set_font
496.5 986.8 moveto 13 (\(\)) alignedtext
grestore
% freen->16
gsave
1 setlinewidth
0 0 0 edgecolor
newpath 423.8 1100.85 moveto
431.21 1092.15 440.44 1081.89 449.97 1071.69 curveto
stroke
0 0 0 edgecolor
newpath 452.62 1073.98 moveto
456.93 1064.31 lineto
447.53 1069.18 lineto
closepath fill
1 setlinewidth
solid
0 0 0 edgecolor
newpath 452.62 1073.98 moveto
456.93 1064.31 lineto
447.53 1069.18 lineto
closepath stroke
grestore
% freep
gsave
1 setlinewidth
0 0 0 nodecolor
newpath 452 352 moveto
400 352 lineto
400 306 lineto
452 306 lineto
closepath stroke
0 0 0 nodecolor
18 /Times-Roman set_font
407.5 331.8 moveto 37 (freep) alignedtext
0 0 0 nodecolor
18 /Times-Roman set_font
414 312.8 moveto 24 (top) alignedtext
grestore
% 1
gsave
0 0 0 nodecolor
18 /Times-Roman set_font
570.5 230.8 moveto 115 (-thetap+4>=0 ? ) alignedtext
0 0 0 nodecolor
18 /Times-Roman set_font
621.5 211.8 moveto 13 (\(\)) alignedtext
grestore
% freep->1
gsave
1 setlinewidth
0 0 0 edgecolor
newpath 452.03 316.17 moveto
476.16 304.26 513.04 286.01 545 270 curveto
554.19 265.4 563.94 260.48 573.41 255.7 curveto
stroke
0 0 0 edgecolor
newpath 575.02 258.81 moveto
582.37 251.17 lineto
571.87 252.56 lineto
closepath fill
1 setlinewidth
solid
0 0 0 edgecolor
newpath 575.02 258.81 moveto
582.37 251.17 lineto
571.87 252.56 lineto
closepath stroke
grestore
% 17
gsave
0 0 0 nodecolor
18 /Times-Roman set_font
375 249.8 moveto 102 (thetap-4>=0 ?) alignedtext
0 0 0 nodecolor
18 /Times-Roman set_font
340 230.8 moveto 172 (thetap := thetap+thetav;) alignedtext
0 0 0 nodecolor
18 /Times-Roman set_font
323.5 211.8 moveto 205 (thetav := -1/64thetap+thetav) alignedtext
0 0 0 nodecolor
18 /Times-Roman set_font
419.5 192.8 moveto 13 (\(\)) alignedtext
grestore
% freep->17
gsave
1 setlinewidth
0 0 0 edgecolor
newpath 420.22 305.83 moveto
419.61 298.13 419.29 289.21 419.25 280.22 curveto
stroke
0 0 0 edgecolor
newpath 422.75 280.13 moveto
419.33 270.11 lineto
415.75 280.08 lineto
closepath fill
1 setlinewidth
solid
0 0 0 edgecolor
newpath 422.75 280.13 moveto
419.33 270.11 lineto
415.75 280.08 lineto
closepath stroke
grestore
% linit
gsave
1 setlinewidth
0 0 0 nodecolor
newpath 832 2106 moveto
788 2106 lineto
788 2060 lineto
832 2060 lineto
closepath stroke
0 0 0 nodecolor
18 /Times-Roman set_font
796 2085.8 moveto 28 (linit) alignedtext
0 0 0 nodecolor
18 /Times-Roman set_font
798 2066.8 moveto 24 (top) alignedtext
grestore
% 19
gsave
0 0 0 nodecolor
18 /Times-Roman set_font
708 2003.8 moveto 204 (thetav=0 and thetap-10=0 ? ) alignedtext
0 0 0 nodecolor
18 /Times-Roman set_font
803.5 1984.8 moveto 13 (\(\)) alignedtext
grestore
% linit->19
gsave
1 setlinewidth
0 0 0 edgecolor
newpath 810 2059.72 moveto
810 2051.78 810 2042.73 810 2034.16 curveto
stroke
0 0 0 edgecolor
newpath 813.5 2034.05 moveto
810 2024.05 lineto
806.5 2034.05 lineto
closepath fill
1 setlinewidth
solid
0 0 0 edgecolor
newpath 813.5 2034.05 moveto
810 2024.05 lineto
806.5 2034.05 lineto
closepath stroke
grestore
% dampedpe
gsave
1 setlinewidth
0 0 0 nodecolor
newpath 511 1342.5 moveto
305 1342.5 lineto
305 1277.5 lineto
511 1277.5 lineto
closepath stroke
0 0 0 nodecolor
18 /Times-Roman set_font
370.5 1322.3 moveto 75 (dampedpe) alignedtext
0 0 0 nodecolor
18 /Times-Roman set_font
323.5 1303.3 moveto 169 ([|thetap in [-INF , -4]; |]) alignedtext
0 0 0 nodecolor
18 /Times-Roman set_font
313 1284.3 moveto 190 (1 constraints, 3 generators) alignedtext
grestore
% 10
gsave
0 0 0 nodecolor
18 /Times-Roman set_font
401.5 1190.8 moveto 13 (\(\)) alignedtext
grestore
% dampedpe->10
gsave
1 setlinewidth
0 0 0 edgecolor
newpath 408 1277.45 moveto
408 1266.2 408 1253.56 408 1242.19 curveto
stroke
0 0 0 edgecolor
newpath 411.5 1242.17 moveto
408 1232.17 lineto
404.5 1242.17 lineto
closepath fill
1 setlinewidth
solid
0 0 0 edgecolor
newpath 411.5 1242.17 moveto
408 1232.17 lineto
404.5 1242.17 lineto
closepath stroke
grestore
% dampedpe2
gsave
1 setlinewidth
0 0 0 nodecolor
newpath 206 1352 moveto
0 1352 lineto
0 1268 lineto
206 1268 lineto
closepath stroke
0 0 0 nodecolor
18 /Times-Roman set_font
61 1331.8 moveto 84 (dampedpe2) alignedtext
0 0 0 nodecolor
18 /Times-Roman set_font
31.5 1312.8 moveto 143 ([|thetap in [4 , INF];) alignedtext
0 0 0 nodecolor
18 /Times-Roman set_font
29 1293.8 moveto 148 (  thetav in [0 , INF]|]) alignedtext
0 0 0 nodecolor
18 /Times-Roman set_font
8 1274.8 moveto 190 (2 constraints, 3 generators) alignedtext
grestore
% 8
gsave
0 0 0 nodecolor
18 /Times-Roman set_font
36.5 1106.8 moveto 13 (\(\)) alignedtext
grestore
% dampedpe2->8
gsave
1 setlinewidth
0 0 0 edgecolor
newpath 89.39 1267.79 moveto
78.67 1234.57 63.93 1188.87 53.96 1157.98 curveto
stroke
0 0 0 edgecolor
newpath 57.18 1156.55 moveto
50.78 1148.11 lineto
50.52 1158.7 lineto
closepath fill
1 setlinewidth
solid
0 0 0 edgecolor
newpath 57.18 1156.55 moveto
50.78 1148.11 lineto
50.52 1158.7 lineto
closepath stroke
grestore
% freene
gsave
1 setlinewidth
0 0 0 nodecolor
newpath 444 943.5 moveto
238 943.5 lineto
238 878.5 lineto
444 878.5 lineto
closepath stroke
0 0 0 nodecolor
18 /Times-Roman set_font
318.5 923.3 moveto 45 (freene) alignedtext
0 0 0 nodecolor
18 /Times-Roman set_font
259.5 904.3 moveto 163 ([|thetap in [-4 , INF]; |]) alignedtext
0 0 0 nodecolor
18 /Times-Roman set_font
246 885.3 moveto 190 (1 constraints, 3 generators) alignedtext
grestore
% 6
gsave
0 0 0 nodecolor
18 /Times-Roman set_font
361.5 800.8 moveto 13 (\(\)) alignedtext
grestore
% freene->6
gsave
1 setlinewidth
0 0 0 edgecolor
newpath 350.44 878.47 moveto
352.94 869.89 355.63 860.61 358.14 851.95 curveto
stroke
0 0 0 edgecolor
newpath 361.56 852.73 moveto
360.99 842.15 lineto
354.84 850.78 lineto
closepath fill
1 setlinewidth
solid
0 0 0 edgecolor
newpath 361.56 852.73 moveto
360.99 842.15 lineto
354.84 850.78 lineto
closepath stroke
grestore
% freepie
gsave
1 setlinewidth
0 0 0 nodecolor
newpath 720 1739.5 moveto
514 1739.5 lineto
514 1674.5 lineto
720 1674.5 lineto
closepath stroke
0 0 0 nodecolor
18 /Times-Roman set_font
592.5 1719.3 moveto 49 (freepie) alignedtext
0 0 0 nodecolor
18 /Times-Roman set_font
535.5 1700.3 moveto 163 ([|thetap in [-INF , 4]; |]) alignedtext
0 0 0 nodecolor
18 /Times-Roman set_font
522 1681.3 moveto 190 (1 constraints, 3 generators) alignedtext
grestore
% 12
gsave
0 0 0 nodecolor
18 /Times-Roman set_font
610.5 1596.8 moveto 13 (\(\)) alignedtext
grestore
% freepie->12
gsave
1 setlinewidth
0 0 0 edgecolor
newpath 617 1674.47 moveto
617 1665.98 617 1656.81 617 1648.23 curveto
stroke
0 0 0 edgecolor
newpath 620.5 1648.15 moveto
617 1638.15 lineto
613.5 1648.15 lineto
closepath fill
1 setlinewidth
solid
0 0 0 edgecolor
newpath 620.5 1648.15 moveto
617 1638.15 lineto
613.5 1648.15 lineto
closepath stroke
grestore
% dampedn
gsave
1 setlinewidth
0 0 0 nodecolor
newpath 463 758 moveto
381 758 lineto
381 712 lineto
463 712 lineto
closepath stroke
0 0 0 nodecolor
18 /Times-Roman set_font
388.5 737.8 moveto 67 (dampedn) alignedtext
0 0 0 nodecolor
18 /Times-Roman set_font
410 718.8 moveto 24 (top) alignedtext
grestore
% 3
gsave
0 0 0 nodecolor
18 /Times-Roman set_font
107 636.8 moveto 228 (-thetav>=0 and -thetap-4>=0 ? ) alignedtext
0 0 0 nodecolor
18 /Times-Roman set_font
214.5 617.8 moveto 13 (\(\)) alignedtext
grestore
% dampedn->3
gsave
1 setlinewidth
0 0 0 edgecolor
newpath 380.84 714.32 moveto
350.6 699.12 309.21 678.32 276.12 661.69 curveto
stroke
0 0 0 edgecolor
newpath 277.53 658.49 moveto
267.02 657.12 lineto
274.38 664.74 lineto
closepath fill
1 setlinewidth
solid
0 0 0 edgecolor
newpath 277.53 658.49 moveto
267.02 657.12 lineto
274.38 664.74 lineto
closepath stroke
grestore
% 5
gsave
0 0 0 nodecolor
18 /Times-Roman set_font
369 636.8 moveto 106 (thetap-4>=0 ? ) alignedtext
0 0 0 nodecolor
18 /Times-Roman set_font
415.5 617.8 moveto 13 (\(\)) alignedtext
grestore
% dampedn->5
gsave
1 setlinewidth
0 0 0 edgecolor
newpath 422 711.83 moveto
422 698.61 422 681.82 422 667.22 curveto
stroke
0 0 0 edgecolor
newpath 425.5 667.06 moveto
422 657.06 lineto
418.5 667.06 lineto
closepath fill
1 setlinewidth
solid
0 0 0 edgecolor
newpath 425.5 667.06 moveto
422 657.06 lineto
418.5 667.06 lineto
closepath stroke
grestore
% 14
gsave
0 0 0 nodecolor
18 /Times-Roman set_font
509 655.8 moveto 238 (thetap+4>=0 and -thetap+4>=0 ?) alignedtext
0 0 0 nodecolor
18 /Times-Roman set_font
542 636.8 moveto 172 (thetap := thetap+thetav;) alignedtext
0 0 0 nodecolor
18 /Times-Roman set_font
514 617.8 moveto 228 (thetav := -1/64thetap+7/8thetav) alignedtext
0 0 0 nodecolor
18 /Times-Roman set_font
621.5 598.8 moveto 13 (\(\)) alignedtext
grestore
% dampedn->14
gsave
1 setlinewidth
0 0 0 edgecolor
newpath 463.48 711.83 moveto
481.75 702.51 504.05 691.42 526.28 680.57 curveto
stroke
0 0 0 edgecolor
newpath 527.99 683.63 moveto
535.45 676.11 lineto
524.93 677.34 lineto
closepath fill
1 setlinewidth
solid
0 0 0 edgecolor
newpath 527.99 683.63 moveto
535.45 676.11 lineto
524.93 677.34 lineto
closepath stroke
grestore
% dampedp
gsave
1 setlinewidth
0 0 0 nodecolor
newpath 658 1554 moveto
576 1554 lineto
576 1508 lineto
658 1508 lineto
closepath stroke
0 0 0 nodecolor
18 /Times-Roman set_font
583.5 1533.8 moveto 67 (dampedp) alignedtext
0 0 0 nodecolor
18 /Times-Roman set_font
605 1514.8 moveto 24 (top) alignedtext
grestore
% 9
gsave
0 0 0 nodecolor
18 /Times-Roman set_font
89 1432.8 moveto 216 (thetav>=0 and thetap-4>=0 ? ) alignedtext
0 0 0 nodecolor
18 /Times-Roman set_font
190.5 1413.8 moveto 13 (\(\)) alignedtext
grestore
% dampedp->9
gsave
1 setlinewidth
0 0 0 edgecolor
newpath 575.64 1523.54 moveto
520.44 1513.32 419.79 1493.73 335 1472 curveto
316.41 1467.24 296.58 1461.56 277.92 1455.95 curveto
stroke
0 0 0 edgecolor
newpath 278.87 1452.58 moveto
268.28 1453.02 lineto
276.83 1459.27 lineto
closepath fill
1 setlinewidth
solid
0 0 0 edgecolor
newpath 278.87 1452.58 moveto
268.28 1453.02 lineto
276.83 1459.27 lineto
closepath stroke
grestore
% 11
gsave
0 0 0 nodecolor
18 /Times-Roman set_font
352 1432.8 moveto 112 (-thetap-4>=0 ? ) alignedtext
0 0 0 nodecolor
18 /Times-Roman set_font
401.5 1413.8 moveto 13 (\(\)) alignedtext
grestore
% dampedp->11
gsave
1 setlinewidth
0 0 0 edgecolor
newpath 575.98 1514.62 moveto
548.7 1503.39 512.28 1487.72 481 1472 curveto
472.47 1467.71 463.54 1462.88 454.97 1458.06 curveto
stroke
0 0 0 edgecolor
newpath 456.62 1454.97 moveto
446.2 1453.06 lineto
453.15 1461.05 lineto
closepath fill
1 setlinewidth
solid
0 0 0 edgecolor
newpath 456.62 1454.97 moveto
446.2 1453.06 lineto
453.15 1461.05 lineto
closepath stroke
grestore
% 15
gsave
0 0 0 nodecolor
18 /Times-Roman set_font
498 1451.8 moveto 238 (thetap+4>=0 and -thetap+4>=0 ?) alignedtext
0 0 0 nodecolor
18 /Times-Roman set_font
531 1432.8 moveto 172 (thetap := thetap+thetav;) alignedtext
0 0 0 nodecolor
18 /Times-Roman set_font
503 1413.8 moveto 228 (thetav := -1/64thetap+7/8thetav) alignedtext
0 0 0 nodecolor
18 /Times-Roman set_font
610.5 1394.8 moveto 13 (\(\)) alignedtext
grestore
% dampedp->15
gsave
1 setlinewidth
0 0 0 edgecolor
newpath 611.22 1507.83 moveto
610.61 1500.13 610.29 1491.21 610.25 1482.22 curveto
stroke
0 0 0 edgecolor
newpath 613.75 1482.13 moveto
610.33 1472.11 lineto
606.75 1482.08 lineto
closepath fill
1 setlinewidth
solid
0 0 0 edgecolor
newpath 613.75 1482.13 moveto
610.33 1472.11 lineto
606.75 1482.08 lineto
closepath stroke
grestore
% freepe
gsave
1 setlinewidth
0 0 0 nodecolor
newpath 739 149.5 moveto
533 149.5 lineto
533 84.5 lineto
739 84.5 lineto
closepath stroke
0 0 0 nodecolor
18 /Times-Roman set_font
613.5 129.3 moveto 45 (freepe) alignedtext
0 0 0 nodecolor
18 /Times-Roman set_font
554.5 110.3 moveto 163 ([|thetap in [-INF , 4]; |]) alignedtext
0 0 0 nodecolor
18 /Times-Roman set_font
541 91.3 moveto 190 (1 constraints, 3 generators) alignedtext
grestore
% 0
gsave
0 0 0 nodecolor
18 /Times-Roman set_font
702.5 6.8 moveto 13 (\(\)) alignedtext
grestore
% freepe->0
gsave
1 setlinewidth
0 0 0 edgecolor
newpath 661.53 84.47 moveto
670.36 73.23 680.12 60.79 688.49 50.13 curveto
stroke
0 0 0 edgecolor
newpath 691.44 52.04 moveto
694.86 42.01 lineto
685.93 47.72 lineto
closepath fill
1 setlinewidth
solid
0 0 0 edgecolor
newpath 691.44 52.04 moveto
694.86 42.01 lineto
685.93 47.72 lineto
closepath stroke
grestore
% 0->dampedp
gsave
1 setlinewidth
0 0 0 edgecolor
newpath 723.01 42 moveto
731.34 53.46 741.5 68.94 748 84 curveto
774.1 144.47 783 162.14 783 228 curveto
783 1310 783 1310 783 1310 curveto
783 1383.22 798.6 1414.71 753 1472 curveto
732.14 1498.21 697.34 1513.02 668.16 1521.25 curveto
stroke
0 0 0 edgecolor
newpath 666.89 1517.96 moveto
658.11 1523.89 lineto
668.67 1524.73 lineto
closepath fill
1 setlinewidth
solid
0 0 0 edgecolor
newpath 666.89 1517.96 moveto
658.11 1523.89 lineto
668.67 1524.73 lineto
closepath stroke
grestore
% 1->freepe
gsave
1 setlinewidth
0 0 0 edgecolor
newpath 629.68 204.73 moveto
630.61 191.82 631.8 175.34 632.89 160.16 curveto
stroke
0 0 0 edgecolor
newpath 636.4 160.15 moveto
633.63 149.92 lineto
629.42 159.64 lineto
closepath fill
1 setlinewidth
solid
0 0 0 edgecolor
newpath 636.4 160.15 moveto
633.63 149.92 lineto
629.42 159.64 lineto
closepath stroke
grestore
% 2->freen
gsave
1 setlinewidth
0 0 0 edgecolor
newpath 124.8 424.79 moveto
113.34 436.02 97.87 453.43 90 472 curveto
61.72 538.75 71 561.51 71 634 curveto
71 911 71 911 71 911 curveto
71 1052.17 284.91 1103.6 371.88 1118.67 curveto
stroke
0 0 0 edgecolor
newpath 371.4 1122.14 moveto
381.84 1120.34 lineto
372.55 1115.24 lineto
closepath fill
1 setlinewidth
solid
0 0 0 edgecolor
newpath 371.4 1122.14 moveto
381.84 1120.34 lineto
372.55 1115.24 lineto
closepath stroke
grestore
% 3->dampedne2
gsave
1 setlinewidth
0 0 0 edgecolor
newpath 217.34 610.86 moveto
215.32 598.12 212.73 581.77 210.25 566.14 curveto
stroke
0 0 0 edgecolor
newpath 213.67 565.34 moveto
208.65 556.01 lineto
206.76 566.44 lineto
closepath fill
1 setlinewidth
solid
0 0 0 edgecolor
newpath 213.67 565.34 moveto
208.65 556.01 lineto
206.76 566.44 lineto
closepath stroke
grestore
% 4->freep
gsave
1 setlinewidth
0 0 0 edgecolor
newpath 426 387.99 moveto
426 379.96 426 370.86 426 362.25 curveto
stroke
0 0 0 edgecolor
newpath 429.5 362.1 moveto
426 352.1 lineto
422.5 362.1 lineto
closepath fill
1 setlinewidth
solid
0 0 0 edgecolor
newpath 429.5 362.1 moveto
426 352.1 lineto
422.5 362.1 lineto
closepath stroke
grestore
% 5->dampedne
gsave
1 setlinewidth
0 0 0 edgecolor
newpath 422.77 610.86 moveto
423.28 595.53 423.97 574.96 424.58 556.72 curveto
stroke
0 0 0 edgecolor
newpath 428.08 556.7 moveto
424.91 546.59 lineto
421.08 556.47 lineto
closepath fill
1 setlinewidth
solid
0 0 0 edgecolor
newpath 428.08 556.7 moveto
424.91 546.59 lineto
421.08 556.47 lineto
closepath stroke
grestore
% 6->dampedn
gsave
1 setlinewidth
0 0 0 edgecolor
newpath 382.19 796.19 moveto
388.09 787.13 395.04 776.43 401.48 766.54 curveto
stroke
0 0 0 edgecolor
newpath 404.44 768.4 moveto
406.96 758.11 lineto
398.58 764.59 lineto
closepath fill
1 setlinewidth
solid
0 0 0 edgecolor
newpath 404.44 768.4 moveto
406.96 758.11 lineto
398.58 764.59 lineto
closepath stroke
grestore
% 7->freene
gsave
1 setlinewidth
0 0 0 edgecolor
newpath 318.87 998.73 moveto
322.16 985.69 326.36 969.03 330.22 953.73 curveto
stroke
0 0 0 edgecolor
newpath 333.64 954.47 moveto
332.7 943.92 lineto
326.86 952.76 lineto
closepath fill
1 setlinewidth
solid
0 0 0 edgecolor
newpath 333.64 954.47 moveto
332.7 943.92 lineto
326.86 952.76 lineto
closepath stroke
grestore
% 8->freep
gsave
1 setlinewidth
0 0 0 edgecolor
newpath 41.12 1099.74 moveto
38.22 1060.22 33 979.49 33 911 curveto
33 911 33 911 33 514 curveto
33 446.94 60.21 425.21 116 388 curveto
160.53 358.3 317.67 339.57 389.59 332.36 curveto
stroke
0 0 0 edgecolor
newpath 389.94 335.84 moveto
399.55 331.38 lineto
389.26 328.88 lineto
closepath fill
1 setlinewidth
solid
0 0 0 edgecolor
newpath 389.94 335.84 moveto
399.55 331.38 lineto
389.26 328.88 lineto
closepath stroke
grestore
% 9->dampedpe2
gsave
1 setlinewidth
0 0 0 edgecolor
newpath 178.88 1406.86 moveto
168.42 1393.52 154.86 1376.2 142.09 1359.91 curveto
stroke
0 0 0 edgecolor
newpath 144.83 1357.73 moveto
135.91 1352.01 lineto
139.32 1362.04 lineto
closepath fill
1 setlinewidth
solid
0 0 0 edgecolor
newpath 144.83 1357.73 moveto
135.91 1352.01 lineto
139.32 1362.04 lineto
closepath stroke
grestore
% 10->freen
gsave
1 setlinewidth
0 0 0 edgecolor
newpath 408 1183.7 moveto
408 1175.42 408 1166 408 1157.14 curveto
stroke
0 0 0 edgecolor
newpath 411.5 1157.09 moveto
408 1147.09 lineto
404.5 1157.09 lineto
closepath fill
1 setlinewidth
solid
0 0 0 edgecolor
newpath 411.5 1157.09 moveto
408 1147.09 lineto
404.5 1157.09 lineto
closepath stroke
grestore
% 11->dampedpe
gsave
1 setlinewidth
0 0 0 edgecolor
newpath 408 1406.86 moveto
408 1391.53 408 1370.96 408 1352.72 curveto
stroke
0 0 0 edgecolor
newpath 411.5 1352.59 moveto
408 1342.59 lineto
404.5 1352.59 lineto
closepath fill
1 setlinewidth
solid
0 0 0 edgecolor
newpath 411.5 1352.59 moveto
408 1342.59 lineto
404.5 1352.59 lineto
closepath stroke
grestore
% 12->dampedp
gsave
1 setlinewidth
0 0 0 edgecolor
newpath 617 1589.99 moveto
617 1581.96 617 1572.86 617 1564.25 curveto
stroke
0 0 0 edgecolor
newpath 620.5 1564.1 moveto
617 1554.1 lineto
613.5 1564.1 lineto
closepath fill
1 setlinewidth
solid
0 0 0 edgecolor
newpath 620.5 1564.1 moveto
617 1554.1 lineto
613.5 1564.1 lineto
closepath stroke
grestore
% 13->freepie
gsave
1 setlinewidth
0 0 0 edgecolor
newpath 617 1794.73 moveto
617 1781.82 617 1765.34 617 1750.16 curveto
stroke
0 0 0 edgecolor
newpath 620.5 1749.92 moveto
617 1739.92 lineto
613.5 1749.92 lineto
closepath fill
1 setlinewidth
solid
0 0 0 edgecolor
newpath 620.5 1749.92 moveto
617 1739.92 lineto
613.5 1749.92 lineto
closepath stroke
grestore
% 14->dampedn
gsave
1 setlinewidth
0 0 0 edgecolor
newpath 548.7 676.15 moveto
523.05 688.85 495.33 702.28 472.36 713.09 curveto
stroke
0 0 0 edgecolor
newpath 470.72 710 moveto
463.15 717.41 lineto
473.69 716.33 lineto
closepath fill
1 setlinewidth
solid
0 0 0 edgecolor
newpath 470.72 710 moveto
463.15 717.41 lineto
473.69 716.33 lineto
closepath stroke
grestore
% 15->dampedp
gsave
1 setlinewidth
0 0 0 edgecolor
newpath 623.67 1472.11 moveto
623.84 1480.61 623.75 1489.43 623.39 1497.58 curveto
stroke
0 0 0 edgecolor
newpath 619.88 1497.64 moveto
622.78 1507.83 lineto
626.87 1498.06 lineto
closepath fill
1 setlinewidth
solid
0 0 0 edgecolor
newpath 619.88 1497.64 moveto
622.78 1507.83 lineto
626.87 1498.06 lineto
closepath stroke
grestore
% 16->freen
gsave
1 setlinewidth
0 0 0 edgecolor
newpath 470.53 1064.01 moveto
461.04 1074.44 450.68 1085.38 441.14 1095.03 curveto
stroke
0 0 0 edgecolor
newpath 438.64 1092.58 moveto
434.04 1102.12 lineto
443.59 1097.53 lineto
closepath fill
1 setlinewidth
solid
0 0 0 edgecolor
newpath 438.64 1092.58 moveto
434.04 1102.12 lineto
443.59 1097.53 lineto
closepath stroke
grestore
% 17->freep
gsave
1 setlinewidth
0 0 0 edgecolor
newpath 432.67 270.11 moveto
432.84 278.61 432.75 287.43 432.39 295.58 curveto
stroke
0 0 0 edgecolor
newpath 428.88 295.64 moveto
431.78 305.83 lineto
435.87 296.06 lineto
closepath fill
1 setlinewidth
solid
0 0 0 edgecolor
newpath 428.88 295.64 moveto
431.78 305.83 lineto
435.87 296.06 lineto
closepath stroke
grestore
% 18->freepi
gsave
1 setlinewidth
0 0 0 edgecolor
newpath 816.67 1860.11 moveto
816.84 1868.61 816.75 1877.43 816.39 1885.58 curveto
stroke
0 0 0 edgecolor
newpath 812.88 1885.64 moveto
815.78 1895.83 lineto
819.87 1886.06 lineto
closepath fill
1 setlinewidth
solid
0 0 0 edgecolor
newpath 812.88 1885.64 moveto
815.78 1895.83 lineto
819.87 1886.06 lineto
closepath stroke
grestore
% 19->freepi
gsave
1 setlinewidth
0 0 0 edgecolor
newpath 810 1977.72 moveto
810 1969.78 810 1960.73 810 1952.16 curveto
stroke
0 0 0 edgecolor
newpath 813.5 1952.05 moveto
810 1942.05 lineto
806.5 1952.05 lineto
closepath fill
1 setlinewidth
solid
0 0 0 edgecolor
newpath 813.5 1952.05 moveto
810 1942.05 lineto
806.5 1952.05 lineto
closepath stroke
grestore
endpage
showpage
grestore
%%PageTrailer
%%EndPage: 2
setupLatin1
%%Page: 3 3
%%PageBoundingBox: 36 36 621 3106
%%PageOrientation: Portrait
0 0 1 beginpage
gsave
36 36 585 3070 boxprim clip newpath
1 1 set_scale 0 rotate 40 41 translate
% 1073741823
gsave
1 setlinewidth
0 0 0 nodecolor
375.47 3039 43.84 19.09 ellipse_path stroke
0 0 0 nodecolor
18 /Times-Roman set_font
352.47 3032.3 moveto 46 (Result) alignedtext
grestore
% freepi
gsave
1 setlinewidth
0 0 0 nodecolor
newpath 562.47 2675.5 moveto
356.47 2675.5 lineto
356.47 2610.5 lineto
562.47 2610.5 lineto
closepath stroke
0 0 0 nodecolor
18 /Times-Roman set_font
438.97 2655.3 moveto 41 (freepi) alignedtext
0 0 0 nodecolor
18 /Times-Roman set_font
445.47 2636.3 moveto 28 ([|; |]) alignedtext
0 0 0 nodecolor
18 /Times-Roman set_font
364.47 2617.3 moveto 190 (1 constraints, 3 generators) alignedtext
grestore
% 13
gsave
0 0 0 nodecolor
18 /Times-Roman set_font
401.97 2553.8 moveto 115 (-thetap+4>=0 ? ) alignedtext
0 0 0 nodecolor
18 /Times-Roman set_font
452.97 2534.8 moveto 13 (\(\)) alignedtext
grestore
% freepi->13
gsave
1 setlinewidth
0 0 0 edgecolor
newpath 459.47 2610.31 moveto
459.47 2601.79 459.47 2592.6 459.47 2584.06 curveto
stroke
0 0 0 edgecolor
newpath 462.97 2584.06 moveto
459.47 2574.06 lineto
455.97 2584.06 lineto
closepath fill
1 setlinewidth
solid
0 0 0 edgecolor
newpath 462.97 2584.06 moveto
459.47 2574.06 lineto
455.97 2584.06 lineto
closepath stroke
grestore
% dampedp_start
gsave
1 setlinewidth
0 0 0 nodecolor
newpath 562.47 2287.5 moveto
356.47 2287.5 lineto
356.47 2222.5 lineto
562.47 2222.5 lineto
closepath stroke
0 0 0 nodecolor
18 /Times-Roman set_font
405.97 2267.3 moveto 107 (dampedp_start) alignedtext
0 0 0 nodecolor
18 /Times-Roman set_font
377.97 2248.3 moveto 163 ([|thetap in [-INF , 4]; |]) alignedtext
0 0 0 nodecolor
18 /Times-Roman set_font
364.47 2229.3 moveto 190 (1 constraints, 3 generators) alignedtext
grestore
% 15
gsave
0 0 0 nodecolor
18 /Times-Roman set_font
258.47 2165.8 moveto 244 (\(thetap+4>=0 and -thetap+4>=0 ?) alignedtext
0 0 0 nodecolor
18 /Times-Roman set_font
294.47 2146.8 moveto 172 (thetap := thetap+thetav;) alignedtext
0 0 0 nodecolor
18 /Times-Roman set_font
258.97 2127.8 moveto 243 (thetav := -1/64thetap+7/8thetav\)*) alignedtext
0 0 0 nodecolor
18 /Times-Roman set_font
373.97 2108.8 moveto 13 (\(\)) alignedtext
grestore
% dampedp_start->15
gsave
1 setlinewidth
0 0 0 edgecolor
newpath 436.19 2222.3 moveto
430 2213.59 423.16 2203.98 416.45 2194.56 curveto
stroke
0 0 0 edgecolor
newpath 419.26 2192.48 moveto
410.61 2186.36 lineto
413.56 2196.54 lineto
closepath fill
1 setlinewidth
solid
0 0 0 edgecolor
newpath 419.26 2192.48 moveto
410.61 2186.36 lineto
413.56 2196.54 lineto
closepath stroke
grestore
% dampedne2
gsave
1 setlinewidth
0 0 0 nodecolor
newpath 235.47 740 moveto
29.47 740 lineto
29.47 656 lineto
235.47 656 lineto
closepath stroke
0 0 0 nodecolor
18 /Times-Roman set_font
90.47 719.8 moveto 84 (dampedne2) alignedtext
0 0 0 nodecolor
18 /Times-Roman set_font
54.97 700.8 moveto 155 ([|thetap in [-INF , -4];) alignedtext
0 0 0 nodecolor
18 /Times-Roman set_font
55.47 681.8 moveto 154 (  thetav in [-INF , 0]|]) alignedtext
0 0 0 nodecolor
18 /Times-Roman set_font
37.47 662.8 moveto 190 (2 constraints, 3 generators) alignedtext
grestore
% 2
gsave
0 0 0 nodecolor
18 /Times-Roman set_font
60.97 578.8 moveto 13 (\(\)) alignedtext
grestore
% dampedne2->2
gsave
1 setlinewidth
0 0 0 edgecolor
newpath 105.65 655.92 moveto
99.4 646.11 92.85 635.84 86.99 626.63 curveto
stroke
0 0 0 edgecolor
newpath 89.92 624.73 moveto
81.6 618.18 lineto
84.02 628.49 lineto
closepath fill
1 setlinewidth
solid
0 0 0 edgecolor
newpath 89.92 624.73 moveto
81.6 618.18 lineto
84.02 628.49 lineto
closepath stroke
grestore
% freen_start
gsave
1 setlinewidth
0 0 0 nodecolor
newpath 263.47 1697.5 moveto
57.47 1697.5 lineto
57.47 1632.5 lineto
263.47 1632.5 lineto
closepath stroke
0 0 0 nodecolor
18 /Times-Roman set_font
121.97 1677.3 moveto 77 (freen_start) alignedtext
0 0 0 nodecolor
18 /Times-Roman set_font
75.97 1658.3 moveto 169 ([|thetap in [-INF , -4]; |]) alignedtext
0 0 0 nodecolor
18 /Times-Roman set_font
65.47 1639.3 moveto 190 (1 constraints, 3 generators) alignedtext
grestore
% 16
gsave
0 0 0 nodecolor
18 /Times-Roman set_font
103.47 1575.8 moveto 114 (\(-thetap-4>=0 ?) alignedtext
0 0 0 nodecolor
18 /Times-Roman set_font
74.47 1556.8 moveto 172 (thetap := thetap+thetav;) alignedtext
0 0 0 nodecolor
18 /Times-Roman set_font
50.47 1537.8 moveto 220 (thetav := -1/64thetap+thetav\)*) alignedtext
0 0 0 nodecolor
18 /Times-Roman set_font
153.97 1518.8 moveto 13 (\(\)) alignedtext
grestore
% freen_start->16
gsave
1 setlinewidth
0 0 0 edgecolor
newpath 160.47 1632.3 moveto
160.47 1624.21 160.47 1615.34 160.47 1606.56 curveto
stroke
0 0 0 edgecolor
newpath 163.97 1606.36 moveto
160.47 1596.36 lineto
156.97 1606.36 lineto
closepath fill
1 setlinewidth
solid
0 0 0 edgecolor
newpath 163.97 1606.36 moveto
160.47 1596.36 lineto
156.97 1606.36 lineto
closepath stroke
grestore
% freen
gsave
1 setlinewidth
0 0 0 nodecolor
newpath 186.47 1476 moveto
134.47 1476 lineto
134.47 1430 lineto
186.47 1430 lineto
closepath stroke
0 0 0 nodecolor
18 /Times-Roman set_font
141.97 1455.8 moveto 37 (freen) alignedtext
0 0 0 nodecolor
18 /Times-Roman set_font
148.47 1436.8 moveto 24 (top) alignedtext
grestore
% 7
gsave
0 0 0 nodecolor
18 /Times-Roman set_font
105.97 1373.8 moveto 109 (thetap+4>=0 ? ) alignedtext
0 0 0 nodecolor
18 /Times-Roman set_font
153.97 1354.8 moveto 13 (\(\)) alignedtext
grestore
% freen->7
gsave
1 setlinewidth
0 0 0 edgecolor
newpath 160.47 1429.72 moveto
160.47 1421.78 160.47 1412.73 160.47 1404.16 curveto
stroke
0 0 0 edgecolor
newpath 163.97 1404.05 moveto
160.47 1394.05 lineto
156.97 1404.05 lineto
closepath fill
1 setlinewidth
solid
0 0 0 edgecolor
newpath 163.97 1404.05 moveto
160.47 1394.05 lineto
156.97 1404.05 lineto
closepath stroke
grestore
% dampedne
gsave
1 setlinewidth
0 0 0 nodecolor
newpath 459.47 730.5 moveto
253.47 730.5 lineto
253.47 665.5 lineto
459.47 665.5 lineto
closepath stroke
0 0 0 nodecolor
18 /Times-Roman set_font
318.97 710.3 moveto 75 (dampedne) alignedtext
0 0 0 nodecolor
18 /Times-Roman set_font
277.97 691.3 moveto 157 ([|thetap in [4 , INF]; |]) alignedtext
0 0 0 nodecolor
18 /Times-Roman set_font
261.47 672.3 moveto 190 (1 constraints, 3 generators) alignedtext
grestore
% 4
gsave
0 0 0 nodecolor
18 /Times-Roman set_font
367.97 578.8 moveto 13 (\(\)) alignedtext
grestore
% dampedne->4
gsave
1 setlinewidth
0 0 0 edgecolor
newpath 362.21 665.45 moveto
364.2 654.2 366.43 641.56 368.43 630.19 curveto
stroke
0 0 0 edgecolor
newpath 371.91 630.63 moveto
370.2 620.17 lineto
365.02 629.41 lineto
closepath fill
1 setlinewidth
solid
0 0 0 edgecolor
newpath 371.91 630.63 moveto
370.2 620.17 lineto
365.02 629.41 lineto
closepath stroke
grestore
% freepi_start
gsave
1 setlinewidth
0 0 0 nodecolor
newpath 562.47 2897.5 moveto
356.47 2897.5 lineto
356.47 2832.5 lineto
562.47 2832.5 lineto
closepath stroke
0 0 0 nodecolor
18 /Times-Roman set_font
418.47 2877.3 moveto 82 (freepi_start) alignedtext
0 0 0 nodecolor
18 /Times-Roman set_font
377.47 2858.3 moveto 164 ([|thetap=10; thetav=0|]) alignedtext
0 0 0 nodecolor
18 /Times-Roman set_font
364.47 2839.3 moveto 190 (2 constraints, 1 generators) alignedtext
grestore
% 18
gsave
0 0 0 nodecolor
18 /Times-Roman set_font
405.47 2775.8 moveto 108 (\(thetap-4>=0 ?) alignedtext
0 0 0 nodecolor
18 /Times-Roman set_font
373.47 2756.8 moveto 172 (thetap := thetap+thetav;) alignedtext
0 0 0 nodecolor
18 /Times-Roman set_font
349.47 2737.8 moveto 220 (thetav := -1/64thetap+thetav\)*) alignedtext
0 0 0 nodecolor
18 /Times-Roman set_font
452.97 2718.8 moveto 13 (\(\)) alignedtext
grestore
% freepi_start->18
gsave
1 setlinewidth
0 0 0 edgecolor
newpath 459.47 2832.3 moveto
459.47 2824.21 459.47 2815.34 459.47 2806.56 curveto
stroke
0 0 0 edgecolor
newpath 462.97 2806.36 moveto
459.47 2796.36 lineto
455.97 2806.36 lineto
closepath fill
1 setlinewidth
solid
0 0 0 edgecolor
newpath 462.97 2806.36 moveto
459.47 2796.36 lineto
455.97 2806.36 lineto
closepath stroke
grestore
% freep
gsave
1 setlinewidth
0 0 0 nodecolor
newpath 420.47 314 moveto
368.47 314 lineto
368.47 268 lineto
420.47 268 lineto
closepath stroke
0 0 0 nodecolor
18 /Times-Roman set_font
375.97 293.8 moveto 37 (freep) alignedtext
0 0 0 nodecolor
18 /Times-Roman set_font
382.47 274.8 moveto 24 (top) alignedtext
grestore
% 1
gsave
0 0 0 nodecolor
18 /Times-Roman set_font
343.97 211.8 moveto 115 (-thetap+4>=0 ? ) alignedtext
0 0 0 nodecolor
18 /Times-Roman set_font
394.97 192.8 moveto 13 (\(\)) alignedtext
grestore
% freep->1
gsave
1 setlinewidth
0 0 0 edgecolor
newpath 396.45 267.72 moveto
397.13 259.78 397.9 250.73 398.64 242.16 curveto
stroke
0 0 0 edgecolor
newpath 402.14 242.31 moveto
399.5 232.05 lineto
395.16 241.72 lineto
closepath fill
1 setlinewidth
solid
0 0 0 edgecolor
newpath 402.14 242.31 moveto
399.5 232.05 lineto
395.16 241.72 lineto
closepath stroke
grestore
% dampedpe
gsave
1 setlinewidth
0 0 0 nodecolor
newpath 278.47 1892.5 moveto
72.47 1892.5 lineto
72.47 1827.5 lineto
278.47 1827.5 lineto
closepath stroke
0 0 0 nodecolor
18 /Times-Roman set_font
137.97 1872.3 moveto 75 (dampedpe) alignedtext
0 0 0 nodecolor
18 /Times-Roman set_font
90.97 1853.3 moveto 169 ([|thetap in [-INF , -4]; |]) alignedtext
0 0 0 nodecolor
18 /Times-Roman set_font
80.47 1834.3 moveto 190 (1 constraints, 3 generators) alignedtext
grestore
% 10
gsave
0 0 0 nodecolor
18 /Times-Roman set_font
154.97 1740.8 moveto 13 (\(\)) alignedtext
grestore
% dampedpe->10
gsave
1 setlinewidth
0 0 0 edgecolor
newpath 171 1827.45 moveto
169.45 1816.2 167.72 1803.56 166.16 1792.19 curveto
stroke
0 0 0 edgecolor
newpath 169.61 1791.6 moveto
164.78 1782.17 lineto
162.68 1792.55 lineto
closepath fill
1 setlinewidth
solid
0 0 0 edgecolor
newpath 169.61 1791.6 moveto
164.78 1782.17 lineto
162.68 1792.55 lineto
closepath stroke
grestore
% linit
gsave
1 setlinewidth
0 0 0 nodecolor
newpath 481.47 3062 moveto
437.47 3062 lineto
437.47 3016 lineto
481.47 3016 lineto
closepath stroke
0 0 0 nodecolor
18 /Times-Roman set_font
445.47 3041.8 moveto 28 (linit) alignedtext
0 0 0 nodecolor
18 /Times-Roman set_font
447.47 3022.8 moveto 24 (top) alignedtext
grestore
% 19
gsave
0 0 0 nodecolor
18 /Times-Roman set_font
357.47 2959.8 moveto 204 (thetav=0 and thetap-10=0 ? ) alignedtext
0 0 0 nodecolor
18 /Times-Roman set_font
452.97 2940.8 moveto 13 (\(\)) alignedtext
grestore
% linit->19
gsave
1 setlinewidth
0 0 0 edgecolor
newpath 459.47 3015.72 moveto
459.47 3007.78 459.47 2998.73 459.47 2990.16 curveto
stroke
0 0 0 edgecolor
newpath 462.97 2990.05 moveto
459.47 2980.05 lineto
455.97 2990.05 lineto
closepath fill
1 setlinewidth
solid
0 0 0 edgecolor
newpath 462.97 2990.05 moveto
459.47 2980.05 lineto
455.97 2990.05 lineto
closepath stroke
grestore
% dampedn_start
gsave
1 setlinewidth
0 0 0 nodecolor
newpath 263.47 1125.5 moveto
57.47 1125.5 lineto
57.47 1060.5 lineto
263.47 1060.5 lineto
closepath stroke
0 0 0 nodecolor
18 /Times-Roman set_font
106.97 1105.3 moveto 107 (dampedn_start) alignedtext
0 0 0 nodecolor
18 /Times-Roman set_font
78.97 1086.3 moveto 163 ([|thetap in [-4 , INF]; |]) alignedtext
0 0 0 nodecolor
18 /Times-Roman set_font
65.47 1067.3 moveto 190 (1 constraints, 3 generators) alignedtext
grestore
% 14
gsave
0 0 0 nodecolor
18 /Times-Roman set_font
38.47 1003.8 moveto 244 (\(thetap+4>=0 and -thetap+4>=0 ?) alignedtext
0 0 0 nodecolor
18 /Times-Roman set_font
74.47 984.8 moveto 172 (thetap := thetap+thetav;) alignedtext
0 0 0 nodecolor
18 /Times-Roman set_font
38.97 965.8 moveto 243 (thetav := -1/64thetap+7/8thetav\)*) alignedtext
0 0 0 nodecolor
18 /Times-Roman set_font
153.97 946.8 moveto 13 (\(\)) alignedtext
grestore
% dampedn_start->14
gsave
1 setlinewidth
0 0 0 edgecolor
newpath 160.47 1060.3 moveto
160.47 1052.21 160.47 1043.34 160.47 1034.56 curveto
stroke
0 0 0 edgecolor
newpath 163.97 1034.36 moveto
160.47 1024.36 lineto
156.97 1034.36 lineto
closepath fill
1 setlinewidth
solid
0 0 0 edgecolor
newpath 163.97 1034.36 moveto
160.47 1024.36 lineto
156.97 1034.36 lineto
closepath stroke
grestore
% dampedpe2
gsave
1 setlinewidth
0 0 0 nodecolor
newpath 507.47 1902 moveto
301.47 1902 lineto
301.47 1818 lineto
507.47 1818 lineto
closepath stroke
0 0 0 nodecolor
18 /Times-Roman set_font
362.47 1881.8 moveto 84 (dampedpe2) alignedtext
0 0 0 nodecolor
18 /Times-Roman set_font
332.97 1862.8 moveto 143 ([|thetap in [4 , INF];) alignedtext
0 0 0 nodecolor
18 /Times-Roman set_font
330.47 1843.8 moveto 148 (  thetav in [0 , INF]|]) alignedtext
0 0 0 nodecolor
18 /Times-Roman set_font
309.47 1824.8 moveto 190 (2 constraints, 3 generators) alignedtext
grestore
% 8
gsave
0 0 0 nodecolor
18 /Times-Roman set_font
466.97 1647.8 moveto 13 (\(\)) alignedtext
grestore
% dampedpe2->8
gsave
1 setlinewidth
0 0 0 edgecolor
newpath 419.44 1817.69 moveto
432.05 1782.06 449.84 1731.76 461.51 1698.78 curveto
stroke
0 0 0 edgecolor
newpath 464.89 1699.73 moveto
464.93 1689.14 lineto
458.29 1697.4 lineto
closepath fill
1 setlinewidth
solid
0 0 0 edgecolor
newpath 464.89 1699.73 moveto
464.93 1689.14 lineto
458.29 1697.4 lineto
closepath stroke
grestore
% freep_start
gsave
1 setlinewidth
0 0 0 nodecolor
newpath 495.47 535.5 moveto
289.47 535.5 lineto
289.47 470.5 lineto
495.47 470.5 lineto
closepath stroke
0 0 0 nodecolor
18 /Times-Roman set_font
353.97 515.3 moveto 77 (freep_start) alignedtext
0 0 0 nodecolor
18 /Times-Roman set_font
313.97 496.3 moveto 157 ([|thetap in [4 , INF]; |]) alignedtext
0 0 0 nodecolor
18 /Times-Roman set_font
297.47 477.3 moveto 190 (1 constraints, 3 generators) alignedtext
grestore
% 17
gsave
0 0 0 nodecolor
18 /Times-Roman set_font
338.47 413.8 moveto 108 (\(thetap-4>=0 ?) alignedtext
0 0 0 nodecolor
18 /Times-Roman set_font
306.47 394.8 moveto 172 (thetap := thetap+thetav;) alignedtext
0 0 0 nodecolor
18 /Times-Roman set_font
282.47 375.8 moveto 220 (thetav := -1/64thetap+thetav\)*) alignedtext
0 0 0 nodecolor
18 /Times-Roman set_font
385.97 356.8 moveto 13 (\(\)) alignedtext
grestore
% freep_start->17
gsave
1 setlinewidth
0 0 0 edgecolor
newpath 392.47 470.3 moveto
392.47 462.21 392.47 453.34 392.47 444.56 curveto
stroke
0 0 0 edgecolor
newpath 395.97 444.36 moveto
392.47 434.36 lineto
388.97 444.36 lineto
closepath fill
1 setlinewidth
solid
0 0 0 edgecolor
newpath 395.97 444.36 moveto
392.47 434.36 lineto
388.97 444.36 lineto
closepath stroke
grestore
% freene
gsave
1 setlinewidth
0 0 0 nodecolor
newpath 263.47 1311.5 moveto
57.47 1311.5 lineto
57.47 1246.5 lineto
263.47 1246.5 lineto
closepath stroke
0 0 0 nodecolor
18 /Times-Roman set_font
137.97 1291.3 moveto 45 (freene) alignedtext
0 0 0 nodecolor
18 /Times-Roman set_font
78.97 1272.3 moveto 163 ([|thetap in [-4 , INF]; |]) alignedtext
0 0 0 nodecolor
18 /Times-Roman set_font
65.47 1253.3 moveto 190 (1 constraints, 3 generators) alignedtext
grestore
% 6
gsave
0 0 0 nodecolor
18 /Times-Roman set_font
153.97 1168.8 moveto 13 (\(\)) alignedtext
grestore
% freene->6
gsave
1 setlinewidth
0 0 0 edgecolor
newpath 160.47 1246.47 moveto
160.47 1237.98 160.47 1228.81 160.47 1220.23 curveto
stroke
0 0 0 edgecolor
newpath 163.97 1220.15 moveto
160.47 1210.15 lineto
156.97 1220.15 lineto
closepath fill
1 setlinewidth
solid
0 0 0 edgecolor
newpath 163.97 1220.15 moveto
160.47 1210.15 lineto
156.97 1220.15 lineto
closepath stroke
grestore
% freepie
gsave
1 setlinewidth
0 0 0 nodecolor
newpath 566.47 2492 moveto
352.47 2492 lineto
352.47 2408 lineto
566.47 2408 lineto
closepath stroke
0 0 0 nodecolor
18 /Times-Roman set_font
434.97 2471.8 moveto 49 (freepie) alignedtext
0 0 0 nodecolor
18 /Times-Roman set_font
384.97 2452.8 moveto 149 ([|thetap in [-INF , 4];) alignedtext
0 0 0 nodecolor
18 /Times-Roman set_font
359.97 2433.8 moveto 199 (  thetav in [-INF , -0.0625]|]) alignedtext
0 0 0 nodecolor
18 /Times-Roman set_font
364.47 2414.8 moveto 190 (2 constraints, 3 generators) alignedtext
grestore
% 12
gsave
0 0 0 nodecolor
18 /Times-Roman set_font
452.97 2330.8 moveto 13 (\(\)) alignedtext
grestore
% freepie->12
gsave
1 setlinewidth
0 0 0 edgecolor
newpath 459.47 2407.92 moveto
459.47 2399.36 459.47 2390.45 459.47 2382.19 curveto
stroke
0 0 0 edgecolor
newpath 462.97 2382.17 moveto
459.47 2372.17 lineto
455.97 2382.17 lineto
closepath fill
1 setlinewidth
solid
0 0 0 edgecolor
newpath 462.97 2382.17 moveto
459.47 2372.17 lineto
455.97 2382.17 lineto
closepath stroke
grestore
% dampedn
gsave
1 setlinewidth
0 0 0 nodecolor
newpath 201.47 904 moveto
119.47 904 lineto
119.47 858 lineto
201.47 858 lineto
closepath stroke
0 0 0 nodecolor
18 /Times-Roman set_font
126.97 883.8 moveto 67 (dampedn) alignedtext
0 0 0 nodecolor
18 /Times-Roman set_font
148.47 864.8 moveto 24 (top) alignedtext
grestore
% 3
gsave
0 0 0 nodecolor
18 /Times-Roman set_font
38.47 801.8 moveto 228 (-thetav>=0 and -thetap-4>=0 ? ) alignedtext
0 0 0 nodecolor
18 /Times-Roman set_font
145.97 782.8 moveto 13 (\(\)) alignedtext
grestore
% dampedn->3
gsave
1 setlinewidth
0 0 0 edgecolor
newpath 158.2 857.72 moveto
157.42 849.78 156.54 840.73 155.7 832.16 curveto
stroke
0 0 0 edgecolor
newpath 159.17 831.67 moveto
154.72 822.05 lineto
152.2 832.35 lineto
closepath fill
1 setlinewidth
solid
0 0 0 edgecolor
newpath 159.17 831.67 moveto
154.72 822.05 lineto
152.2 832.35 lineto
closepath stroke
grestore
% 5
gsave
0 0 0 nodecolor
18 /Times-Roman set_font
301.47 801.8 moveto 106 (thetap-4>=0 ? ) alignedtext
0 0 0 nodecolor
18 /Times-Roman set_font
347.97 782.8 moveto 13 (\(\)) alignedtext
grestore
% dampedn->5
gsave
1 setlinewidth
0 0 0 edgecolor
newpath 201.61 863.61 moveto
227.4 852.71 261.19 838.43 290.44 826.06 curveto
stroke
0 0 0 edgecolor
newpath 291.91 829.24 moveto
299.76 822.12 lineto
289.18 822.79 lineto
closepath fill
1 setlinewidth
solid
0 0 0 edgecolor
newpath 291.91 829.24 moveto
299.76 822.12 lineto
289.18 822.79 lineto
closepath stroke
grestore
% freepe
gsave
1 setlinewidth
0 0 0 nodecolor
newpath 508.47 149.5 moveto
302.47 149.5 lineto
302.47 84.5 lineto
508.47 84.5 lineto
closepath stroke
0 0 0 nodecolor
18 /Times-Roman set_font
382.97 129.3 moveto 45 (freepe) alignedtext
0 0 0 nodecolor
18 /Times-Roman set_font
323.97 110.3 moveto 163 ([|thetap in [-INF , 4]; |]) alignedtext
0 0 0 nodecolor
18 /Times-Roman set_font
310.47 91.3 moveto 190 (1 constraints, 3 generators) alignedtext
grestore
% 0
gsave
0 0 0 nodecolor
18 /Times-Roman set_font
464.97 6.8 moveto 13 (\(\)) alignedtext
grestore
% freepe->0
gsave
1 setlinewidth
0 0 0 edgecolor
newpath 428.55 84.47 moveto
436.04 73.92 444.29 62.3 451.53 52.09 curveto
stroke
0 0 0 edgecolor
newpath 454.41 54.09 moveto
457.34 43.9 lineto
448.7 50.03 lineto
closepath fill
1 setlinewidth
solid
0 0 0 edgecolor
newpath 454.41 54.09 moveto
457.34 43.9 lineto
448.7 50.03 lineto
closepath stroke
grestore
% dampedp
gsave
1 setlinewidth
0 0 0 nodecolor
newpath 421.47 2066 moveto
339.47 2066 lineto
339.47 2020 lineto
421.47 2020 lineto
closepath stroke
0 0 0 nodecolor
18 /Times-Roman set_font
346.97 2045.8 moveto 67 (dampedp) alignedtext
0 0 0 nodecolor
18 /Times-Roman set_font
368.47 2026.8 moveto 24 (top) alignedtext
grestore
% 9
gsave
0 0 0 nodecolor
18 /Times-Roman set_font
280.47 1963.8 moveto 216 (thetav>=0 and thetap-4>=0 ? ) alignedtext
0 0 0 nodecolor
18 /Times-Roman set_font
381.97 1944.8 moveto 13 (\(\)) alignedtext
grestore
% dampedp->9
gsave
1 setlinewidth
0 0 0 edgecolor
newpath 382.74 2019.72 moveto
383.51 2011.78 384.4 2002.73 385.23 1994.16 curveto
stroke
0 0 0 edgecolor
newpath 388.73 1994.35 moveto
386.22 1984.05 lineto
381.76 1993.67 lineto
closepath fill
1 setlinewidth
solid
0 0 0 edgecolor
newpath 388.73 1994.35 moveto
386.22 1984.05 lineto
381.76 1993.67 lineto
closepath stroke
grestore
% 11
gsave
0 0 0 nodecolor
18 /Times-Roman set_font
122.47 1963.8 moveto 112 (-thetap-4>=0 ? ) alignedtext
0 0 0 nodecolor
18 /Times-Roman set_font
171.97 1944.8 moveto 13 (\(\)) alignedtext
grestore
% dampedp->11
gsave
1 setlinewidth
0 0 0 edgecolor
newpath 339.1 2026.21 moveto
312.01 2015.21 276 2000.59 244.94 1987.98 curveto
stroke
0 0 0 edgecolor
newpath 246.06 1984.66 moveto
235.47 1984.14 lineto
243.42 1991.15 lineto
closepath fill
1 setlinewidth
solid
0 0 0 edgecolor
newpath 246.06 1984.66 moveto
235.47 1984.14 lineto
243.42 1991.15 lineto
closepath stroke
grestore
% 0->dampedp_start
gsave
1 setlinewidth
0 0 0 edgecolor
newpath 485.85 38.45 moveto
496.32 49.85 509.93 66.67 517.47 84 curveto
539.94 135.66 538.47 152.67 538.47 209 curveto
538.47 2043 538.47 2043 538.47 2043 curveto
538.47 2107.11 545.84 2127.56 519.47 2186 curveto
514.92 2196.08 508.4 2205.79 501.32 2214.57 curveto
stroke
0 0 0 edgecolor
newpath 498.51 2212.48 moveto
494.71 2222.37 lineto
503.85 2217.01 lineto
closepath fill
1 setlinewidth
solid
0 0 0 edgecolor
newpath 498.51 2212.48 moveto
494.71 2222.37 lineto
503.85 2217.01 lineto
closepath stroke
grestore
% 1->freepe
gsave
1 setlinewidth
0 0 0 edgecolor
newpath 402.48 185.78 moveto
402.82 177.82 403.22 168.63 403.61 159.62 curveto
stroke
0 0 0 edgecolor
newpath 407.11 159.73 moveto
404.05 149.59 lineto
400.12 159.43 lineto
closepath fill
1 setlinewidth
solid
0 0 0 edgecolor
newpath 407.11 159.73 moveto
404.05 149.59 lineto
400.12 159.43 lineto
closepath stroke
grestore
% 2->freen_start
gsave
1 setlinewidth
0 0 0 edgecolor
newpath 53.04 609.85 moveto
42.19 621.18 27.96 638.19 20.47 656 curveto
-4.4 715.1 1.47 734.89 1.47 799 curveto
1.47 1453 1.47 1453 1.47 1453 curveto
1.47 1518.13 -5.77 1544.02 33.47 1596 curveto
42.64 1608.16 54.61 1618.43 67.53 1627.02 curveto
stroke
0 0 0 edgecolor
newpath 65.8 1630.08 moveto
76.13 1632.43 lineto
69.53 1624.15 lineto
closepath fill
1 setlinewidth
solid
0 0 0 edgecolor
newpath 65.8 1630.08 moveto
76.13 1632.43 lineto
69.53 1624.15 lineto
closepath stroke
grestore
% 3->dampedne2
gsave
1 setlinewidth
0 0 0 edgecolor
newpath 147.88 775.83 moveto
146.34 768.04 144.55 759.02 142.75 749.94 curveto
stroke
0 0 0 edgecolor
newpath 146.18 749.24 moveto
140.8 740.11 lineto
139.31 750.6 lineto
closepath fill
1 setlinewidth
solid
0 0 0 edgecolor
newpath 146.18 749.24 moveto
140.8 740.11 lineto
139.31 750.6 lineto
closepath stroke
grestore
% 4->freep_start
gsave
1 setlinewidth
0 0 0 edgecolor
newpath 379.2 571.57 moveto
380.74 563.59 382.5 554.48 384.23 545.57 curveto
stroke
0 0 0 edgecolor
newpath 387.68 546.15 moveto
386.14 535.67 lineto
380.81 544.82 lineto
closepath fill
1 setlinewidth
solid
0 0 0 edgecolor
newpath 387.68 546.15 moveto
386.14 535.67 lineto
380.81 544.82 lineto
closepath stroke
grestore
% 5->dampedne
gsave
1 setlinewidth
0 0 0 edgecolor
newpath 354.93 775.83 moveto
355.13 765.47 355.38 752.91 355.62 740.94 curveto
stroke
0 0 0 edgecolor
newpath 359.12 740.7 moveto
355.82 730.63 lineto
352.12 740.56 lineto
closepath fill
1 setlinewidth
solid
0 0 0 edgecolor
newpath 359.12 740.7 moveto
355.82 730.63 lineto
352.12 740.56 lineto
closepath stroke
grestore
% 6->dampedn_start
gsave
1 setlinewidth
0 0 0 edgecolor
newpath 160.47 1161.57 moveto
160.47 1153.67 160.47 1144.68 160.47 1135.86 curveto
stroke
0 0 0 edgecolor
newpath 163.97 1135.67 moveto
160.47 1125.67 lineto
156.97 1135.67 lineto
closepath fill
1 setlinewidth
solid
0 0 0 edgecolor
newpath 163.97 1135.67 moveto
160.47 1125.67 lineto
156.97 1135.67 lineto
closepath stroke
grestore
% 7->freene
gsave
1 setlinewidth
0 0 0 edgecolor
newpath 160.47 1347.78 moveto
160.47 1339.82 160.47 1330.63 160.47 1321.62 curveto
stroke
0 0 0 edgecolor
newpath 163.97 1321.59 moveto
160.47 1311.59 lineto
156.97 1321.59 lineto
closepath fill
1 setlinewidth
solid
0 0 0 edgecolor
newpath 163.97 1321.59 moveto
160.47 1311.59 lineto
156.97 1321.59 lineto
closepath stroke
grestore
% 8->freep_start
gsave
1 setlinewidth
0 0 0 edgecolor
newpath 476.1 1640.87 moveto
480.16 1601.56 487.47 1521.24 487.47 1453 curveto
487.47 1453 487.47 1453 487.47 698 curveto
487.47 640.06 453.15 581.32 425.77 543.68 curveto
stroke
0 0 0 edgecolor
newpath 428.47 541.45 moveto
419.69 535.51 lineto
422.85 545.63 lineto
closepath fill
1 setlinewidth
solid
0 0 0 edgecolor
newpath 428.47 541.45 moveto
419.69 535.51 lineto
422.85 545.63 lineto
closepath stroke
grestore
% 9->dampedpe2
gsave
1 setlinewidth
0 0 0 edgecolor
newpath 392.14 1937.83 moveto
393.36 1930.13 394.77 1921.21 396.19 1912.22 curveto
stroke
0 0 0 edgecolor
newpath 399.69 1912.53 moveto
397.8 1902.11 lineto
392.77 1911.44 lineto
closepath fill
1 setlinewidth
solid
0 0 0 edgecolor
newpath 399.69 1912.53 moveto
397.8 1902.11 lineto
392.77 1911.44 lineto
closepath stroke
grestore
% 10->freen_start
gsave
1 setlinewidth
0 0 0 edgecolor
newpath 161.2 1733.57 moveto
161.12 1725.67 161.02 1716.68 160.93 1707.86 curveto
stroke
0 0 0 edgecolor
newpath 164.43 1707.63 moveto
160.82 1697.67 lineto
157.43 1707.7 lineto
closepath fill
1 setlinewidth
solid
0 0 0 edgecolor
newpath 164.43 1707.63 moveto
160.82 1697.67 lineto
157.43 1707.7 lineto
closepath stroke
grestore
% 11->dampedpe
gsave
1 setlinewidth
0 0 0 edgecolor
newpath 177.78 1937.83 moveto
177.47 1927.47 177.1 1914.91 176.74 1902.94 curveto
stroke
0 0 0 edgecolor
newpath 180.23 1902.52 moveto
176.44 1892.63 lineto
173.23 1902.73 lineto
closepath fill
1 setlinewidth
solid
0 0 0 edgecolor
newpath 180.23 1902.52 moveto
176.44 1892.63 lineto
173.23 1902.73 lineto
closepath stroke
grestore
% 12->dampedp_start
gsave
1 setlinewidth
0 0 0 edgecolor
newpath 459.47 2323.57 moveto
459.47 2315.67 459.47 2306.68 459.47 2297.86 curveto
stroke
0 0 0 edgecolor
newpath 462.97 2297.67 moveto
459.47 2287.67 lineto
455.97 2297.67 lineto
closepath fill
1 setlinewidth
solid
0 0 0 edgecolor
newpath 462.97 2297.67 moveto
459.47 2287.67 lineto
455.97 2297.67 lineto
closepath stroke
grestore
% 13->freepie
gsave
1 setlinewidth
0 0 0 edgecolor
newpath 459.47 2527.83 moveto
459.47 2520.13 459.47 2511.21 459.47 2502.22 curveto
stroke
0 0 0 edgecolor
newpath 462.97 2502.11 moveto
459.47 2492.11 lineto
455.97 2502.11 lineto
closepath fill
1 setlinewidth
solid
0 0 0 edgecolor
newpath 462.97 2502.11 moveto
459.47 2492.11 lineto
455.97 2502.11 lineto
closepath stroke
grestore
% 14->dampedn
gsave
1 setlinewidth
0 0 0 edgecolor
newpath 160.47 939.75 moveto
160.47 931.26 160.47 922.44 160.47 914.31 curveto
stroke
0 0 0 edgecolor
newpath 163.97 914.08 moveto
160.47 904.08 lineto
156.97 914.08 lineto
closepath fill
1 setlinewidth
solid
0 0 0 edgecolor
newpath 163.97 914.08 moveto
160.47 904.08 lineto
156.97 914.08 lineto
closepath stroke
grestore
% 15->dampedp
gsave
1 setlinewidth
0 0 0 edgecolor
newpath 380.47 2101.75 moveto
380.47 2093.26 380.47 2084.44 380.47 2076.31 curveto
stroke
0 0 0 edgecolor
newpath 383.97 2076.08 moveto
380.47 2066.08 lineto
376.97 2076.08 lineto
closepath fill
1 setlinewidth
solid
0 0 0 edgecolor
newpath 383.97 2076.08 moveto
380.47 2066.08 lineto
376.97 2076.08 lineto
closepath stroke
grestore
% 16->freen
gsave
1 setlinewidth
0 0 0 edgecolor
newpath 160.47 1511.75 moveto
160.47 1503.26 160.47 1494.44 160.47 1486.31 curveto
stroke
0 0 0 edgecolor
newpath 163.97 1486.08 moveto
160.47 1476.08 lineto
156.97 1486.08 lineto
closepath fill
1 setlinewidth
solid
0 0 0 edgecolor
newpath 163.97 1486.08 moveto
160.47 1476.08 lineto
156.97 1486.08 lineto
closepath stroke
grestore
% 17->freep
gsave
1 setlinewidth
0 0 0 edgecolor
newpath 393.3 349.75 moveto
393.47 341.26 393.65 332.44 393.81 324.31 curveto
stroke
0 0 0 edgecolor
newpath 397.31 324.15 moveto
394.01 314.08 lineto
390.31 324.01 lineto
closepath fill
1 setlinewidth
solid
0 0 0 edgecolor
newpath 397.31 324.15 moveto
394.01 314.08 lineto
390.31 324.01 lineto
closepath stroke
grestore
% 18->freepi
gsave
1 setlinewidth
0 0 0 edgecolor
newpath 459.47 2711.72 moveto
459.47 2703.27 459.47 2694.38 459.47 2685.91 curveto
stroke
0 0 0 edgecolor
newpath 462.97 2685.84 moveto
459.47 2675.84 lineto
455.97 2685.84 lineto
closepath fill
1 setlinewidth
solid
0 0 0 edgecolor
newpath 462.97 2685.84 moveto
459.47 2675.84 lineto
455.97 2685.84 lineto
closepath stroke
grestore
% 19->freepi_start
gsave
1 setlinewidth
0 0 0 edgecolor
newpath 459.47 2933.78 moveto
459.47 2925.82 459.47 2916.63 459.47 2907.62 curveto
stroke
0 0 0 edgecolor
newpath 462.97 2907.59 moveto
459.47 2897.59 lineto
455.97 2907.59 lineto
closepath fill
1 setlinewidth
solid
0 0 0 edgecolor
newpath 462.97 2907.59 moveto
459.47 2897.59 lineto
455.97 2907.59 lineto
closepath stroke
grestore
endpage
showpage
grestore
%%PageTrailer
%%EndPage: 3
%%Trailer
%%Pages: 3
%%BoundingBox: 36 36 964 3270
end
restore
%%EOF
