%!PS-Adobe-3.0
%%Creator: graphviz version 2.26.3 (20100126.1600)
%%Title: G
%%Pages: (atend)
%%BoundingBox: (atend)
%%EndComments
save
%%BeginProlog
/DotDict 200 dict def
DotDict begin

/setupLatin1 {
mark
/EncodingVector 256 array def
 EncodingVector 0

ISOLatin1Encoding 0 255 getinterval putinterval
EncodingVector 45 /hyphen put

% Set up ISO Latin 1 character encoding
/starnetISO {
        dup dup findfont dup length dict begin
        { 1 index /FID ne { def }{ pop pop } ifelse
        } forall
        /Encoding EncodingVector def
        currentdict end definefont
} def
/Times-Roman starnetISO def
/Times-Italic starnetISO def
/Times-Bold starnetISO def
/Times-BoldItalic starnetISO def
/Helvetica starnetISO def
/Helvetica-Oblique starnetISO def
/Helvetica-Bold starnetISO def
/Helvetica-BoldOblique starnetISO def
/Courier starnetISO def
/Courier-Oblique starnetISO def
/Courier-Bold starnetISO def
/Courier-BoldOblique starnetISO def
cleartomark
} bind def

%%BeginResource: procset graphviz 0 0
/coord-font-family /Times-Roman def
/default-font-family /Times-Roman def
/coordfont coord-font-family findfont 8 scalefont def

/InvScaleFactor 1.0 def
/set_scale {
       dup 1 exch div /InvScaleFactor exch def
       scale
} bind def

% styles
/solid { [] 0 setdash } bind def
/dashed { [9 InvScaleFactor mul dup ] 0 setdash } bind def
/dotted { [1 InvScaleFactor mul 6 InvScaleFactor mul] 0 setdash } bind def
/invis {/fill {newpath} def /stroke {newpath} def /show {pop newpath} def} bind def
/bold { 2 setlinewidth } bind def
/filled { } bind def
/unfilled { } bind def
/rounded { } bind def
/diagonals { } bind def

% hooks for setting color 
/nodecolor { sethsbcolor } bind def
/edgecolor { sethsbcolor } bind def
/graphcolor { sethsbcolor } bind def
/nopcolor {pop pop pop} bind def

/beginpage {	% i j npages
	/npages exch def
	/j exch def
	/i exch def
	/str 10 string def
	npages 1 gt {
		gsave
			coordfont setfont
			0 0 moveto
			(\() show i str cvs show (,) show j str cvs show (\)) show
		grestore
	} if
} bind def

/set_font {
	findfont exch
	scalefont setfont
} def

% draw text fitted to its expected width
/alignedtext {			% width text
	/text exch def
	/width exch def
	gsave
		width 0 gt {
			[] 0 setdash
			text stringwidth pop width exch sub text length div 0 text ashow
		} if
	grestore
} def

/boxprim {				% xcorner ycorner xsize ysize
		4 2 roll
		moveto
		2 copy
		exch 0 rlineto
		0 exch rlineto
		pop neg 0 rlineto
		closepath
} bind def

/ellipse_path {
	/ry exch def
	/rx exch def
	/y exch def
	/x exch def
	matrix currentmatrix
	newpath
	x y translate
	rx ry scale
	0 0 1 0 360 arc
	setmatrix
} bind def

/endpage { showpage } bind def
/showpage { } def

/layercolorseq
	[	% layer color sequence - darkest to lightest
		[0 0 0]
		[.2 .8 .8]
		[.4 .8 .8]
		[.6 .8 .8]
		[.8 .8 .8]
	]
def

/layerlen layercolorseq length def

/setlayer {/maxlayer exch def /curlayer exch def
	layercolorseq curlayer 1 sub layerlen mod get
	aload pop sethsbcolor
	/nodecolor {nopcolor} def
	/edgecolor {nopcolor} def
	/graphcolor {nopcolor} def
} bind def

/onlayer { curlayer ne {invis} if } def

/onlayers {
	/myupper exch def
	/mylower exch def
	curlayer mylower lt
	curlayer myupper gt
	or
	{invis} if
} def

/curlayer 0 def

%%EndResource
%%EndProlog
%%BeginSetup
14 default-font-family set_font
1 setmiterlimit
% /arrowlength 10 def
% /arrowwidth 5 def

% make sure pdfmark is harmless for PS-interpreters other than Distiller
/pdfmark where {pop} {userdict /pdfmark /cleartomark load put} ifelse
% make '<<' and '>>' safe on PS Level 1 devices
/languagelevel where {pop languagelevel}{1} ifelse
2 lt {
    userdict (<<) cvn ([) cvn load put
    userdict (>>) cvn ([) cvn load put
} if

%%EndSetup
setupLatin1
%%Page: 1 1
%%PageBoundingBox: 36 36 1882 496
%%PageOrientation: Portrait
0 0 1 beginpage
gsave
36 36 1846 460 boxprim clip newpath
1 1 set_scale 0 rotate 40 41 translate
% 1073741823
gsave
1 setlinewidth
0 0 0 nodecolor
801 429 43.84 19.09 ellipse_path stroke
0 0 0 nodecolor
18 /Times-Roman set_font
778 422.3 moveto 46 (Result) alignedtext
grestore
% l5_start
gsave
1 setlinewidth
0 0 0 nodecolor
newpath 488 287.5 moveto
282 287.5 lineto
282 222.5 lineto
488 222.5 lineto
closepath stroke
0 0 0 nodecolor
18 /Times-Roman set_font
357.5 267.3 moveto 55 (l5_start) alignedtext
0 0 0 nodecolor
18 /Times-Roman set_font
307.5 248.3 moveto 155 ([|thetap=8; thetav=0|]) alignedtext
0 0 0 nodecolor
18 /Times-Roman set_font
290 229.3 moveto 190 (2 constraints, 1 generators) alignedtext
grestore
% 1
gsave
0 0 0 nodecolor
18 /Times-Roman set_font
282 165.3 moveto 172 (thetap := thetap+thetav;) alignedtext
0 0 0 nodecolor
18 /Times-Roman set_font
285 146.3 moveto 166 (thetav := -1/64thetap\)*) alignedtext
0 0 0 nodecolor
18 /Times-Roman set_font
361.5 127.3 moveto 13 (\(\)) alignedtext
grestore
% l5_start->1
gsave
1 setlinewidth
0 0 0 edgecolor
newpath 379.57 222.45 moveto
378.15 213.89 376.59 204.53 375.09 195.54 curveto
stroke
0 0 0 edgecolor
newpath 378.53 194.88 moveto
373.43 185.59 lineto
371.62 196.03 lineto
closepath fill
1 setlinewidth
solid
0 0 0 edgecolor
newpath 378.53 194.88 moveto
373.43 185.59 lineto
371.62 196.03 lineto
closepath stroke
grestore
% l0_start
gsave
1 setlinewidth
0 0 0 nodecolor
newpath 1804 287.5 moveto
1598 287.5 lineto
1598 222.5 lineto
1804 222.5 lineto
closepath stroke
0 0 0 nodecolor
18 /Times-Roman set_font
1673.5 267.3 moveto 55 (l0_start) alignedtext
0 0 0 nodecolor
18 /Times-Roman set_font
1623.5 248.3 moveto 155 ([|thetap=8; thetav=0|]) alignedtext
0 0 0 nodecolor
18 /Times-Roman set_font
1606 229.3 moveto 190 (2 constraints, 1 generators) alignedtext
grestore
% 6
gsave
0 0 0 nodecolor
18 /Times-Roman set_font
1634 165.3 moveto 172 (thetap := thetap+thetav;) alignedtext
0 0 0 nodecolor
18 /Times-Roman set_font
1610 146.3 moveto 220 (thetav := -1/64thetap+thetav\)*) alignedtext
0 0 0 nodecolor
18 /Times-Roman set_font
1713.5 127.3 moveto 13 (\(\)) alignedtext
grestore
% l0_start->6
gsave
1 setlinewidth
0 0 0 edgecolor
newpath 1707.06 222.45 moveto
1708.66 213.89 1710.4 204.53 1712.08 195.54 curveto
stroke
0 0 0 edgecolor
newpath 1715.54 196.07 moveto
1713.93 185.59 lineto
1708.66 194.78 lineto
closepath fill
1 setlinewidth
solid
0 0 0 edgecolor
newpath 1715.54 196.07 moveto
1713.93 185.59 lineto
1708.66 194.78 lineto
closepath stroke
grestore
% l4_start
gsave
1 setlinewidth
0 0 0 nodecolor
newpath 715 287.5 moveto
509 287.5 lineto
509 222.5 lineto
715 222.5 lineto
closepath stroke
0 0 0 nodecolor
18 /Times-Roman set_font
584.5 267.3 moveto 55 (l4_start) alignedtext
0 0 0 nodecolor
18 /Times-Roman set_font
534.5 248.3 moveto 155 ([|thetap=8; thetav=0|]) alignedtext
0 0 0 nodecolor
18 /Times-Roman set_font
517 229.3 moveto 190 (2 constraints, 1 generators) alignedtext
grestore
% 2
gsave
0 0 0 nodecolor
18 /Times-Roman set_font
523 165.3 moveto 172 (thetap := thetap+thetav;) alignedtext
0 0 0 nodecolor
18 /Times-Roman set_font
487.5 146.3 moveto 243 (thetav := -1/64thetap+1/2thetav\)*) alignedtext
0 0 0 nodecolor
18 /Times-Roman set_font
602.5 127.3 moveto 13 (\(\)) alignedtext
grestore
% l4_start->2
gsave
1 setlinewidth
0 0 0 edgecolor
newpath 611.04 222.45 moveto
610.79 213.98 610.52 204.73 610.26 195.83 curveto
stroke
0 0 0 edgecolor
newpath 613.75 195.49 moveto
609.96 185.59 lineto
606.75 195.69 lineto
closepath fill
1 setlinewidth
solid
0 0 0 edgecolor
newpath 613.75 195.49 moveto
609.96 185.59 lineto
606.75 195.69 lineto
closepath stroke
grestore
% linit
gsave
1 setlinewidth
0 0 0 nodecolor
newpath 907 452 moveto
863 452 lineto
863 406 lineto
907 406 lineto
closepath stroke
0 0 0 nodecolor
18 /Times-Roman set_font
871 431.8 moveto 28 (linit) alignedtext
0 0 0 nodecolor
18 /Times-Roman set_font
873 412.8 moveto 24 (top) alignedtext
grestore
% 7
gsave
0 0 0 nodecolor
18 /Times-Roman set_font
83.5 349.8 moveto 195 (thetav=0 and thetap-8=0 ? ) alignedtext
0 0 0 nodecolor
18 /Times-Roman set_font
174.5 330.8 moveto 13 (\(\)) alignedtext
grestore
% linit->7
gsave
1 setlinewidth
0 0 0 edgecolor
newpath 862.84 410.32 moveto
860 408.61 857.02 407.11 854 406 curveto
739.44 363.93 427.11 385.07 306 370 curveto
302.77 369.6 299.5 369.17 296.2 368.71 curveto
stroke
0 0 0 edgecolor
newpath 296.63 365.24 moveto
286.23 367.27 lineto
295.63 372.16 lineto
closepath fill
1 setlinewidth
solid
0 0 0 edgecolor
newpath 296.63 365.24 moveto
286.23 367.27 lineto
295.63 372.16 lineto
closepath stroke
grestore
% 8
gsave
0 0 0 nodecolor
18 /Times-Roman set_font
322.5 349.8 moveto 195 (thetav=0 and thetap-8=0 ? ) alignedtext
0 0 0 nodecolor
18 /Times-Roman set_font
413.5 330.8 moveto 13 (\(\)) alignedtext
grestore
% linit->8
gsave
1 setlinewidth
0 0 0 edgecolor
newpath 862.79 410.46 moveto
859.95 408.73 856.99 407.18 854 406 curveto
723.36 354.39 678.86 391.24 540 370 curveto
538.49 369.77 536.98 369.53 535.45 369.29 curveto
stroke
0 0 0 edgecolor
newpath 535.71 365.79 moveto
525.28 367.64 lineto
534.59 372.7 lineto
closepath fill
1 setlinewidth
solid
0 0 0 edgecolor
newpath 535.71 365.79 moveto
525.28 367.64 lineto
534.59 372.7 lineto
closepath stroke
grestore
% 9
gsave
0 0 0 nodecolor
18 /Times-Roman set_font
556.5 349.8 moveto 195 (thetav=0 and thetap-8=0 ? ) alignedtext
0 0 0 nodecolor
18 /Times-Roman set_font
647.5 330.8 moveto 13 (\(\)) alignedtext
grestore
% linit->9
gsave
1 setlinewidth
0 0 0 edgecolor
newpath 862.91 411.19 moveto
860.01 409.28 857 407.5 854 406 curveto
826.93 392.5 796.23 381.53 767.14 372.87 curveto
stroke
0 0 0 edgecolor
newpath 767.93 369.46 moveto
757.35 370.02 lineto
765.97 376.18 lineto
closepath fill
1 setlinewidth
solid
0 0 0 edgecolor
newpath 767.93 369.46 moveto
757.35 370.02 lineto
765.97 376.18 lineto
closepath stroke
grestore
% 10
gsave
0 0 0 nodecolor
18 /Times-Roman set_font
787.5 349.8 moveto 195 (thetav=0 and thetap-8=0 ? ) alignedtext
0 0 0 nodecolor
18 /Times-Roman set_font
878.5 330.8 moveto 13 (\(\)) alignedtext
grestore
% linit->10
gsave
1 setlinewidth
0 0 0 edgecolor
newpath 885 405.72 moveto
885 397.78 885 388.73 885 380.16 curveto
stroke
0 0 0 edgecolor
newpath 888.5 380.05 moveto
885 370.05 lineto
881.5 380.05 lineto
closepath fill
1 setlinewidth
solid
0 0 0 edgecolor
newpath 888.5 380.05 moveto
885 370.05 lineto
881.5 380.05 lineto
closepath stroke
grestore
% 11
gsave
0 0 0 nodecolor
18 /Times-Roman set_font
1028.5 349.8 moveto 195 (thetav=0 and thetap-8=0 ? ) alignedtext
0 0 0 nodecolor
18 /Times-Roman set_font
1119.5 330.8 moveto 13 (\(\)) alignedtext
grestore
% linit->11
gsave
1 setlinewidth
0 0 0 edgecolor
newpath 907.24 421.43 moveto
939.14 410.58 999.46 390.05 1048.7 373.3 curveto
stroke
0 0 0 edgecolor
newpath 1050.05 376.54 moveto
1058.39 370.01 lineto
1047.79 369.91 lineto
closepath fill
1 setlinewidth
solid
0 0 0 edgecolor
newpath 1050.05 376.54 moveto
1058.39 370.01 lineto
1047.79 369.91 lineto
closepath stroke
grestore
% 12
gsave
0 0 0 nodecolor
18 /Times-Roman set_font
1282.5 349.8 moveto 195 (thetav=0 and thetap-8=0 ? ) alignedtext
0 0 0 nodecolor
18 /Times-Roman set_font
1373.5 330.8 moveto 13 (\(\)) alignedtext
grestore
% linit->12
gsave
1 setlinewidth
0 0 0 edgecolor
newpath 907.23 425.32 moveto
968.99 415.09 1145.9 385.78 1264.91 366.06 curveto
stroke
0 0 0 edgecolor
newpath 1265.52 369.51 moveto
1274.81 364.43 lineto
1264.37 362.61 lineto
closepath fill
1 setlinewidth
solid
0 0 0 edgecolor
newpath 1265.52 369.51 moveto
1274.81 364.43 lineto
1264.37 362.61 lineto
closepath stroke
grestore
% 13
gsave
0 0 0 nodecolor
18 /Times-Roman set_font
1528.5 349.8 moveto 195 (thetav=0 and thetap-8=0 ? ) alignedtext
0 0 0 nodecolor
18 /Times-Roman set_font
1619.5 330.8 moveto 13 (\(\)) alignedtext
grestore
% linit->13
gsave
1 setlinewidth
0 0 0 edgecolor
newpath 907.19 427.46 moveto
986.82 421.81 1265.58 400.92 1494 370 curveto
1499.47 369.26 1505.07 368.46 1510.72 367.61 curveto
stroke
0 0 0 edgecolor
newpath 1511.56 371.02 moveto
1520.92 366.05 lineto
1510.5 364.1 lineto
closepath fill
1 setlinewidth
solid
0 0 0 edgecolor
newpath 1511.56 371.02 moveto
1520.92 366.05 lineto
1510.5 364.1 lineto
closepath stroke
grestore
% l3_start
gsave
1 setlinewidth
0 0 0 nodecolor
newpath 988 287.5 moveto
782 287.5 lineto
782 222.5 lineto
988 222.5 lineto
closepath stroke
0 0 0 nodecolor
18 /Times-Roman set_font
857.5 267.3 moveto 55 (l3_start) alignedtext
0 0 0 nodecolor
18 /Times-Roman set_font
807.5 248.3 moveto 155 ([|thetap=8; thetav=0|]) alignedtext
0 0 0 nodecolor
18 /Times-Roman set_font
790 229.3 moveto 190 (2 constraints, 1 generators) alignedtext
grestore
% 3
gsave
0 0 0 nodecolor
18 /Times-Roman set_font
799 165.3 moveto 172 (thetap := thetap+thetav;) alignedtext
0 0 0 nodecolor
18 /Times-Roman set_font
763.5 146.3 moveto 243 (thetav := -1/64thetap+3/4thetav\)*) alignedtext
0 0 0 nodecolor
18 /Times-Roman set_font
878.5 127.3 moveto 13 (\(\)) alignedtext
grestore
% l3_start->3
gsave
1 setlinewidth
0 0 0 edgecolor
newpath 885 222.45 moveto
885 213.98 885 204.73 885 195.83 curveto
stroke
0 0 0 edgecolor
newpath 888.5 195.59 moveto
885 185.59 lineto
881.5 195.59 lineto
closepath fill
1 setlinewidth
solid
0 0 0 edgecolor
newpath 888.5 195.59 moveto
885 185.59 lineto
881.5 195.59 lineto
closepath stroke
grestore
% l0
gsave
1 setlinewidth
0 0 0 nodecolor
newpath 1740 65 moveto
1700 65 lineto
1700 19 lineto
1740 19 lineto
closepath stroke
0 0 0 nodecolor
18 /Times-Roman set_font
1713 44.8 moveto 14 (l0) alignedtext
0 0 0 nodecolor
18 /Times-Roman set_font
1708 25.8 moveto 24 (top) alignedtext
grestore
% l2_start
gsave
1 setlinewidth
0 0 0 nodecolor
newpath 1250 287.5 moveto
1044 287.5 lineto
1044 222.5 lineto
1250 222.5 lineto
closepath stroke
0 0 0 nodecolor
18 /Times-Roman set_font
1119.5 267.3 moveto 55 (l2_start) alignedtext
0 0 0 nodecolor
18 /Times-Roman set_font
1069.5 248.3 moveto 155 ([|thetap=8; thetav=0|]) alignedtext
0 0 0 nodecolor
18 /Times-Roman set_font
1052 229.3 moveto 190 (2 constraints, 1 generators) alignedtext
grestore
% 4
gsave
0 0 0 nodecolor
18 /Times-Roman set_font
1075 165.3 moveto 172 (thetap := thetap+thetav;) alignedtext
0 0 0 nodecolor
18 /Times-Roman set_font
1039.5 146.3 moveto 243 (thetav := -1/64thetap+7/8thetav\)*) alignedtext
0 0 0 nodecolor
18 /Times-Roman set_font
1154.5 127.3 moveto 13 (\(\)) alignedtext
grestore
% l2_start->4
gsave
1 setlinewidth
0 0 0 edgecolor
newpath 1151.47 222.45 moveto
1152.64 213.89 1153.93 204.53 1155.16 195.54 curveto
stroke
0 0 0 edgecolor
newpath 1158.63 195.98 moveto
1156.53 185.59 lineto
1151.7 195.03 lineto
closepath fill
1 setlinewidth
solid
0 0 0 edgecolor
newpath 1158.63 195.98 moveto
1156.53 185.59 lineto
1151.7 195.03 lineto
closepath stroke
grestore
% l1
gsave
1 setlinewidth
0 0 0 nodecolor
newpath 1561 84 moveto
1331 84 lineto
1331 0 lineto
1561 0 lineto
closepath stroke
0 0 0 nodecolor
18 /Times-Roman set_font
1439 63.8 moveto 14 (l1) alignedtext
0 0 0 nodecolor
18 /Times-Roman set_font
1370 44.8 moveto 152 ([|thetap in [-6.58 , 8];) alignedtext
0 0 0 nodecolor
18 /Times-Roman set_font
1339 25.8 moveto 214 (  thetav in [-0.9154 , 0.7515]|]) alignedtext
0 0 0 nodecolor
18 /Times-Roman set_font
1342 6.8 moveto 208 (58 constraints, 58 generators) alignedtext
grestore
% l2
gsave
1 setlinewidth
0 0 0 nodecolor
newpath 1276 84 moveto
1046 84 lineto
1046 0 lineto
1276 0 lineto
closepath stroke
0 0 0 nodecolor
18 /Times-Roman set_font
1154 63.8 moveto 14 (l2) alignedtext
0 0 0 nodecolor
18 /Times-Roman set_font
1080.5 44.8 moveto 161 ([|thetap in [-1.648 , 8];) alignedtext
0 0 0 nodecolor
18 /Times-Roman set_font
1054 25.8 moveto 214 (  thetav in [-0.5918 , 0.1216]|]) alignedtext
0 0 0 nodecolor
18 /Times-Roman set_font
1057 6.8 moveto 208 (45 constraints, 45 generators) alignedtext
grestore
% l3
gsave
1 setlinewidth
0 0 0 nodecolor
newpath 997 84 moveto
773 84 lineto
773 0 lineto
997 0 lineto
closepath stroke
0 0 0 nodecolor
18 /Times-Roman set_font
878 63.8 moveto 14 (l3) alignedtext
0 0 0 nodecolor
18 /Times-Roman set_font
812 44.8 moveto 146 ([|thetap in [0 , 8.08];) alignedtext
0 0 0 nodecolor
18 /Times-Roman set_font
797.5 25.8 moveto 175 (  thetav in [-0.3931 , 0]|]) alignedtext
0 0 0 nodecolor
18 /Times-Roman set_font
781 6.8 moveto 208 (20 constraints, 20 generators) alignedtext
grestore
% l4
gsave
1 setlinewidth
0 0 0 nodecolor
newpath 721 84 moveto
497 84 lineto
497 0 lineto
721 0 lineto
closepath stroke
0 0 0 nodecolor
18 /Times-Roman set_font
602 63.8 moveto 14 (l4) alignedtext
0 0 0 nodecolor
18 /Times-Roman set_font
547 44.8 moveto 124 ([|thetap in [0 , 8];) alignedtext
0 0 0 nodecolor
18 /Times-Roman set_font
526 25.8 moveto 166 (  thetav in [-0.231 , 0]|]) alignedtext
0 0 0 nodecolor
18 /Times-Roman set_font
505 6.8 moveto 208 (17 constraints, 17 generators) alignedtext
grestore
% l6_start
gsave
1 setlinewidth
0 0 0 nodecolor
newpath 262 287.5 moveto
56 287.5 lineto
56 222.5 lineto
262 222.5 lineto
closepath stroke
0 0 0 nodecolor
18 /Times-Roman set_font
131.5 267.3 moveto 55 (l6_start) alignedtext
0 0 0 nodecolor
18 /Times-Roman set_font
81.5 248.3 moveto 155 ([|thetap=8; thetav=0|]) alignedtext
0 0 0 nodecolor
18 /Times-Roman set_font
64 229.3 moveto 190 (2 constraints, 1 generators) alignedtext
grestore
% 0
gsave
0 0 0 nodecolor
18 /Times-Roman set_font
42 165.3 moveto 172 (thetap := thetap+thetav;) alignedtext
0 0 0 nodecolor
18 /Times-Roman set_font
8 146.3 moveto 240 (thetav := -1/64thetap-1/2thetav\)*) alignedtext
0 0 0 nodecolor
18 /Times-Roman set_font
121.5 127.3 moveto 13 (\(\)) alignedtext
grestore
% l6_start->0
gsave
1 setlinewidth
0 0 0 edgecolor
newpath 149.11 222.45 moveto
146.48 213.8 143.6 204.33 140.84 195.25 curveto
stroke
0 0 0 edgecolor
newpath 144.16 194.14 moveto
137.91 185.59 lineto
137.47 196.18 lineto
closepath fill
1 setlinewidth
solid
0 0 0 edgecolor
newpath 144.16 194.14 moveto
137.91 185.59 lineto
137.47 196.18 lineto
closepath stroke
grestore
% l5
gsave
1 setlinewidth
0 0 0 nodecolor
newpath 471 84 moveto
265 84 lineto
265 0 lineto
471 0 lineto
closepath stroke
0 0 0 nodecolor
18 /Times-Roman set_font
361 63.8 moveto 14 (l5) alignedtext
0 0 0 nodecolor
18 /Times-Roman set_font
290.5 44.8 moveto 155 ([|thetap in [0 , 8.002];) alignedtext
0 0 0 nodecolor
18 /Times-Roman set_font
280.5 25.8 moveto 175 (  thetav in [-0.1265 , 0]|]) alignedtext
0 0 0 nodecolor
18 /Times-Roman set_font
273 6.8 moveto 190 (6 constraints, 6 generators) alignedtext
grestore
% l6
gsave
1 setlinewidth
0 0 0 nodecolor
newpath 231 84 moveto
25 84 lineto
25 0 lineto
231 0 lineto
closepath stroke
0 0 0 nodecolor
18 /Times-Roman set_font
121 63.8 moveto 14 (l6) alignedtext
0 0 0 nodecolor
18 /Times-Roman set_font
66 44.8 moveto 124 ([|thetap in [0 , 8];) alignedtext
0 0 0 nodecolor
18 /Times-Roman set_font
45 25.8 moveto 166 (  thetav in [-0.125 , 0]|]) alignedtext
0 0 0 nodecolor
18 /Times-Roman set_font
33 6.8 moveto 190 (3 constraints, 3 generators) alignedtext
grestore
% l1_start
gsave
1 setlinewidth
0 0 0 nodecolor
newpath 1522 287.5 moveto
1316 287.5 lineto
1316 222.5 lineto
1522 222.5 lineto
closepath stroke
0 0 0 nodecolor
18 /Times-Roman set_font
1391.5 267.3 moveto 55 (l1_start) alignedtext
0 0 0 nodecolor
18 /Times-Roman set_font
1341.5 248.3 moveto 155 ([|thetap=8; thetav=0|]) alignedtext
0 0 0 nodecolor
18 /Times-Roman set_font
1324 229.3 moveto 190 (2 constraints, 1 generators) alignedtext
grestore
% 5
gsave
0 0 0 nodecolor
18 /Times-Roman set_font
1360 165.3 moveto 172 (thetap := thetap+thetav;) alignedtext
0 0 0 nodecolor
18 /Times-Roman set_font
1315.5 146.3 moveto 261 (thetav := -1/64thetap+31/32thetav\)*) alignedtext
0 0 0 nodecolor
18 /Times-Roman set_font
1439.5 127.3 moveto 13 (\(\)) alignedtext
grestore
% l1_start->5
gsave
1 setlinewidth
0 0 0 edgecolor
newpath 1427.62 222.45 moveto
1429.88 213.89 1432.36 204.53 1434.74 195.54 curveto
stroke
0 0 0 edgecolor
newpath 1438.2 196.16 moveto
1437.37 185.59 lineto
1431.43 194.37 lineto
closepath fill
1 setlinewidth
solid
0 0 0 edgecolor
newpath 1438.2 196.16 moveto
1437.37 185.59 lineto
1431.43 194.37 lineto
closepath stroke
grestore
% 0->l6
gsave
1 setlinewidth
0 0 0 edgecolor
newpath 128 120.3 moveto
128 112.21 128 103.34 128 94.56 curveto
stroke
0 0 0 edgecolor
newpath 131.5 94.36 moveto
128 84.36 lineto
124.5 94.36 lineto
closepath fill
1 setlinewidth
solid
0 0 0 edgecolor
newpath 131.5 94.36 moveto
128 84.36 lineto
124.5 94.36 lineto
closepath stroke
grestore
% 1->l5
gsave
1 setlinewidth
0 0 0 edgecolor
newpath 368 120.3 moveto
368 112.21 368 103.34 368 94.56 curveto
stroke
0 0 0 edgecolor
newpath 371.5 94.36 moveto
368 84.36 lineto
364.5 94.36 lineto
closepath fill
1 setlinewidth
solid
0 0 0 edgecolor
newpath 371.5 94.36 moveto
368 84.36 lineto
364.5 94.36 lineto
closepath stroke
grestore
% 2->l4
gsave
1 setlinewidth
0 0 0 edgecolor
newpath 609 120.3 moveto
609 112.21 609 103.34 609 94.56 curveto
stroke
0 0 0 edgecolor
newpath 612.5 94.36 moveto
609 84.36 lineto
605.5 94.36 lineto
closepath fill
1 setlinewidth
solid
0 0 0 edgecolor
newpath 612.5 94.36 moveto
609 84.36 lineto
605.5 94.36 lineto
closepath stroke
grestore
% 3->l3
gsave
1 setlinewidth
0 0 0 edgecolor
newpath 885 120.3 moveto
885 112.21 885 103.34 885 94.56 curveto
stroke
0 0 0 edgecolor
newpath 888.5 94.36 moveto
885 84.36 lineto
881.5 94.36 lineto
closepath fill
1 setlinewidth
solid
0 0 0 edgecolor
newpath 888.5 94.36 moveto
885 84.36 lineto
881.5 94.36 lineto
closepath stroke
grestore
% 4->l2
gsave
1 setlinewidth
0 0 0 edgecolor
newpath 1161 120.3 moveto
1161 112.21 1161 103.34 1161 94.56 curveto
stroke
0 0 0 edgecolor
newpath 1164.5 94.36 moveto
1161 84.36 lineto
1157.5 94.36 lineto
closepath fill
1 setlinewidth
solid
0 0 0 edgecolor
newpath 1164.5 94.36 moveto
1161 84.36 lineto
1157.5 94.36 lineto
closepath stroke
grestore
% 5->l1
gsave
1 setlinewidth
0 0 0 edgecolor
newpath 1446 120.3 moveto
1446 112.21 1446 103.34 1446 94.56 curveto
stroke
0 0 0 edgecolor
newpath 1449.5 94.36 moveto
1446 84.36 lineto
1442.5 94.36 lineto
closepath fill
1 setlinewidth
solid
0 0 0 edgecolor
newpath 1449.5 94.36 moveto
1446 84.36 lineto
1442.5 94.36 lineto
closepath stroke
grestore
% 6->l0
gsave
1 setlinewidth
0 0 0 edgecolor
newpath 1720 120.3 moveto
1720 106.23 1720 89.8 1720 75.64 curveto
stroke
0 0 0 edgecolor
newpath 1723.5 75.32 moveto
1720 65.32 lineto
1716.5 75.32 lineto
closepath fill
1 setlinewidth
solid
0 0 0 edgecolor
newpath 1723.5 75.32 moveto
1720 65.32 lineto
1716.5 75.32 lineto
closepath stroke
grestore
% 7->l6_start
gsave
1 setlinewidth
0 0 0 edgecolor
newpath 175.45 323.78 moveto
173.52 315.73 171.3 306.43 169.12 297.33 curveto
stroke
0 0 0 edgecolor
newpath 172.52 296.5 moveto
166.79 287.59 lineto
165.71 298.13 lineto
closepath fill
1 setlinewidth
solid
0 0 0 edgecolor
newpath 172.52 296.5 moveto
166.79 287.59 lineto
165.71 298.13 lineto
closepath stroke
grestore
% 8->l5_start
gsave
1 setlinewidth
0 0 0 edgecolor
newpath 411.17 323.78 moveto
408.07 315.65 404.49 306.23 400.99 297.04 curveto
stroke
0 0 0 edgecolor
newpath 404.23 295.69 moveto
397.4 287.59 lineto
397.68 298.18 lineto
closepath fill
1 setlinewidth
solid
0 0 0 edgecolor
newpath 404.23 295.69 moveto
397.4 287.59 lineto
397.68 298.18 lineto
closepath stroke
grestore
% 9->l4_start
gsave
1 setlinewidth
0 0 0 edgecolor
newpath 643.4 323.78 moveto
639.65 315.56 635.3 306.04 631.06 296.75 curveto
stroke
0 0 0 edgecolor
newpath 634.21 295.23 moveto
626.88 287.59 lineto
627.85 298.14 lineto
closepath fill
1 setlinewidth
solid
0 0 0 edgecolor
newpath 634.21 295.23 moveto
626.88 287.59 lineto
627.85 298.14 lineto
closepath stroke
grestore
% 10->l3_start
gsave
1 setlinewidth
0 0 0 edgecolor
newpath 885 323.78 moveto
885 315.82 885 306.63 885 297.62 curveto
stroke
0 0 0 edgecolor
newpath 888.5 297.59 moveto
885 287.59 lineto
881.5 297.59 lineto
closepath fill
1 setlinewidth
solid
0 0 0 edgecolor
newpath 888.5 297.59 moveto
885 287.59 lineto
881.5 297.59 lineto
closepath stroke
grestore
% 11->l2_start
gsave
1 setlinewidth
0 0 0 edgecolor
newpath 1131.3 323.78 moveto
1133.12 315.82 1135.21 306.63 1137.27 297.62 curveto
stroke
0 0 0 edgecolor
newpath 1140.75 298.12 moveto
1139.56 287.59 lineto
1133.92 296.56 lineto
closepath fill
1 setlinewidth
solid
0 0 0 edgecolor
newpath 1140.75 298.12 moveto
1139.56 287.59 lineto
1133.92 296.56 lineto
closepath stroke
grestore
% 12->l1_start
gsave
1 setlinewidth
0 0 0 edgecolor
newpath 1389.84 323.78 moveto
1393.29 315.65 1397.28 306.23 1401.18 297.04 curveto
stroke
0 0 0 edgecolor
newpath 1404.5 298.16 moveto
1405.18 287.59 lineto
1398.06 295.43 lineto
closepath fill
1 setlinewidth
solid
0 0 0 edgecolor
newpath 1404.5 298.16 moveto
1405.18 287.59 lineto
1398.06 295.43 lineto
closepath stroke
grestore
% 13->l0_start
gsave
1 setlinewidth
0 0 0 edgecolor
newpath 1644.93 323.78 moveto
1651.91 315.22 1660.04 305.24 1667.91 295.59 curveto
stroke
0 0 0 edgecolor
newpath 1670.83 297.55 moveto
1674.43 287.59 lineto
1665.4 293.13 lineto
closepath fill
1 setlinewidth
solid
0 0 0 edgecolor
newpath 1670.83 297.55 moveto
1674.43 287.59 lineto
1665.4 293.13 lineto
closepath stroke
grestore
endpage
showpage
grestore
%%PageTrailer
%%EndPage: 1
setupLatin1
%%Page: 2 2
%%PageBoundingBox: 36 36 1794 376
%%PageOrientation: Portrait
0 0 1 beginpage
gsave
36 36 1758 340 boxprim clip newpath
1 1 set_scale 0 rotate 40 41 translate
% 1073741823
gsave
1 setlinewidth
0 0 0 nodecolor
764 309 43.84 19.09 ellipse_path stroke
0 0 0 nodecolor
18 /Times-Roman set_font
741 302.3 moveto 46 (Result) alignedtext
grestore
% linit
gsave
1 setlinewidth
0 0 0 nodecolor
newpath 870 332 moveto
826 332 lineto
826 286 lineto
870 286 lineto
closepath stroke
0 0 0 nodecolor
18 /Times-Roman set_font
834 311.8 moveto 28 (linit) alignedtext
0 0 0 nodecolor
18 /Times-Roman set_font
836 292.8 moveto 24 (top) alignedtext
grestore
% 7
gsave
0 0 0 nodecolor
18 /Times-Roman set_font
28.5 229.8 moveto 195 (thetav=0 and thetap-8=0 ? ) alignedtext
0 0 0 nodecolor
18 /Times-Roman set_font
119.5 210.8 moveto 13 (\(\)) alignedtext
grestore
% linit->7
gsave
1 setlinewidth
0 0 0 edgecolor
newpath 825.84 290.32 moveto
823 288.61 820.02 287.11 817 286 curveto
700.97 243.44 384.76 264.32 262 250 curveto
255.29 249.22 248.4 248.33 241.47 247.36 curveto
stroke
0 0 0 edgecolor
newpath 241.67 243.86 moveto
231.28 245.9 lineto
240.68 250.79 lineto
closepath fill
1 setlinewidth
solid
0 0 0 edgecolor
newpath 241.67 243.86 moveto
231.28 245.9 lineto
240.68 250.79 lineto
closepath stroke
grestore
% 8
gsave
0 0 0 nodecolor
18 /Times-Roman set_font
278.5 229.8 moveto 195 (thetav=0 and thetap-8=0 ? ) alignedtext
0 0 0 nodecolor
18 /Times-Roman set_font
369.5 210.8 moveto 13 (\(\)) alignedtext
grestore
% linit->8
gsave
1 setlinewidth
0 0 0 edgecolor
newpath 825.79 290.46 moveto
822.95 288.73 819.99 287.18 817 286 curveto
685.52 234.11 640.81 270.8 501 250 curveto
497.78 249.52 494.52 249.02 491.23 248.5 curveto
stroke
0 0 0 edgecolor
newpath 491.71 245.04 moveto
481.28 246.9 lineto
490.6 251.95 lineto
closepath fill
1 setlinewidth
solid
0 0 0 edgecolor
newpath 491.71 245.04 moveto
481.28 246.9 lineto
490.6 251.95 lineto
closepath stroke
grestore
% 9
gsave
0 0 0 nodecolor
18 /Times-Roman set_font
517.5 229.8 moveto 195 (thetav=0 and thetap-8=0 ? ) alignedtext
0 0 0 nodecolor
18 /Times-Roman set_font
608.5 210.8 moveto 13 (\(\)) alignedtext
grestore
% linit->9
gsave
1 setlinewidth
0 0 0 edgecolor
newpath 825.91 291.19 moveto
823.01 289.28 820 287.49 817 286 curveto
789.81 272.49 758.99 261.53 729.75 252.89 curveto
stroke
0 0 0 edgecolor
newpath 730.49 249.46 moveto
719.91 250.05 lineto
728.55 256.19 lineto
closepath fill
1 setlinewidth
solid
0 0 0 edgecolor
newpath 730.49 249.46 moveto
719.91 250.05 lineto
728.55 256.19 lineto
closepath stroke
grestore
% 10
gsave
0 0 0 nodecolor
18 /Times-Roman set_font
750.5 229.8 moveto 195 (thetav=0 and thetap-8=0 ? ) alignedtext
0 0 0 nodecolor
18 /Times-Roman set_font
841.5 210.8 moveto 13 (\(\)) alignedtext
grestore
% linit->10
gsave
1 setlinewidth
0 0 0 edgecolor
newpath 848 285.72 moveto
848 277.78 848 268.73 848 260.16 curveto
stroke
0 0 0 edgecolor
newpath 851.5 260.05 moveto
848 250.05 lineto
844.5 260.05 lineto
closepath fill
1 setlinewidth
solid
0 0 0 edgecolor
newpath 851.5 260.05 moveto
848 250.05 lineto
844.5 260.05 lineto
closepath stroke
grestore
% 11
gsave
0 0 0 nodecolor
18 /Times-Roman set_font
995.5 229.8 moveto 195 (thetav=0 and thetap-8=0 ? ) alignedtext
0 0 0 nodecolor
18 /Times-Roman set_font
1086.5 210.8 moveto 13 (\(\)) alignedtext
grestore
% linit->11
gsave
1 setlinewidth
0 0 0 edgecolor
newpath 870.17 301.58 moveto
902.54 290.75 964.35 270.06 1014.67 253.22 curveto
stroke
0 0 0 edgecolor
newpath 1015.88 256.5 moveto
1024.25 250.01 lineto
1013.66 249.87 lineto
closepath fill
1 setlinewidth
solid
0 0 0 edgecolor
newpath 1015.88 256.5 moveto
1024.25 250.01 lineto
1013.66 249.87 lineto
closepath stroke
grestore
% 12
gsave
0 0 0 nodecolor
18 /Times-Roman set_font
1253.5 229.8 moveto 195 (thetav=0 and thetap-8=0 ? ) alignedtext
0 0 0 nodecolor
18 /Times-Roman set_font
1344.5 210.8 moveto 13 (\(\)) alignedtext
grestore
% linit->12
gsave
1 setlinewidth
0 0 0 edgecolor
newpath 870.26 305.37 moveto
933 295.14 1114.55 265.55 1235.71 245.8 curveto
stroke
0 0 0 edgecolor
newpath 1236.47 249.22 moveto
1245.78 244.15 lineto
1235.34 242.31 lineto
closepath fill
1 setlinewidth
solid
0 0 0 edgecolor
newpath 1236.47 249.22 moveto
1245.78 244.15 lineto
1235.34 242.31 lineto
closepath stroke
grestore
% 13
gsave
0 0 0 nodecolor
18 /Times-Roman set_font
1512.5 229.8 moveto 195 (thetav=0 and thetap-8=0 ? ) alignedtext
0 0 0 nodecolor
18 /Times-Roman set_font
1603.5 210.8 moveto 13 (\(\)) alignedtext
grestore
% linit->13
gsave
1 setlinewidth
0 0 0 edgecolor
newpath 870.19 307.38 moveto
950.44 301.41 1233.09 279.45 1465 250 curveto
1474.67 248.77 1484.69 247.4 1494.74 245.95 curveto
stroke
0 0 0 edgecolor
newpath 1495.39 249.39 moveto
1504.78 244.47 lineto
1494.38 242.46 lineto
closepath fill
1 setlinewidth
solid
0 0 0 edgecolor
newpath 1495.39 249.39 moveto
1504.78 244.47 lineto
1494.38 242.46 lineto
closepath stroke
grestore
% l0
gsave
1 setlinewidth
0 0 0 nodecolor
newpath 1660 158 moveto
1620 158 lineto
1620 112 lineto
1660 112 lineto
closepath stroke
0 0 0 nodecolor
18 /Times-Roman set_font
1633 137.8 moveto 14 (l0) alignedtext
0 0 0 nodecolor
18 /Times-Roman set_font
1628 118.8 moveto 24 (top) alignedtext
grestore
% 6
gsave
0 0 0 nodecolor
18 /Times-Roman set_font
1554 45.3 moveto 172 (thetap := thetap+thetav;) alignedtext
0 0 0 nodecolor
18 /Times-Roman set_font
1537.5 26.3 moveto 205 (thetav := -1/64thetap+thetav) alignedtext
0 0 0 nodecolor
18 /Times-Roman set_font
1633.5 7.3 moveto 13 (\(\)) alignedtext
grestore
% l0->6
gsave
1 setlinewidth
0 0 0 edgecolor
newpath 1634.24 111.85 moveto
1633.4 101.2 1633.09 88.21 1633.33 75.87 curveto
stroke
0 0 0 edgecolor
newpath 1636.83 75.83 moveto
1633.65 65.72 lineto
1629.83 75.6 lineto
closepath fill
1 setlinewidth
solid
0 0 0 edgecolor
newpath 1636.83 75.83 moveto
1633.65 65.72 lineto
1629.83 75.6 lineto
closepath stroke
grestore
% l1
gsave
1 setlinewidth
0 0 0 nodecolor
newpath 1401 158 moveto
1361 158 lineto
1361 112 lineto
1401 112 lineto
closepath stroke
0 0 0 nodecolor
18 /Times-Roman set_font
1374 137.8 moveto 14 (l1) alignedtext
0 0 0 nodecolor
18 /Times-Roman set_font
1369 118.8 moveto 24 (top) alignedtext
grestore
% 5
gsave
0 0 0 nodecolor
18 /Times-Roman set_font
1295 45.3 moveto 172 (thetap := thetap+thetav;) alignedtext
0 0 0 nodecolor
18 /Times-Roman set_font
1258 26.3 moveto 246 (thetav := -1/64thetap+31/32thetav) alignedtext
0 0 0 nodecolor
18 /Times-Roman set_font
1374.5 7.3 moveto 13 (\(\)) alignedtext
grestore
% l1->5
gsave
1 setlinewidth
0 0 0 edgecolor
newpath 1375.24 111.85 moveto
1374.4 101.2 1374.09 88.21 1374.33 75.87 curveto
stroke
0 0 0 edgecolor
newpath 1377.83 75.83 moveto
1374.65 65.72 lineto
1370.83 75.6 lineto
closepath fill
1 setlinewidth
solid
0 0 0 edgecolor
newpath 1377.83 75.83 moveto
1374.65 65.72 lineto
1370.83 75.6 lineto
closepath stroke
grestore
% l2
gsave
1 setlinewidth
0 0 0 nodecolor
newpath 1130 158 moveto
1090 158 lineto
1090 112 lineto
1130 112 lineto
closepath stroke
0 0 0 nodecolor
18 /Times-Roman set_font
1103 137.8 moveto 14 (l2) alignedtext
0 0 0 nodecolor
18 /Times-Roman set_font
1098 118.8 moveto 24 (top) alignedtext
grestore
% 4
gsave
0 0 0 nodecolor
18 /Times-Roman set_font
1024 45.3 moveto 172 (thetap := thetap+thetav;) alignedtext
0 0 0 nodecolor
18 /Times-Roman set_font
996 26.3 moveto 228 (thetav := -1/64thetap+7/8thetav) alignedtext
0 0 0 nodecolor
18 /Times-Roman set_font
1103.5 7.3 moveto 13 (\(\)) alignedtext
grestore
% l2->4
gsave
1 setlinewidth
0 0 0 edgecolor
newpath 1104.24 111.85 moveto
1103.4 101.2 1103.09 88.21 1103.33 75.87 curveto
stroke
0 0 0 edgecolor
newpath 1106.83 75.83 moveto
1103.65 65.72 lineto
1099.83 75.6 lineto
closepath fill
1 setlinewidth
solid
0 0 0 edgecolor
newpath 1106.83 75.83 moveto
1103.65 65.72 lineto
1099.83 75.6 lineto
closepath stroke
grestore
% l3
gsave
1 setlinewidth
0 0 0 nodecolor
newpath 868 158 moveto
828 158 lineto
828 112 lineto
868 112 lineto
closepath stroke
0 0 0 nodecolor
18 /Times-Roman set_font
841 137.8 moveto 14 (l3) alignedtext
0 0 0 nodecolor
18 /Times-Roman set_font
836 118.8 moveto 24 (top) alignedtext
grestore
% 3
gsave
0 0 0 nodecolor
18 /Times-Roman set_font
762 45.3 moveto 172 (thetap := thetap+thetav;) alignedtext
0 0 0 nodecolor
18 /Times-Roman set_font
734 26.3 moveto 228 (thetav := -1/64thetap+3/4thetav) alignedtext
0 0 0 nodecolor
18 /Times-Roman set_font
841.5 7.3 moveto 13 (\(\)) alignedtext
grestore
% l3->3
gsave
1 setlinewidth
0 0 0 edgecolor
newpath 842.24 111.85 moveto
841.4 101.2 841.09 88.21 841.33 75.87 curveto
stroke
0 0 0 edgecolor
newpath 844.83 75.83 moveto
841.65 65.72 lineto
837.83 75.6 lineto
closepath fill
1 setlinewidth
solid
0 0 0 edgecolor
newpath 844.83 75.83 moveto
841.65 65.72 lineto
837.83 75.6 lineto
closepath stroke
grestore
% l4
gsave
1 setlinewidth
0 0 0 nodecolor
newpath 606 158 moveto
566 158 lineto
566 112 lineto
606 112 lineto
closepath stroke
0 0 0 nodecolor
18 /Times-Roman set_font
579 137.8 moveto 14 (l4) alignedtext
0 0 0 nodecolor
18 /Times-Roman set_font
574 118.8 moveto 24 (top) alignedtext
grestore
% 2
gsave
0 0 0 nodecolor
18 /Times-Roman set_font
500 45.3 moveto 172 (thetap := thetap+thetav;) alignedtext
0 0 0 nodecolor
18 /Times-Roman set_font
472 26.3 moveto 228 (thetav := -1/64thetap+1/2thetav) alignedtext
0 0 0 nodecolor
18 /Times-Roman set_font
579.5 7.3 moveto 13 (\(\)) alignedtext
grestore
% l4->2
gsave
1 setlinewidth
0 0 0 edgecolor
newpath 580.24 111.85 moveto
579.4 101.2 579.09 88.21 579.33 75.87 curveto
stroke
0 0 0 edgecolor
newpath 582.83 75.83 moveto
579.65 65.72 lineto
575.83 75.6 lineto
closepath fill
1 setlinewidth
solid
0 0 0 edgecolor
newpath 582.83 75.83 moveto
579.65 65.72 lineto
575.83 75.6 lineto
closepath stroke
grestore
% l5
gsave
1 setlinewidth
0 0 0 nodecolor
newpath 372 158 moveto
332 158 lineto
332 112 lineto
372 112 lineto
closepath stroke
0 0 0 nodecolor
18 /Times-Roman set_font
345 137.8 moveto 14 (l5) alignedtext
0 0 0 nodecolor
18 /Times-Roman set_font
340 118.8 moveto 24 (top) alignedtext
grestore
% 1
gsave
0 0 0 nodecolor
18 /Times-Roman set_font
266 45.3 moveto 172 (thetap := thetap+thetav;) alignedtext
0 0 0 nodecolor
18 /Times-Roman set_font
276.5 26.3 moveto 151 (thetav := -1/64thetap) alignedtext
0 0 0 nodecolor
18 /Times-Roman set_font
345.5 7.3 moveto 13 (\(\)) alignedtext
grestore
% l5->1
gsave
1 setlinewidth
0 0 0 edgecolor
newpath 346.24 111.85 moveto
345.4 101.2 345.09 88.21 345.33 75.87 curveto
stroke
0 0 0 edgecolor
newpath 348.83 75.83 moveto
345.65 65.72 lineto
341.83 75.6 lineto
closepath fill
1 setlinewidth
solid
0 0 0 edgecolor
newpath 348.83 75.83 moveto
345.65 65.72 lineto
341.83 75.6 lineto
closepath stroke
grestore
% l6
gsave
1 setlinewidth
0 0 0 nodecolor
newpath 223 167.5 moveto
17 167.5 lineto
17 102.5 lineto
223 102.5 lineto
closepath stroke
0 0 0 nodecolor
18 /Times-Roman set_font
113 147.3 moveto 14 (l6) alignedtext
0 0 0 nodecolor
18 /Times-Roman set_font
38.5 128.3 moveto 163 ([|thetap in [-INF , 8]; |]) alignedtext
0 0 0 nodecolor
18 /Times-Roman set_font
25 109.3 moveto 190 (3 constraints, 4 generators) alignedtext
grestore
% 0
gsave
0 0 0 nodecolor
18 /Times-Roman set_font
34 45.3 moveto 172 (thetap := thetap+thetav;) alignedtext
0 0 0 nodecolor
18 /Times-Roman set_font
7.5 26.3 moveto 225 (thetav := -1/64thetap-1/2thetav) alignedtext
0 0 0 nodecolor
18 /Times-Roman set_font
113.5 7.3 moveto 13 (\(\)) alignedtext
grestore
% l6->0
gsave
1 setlinewidth
0 0 0 edgecolor
newpath 113.66 102.45 moveto
113.27 93.98 113.16 84.73 113.33 75.83 curveto
stroke
0 0 0 edgecolor
newpath 116.83 75.7 moveto
113.66 65.59 lineto
109.84 75.48 lineto
closepath fill
1 setlinewidth
solid
0 0 0 edgecolor
newpath 116.83 75.7 moveto
113.66 65.59 lineto
109.84 75.48 lineto
closepath stroke
grestore
% 0->l6
gsave
1 setlinewidth
0 0 0 edgecolor
newpath 126.34 65.59 moveto
126.73 74.06 126.84 83.31 126.67 92.22 curveto
stroke
0 0 0 edgecolor
newpath 123.17 92.34 moveto
126.34 102.45 lineto
130.16 92.56 lineto
closepath fill
1 setlinewidth
solid
0 0 0 edgecolor
newpath 123.17 92.34 moveto
126.34 102.45 lineto
130.16 92.56 lineto
closepath stroke
grestore
% 1->l5
gsave
1 setlinewidth
0 0 0 edgecolor
newpath 358.35 65.72 moveto
358.88 77.23 358.88 90.16 358.37 101.72 curveto
stroke
0 0 0 edgecolor
newpath 354.87 101.66 moveto
357.76 111.85 lineto
361.86 102.08 lineto
closepath fill
1 setlinewidth
solid
0 0 0 edgecolor
newpath 354.87 101.66 moveto
357.76 111.85 lineto
361.86 102.08 lineto
closepath stroke
grestore
% 2->l4
gsave
1 setlinewidth
0 0 0 edgecolor
newpath 592.35 65.72 moveto
592.88 77.23 592.88 90.16 592.37 101.72 curveto
stroke
0 0 0 edgecolor
newpath 588.87 101.66 moveto
591.76 111.85 lineto
595.86 102.08 lineto
closepath fill
1 setlinewidth
solid
0 0 0 edgecolor
newpath 588.87 101.66 moveto
591.76 111.85 lineto
595.86 102.08 lineto
closepath stroke
grestore
% 3->l3
gsave
1 setlinewidth
0 0 0 edgecolor
newpath 854.35 65.72 moveto
854.88 77.23 854.88 90.16 854.37 101.72 curveto
stroke
0 0 0 edgecolor
newpath 850.87 101.66 moveto
853.76 111.85 lineto
857.86 102.08 lineto
closepath fill
1 setlinewidth
solid
0 0 0 edgecolor
newpath 850.87 101.66 moveto
853.76 111.85 lineto
857.86 102.08 lineto
closepath stroke
grestore
% 4->l2
gsave
1 setlinewidth
0 0 0 edgecolor
newpath 1116.35 65.72 moveto
1116.88 77.23 1116.88 90.16 1116.37 101.72 curveto
stroke
0 0 0 edgecolor
newpath 1112.87 101.66 moveto
1115.76 111.85 lineto
1119.86 102.08 lineto
closepath fill
1 setlinewidth
solid
0 0 0 edgecolor
newpath 1112.87 101.66 moveto
1115.76 111.85 lineto
1119.86 102.08 lineto
closepath stroke
grestore
% 5->l1
gsave
1 setlinewidth
0 0 0 edgecolor
newpath 1387.35 65.72 moveto
1387.88 77.23 1387.88 90.16 1387.37 101.72 curveto
stroke
0 0 0 edgecolor
newpath 1383.87 101.66 moveto
1386.76 111.85 lineto
1390.86 102.08 lineto
closepath fill
1 setlinewidth
solid
0 0 0 edgecolor
newpath 1383.87 101.66 moveto
1386.76 111.85 lineto
1390.86 102.08 lineto
closepath stroke
grestore
% 6->l0
gsave
1 setlinewidth
0 0 0 edgecolor
newpath 1646.35 65.72 moveto
1646.88 77.23 1646.88 90.16 1646.37 101.72 curveto
stroke
0 0 0 edgecolor
newpath 1642.87 101.66 moveto
1645.76 111.85 lineto
1649.86 102.08 lineto
closepath fill
1 setlinewidth
solid
0 0 0 edgecolor
newpath 1642.87 101.66 moveto
1645.76 111.85 lineto
1649.86 102.08 lineto
closepath stroke
grestore
% 7->l6
gsave
1 setlinewidth
0 0 0 edgecolor
newpath 124.49 203.78 moveto
123.97 195.82 123.37 186.63 122.78 177.62 curveto
stroke
0 0 0 edgecolor
newpath 126.27 177.34 moveto
122.13 167.59 lineto
119.28 177.8 lineto
closepath fill
1 setlinewidth
solid
0 0 0 edgecolor
newpath 126.27 177.34 moveto
122.13 167.59 lineto
119.28 177.8 lineto
closepath stroke
grestore
% 8->l5
gsave
1 setlinewidth
0 0 0 edgecolor
newpath 369.94 203.78 moveto
367.13 193 363.73 179.97 360.65 168.18 curveto
stroke
0 0 0 edgecolor
newpath 363.97 167 moveto
358.05 158.21 lineto
357.19 168.77 lineto
closepath fill
1 setlinewidth
solid
0 0 0 edgecolor
newpath 363.97 167 moveto
358.05 158.21 lineto
357.19 168.77 lineto
closepath stroke
grestore
% 9->l4
gsave
1 setlinewidth
0 0 0 edgecolor
newpath 607.68 203.78 moveto
604.25 192.89 600.09 179.71 596.34 167.82 curveto
stroke
0 0 0 edgecolor
newpath 599.66 166.69 moveto
593.32 158.21 lineto
592.98 168.8 lineto
closepath fill
1 setlinewidth
solid
0 0 0 edgecolor
newpath 599.66 166.69 moveto
593.32 158.21 lineto
592.98 168.8 lineto
closepath stroke
grestore
% 10->l3
gsave
1 setlinewidth
0 0 0 edgecolor
newpath 848 203.78 moveto
848 193.11 848 180.24 848 168.53 curveto
stroke
0 0 0 edgecolor
newpath 851.5 168.21 moveto
848 158.21 lineto
844.5 168.21 lineto
closepath fill
1 setlinewidth
solid
0 0 0 edgecolor
newpath 851.5 168.21 moveto
848 158.21 lineto
844.5 168.21 lineto
closepath stroke
grestore
% 11->l2
gsave
1 setlinewidth
0 0 0 edgecolor
newpath 1097.29 203.78 moveto
1099.28 193 1101.69 179.97 1103.87 168.18 curveto
stroke
0 0 0 edgecolor
newpath 1107.34 168.68 moveto
1105.71 158.21 lineto
1100.45 167.41 lineto
closepath fill
1 setlinewidth
solid
0 0 0 edgecolor
newpath 1107.34 168.68 moveto
1105.71 158.21 lineto
1100.45 167.41 lineto
closepath stroke
grestore
% 12->l1
gsave
1 setlinewidth
0 0 0 edgecolor
newpath 1358.57 203.78 moveto
1362.12 192.89 1366.42 179.71 1370.3 167.82 curveto
stroke
0 0 0 edgecolor
newpath 1373.66 168.8 moveto
1373.43 158.21 lineto
1367 166.63 lineto
closepath fill
1 setlinewidth
solid
0 0 0 edgecolor
newpath 1373.66 168.8 moveto
1373.43 158.21 lineto
1367 166.63 lineto
closepath stroke
grestore
% 13->l0
gsave
1 setlinewidth
0 0 0 edgecolor
newpath 1617.57 203.78 moveto
1621.12 192.89 1625.42 179.71 1629.3 167.82 curveto
stroke
0 0 0 edgecolor
newpath 1632.66 168.8 moveto
1632.43 158.21 lineto
1626 166.63 lineto
closepath fill
1 setlinewidth
solid
0 0 0 edgecolor
newpath 1632.66 168.8 moveto
1632.43 158.21 lineto
1626 166.63 lineto
closepath stroke
grestore
endpage
showpage
grestore
%%PageTrailer
%%EndPage: 2
setupLatin1
%%Page: 3 3
%%PageBoundingBox: 36 36 1882 458
%%PageOrientation: Portrait
0 0 1 beginpage
gsave
36 36 1846 422 boxprim clip newpath
1 1 set_scale 0 rotate 40 41 translate
% 1073741823
gsave
1 setlinewidth
0 0 0 nodecolor
801 391 43.84 19.09 ellipse_path stroke
0 0 0 nodecolor
18 /Times-Roman set_font
778 384.3 moveto 46 (Result) alignedtext
grestore
% l5_start
gsave
1 setlinewidth
0 0 0 nodecolor
newpath 488 249.5 moveto
282 249.5 lineto
282 184.5 lineto
488 184.5 lineto
closepath stroke
0 0 0 nodecolor
18 /Times-Roman set_font
357.5 229.3 moveto 55 (l5_start) alignedtext
0 0 0 nodecolor
18 /Times-Roman set_font
307.5 210.3 moveto 155 ([|thetap=8; thetav=0|]) alignedtext
0 0 0 nodecolor
18 /Times-Roman set_font
290 191.3 moveto 190 (2 constraints, 1 generators) alignedtext
grestore
% 1
gsave
0 0 0 nodecolor
18 /Times-Roman set_font
282 127.3 moveto 172 (thetap := thetap+thetav;) alignedtext
0 0 0 nodecolor
18 /Times-Roman set_font
285 108.3 moveto 166 (thetav := -1/64thetap\)*) alignedtext
0 0 0 nodecolor
18 /Times-Roman set_font
361.5 89.3 moveto 13 (\(\)) alignedtext
grestore
% l5_start->1
gsave
1 setlinewidth
0 0 0 edgecolor
newpath 379.57 184.45 moveto
378.15 175.89 376.59 166.53 375.09 157.54 curveto
stroke
0 0 0 edgecolor
newpath 378.53 156.88 moveto
373.43 147.59 lineto
371.62 158.03 lineto
closepath fill
1 setlinewidth
solid
0 0 0 edgecolor
newpath 378.53 156.88 moveto
373.43 147.59 lineto
371.62 158.03 lineto
closepath stroke
grestore
% l0_start
gsave
1 setlinewidth
0 0 0 nodecolor
newpath 1804 249.5 moveto
1598 249.5 lineto
1598 184.5 lineto
1804 184.5 lineto
closepath stroke
0 0 0 nodecolor
18 /Times-Roman set_font
1673.5 229.3 moveto 55 (l0_start) alignedtext
0 0 0 nodecolor
18 /Times-Roman set_font
1623.5 210.3 moveto 155 ([|thetap=8; thetav=0|]) alignedtext
0 0 0 nodecolor
18 /Times-Roman set_font
1606 191.3 moveto 190 (2 constraints, 1 generators) alignedtext
grestore
% 6
gsave
0 0 0 nodecolor
18 /Times-Roman set_font
1634 127.3 moveto 172 (thetap := thetap+thetav;) alignedtext
0 0 0 nodecolor
18 /Times-Roman set_font
1610 108.3 moveto 220 (thetav := -1/64thetap+thetav\)*) alignedtext
0 0 0 nodecolor
18 /Times-Roman set_font
1713.5 89.3 moveto 13 (\(\)) alignedtext
grestore
% l0_start->6
gsave
1 setlinewidth
0 0 0 edgecolor
newpath 1707.06 184.45 moveto
1708.66 175.89 1710.4 166.53 1712.08 157.54 curveto
stroke
0 0 0 edgecolor
newpath 1715.54 158.07 moveto
1713.93 147.59 lineto
1708.66 156.78 lineto
closepath fill
1 setlinewidth
solid
0 0 0 edgecolor
newpath 1715.54 158.07 moveto
1713.93 147.59 lineto
1708.66 156.78 lineto
closepath stroke
grestore
% l4_start
gsave
1 setlinewidth
0 0 0 nodecolor
newpath 715 249.5 moveto
509 249.5 lineto
509 184.5 lineto
715 184.5 lineto
closepath stroke
0 0 0 nodecolor
18 /Times-Roman set_font
584.5 229.3 moveto 55 (l4_start) alignedtext
0 0 0 nodecolor
18 /Times-Roman set_font
534.5 210.3 moveto 155 ([|thetap=8; thetav=0|]) alignedtext
0 0 0 nodecolor
18 /Times-Roman set_font
517 191.3 moveto 190 (2 constraints, 1 generators) alignedtext
grestore
% 2
gsave
0 0 0 nodecolor
18 /Times-Roman set_font
523 127.3 moveto 172 (thetap := thetap+thetav;) alignedtext
0 0 0 nodecolor
18 /Times-Roman set_font
487.5 108.3 moveto 243 (thetav := -1/64thetap+1/2thetav\)*) alignedtext
0 0 0 nodecolor
18 /Times-Roman set_font
602.5 89.3 moveto 13 (\(\)) alignedtext
grestore
% l4_start->2
gsave
1 setlinewidth
0 0 0 edgecolor
newpath 611.04 184.45 moveto
610.79 175.98 610.52 166.73 610.26 157.83 curveto
stroke
0 0 0 edgecolor
newpath 613.75 157.49 moveto
609.96 147.59 lineto
606.75 157.69 lineto
closepath fill
1 setlinewidth
solid
0 0 0 edgecolor
newpath 613.75 157.49 moveto
609.96 147.59 lineto
606.75 157.69 lineto
closepath stroke
grestore
% linit
gsave
1 setlinewidth
0 0 0 nodecolor
newpath 907 414 moveto
863 414 lineto
863 368 lineto
907 368 lineto
closepath stroke
0 0 0 nodecolor
18 /Times-Roman set_font
871 393.8 moveto 28 (linit) alignedtext
0 0 0 nodecolor
18 /Times-Roman set_font
873 374.8 moveto 24 (top) alignedtext
grestore
% 7
gsave
0 0 0 nodecolor
18 /Times-Roman set_font
83.5 311.8 moveto 195 (thetav=0 and thetap-8=0 ? ) alignedtext
0 0 0 nodecolor
18 /Times-Roman set_font
174.5 292.8 moveto 13 (\(\)) alignedtext
grestore
% linit->7
gsave
1 setlinewidth
0 0 0 edgecolor
newpath 862.84 372.32 moveto
860 370.61 857.02 369.11 854 368 curveto
739.44 325.93 427.11 347.07 306 332 curveto
302.77 331.6 299.5 331.17 296.2 330.71 curveto
stroke
0 0 0 edgecolor
newpath 296.63 327.24 moveto
286.23 329.27 lineto
295.63 334.16 lineto
closepath fill
1 setlinewidth
solid
0 0 0 edgecolor
newpath 296.63 327.24 moveto
286.23 329.27 lineto
295.63 334.16 lineto
closepath stroke
grestore
% 8
gsave
0 0 0 nodecolor
18 /Times-Roman set_font
322.5 311.8 moveto 195 (thetav=0 and thetap-8=0 ? ) alignedtext
0 0 0 nodecolor
18 /Times-Roman set_font
413.5 292.8 moveto 13 (\(\)) alignedtext
grestore
% linit->8
gsave
1 setlinewidth
0 0 0 edgecolor
newpath 862.79 372.46 moveto
859.95 370.73 856.99 369.18 854 368 curveto
723.36 316.39 678.86 353.24 540 332 curveto
538.49 331.77 536.98 331.53 535.45 331.29 curveto
stroke
0 0 0 edgecolor
newpath 535.71 327.79 moveto
525.28 329.64 lineto
534.59 334.7 lineto
closepath fill
1 setlinewidth
solid
0 0 0 edgecolor
newpath 535.71 327.79 moveto
525.28 329.64 lineto
534.59 334.7 lineto
closepath stroke
grestore
% 9
gsave
0 0 0 nodecolor
18 /Times-Roman set_font
556.5 311.8 moveto 195 (thetav=0 and thetap-8=0 ? ) alignedtext
0 0 0 nodecolor
18 /Times-Roman set_font
647.5 292.8 moveto 13 (\(\)) alignedtext
grestore
% linit->9
gsave
1 setlinewidth
0 0 0 edgecolor
newpath 862.91 373.19 moveto
860.01 371.28 857 369.5 854 368 curveto
826.93 354.5 796.23 343.53 767.14 334.87 curveto
stroke
0 0 0 edgecolor
newpath 767.93 331.46 moveto
757.35 332.02 lineto
765.97 338.18 lineto
closepath fill
1 setlinewidth
solid
0 0 0 edgecolor
newpath 767.93 331.46 moveto
757.35 332.02 lineto
765.97 338.18 lineto
closepath stroke
grestore
% 10
gsave
0 0 0 nodecolor
18 /Times-Roman set_font
787.5 311.8 moveto 195 (thetav=0 and thetap-8=0 ? ) alignedtext
0 0 0 nodecolor
18 /Times-Roman set_font
878.5 292.8 moveto 13 (\(\)) alignedtext
grestore
% linit->10
gsave
1 setlinewidth
0 0 0 edgecolor
newpath 885 367.72 moveto
885 359.78 885 350.73 885 342.16 curveto
stroke
0 0 0 edgecolor
newpath 888.5 342.05 moveto
885 332.05 lineto
881.5 342.05 lineto
closepath fill
1 setlinewidth
solid
0 0 0 edgecolor
newpath 888.5 342.05 moveto
885 332.05 lineto
881.5 342.05 lineto
closepath stroke
grestore
% 11
gsave
0 0 0 nodecolor
18 /Times-Roman set_font
1028.5 311.8 moveto 195 (thetav=0 and thetap-8=0 ? ) alignedtext
0 0 0 nodecolor
18 /Times-Roman set_font
1119.5 292.8 moveto 13 (\(\)) alignedtext
grestore
% linit->11
gsave
1 setlinewidth
0 0 0 edgecolor
newpath 907.24 383.43 moveto
939.14 372.58 999.46 352.05 1048.7 335.3 curveto
stroke
0 0 0 edgecolor
newpath 1050.05 338.54 moveto
1058.39 332.01 lineto
1047.79 331.91 lineto
closepath fill
1 setlinewidth
solid
0 0 0 edgecolor
newpath 1050.05 338.54 moveto
1058.39 332.01 lineto
1047.79 331.91 lineto
closepath stroke
grestore
% 12
gsave
0 0 0 nodecolor
18 /Times-Roman set_font
1282.5 311.8 moveto 195 (thetav=0 and thetap-8=0 ? ) alignedtext
0 0 0 nodecolor
18 /Times-Roman set_font
1373.5 292.8 moveto 13 (\(\)) alignedtext
grestore
% linit->12
gsave
1 setlinewidth
0 0 0 edgecolor
newpath 907.23 387.32 moveto
968.99 377.09 1145.9 347.78 1264.91 328.06 curveto
stroke
0 0 0 edgecolor
newpath 1265.52 331.51 moveto
1274.81 326.43 lineto
1264.37 324.61 lineto
closepath fill
1 setlinewidth
solid
0 0 0 edgecolor
newpath 1265.52 331.51 moveto
1274.81 326.43 lineto
1264.37 324.61 lineto
closepath stroke
grestore
% 13
gsave
0 0 0 nodecolor
18 /Times-Roman set_font
1528.5 311.8 moveto 195 (thetav=0 and thetap-8=0 ? ) alignedtext
0 0 0 nodecolor
18 /Times-Roman set_font
1619.5 292.8 moveto 13 (\(\)) alignedtext
grestore
% linit->13
gsave
1 setlinewidth
0 0 0 edgecolor
newpath 907.19 389.46 moveto
986.82 383.81 1265.58 362.92 1494 332 curveto
1499.47 331.26 1505.07 330.46 1510.72 329.61 curveto
stroke
0 0 0 edgecolor
newpath 1511.56 333.02 moveto
1520.92 328.05 lineto
1510.5 326.1 lineto
closepath fill
1 setlinewidth
solid
0 0 0 edgecolor
newpath 1511.56 333.02 moveto
1520.92 328.05 lineto
1510.5 326.1 lineto
closepath stroke
grestore
% l3_start
gsave
1 setlinewidth
0 0 0 nodecolor
newpath 988 249.5 moveto
782 249.5 lineto
782 184.5 lineto
988 184.5 lineto
closepath stroke
0 0 0 nodecolor
18 /Times-Roman set_font
857.5 229.3 moveto 55 (l3_start) alignedtext
0 0 0 nodecolor
18 /Times-Roman set_font
807.5 210.3 moveto 155 ([|thetap=8; thetav=0|]) alignedtext
0 0 0 nodecolor
18 /Times-Roman set_font
790 191.3 moveto 190 (2 constraints, 1 generators) alignedtext
grestore
% 3
gsave
0 0 0 nodecolor
18 /Times-Roman set_font
799 127.3 moveto 172 (thetap := thetap+thetav;) alignedtext
0 0 0 nodecolor
18 /Times-Roman set_font
763.5 108.3 moveto 243 (thetav := -1/64thetap+3/4thetav\)*) alignedtext
0 0 0 nodecolor
18 /Times-Roman set_font
878.5 89.3 moveto 13 (\(\)) alignedtext
grestore
% l3_start->3
gsave
1 setlinewidth
0 0 0 edgecolor
newpath 885 184.45 moveto
885 175.98 885 166.73 885 157.83 curveto
stroke
0 0 0 edgecolor
newpath 888.5 157.59 moveto
885 147.59 lineto
881.5 157.59 lineto
closepath fill
1 setlinewidth
solid
0 0 0 edgecolor
newpath 888.5 157.59 moveto
885 147.59 lineto
881.5 157.59 lineto
closepath stroke
grestore
% l0
gsave
1 setlinewidth
0 0 0 nodecolor
newpath 1740 46 moveto
1700 46 lineto
1700 0 lineto
1740 0 lineto
closepath stroke
0 0 0 nodecolor
18 /Times-Roman set_font
1713 25.8 moveto 14 (l0) alignedtext
0 0 0 nodecolor
18 /Times-Roman set_font
1708 6.8 moveto 24 (top) alignedtext
grestore
% l2_start
gsave
1 setlinewidth
0 0 0 nodecolor
newpath 1250 249.5 moveto
1044 249.5 lineto
1044 184.5 lineto
1250 184.5 lineto
closepath stroke
0 0 0 nodecolor
18 /Times-Roman set_font
1119.5 229.3 moveto 55 (l2_start) alignedtext
0 0 0 nodecolor
18 /Times-Roman set_font
1069.5 210.3 moveto 155 ([|thetap=8; thetav=0|]) alignedtext
0 0 0 nodecolor
18 /Times-Roman set_font
1052 191.3 moveto 190 (2 constraints, 1 generators) alignedtext
grestore
% 4
gsave
0 0 0 nodecolor
18 /Times-Roman set_font
1075 127.3 moveto 172 (thetap := thetap+thetav;) alignedtext
0 0 0 nodecolor
18 /Times-Roman set_font
1039.5 108.3 moveto 243 (thetav := -1/64thetap+7/8thetav\)*) alignedtext
0 0 0 nodecolor
18 /Times-Roman set_font
1154.5 89.3 moveto 13 (\(\)) alignedtext
grestore
% l2_start->4
gsave
1 setlinewidth
0 0 0 edgecolor
newpath 1151.47 184.45 moveto
1152.64 175.89 1153.93 166.53 1155.16 157.54 curveto
stroke
0 0 0 edgecolor
newpath 1158.63 157.98 moveto
1156.53 147.59 lineto
1151.7 157.03 lineto
closepath fill
1 setlinewidth
solid
0 0 0 edgecolor
newpath 1158.63 157.98 moveto
1156.53 147.59 lineto
1151.7 157.03 lineto
closepath stroke
grestore
% l1
gsave
1 setlinewidth
0 0 0 nodecolor
newpath 1466 46 moveto
1426 46 lineto
1426 0 lineto
1466 0 lineto
closepath stroke
0 0 0 nodecolor
18 /Times-Roman set_font
1439 25.8 moveto 14 (l1) alignedtext
0 0 0 nodecolor
18 /Times-Roman set_font
1434 6.8 moveto 24 (top) alignedtext
grestore
% l2
gsave
1 setlinewidth
0 0 0 nodecolor
newpath 1181 46 moveto
1141 46 lineto
1141 0 lineto
1181 0 lineto
closepath stroke
0 0 0 nodecolor
18 /Times-Roman set_font
1154 25.8 moveto 14 (l2) alignedtext
0 0 0 nodecolor
18 /Times-Roman set_font
1149 6.8 moveto 24 (top) alignedtext
grestore
% l3
gsave
1 setlinewidth
0 0 0 nodecolor
newpath 905 46 moveto
865 46 lineto
865 0 lineto
905 0 lineto
closepath stroke
0 0 0 nodecolor
18 /Times-Roman set_font
878 25.8 moveto 14 (l3) alignedtext
0 0 0 nodecolor
18 /Times-Roman set_font
873 6.8 moveto 24 (top) alignedtext
grestore
% l4
gsave
1 setlinewidth
0 0 0 nodecolor
newpath 629 46 moveto
589 46 lineto
589 0 lineto
629 0 lineto
closepath stroke
0 0 0 nodecolor
18 /Times-Roman set_font
602 25.8 moveto 14 (l4) alignedtext
0 0 0 nodecolor
18 /Times-Roman set_font
597 6.8 moveto 24 (top) alignedtext
grestore
% l6_start
gsave
1 setlinewidth
0 0 0 nodecolor
newpath 262 249.5 moveto
56 249.5 lineto
56 184.5 lineto
262 184.5 lineto
closepath stroke
0 0 0 nodecolor
18 /Times-Roman set_font
131.5 229.3 moveto 55 (l6_start) alignedtext
0 0 0 nodecolor
18 /Times-Roman set_font
81.5 210.3 moveto 155 ([|thetap=8; thetav=0|]) alignedtext
0 0 0 nodecolor
18 /Times-Roman set_font
64 191.3 moveto 190 (2 constraints, 1 generators) alignedtext
grestore
% 0
gsave
0 0 0 nodecolor
18 /Times-Roman set_font
42 127.3 moveto 172 (thetap := thetap+thetav;) alignedtext
0 0 0 nodecolor
18 /Times-Roman set_font
8 108.3 moveto 240 (thetav := -1/64thetap-1/2thetav\)*) alignedtext
0 0 0 nodecolor
18 /Times-Roman set_font
121.5 89.3 moveto 13 (\(\)) alignedtext
grestore
% l6_start->0
gsave
1 setlinewidth
0 0 0 edgecolor
newpath 149.11 184.45 moveto
146.48 175.8 143.6 166.33 140.84 157.25 curveto
stroke
0 0 0 edgecolor
newpath 144.16 156.14 moveto
137.91 147.59 lineto
137.47 158.18 lineto
closepath fill
1 setlinewidth
solid
0 0 0 edgecolor
newpath 144.16 156.14 moveto
137.91 147.59 lineto
137.47 158.18 lineto
closepath stroke
grestore
% l5
gsave
1 setlinewidth
0 0 0 nodecolor
newpath 388 46 moveto
348 46 lineto
348 0 lineto
388 0 lineto
closepath stroke
0 0 0 nodecolor
18 /Times-Roman set_font
361 25.8 moveto 14 (l5) alignedtext
0 0 0 nodecolor
18 /Times-Roman set_font
356 6.8 moveto 24 (top) alignedtext
grestore
% l6
gsave
1 setlinewidth
0 0 0 nodecolor
newpath 148 46 moveto
108 46 lineto
108 0 lineto
148 0 lineto
closepath stroke
0 0 0 nodecolor
18 /Times-Roman set_font
121 25.8 moveto 14 (l6) alignedtext
0 0 0 nodecolor
18 /Times-Roman set_font
116 6.8 moveto 24 (top) alignedtext
grestore
% l1_start
gsave
1 setlinewidth
0 0 0 nodecolor
newpath 1522 249.5 moveto
1316 249.5 lineto
1316 184.5 lineto
1522 184.5 lineto
closepath stroke
0 0 0 nodecolor
18 /Times-Roman set_font
1391.5 229.3 moveto 55 (l1_start) alignedtext
0 0 0 nodecolor
18 /Times-Roman set_font
1341.5 210.3 moveto 155 ([|thetap=8; thetav=0|]) alignedtext
0 0 0 nodecolor
18 /Times-Roman set_font
1324 191.3 moveto 190 (2 constraints, 1 generators) alignedtext
grestore
% 5
gsave
0 0 0 nodecolor
18 /Times-Roman set_font
1360 127.3 moveto 172 (thetap := thetap+thetav;) alignedtext
0 0 0 nodecolor
18 /Times-Roman set_font
1315.5 108.3 moveto 261 (thetav := -1/64thetap+31/32thetav\)*) alignedtext
0 0 0 nodecolor
18 /Times-Roman set_font
1439.5 89.3 moveto 13 (\(\)) alignedtext
grestore
% l1_start->5
gsave
1 setlinewidth
0 0 0 edgecolor
newpath 1427.62 184.45 moveto
1429.88 175.89 1432.36 166.53 1434.74 157.54 curveto
stroke
0 0 0 edgecolor
newpath 1438.2 158.16 moveto
1437.37 147.59 lineto
1431.43 156.37 lineto
closepath fill
1 setlinewidth
solid
0 0 0 edgecolor
newpath 1438.2 158.16 moveto
1437.37 147.59 lineto
1431.43 156.37 lineto
closepath stroke
grestore
% 0->l6
gsave
1 setlinewidth
0 0 0 edgecolor
newpath 128 82.31 moveto
128 73.79 128 64.6 128 56.06 curveto
stroke
0 0 0 edgecolor
newpath 131.5 56.06 moveto
128 46.06 lineto
124.5 56.06 lineto
closepath fill
1 setlinewidth
solid
0 0 0 edgecolor
newpath 131.5 56.06 moveto
128 46.06 lineto
124.5 56.06 lineto
closepath stroke
grestore
% 1->l5
gsave
1 setlinewidth
0 0 0 edgecolor
newpath 368 82.31 moveto
368 73.79 368 64.6 368 56.06 curveto
stroke
0 0 0 edgecolor
newpath 371.5 56.06 moveto
368 46.06 lineto
364.5 56.06 lineto
closepath fill
1 setlinewidth
solid
0 0 0 edgecolor
newpath 371.5 56.06 moveto
368 46.06 lineto
364.5 56.06 lineto
closepath stroke
grestore
% 2->l4
gsave
1 setlinewidth
0 0 0 edgecolor
newpath 609 82.31 moveto
609 73.79 609 64.6 609 56.06 curveto
stroke
0 0 0 edgecolor
newpath 612.5 56.06 moveto
609 46.06 lineto
605.5 56.06 lineto
closepath fill
1 setlinewidth
solid
0 0 0 edgecolor
newpath 612.5 56.06 moveto
609 46.06 lineto
605.5 56.06 lineto
closepath stroke
grestore
% 3->l3
gsave
1 setlinewidth
0 0 0 edgecolor
newpath 885 82.31 moveto
885 73.79 885 64.6 885 56.06 curveto
stroke
0 0 0 edgecolor
newpath 888.5 56.06 moveto
885 46.06 lineto
881.5 56.06 lineto
closepath fill
1 setlinewidth
solid
0 0 0 edgecolor
newpath 888.5 56.06 moveto
885 46.06 lineto
881.5 56.06 lineto
closepath stroke
grestore
% 4->l2
gsave
1 setlinewidth
0 0 0 edgecolor
newpath 1161 82.31 moveto
1161 73.79 1161 64.6 1161 56.06 curveto
stroke
0 0 0 edgecolor
newpath 1164.5 56.06 moveto
1161 46.06 lineto
1157.5 56.06 lineto
closepath fill
1 setlinewidth
solid
0 0 0 edgecolor
newpath 1164.5 56.06 moveto
1161 46.06 lineto
1157.5 56.06 lineto
closepath stroke
grestore
% 5->l1
gsave
1 setlinewidth
0 0 0 edgecolor
newpath 1446 82.31 moveto
1446 73.79 1446 64.6 1446 56.06 curveto
stroke
0 0 0 edgecolor
newpath 1449.5 56.06 moveto
1446 46.06 lineto
1442.5 56.06 lineto
closepath fill
1 setlinewidth
solid
0 0 0 edgecolor
newpath 1449.5 56.06 moveto
1446 46.06 lineto
1442.5 56.06 lineto
closepath stroke
grestore
% 6->l0
gsave
1 setlinewidth
0 0 0 edgecolor
newpath 1720 82.31 moveto
1720 73.79 1720 64.6 1720 56.06 curveto
stroke
0 0 0 edgecolor
newpath 1723.5 56.06 moveto
1720 46.06 lineto
1716.5 56.06 lineto
closepath fill
1 setlinewidth
solid
0 0 0 edgecolor
newpath 1723.5 56.06 moveto
1720 46.06 lineto
1716.5 56.06 lineto
closepath stroke
grestore
% 7->l6_start
gsave
1 setlinewidth
0 0 0 edgecolor
newpath 175.45 285.78 moveto
173.52 277.73 171.3 268.43 169.12 259.33 curveto
stroke
0 0 0 edgecolor
newpath 172.52 258.5 moveto
166.79 249.59 lineto
165.71 260.13 lineto
closepath fill
1 setlinewidth
solid
0 0 0 edgecolor
newpath 172.52 258.5 moveto
166.79 249.59 lineto
165.71 260.13 lineto
closepath stroke
grestore
% 8->l5_start
gsave
1 setlinewidth
0 0 0 edgecolor
newpath 411.17 285.78 moveto
408.07 277.65 404.49 268.23 400.99 259.04 curveto
stroke
0 0 0 edgecolor
newpath 404.23 257.69 moveto
397.4 249.59 lineto
397.68 260.18 lineto
closepath fill
1 setlinewidth
solid
0 0 0 edgecolor
newpath 404.23 257.69 moveto
397.4 249.59 lineto
397.68 260.18 lineto
closepath stroke
grestore
% 9->l4_start
gsave
1 setlinewidth
0 0 0 edgecolor
newpath 643.4 285.78 moveto
639.65 277.56 635.3 268.04 631.06 258.75 curveto
stroke
0 0 0 edgecolor
newpath 634.21 257.23 moveto
626.88 249.59 lineto
627.85 260.14 lineto
closepath fill
1 setlinewidth
solid
0 0 0 edgecolor
newpath 634.21 257.23 moveto
626.88 249.59 lineto
627.85 260.14 lineto
closepath stroke
grestore
% 10->l3_start
gsave
1 setlinewidth
0 0 0 edgecolor
newpath 885 285.78 moveto
885 277.82 885 268.63 885 259.62 curveto
stroke
0 0 0 edgecolor
newpath 888.5 259.59 moveto
885 249.59 lineto
881.5 259.59 lineto
closepath fill
1 setlinewidth
solid
0 0 0 edgecolor
newpath 888.5 259.59 moveto
885 249.59 lineto
881.5 259.59 lineto
closepath stroke
grestore
% 11->l2_start
gsave
1 setlinewidth
0 0 0 edgecolor
newpath 1131.3 285.78 moveto
1133.12 277.82 1135.21 268.63 1137.27 259.62 curveto
stroke
0 0 0 edgecolor
newpath 1140.75 260.12 moveto
1139.56 249.59 lineto
1133.92 258.56 lineto
closepath fill
1 setlinewidth
solid
0 0 0 edgecolor
newpath 1140.75 260.12 moveto
1139.56 249.59 lineto
1133.92 258.56 lineto
closepath stroke
grestore
% 12->l1_start
gsave
1 setlinewidth
0 0 0 edgecolor
newpath 1389.84 285.78 moveto
1393.29 277.65 1397.28 268.23 1401.18 259.04 curveto
stroke
0 0 0 edgecolor
newpath 1404.5 260.16 moveto
1405.18 249.59 lineto
1398.06 257.43 lineto
closepath fill
1 setlinewidth
solid
0 0 0 edgecolor
newpath 1404.5 260.16 moveto
1405.18 249.59 lineto
1398.06 257.43 lineto
closepath stroke
grestore
% 13->l0_start
gsave
1 setlinewidth
0 0 0 edgecolor
newpath 1644.93 285.78 moveto
1651.91 277.22 1660.04 267.24 1667.91 257.59 curveto
stroke
0 0 0 edgecolor
newpath 1670.83 259.55 moveto
1674.43 249.59 lineto
1665.4 255.13 lineto
closepath fill
1 setlinewidth
solid
0 0 0 edgecolor
newpath 1670.83 259.55 moveto
1674.43 249.59 lineto
1665.4 255.13 lineto
closepath stroke
grestore
endpage
showpage
grestore
%%PageTrailer
%%EndPage: 3
%%Trailer
%%Pages: 3
%%BoundingBox: 36 36 1882 496
end
restore
%%EOF
