%!PS-Adobe-3.0
%%Creator: graphviz version 2.26.3 (20100126.1600)
%%Title: G
%%Pages: (atend)
%%BoundingBox: (atend)
%%EndComments
save
%%BeginProlog
/DotDict 200 dict def
DotDict begin

/setupLatin1 {
mark
/EncodingVector 256 array def
 EncodingVector 0

ISOLatin1Encoding 0 255 getinterval putinterval
EncodingVector 45 /hyphen put

% Set up ISO Latin 1 character encoding
/starnetISO {
        dup dup findfont dup length dict begin
        { 1 index /FID ne { def }{ pop pop } ifelse
        } forall
        /Encoding EncodingVector def
        currentdict end definefont
} def
/Times-Roman starnetISO def
/Times-Italic starnetISO def
/Times-Bold starnetISO def
/Times-BoldItalic starnetISO def
/Helvetica starnetISO def
/Helvetica-Oblique starnetISO def
/Helvetica-Bold starnetISO def
/Helvetica-BoldOblique starnetISO def
/Courier starnetISO def
/Courier-Oblique starnetISO def
/Courier-Bold starnetISO def
/Courier-BoldOblique starnetISO def
cleartomark
} bind def

%%BeginResource: procset graphviz 0 0
/coord-font-family /Times-Roman def
/default-font-family /Times-Roman def
/coordfont coord-font-family findfont 8 scalefont def

/InvScaleFactor 1.0 def
/set_scale {
       dup 1 exch div /InvScaleFactor exch def
       scale
} bind def

% styles
/solid { [] 0 setdash } bind def
/dashed { [9 InvScaleFactor mul dup ] 0 setdash } bind def
/dotted { [1 InvScaleFactor mul 6 InvScaleFactor mul] 0 setdash } bind def
/invis {/fill {newpath} def /stroke {newpath} def /show {pop newpath} def} bind def
/bold { 2 setlinewidth } bind def
/filled { } bind def
/unfilled { } bind def
/rounded { } bind def
/diagonals { } bind def

% hooks for setting color 
/nodecolor { sethsbcolor } bind def
/edgecolor { sethsbcolor } bind def
/graphcolor { sethsbcolor } bind def
/nopcolor {pop pop pop} bind def

/beginpage {	% i j npages
	/npages exch def
	/j exch def
	/i exch def
	/str 10 string def
	npages 1 gt {
		gsave
			coordfont setfont
			0 0 moveto
			(\() show i str cvs show (,) show j str cvs show (\)) show
		grestore
	} if
} bind def

/set_font {
	findfont exch
	scalefont setfont
} def

% draw text fitted to its expected width
/alignedtext {			% width text
	/text exch def
	/width exch def
	gsave
		width 0 gt {
			[] 0 setdash
			text stringwidth pop width exch sub text length div 0 text ashow
		} if
	grestore
} def

/boxprim {				% xcorner ycorner xsize ysize
		4 2 roll
		moveto
		2 copy
		exch 0 rlineto
		0 exch rlineto
		pop neg 0 rlineto
		closepath
} bind def

/ellipse_path {
	/ry exch def
	/rx exch def
	/y exch def
	/x exch def
	matrix currentmatrix
	newpath
	x y translate
	rx ry scale
	0 0 1 0 360 arc
	setmatrix
} bind def

/endpage { showpage } bind def
/showpage { } def

/layercolorseq
	[	% layer color sequence - darkest to lightest
		[0 0 0]
		[.2 .8 .8]
		[.4 .8 .8]
		[.6 .8 .8]
		[.8 .8 .8]
	]
def

/layerlen layercolorseq length def

/setlayer {/maxlayer exch def /curlayer exch def
	layercolorseq curlayer 1 sub layerlen mod get
	aload pop sethsbcolor
	/nodecolor {nopcolor} def
	/edgecolor {nopcolor} def
	/graphcolor {nopcolor} def
} bind def

/onlayer { curlayer ne {invis} if } def

/onlayers {
	/myupper exch def
	/mylower exch def
	curlayer mylower lt
	curlayer myupper gt
	or
	{invis} if
} def

/curlayer 0 def

%%EndResource
%%EndProlog
%%BeginSetup
14 default-font-family set_font
1 setmiterlimit
% /arrowlength 10 def
% /arrowwidth 5 def

% make sure pdfmark is harmless for PS-interpreters other than Distiller
/pdfmark where {pop} {userdict /pdfmark /cleartomark load put} ifelse
% make '<<' and '>>' safe on PS Level 1 devices
/languagelevel where {pop languagelevel}{1} ifelse
2 lt {
    userdict (<<) cvn ([) cvn load put
    userdict (>>) cvn ([) cvn load put
} if

%%EndSetup
setupLatin1
%%Page: 1 1
%%PageBoundingBox: 36 36 1882 496
%%PageOrientation: Portrait
0 0 1 beginpage
gsave
36 36 1846 460 boxprim clip newpath
1 1 set_scale 0 rotate 40 41 translate
% 1073741823
gsave
1 setlinewidth
0 0 0 nodecolor
801 429 43.84 19.09 ellipse_path stroke
0 0 0 nodecolor
18 /Times-Roman set_font
778 422.3 moveto 46 (Result) alignedtext
grestore
% l5_start
gsave
1 setlinewidth
0 0 0 nodecolor
newpath 472 287.5 moveto
266 287.5 lineto
266 222.5 lineto
472 222.5 lineto
closepath stroke
0 0 0 nodecolor
18 /Times-Roman set_font
341.5 267.3 moveto 55 (l5_start) alignedtext
0 0 0 nodecolor
18 /Times-Roman set_font
291.5 248.3 moveto 155 ([|thetap=8; thetav=8|]) alignedtext
0 0 0 nodecolor
18 /Times-Roman set_font
274 229.3 moveto 190 (2 constraints, 1 generators) alignedtext
grestore
% 1
gsave
0 0 0 nodecolor
18 /Times-Roman set_font
282 165.3 moveto 172 (thetap := thetap+thetav;) alignedtext
0 0 0 nodecolor
18 /Times-Roman set_font
285 146.3 moveto 166 (thetav := -1/64thetap\)*) alignedtext
0 0 0 nodecolor
18 /Times-Roman set_font
361.5 127.3 moveto 13 (\(\)) alignedtext
grestore
% l5_start->1
gsave
1 setlinewidth
0 0 0 edgecolor
newpath 368.68 222.45 moveto
368.6 213.98 368.51 204.73 368.42 195.83 curveto
stroke
0 0 0 edgecolor
newpath 371.92 195.56 moveto
368.32 185.59 lineto
364.92 195.63 lineto
closepath fill
1 setlinewidth
solid
0 0 0 edgecolor
newpath 371.92 195.56 moveto
368.32 185.59 lineto
364.92 195.63 lineto
closepath stroke
grestore
% l0_start
gsave
1 setlinewidth
0 0 0 nodecolor
newpath 1808 287.5 moveto
1602 287.5 lineto
1602 222.5 lineto
1808 222.5 lineto
closepath stroke
0 0 0 nodecolor
18 /Times-Roman set_font
1677.5 267.3 moveto 55 (l0_start) alignedtext
0 0 0 nodecolor
18 /Times-Roman set_font
1627.5 248.3 moveto 155 ([|thetap=8; thetav=8|]) alignedtext
0 0 0 nodecolor
18 /Times-Roman set_font
1610 229.3 moveto 190 (2 constraints, 1 generators) alignedtext
grestore
% 6
gsave
0 0 0 nodecolor
18 /Times-Roman set_font
1634 165.3 moveto 172 (thetap := thetap+thetav;) alignedtext
0 0 0 nodecolor
18 /Times-Roman set_font
1610 146.3 moveto 220 (thetav := -1/64thetap+thetav\)*) alignedtext
0 0 0 nodecolor
18 /Times-Roman set_font
1713.5 127.3 moveto 13 (\(\)) alignedtext
grestore
% l0_start->6
gsave
1 setlinewidth
0 0 0 edgecolor
newpath 1709.79 222.45 moveto
1711.05 213.89 1712.42 204.53 1713.74 195.54 curveto
stroke
0 0 0 edgecolor
newpath 1717.21 196 moveto
1715.21 185.59 lineto
1710.29 194.98 lineto
closepath fill
1 setlinewidth
solid
0 0 0 edgecolor
newpath 1717.21 196 moveto
1715.21 185.59 lineto
1710.29 194.98 lineto
closepath stroke
grestore
% l4_start
gsave
1 setlinewidth
0 0 0 nodecolor
newpath 728 287.5 moveto
522 287.5 lineto
522 222.5 lineto
728 222.5 lineto
closepath stroke
0 0 0 nodecolor
18 /Times-Roman set_font
597.5 267.3 moveto 55 (l4_start) alignedtext
0 0 0 nodecolor
18 /Times-Roman set_font
547.5 248.3 moveto 155 ([|thetap=8; thetav=8|]) alignedtext
0 0 0 nodecolor
18 /Times-Roman set_font
530 229.3 moveto 190 (2 constraints, 1 generators) alignedtext
grestore
% 2
gsave
0 0 0 nodecolor
18 /Times-Roman set_font
523 165.3 moveto 172 (thetap := thetap+thetav;) alignedtext
0 0 0 nodecolor
18 /Times-Roman set_font
487.5 146.3 moveto 243 (thetav := -1/64thetap+1/2thetav\)*) alignedtext
0 0 0 nodecolor
18 /Times-Roman set_font
602.5 127.3 moveto 13 (\(\)) alignedtext
grestore
% l4_start->2
gsave
1 setlinewidth
0 0 0 edgecolor
newpath 619.89 222.45 moveto
618.55 213.89 617.08 204.53 615.67 195.54 curveto
stroke
0 0 0 edgecolor
newpath 619.12 194.93 moveto
614.11 185.59 lineto
612.2 196.02 lineto
closepath fill
1 setlinewidth
solid
0 0 0 edgecolor
newpath 619.12 194.93 moveto
614.11 185.59 lineto
612.2 196.02 lineto
closepath stroke
grestore
% linit
gsave
1 setlinewidth
0 0 0 nodecolor
newpath 907 452 moveto
863 452 lineto
863 406 lineto
907 406 lineto
closepath stroke
0 0 0 nodecolor
18 /Times-Roman set_font
871 431.8 moveto 28 (linit) alignedtext
0 0 0 nodecolor
18 /Times-Roman set_font
873 412.8 moveto 24 (top) alignedtext
grestore
% 7
gsave
0 0 0 nodecolor
18 /Times-Roman set_font
42 349.8 moveto 210 (thetav-8=0 and thetap-8=0 ? ) alignedtext
0 0 0 nodecolor
18 /Times-Roman set_font
140.5 330.8 moveto 13 (\(\)) alignedtext
grestore
% linit->7
gsave
1 setlinewidth
0 0 0 edgecolor
newpath 862.85 410.31 moveto
860 408.6 857.02 407.1 854 406 curveto
732.28 361.56 400.62 385.75 272 370 curveto
271.38 369.92 270.77 369.85 270.15 369.77 curveto
stroke
0 0 0 edgecolor
newpath 270.38 366.27 moveto
260.01 368.42 lineto
269.46 373.21 lineto
closepath fill
1 setlinewidth
solid
0 0 0 edgecolor
newpath 270.38 366.27 moveto
260.01 368.42 lineto
269.46 373.21 lineto
closepath stroke
grestore
% 8
gsave
0 0 0 nodecolor
18 /Times-Roman set_font
289 349.8 moveto 210 (thetav-8=0 and thetap-8=0 ? ) alignedtext
0 0 0 nodecolor
18 /Times-Roman set_font
387.5 330.8 moveto 13 (\(\)) alignedtext
grestore
% linit->8
gsave
1 setlinewidth
0 0 0 edgecolor
newpath 862.79 410.44 moveto
859.96 408.71 857 407.17 854 406 curveto
714.11 351.34 666.61 391.71 518 370 curveto
517.78 369.97 517.55 369.93 517.33 369.9 curveto
stroke
0 0 0 edgecolor
newpath 517.55 366.39 moveto
507.13 368.35 lineto
516.5 373.32 lineto
closepath fill
1 setlinewidth
solid
0 0 0 edgecolor
newpath 517.55 366.39 moveto
507.13 368.35 lineto
516.5 373.32 lineto
closepath stroke
grestore
% 9
gsave
0 0 0 nodecolor
18 /Times-Roman set_font
535 349.8 moveto 210 (thetav-8=0 and thetap-8=0 ? ) alignedtext
0 0 0 nodecolor
18 /Times-Roman set_font
633.5 330.8 moveto 13 (\(\)) alignedtext
grestore
% linit->9
gsave
1 setlinewidth
0 0 0 edgecolor
newpath 862.94 411.14 moveto
860.03 409.24 857.01 407.47 854 406 curveto
825.63 392.17 793.52 381.15 762.95 372.56 curveto
stroke
0 0 0 edgecolor
newpath 763.66 369.12 moveto
753.09 369.85 lineto
761.81 375.87 lineto
closepath fill
1 setlinewidth
solid
0 0 0 edgecolor
newpath 763.66 369.12 moveto
753.09 369.85 lineto
761.81 375.87 lineto
closepath stroke
grestore
% 10
gsave
0 0 0 nodecolor
18 /Times-Roman set_font
780 349.8 moveto 210 (thetav-8=0 and thetap-8=0 ? ) alignedtext
0 0 0 nodecolor
18 /Times-Roman set_font
878.5 330.8 moveto 13 (\(\)) alignedtext
grestore
% linit->10
gsave
1 setlinewidth
0 0 0 edgecolor
newpath 885 405.72 moveto
885 397.78 885 388.73 885 380.16 curveto
stroke
0 0 0 edgecolor
newpath 888.5 380.05 moveto
885 370.05 lineto
881.5 380.05 lineto
closepath fill
1 setlinewidth
solid
0 0 0 edgecolor
newpath 888.5 380.05 moveto
885 370.05 lineto
881.5 380.05 lineto
closepath stroke
grestore
% 11
gsave
0 0 0 nodecolor
18 /Times-Roman set_font
1032 349.8 moveto 210 (thetav-8=0 and thetap-8=0 ? ) alignedtext
0 0 0 nodecolor
18 /Times-Roman set_font
1130.5 330.8 moveto 13 (\(\)) alignedtext
grestore
% linit->11
gsave
1 setlinewidth
0 0 0 edgecolor
newpath 907.36 421.72 moveto
940.59 410.91 1004.66 390.06 1056.71 373.13 curveto
stroke
0 0 0 edgecolor
newpath 1057.85 376.44 moveto
1066.27 370.01 lineto
1055.68 369.78 lineto
closepath fill
1 setlinewidth
solid
0 0 0 edgecolor
newpath 1057.85 376.44 moveto
1066.27 370.01 lineto
1055.68 369.78 lineto
closepath stroke
grestore
% 12
gsave
0 0 0 nodecolor
18 /Times-Roman set_font
1291 349.8 moveto 210 (thetav-8=0 and thetap-8=0 ? ) alignedtext
0 0 0 nodecolor
18 /Times-Roman set_font
1389.5 330.8 moveto 13 (\(\)) alignedtext
grestore
% linit->12
gsave
1 setlinewidth
0 0 0 edgecolor
newpath 907.35 425.55 moveto
965.4 416.58 1125.67 391.71 1259 370 curveto
1263.47 369.27 1268.03 368.53 1272.63 367.77 curveto
stroke
0 0 0 edgecolor
newpath 1273.46 371.18 moveto
1282.75 366.1 lineto
1272.32 364.27 lineto
closepath fill
1 setlinewidth
solid
0 0 0 edgecolor
newpath 1273.46 371.18 moveto
1282.75 366.1 lineto
1272.32 364.27 lineto
closepath stroke
grestore
% 13
gsave
0 0 0 nodecolor
18 /Times-Roman set_font
1549 349.8 moveto 210 (thetav-8=0 and thetap-8=0 ? ) alignedtext
0 0 0 nodecolor
18 /Times-Roman set_font
1647.5 330.8 moveto 13 (\(\)) alignedtext
grestore
% linit->13
gsave
1 setlinewidth
0 0 0 edgecolor
newpath 907.21 427.53 moveto
988.82 422.01 1279.7 401.21 1518 370 curveto
1522.21 369.45 1526.48 368.86 1530.8 368.25 curveto
stroke
0 0 0 edgecolor
newpath 1531.53 371.68 moveto
1540.93 366.78 lineto
1530.53 364.76 lineto
closepath fill
1 setlinewidth
solid
0 0 0 edgecolor
newpath 1531.53 371.68 moveto
1540.93 366.78 lineto
1530.53 364.76 lineto
closepath stroke
grestore
% l3_start
gsave
1 setlinewidth
0 0 0 nodecolor
newpath 988 287.5 moveto
782 287.5 lineto
782 222.5 lineto
988 222.5 lineto
closepath stroke
0 0 0 nodecolor
18 /Times-Roman set_font
857.5 267.3 moveto 55 (l3_start) alignedtext
0 0 0 nodecolor
18 /Times-Roman set_font
807.5 248.3 moveto 155 ([|thetap=8; thetav=8|]) alignedtext
0 0 0 nodecolor
18 /Times-Roman set_font
790 229.3 moveto 190 (2 constraints, 1 generators) alignedtext
grestore
% 3
gsave
0 0 0 nodecolor
18 /Times-Roman set_font
799 165.3 moveto 172 (thetap := thetap+thetav;) alignedtext
0 0 0 nodecolor
18 /Times-Roman set_font
763.5 146.3 moveto 243 (thetav := -1/64thetap+3/4thetav\)*) alignedtext
0 0 0 nodecolor
18 /Times-Roman set_font
878.5 127.3 moveto 13 (\(\)) alignedtext
grestore
% l3_start->3
gsave
1 setlinewidth
0 0 0 edgecolor
newpath 885 222.45 moveto
885 213.98 885 204.73 885 195.83 curveto
stroke
0 0 0 edgecolor
newpath 888.5 195.59 moveto
885 185.59 lineto
881.5 195.59 lineto
closepath fill
1 setlinewidth
solid
0 0 0 edgecolor
newpath 888.5 195.59 moveto
885 185.59 lineto
881.5 195.59 lineto
closepath stroke
grestore
% l0
gsave
1 setlinewidth
0 0 0 nodecolor
newpath 1740 65 moveto
1700 65 lineto
1700 19 lineto
1740 19 lineto
closepath stroke
0 0 0 nodecolor
18 /Times-Roman set_font
1713 44.8 moveto 14 (l0) alignedtext
0 0 0 nodecolor
18 /Times-Roman set_font
1708 25.8 moveto 24 (top) alignedtext
grestore
% l2_start
gsave
1 setlinewidth
0 0 0 nodecolor
newpath 1256 287.5 moveto
1050 287.5 lineto
1050 222.5 lineto
1256 222.5 lineto
closepath stroke
0 0 0 nodecolor
18 /Times-Roman set_font
1125.5 267.3 moveto 55 (l2_start) alignedtext
0 0 0 nodecolor
18 /Times-Roman set_font
1075.5 248.3 moveto 155 ([|thetap=8; thetav=8|]) alignedtext
0 0 0 nodecolor
18 /Times-Roman set_font
1058 229.3 moveto 190 (2 constraints, 1 generators) alignedtext
grestore
% 4
gsave
0 0 0 nodecolor
18 /Times-Roman set_font
1075 165.3 moveto 172 (thetap := thetap+thetav;) alignedtext
0 0 0 nodecolor
18 /Times-Roman set_font
1039.5 146.3 moveto 243 (thetav := -1/64thetap+7/8thetav\)*) alignedtext
0 0 0 nodecolor
18 /Times-Roman set_font
1154.5 127.3 moveto 13 (\(\)) alignedtext
grestore
% l2_start->4
gsave
1 setlinewidth
0 0 0 edgecolor
newpath 1155.55 222.45 moveto
1156.22 213.98 1156.94 204.73 1157.64 195.83 curveto
stroke
0 0 0 edgecolor
newpath 1161.15 195.84 moveto
1158.44 185.59 lineto
1154.17 195.29 lineto
closepath fill
1 setlinewidth
solid
0 0 0 edgecolor
newpath 1161.15 195.84 moveto
1158.44 185.59 lineto
1154.17 195.29 lineto
closepath stroke
grestore
% l1
gsave
1 setlinewidth
0 0 0 nodecolor
newpath 1558 84 moveto
1334 84 lineto
1334 0 lineto
1558 0 lineto
closepath stroke
0 0 0 nodecolor
18 /Times-Roman set_font
1439 63.8 moveto 14 (l1) alignedtext
0 0 0 nodecolor
18 /Times-Roman set_font
1354.5 44.8 moveto 183 ([|thetap in [-49.6 , 60.42];) alignedtext
0 0 0 nodecolor
18 /Times-Roman set_font
1363 25.8 moveto 166 (  thetav in [-6.901 , 8]|]) alignedtext
0 0 0 nodecolor
18 /Times-Roman set_font
1342 6.8 moveto 208 (57 constraints, 57 generators) alignedtext
grestore
% l2
gsave
1 setlinewidth
0 0 0 nodecolor
newpath 1273 84 moveto
1049 84 lineto
1049 0 lineto
1273 0 lineto
closepath stroke
0 0 0 nodecolor
18 /Times-Roman set_font
1154 63.8 moveto 14 (l2) alignedtext
0 0 0 nodecolor
18 /Times-Roman set_font
1065 44.8 moveto 192 ([|thetap in [-8.742 , 42.56];) alignedtext
0 0 0 nodecolor
18 /Times-Roman set_font
1078 25.8 moveto 166 (  thetav in [-3.144 , 8]|]) alignedtext
0 0 0 nodecolor
18 /Times-Roman set_font
1057 6.8 moveto 208 (45 constraints, 45 generators) alignedtext
grestore
% l3
gsave
1 setlinewidth
0 0 0 nodecolor
newpath 997 84 moveto
773 84 lineto
773 0 lineto
997 0 lineto
closepath stroke
0 0 0 nodecolor
18 /Times-Roman set_font
878 63.8 moveto 14 (l3) alignedtext
0 0 0 nodecolor
18 /Times-Roman set_font
807.5 44.8 moveto 155 ([|thetap in [0 , 31.42];) alignedtext
0 0 0 nodecolor
18 /Times-Roman set_font
806.5 25.8 moveto 157 (  thetav in [-1.56 , 8]|]) alignedtext
0 0 0 nodecolor
18 /Times-Roman set_font
781 6.8 moveto 208 (20 constraints, 20 generators) alignedtext
grestore
% l4
gsave
1 setlinewidth
0 0 0 nodecolor
newpath 721 84 moveto
497 84 lineto
497 0 lineto
721 0 lineto
closepath stroke
0 0 0 nodecolor
18 /Times-Roman set_font
602 63.8 moveto 14 (l4) alignedtext
0 0 0 nodecolor
18 /Times-Roman set_font
531.5 44.8 moveto 155 ([|thetap in [0 , 22.12];) alignedtext
0 0 0 nodecolor
18 /Times-Roman set_font
521.5 25.8 moveto 175 (  thetav in [-0.6375 , 8]|]) alignedtext
0 0 0 nodecolor
18 /Times-Roman set_font
505 6.8 moveto 208 (17 constraints, 17 generators) alignedtext
grestore
% l6_start
gsave
1 setlinewidth
0 0 0 nodecolor
newpath 244 287.5 moveto
38 287.5 lineto
38 222.5 lineto
244 222.5 lineto
closepath stroke
0 0 0 nodecolor
18 /Times-Roman set_font
113.5 267.3 moveto 55 (l6_start) alignedtext
0 0 0 nodecolor
18 /Times-Roman set_font
63.5 248.3 moveto 155 ([|thetap=8; thetav=8|]) alignedtext
0 0 0 nodecolor
18 /Times-Roman set_font
46 229.3 moveto 190 (2 constraints, 1 generators) alignedtext
grestore
% 0
gsave
0 0 0 nodecolor
18 /Times-Roman set_font
42 165.3 moveto 172 (thetap := thetap+thetav;) alignedtext
0 0 0 nodecolor
18 /Times-Roman set_font
8 146.3 moveto 240 (thetav := -1/64thetap-1/2thetav\)*) alignedtext
0 0 0 nodecolor
18 /Times-Roman set_font
121.5 127.3 moveto 13 (\(\)) alignedtext
grestore
% l6_start->0
gsave
1 setlinewidth
0 0 0 edgecolor
newpath 136.85 222.45 moveto
135.76 213.89 134.57 204.53 133.42 195.54 curveto
stroke
0 0 0 edgecolor
newpath 136.89 195.07 moveto
132.15 185.59 lineto
129.95 195.96 lineto
closepath fill
1 setlinewidth
solid
0 0 0 edgecolor
newpath 136.89 195.07 moveto
132.15 185.59 lineto
129.95 195.96 lineto
closepath stroke
grestore
% l5
gsave
1 setlinewidth
0 0 0 nodecolor
newpath 471 84 moveto
265 84 lineto
265 0 lineto
471 0 lineto
closepath stroke
0 0 0 nodecolor
18 /Times-Roman set_font
361 63.8 moveto 14 (l5) alignedtext
0 0 0 nodecolor
18 /Times-Roman set_font
295 44.8 moveto 146 ([|thetap in [0 , 16.1];) alignedtext
0 0 0 nodecolor
18 /Times-Roman set_font
289.5 25.8 moveto 157 (  thetav in [-0.25 , 8]|]) alignedtext
0 0 0 nodecolor
18 /Times-Roman set_font
273 6.8 moveto 190 (6 constraints, 6 generators) alignedtext
grestore
% l6
gsave
1 setlinewidth
0 0 0 nodecolor
newpath 231 84 moveto
25 84 lineto
25 0 lineto
231 0 lineto
closepath stroke
0 0 0 nodecolor
18 /Times-Roman set_font
121 63.8 moveto 14 (l6) alignedtext
0 0 0 nodecolor
18 /Times-Roman set_font
61.5 44.8 moveto 133 ([|thetap in [0 , 16];) alignedtext
0 0 0 nodecolor
18 /Times-Roman set_font
45 25.8 moveto 166 (  thetav in [-4.125 , 8]|]) alignedtext
0 0 0 nodecolor
18 /Times-Roman set_font
33 6.8 moveto 190 (3 constraints, 3 generators) alignedtext
grestore
% l1_start
gsave
1 setlinewidth
0 0 0 nodecolor
newpath 1534 287.5 moveto
1328 287.5 lineto
1328 222.5 lineto
1534 222.5 lineto
closepath stroke
0 0 0 nodecolor
18 /Times-Roman set_font
1403.5 267.3 moveto 55 (l1_start) alignedtext
0 0 0 nodecolor
18 /Times-Roman set_font
1353.5 248.3 moveto 155 ([|thetap=8; thetav=8|]) alignedtext
0 0 0 nodecolor
18 /Times-Roman set_font
1336 229.3 moveto 190 (2 constraints, 1 generators) alignedtext
grestore
% 5
gsave
0 0 0 nodecolor
18 /Times-Roman set_font
1360 165.3 moveto 172 (thetap := thetap+thetav;) alignedtext
0 0 0 nodecolor
18 /Times-Roman set_font
1315.5 146.3 moveto 261 (thetav := -1/64thetap+31/32thetav\)*) alignedtext
0 0 0 nodecolor
18 /Times-Roman set_font
1439.5 127.3 moveto 13 (\(\)) alignedtext
grestore
% l1_start->5
gsave
1 setlinewidth
0 0 0 edgecolor
newpath 1435.79 222.45 moveto
1437.05 213.89 1438.42 204.53 1439.74 195.54 curveto
stroke
0 0 0 edgecolor
newpath 1443.21 196 moveto
1441.21 185.59 lineto
1436.29 194.98 lineto
closepath fill
1 setlinewidth
solid
0 0 0 edgecolor
newpath 1443.21 196 moveto
1441.21 185.59 lineto
1436.29 194.98 lineto
closepath stroke
grestore
% 0->l6
gsave
1 setlinewidth
0 0 0 edgecolor
newpath 128 120.3 moveto
128 112.21 128 103.34 128 94.56 curveto
stroke
0 0 0 edgecolor
newpath 131.5 94.36 moveto
128 84.36 lineto
124.5 94.36 lineto
closepath fill
1 setlinewidth
solid
0 0 0 edgecolor
newpath 131.5 94.36 moveto
128 84.36 lineto
124.5 94.36 lineto
closepath stroke
grestore
% 1->l5
gsave
1 setlinewidth
0 0 0 edgecolor
newpath 368 120.3 moveto
368 112.21 368 103.34 368 94.56 curveto
stroke
0 0 0 edgecolor
newpath 371.5 94.36 moveto
368 84.36 lineto
364.5 94.36 lineto
closepath fill
1 setlinewidth
solid
0 0 0 edgecolor
newpath 371.5 94.36 moveto
368 84.36 lineto
364.5 94.36 lineto
closepath stroke
grestore
% 2->l4
gsave
1 setlinewidth
0 0 0 edgecolor
newpath 609 120.3 moveto
609 112.21 609 103.34 609 94.56 curveto
stroke
0 0 0 edgecolor
newpath 612.5 94.36 moveto
609 84.36 lineto
605.5 94.36 lineto
closepath fill
1 setlinewidth
solid
0 0 0 edgecolor
newpath 612.5 94.36 moveto
609 84.36 lineto
605.5 94.36 lineto
closepath stroke
grestore
% 3->l3
gsave
1 setlinewidth
0 0 0 edgecolor
newpath 885 120.3 moveto
885 112.21 885 103.34 885 94.56 curveto
stroke
0 0 0 edgecolor
newpath 888.5 94.36 moveto
885 84.36 lineto
881.5 94.36 lineto
closepath fill
1 setlinewidth
solid
0 0 0 edgecolor
newpath 888.5 94.36 moveto
885 84.36 lineto
881.5 94.36 lineto
closepath stroke
grestore
% 4->l2
gsave
1 setlinewidth
0 0 0 edgecolor
newpath 1161 120.3 moveto
1161 112.21 1161 103.34 1161 94.56 curveto
stroke
0 0 0 edgecolor
newpath 1164.5 94.36 moveto
1161 84.36 lineto
1157.5 94.36 lineto
closepath fill
1 setlinewidth
solid
0 0 0 edgecolor
newpath 1164.5 94.36 moveto
1161 84.36 lineto
1157.5 94.36 lineto
closepath stroke
grestore
% 5->l1
gsave
1 setlinewidth
0 0 0 edgecolor
newpath 1446 120.3 moveto
1446 112.21 1446 103.34 1446 94.56 curveto
stroke
0 0 0 edgecolor
newpath 1449.5 94.36 moveto
1446 84.36 lineto
1442.5 94.36 lineto
closepath fill
1 setlinewidth
solid
0 0 0 edgecolor
newpath 1449.5 94.36 moveto
1446 84.36 lineto
1442.5 94.36 lineto
closepath stroke
grestore
% 6->l0
gsave
1 setlinewidth
0 0 0 edgecolor
newpath 1720 120.3 moveto
1720 106.23 1720 89.8 1720 75.64 curveto
stroke
0 0 0 edgecolor
newpath 1723.5 75.32 moveto
1720 65.32 lineto
1716.5 75.32 lineto
closepath fill
1 setlinewidth
solid
0 0 0 edgecolor
newpath 1723.5 75.32 moveto
1720 65.32 lineto
1716.5 75.32 lineto
closepath stroke
grestore
% 7->l6_start
gsave
1 setlinewidth
0 0 0 edgecolor
newpath 145.49 323.78 moveto
144.97 315.82 144.37 306.63 143.78 297.62 curveto
stroke
0 0 0 edgecolor
newpath 147.27 297.34 moveto
143.13 287.59 lineto
140.28 297.8 lineto
closepath fill
1 setlinewidth
solid
0 0 0 edgecolor
newpath 147.27 297.34 moveto
143.13 287.59 lineto
140.28 297.8 lineto
closepath stroke
grestore
% 8->l5_start
gsave
1 setlinewidth
0 0 0 edgecolor
newpath 387.69 323.78 moveto
385.5 315.73 382.98 306.43 380.5 297.33 curveto
stroke
0 0 0 edgecolor
newpath 383.86 296.32 moveto
377.86 287.59 lineto
377.1 298.16 lineto
closepath fill
1 setlinewidth
solid
0 0 0 edgecolor
newpath 383.86 296.32 moveto
377.86 287.59 lineto
377.1 298.16 lineto
closepath stroke
grestore
% 9->l4_start
gsave
1 setlinewidth
0 0 0 edgecolor
newpath 636.21 323.78 moveto
634.92 315.82 633.42 306.63 631.95 297.62 curveto
stroke
0 0 0 edgecolor
newpath 635.38 296.9 moveto
630.31 287.59 lineto
628.47 298.02 lineto
closepath fill
1 setlinewidth
solid
0 0 0 edgecolor
newpath 635.38 296.9 moveto
630.31 287.59 lineto
628.47 298.02 lineto
closepath stroke
grestore
% 10->l3_start
gsave
1 setlinewidth
0 0 0 edgecolor
newpath 885 323.78 moveto
885 315.82 885 306.63 885 297.62 curveto
stroke
0 0 0 edgecolor
newpath 888.5 297.59 moveto
885 287.59 lineto
881.5 297.59 lineto
closepath fill
1 setlinewidth
solid
0 0 0 edgecolor
newpath 888.5 297.59 moveto
885 287.59 lineto
881.5 297.59 lineto
closepath stroke
grestore
% 11->l2_start
gsave
1 setlinewidth
0 0 0 edgecolor
newpath 1141.04 323.78 moveto
1142.42 315.82 1144.02 306.63 1145.59 297.62 curveto
stroke
0 0 0 edgecolor
newpath 1149.07 298.04 moveto
1147.33 287.59 lineto
1142.17 296.84 lineto
closepath fill
1 setlinewidth
solid
0 0 0 edgecolor
newpath 1149.07 298.04 moveto
1147.33 287.59 lineto
1142.17 296.84 lineto
closepath stroke
grestore
% 12->l1_start
gsave
1 setlinewidth
0 0 0 edgecolor
newpath 1404.83 323.78 moveto
1407.93 315.65 1411.51 306.23 1415.01 297.04 curveto
stroke
0 0 0 edgecolor
newpath 1418.32 298.18 moveto
1418.6 287.59 lineto
1411.77 295.69 lineto
closepath fill
1 setlinewidth
solid
0 0 0 edgecolor
newpath 1418.32 298.18 moveto
1418.6 287.59 lineto
1411.77 295.69 lineto
closepath stroke
grestore
% 13->l0_start
gsave
1 setlinewidth
0 0 0 edgecolor
newpath 1666.87 323.78 moveto
1671.48 315.47 1676.82 305.84 1682.02 296.46 curveto
stroke
0 0 0 edgecolor
newpath 1685.15 298.03 moveto
1686.93 287.59 lineto
1679.02 294.64 lineto
closepath fill
1 setlinewidth
solid
0 0 0 edgecolor
newpath 1685.15 298.03 moveto
1686.93 287.59 lineto
1679.02 294.64 lineto
closepath stroke
grestore
endpage
showpage
grestore
%%PageTrailer
%%EndPage: 1
setupLatin1
%%Page: 2 2
%%PageBoundingBox: 36 36 1796 376
%%PageOrientation: Portrait
0 0 1 beginpage
gsave
36 36 1760 340 boxprim clip newpath
1 1 set_scale 0 rotate 40 41 translate
% 1073741823
gsave
1 setlinewidth
0 0 0 nodecolor
768 309 43.84 19.09 ellipse_path stroke
0 0 0 nodecolor
18 /Times-Roman set_font
745 302.3 moveto 46 (Result) alignedtext
grestore
% linit
gsave
1 setlinewidth
0 0 0 nodecolor
newpath 874 332 moveto
830 332 lineto
830 286 lineto
874 286 lineto
closepath stroke
0 0 0 nodecolor
18 /Times-Roman set_font
838 311.8 moveto 28 (linit) alignedtext
0 0 0 nodecolor
18 /Times-Roman set_font
840 292.8 moveto 24 (top) alignedtext
grestore
% 7
gsave
0 0 0 nodecolor
18 /Times-Roman set_font
15 229.8 moveto 210 (thetav-8=0 and thetap-8=0 ? ) alignedtext
0 0 0 nodecolor
18 /Times-Roman set_font
113.5 210.8 moveto 13 (\(\)) alignedtext
grestore
% linit->7
gsave
1 setlinewidth
0 0 0 edgecolor
newpath 829.84 290.31 moveto
827 288.6 824.02 287.1 821 286 curveto
702.87 242.85 385.91 264.83 243.6 250.03 curveto
stroke
0 0 0 edgecolor
newpath 243.58 246.5 moveto
233.25 248.84 lineto
242.78 253.46 lineto
closepath fill
1 setlinewidth
solid
0 0 0 edgecolor
newpath 243.58 246.5 moveto
233.25 248.84 lineto
242.78 253.46 lineto
closepath stroke
grestore
% 8
gsave
0 0 0 nodecolor
18 /Times-Roman set_font
259 229.8 moveto 210 (thetav-8=0 and thetap-8=0 ? ) alignedtext
0 0 0 nodecolor
18 /Times-Roman set_font
357.5 210.8 moveto 13 (\(\)) alignedtext
grestore
% linit->8
gsave
1 setlinewidth
0 0 0 edgecolor
newpath 829.79 290.44 moveto
826.96 288.71 824 287.17 821 286 curveto
684.53 232.65 636.22 270.2 487.23 250.08 curveto
stroke
0 0 0 edgecolor
newpath 487.66 246.61 moveto
477.27 248.67 lineto
486.68 253.54 lineto
closepath fill
1 setlinewidth
solid
0 0 0 edgecolor
newpath 487.66 246.61 moveto
477.27 248.67 lineto
486.68 253.54 lineto
closepath stroke
grestore
% 9
gsave
0 0 0 nodecolor
18 /Times-Roman set_font
503 229.8 moveto 210 (thetav-8=0 and thetap-8=0 ? ) alignedtext
0 0 0 nodecolor
18 /Times-Roman set_font
601.5 210.8 moveto 13 (\(\)) alignedtext
grestore
% linit->9
gsave
1 setlinewidth
0 0 0 edgecolor
newpath 829.93 291.15 moveto
827.03 289.24 824.01 287.47 821 286 curveto
792.92 272.29 761.15 261.33 730.88 252.76 curveto
stroke
0 0 0 edgecolor
newpath 731.68 249.35 moveto
721.11 250.06 lineto
729.82 256.1 lineto
closepath fill
1 setlinewidth
solid
0 0 0 edgecolor
newpath 731.68 249.35 moveto
721.11 250.06 lineto
729.82 256.1 lineto
closepath stroke
grestore
% 10
gsave
0 0 0 nodecolor
18 /Times-Roman set_font
747 229.8 moveto 210 (thetav-8=0 and thetap-8=0 ? ) alignedtext
0 0 0 nodecolor
18 /Times-Roman set_font
845.5 210.8 moveto 13 (\(\)) alignedtext
grestore
% linit->10
gsave
1 setlinewidth
0 0 0 edgecolor
newpath 852 285.72 moveto
852 277.78 852 268.73 852 260.16 curveto
stroke
0 0 0 edgecolor
newpath 855.5 260.05 moveto
852 250.05 lineto
848.5 260.05 lineto
closepath fill
1 setlinewidth
solid
0 0 0 edgecolor
newpath 855.5 260.05 moveto
852 250.05 lineto
848.5 260.05 lineto
closepath stroke
grestore
% 11
gsave
0 0 0 nodecolor
18 /Times-Roman set_font
1000 229.8 moveto 210 (thetav-8=0 and thetap-8=0 ? ) alignedtext
0 0 0 nodecolor
18 /Times-Roman set_font
1098.5 210.8 moveto 13 (\(\)) alignedtext
grestore
% linit->11
gsave
1 setlinewidth
0 0 0 edgecolor
newpath 874.01 301.87 moveto
907.23 291.1 971.86 270.15 1024.33 253.14 curveto
stroke
0 0 0 edgecolor
newpath 1025.55 256.43 moveto
1033.98 250.02 lineto
1023.39 249.77 lineto
closepath fill
1 setlinewidth
solid
0 0 0 edgecolor
newpath 1025.55 256.43 moveto
1033.98 250.02 lineto
1023.39 249.77 lineto
closepath stroke
grestore
% 12
gsave
0 0 0 nodecolor
18 /Times-Roman set_font
1261 229.8 moveto 210 (thetav-8=0 and thetap-8=0 ? ) alignedtext
0 0 0 nodecolor
18 /Times-Roman set_font
1359.5 210.8 moveto 13 (\(\)) alignedtext
grestore
% linit->12
gsave
1 setlinewidth
0 0 0 edgecolor
newpath 874.41 305.54 moveto
932.61 296.53 1093.3 271.58 1227 250 curveto
1232.15 249.17 1237.41 248.32 1242.72 247.45 curveto
stroke
0 0 0 edgecolor
newpath 1243.67 250.84 moveto
1252.98 245.78 lineto
1242.55 243.93 lineto
closepath fill
1 setlinewidth
solid
0 0 0 edgecolor
newpath 1243.67 250.84 moveto
1252.98 245.78 lineto
1242.55 243.93 lineto
closepath stroke
grestore
% 13
gsave
0 0 0 nodecolor
18 /Times-Roman set_font
1521 229.8 moveto 210 (thetav-8=0 and thetap-8=0 ? ) alignedtext
0 0 0 nodecolor
18 /Times-Roman set_font
1619.5 210.8 moveto 13 (\(\)) alignedtext
grestore
% linit->13
gsave
1 setlinewidth
0 0 0 edgecolor
newpath 874.03 307.54 moveto
955.63 302 1248.26 281.06 1488 250 curveto
1492.79 249.38 1497.67 248.72 1502.6 248.02 curveto
stroke
0 0 0 edgecolor
newpath 1503.36 251.45 moveto
1512.76 246.55 lineto
1502.36 244.52 lineto
closepath fill
1 setlinewidth
solid
0 0 0 edgecolor
newpath 1503.36 251.45 moveto
1512.76 246.55 lineto
1502.36 244.52 lineto
closepath stroke
grestore
% l0
gsave
1 setlinewidth
0 0 0 nodecolor
newpath 1662 158 moveto
1622 158 lineto
1622 112 lineto
1662 112 lineto
closepath stroke
0 0 0 nodecolor
18 /Times-Roman set_font
1635 137.8 moveto 14 (l0) alignedtext
0 0 0 nodecolor
18 /Times-Roman set_font
1630 118.8 moveto 24 (top) alignedtext
grestore
% 6
gsave
0 0 0 nodecolor
18 /Times-Roman set_font
1556 45.3 moveto 172 (thetap := thetap+thetav;) alignedtext
0 0 0 nodecolor
18 /Times-Roman set_font
1539.5 26.3 moveto 205 (thetav := -1/64thetap+thetav) alignedtext
0 0 0 nodecolor
18 /Times-Roman set_font
1635.5 7.3 moveto 13 (\(\)) alignedtext
grestore
% l0->6
gsave
1 setlinewidth
0 0 0 edgecolor
newpath 1636.24 111.85 moveto
1635.4 101.2 1635.09 88.21 1635.33 75.87 curveto
stroke
0 0 0 edgecolor
newpath 1638.83 75.83 moveto
1635.65 65.72 lineto
1631.83 75.6 lineto
closepath fill
1 setlinewidth
solid
0 0 0 edgecolor
newpath 1638.83 75.83 moveto
1635.65 65.72 lineto
1631.83 75.6 lineto
closepath stroke
grestore
% l1
gsave
1 setlinewidth
0 0 0 nodecolor
newpath 1403 158 moveto
1363 158 lineto
1363 112 lineto
1403 112 lineto
closepath stroke
0 0 0 nodecolor
18 /Times-Roman set_font
1376 137.8 moveto 14 (l1) alignedtext
0 0 0 nodecolor
18 /Times-Roman set_font
1371 118.8 moveto 24 (top) alignedtext
grestore
% 5
gsave
0 0 0 nodecolor
18 /Times-Roman set_font
1297 45.3 moveto 172 (thetap := thetap+thetav;) alignedtext
0 0 0 nodecolor
18 /Times-Roman set_font
1260 26.3 moveto 246 (thetav := -1/64thetap+31/32thetav) alignedtext
0 0 0 nodecolor
18 /Times-Roman set_font
1376.5 7.3 moveto 13 (\(\)) alignedtext
grestore
% l1->5
gsave
1 setlinewidth
0 0 0 edgecolor
newpath 1377.24 111.85 moveto
1376.4 101.2 1376.09 88.21 1376.33 75.87 curveto
stroke
0 0 0 edgecolor
newpath 1379.83 75.83 moveto
1376.65 65.72 lineto
1372.83 75.6 lineto
closepath fill
1 setlinewidth
solid
0 0 0 edgecolor
newpath 1379.83 75.83 moveto
1376.65 65.72 lineto
1372.83 75.6 lineto
closepath stroke
grestore
% l2
gsave
1 setlinewidth
0 0 0 nodecolor
newpath 1132 158 moveto
1092 158 lineto
1092 112 lineto
1132 112 lineto
closepath stroke
0 0 0 nodecolor
18 /Times-Roman set_font
1105 137.8 moveto 14 (l2) alignedtext
0 0 0 nodecolor
18 /Times-Roman set_font
1100 118.8 moveto 24 (top) alignedtext
grestore
% 4
gsave
0 0 0 nodecolor
18 /Times-Roman set_font
1026 45.3 moveto 172 (thetap := thetap+thetav;) alignedtext
0 0 0 nodecolor
18 /Times-Roman set_font
998 26.3 moveto 228 (thetav := -1/64thetap+7/8thetav) alignedtext
0 0 0 nodecolor
18 /Times-Roman set_font
1105.5 7.3 moveto 13 (\(\)) alignedtext
grestore
% l2->4
gsave
1 setlinewidth
0 0 0 edgecolor
newpath 1106.24 111.85 moveto
1105.4 101.2 1105.09 88.21 1105.33 75.87 curveto
stroke
0 0 0 edgecolor
newpath 1108.83 75.83 moveto
1105.65 65.72 lineto
1101.83 75.6 lineto
closepath fill
1 setlinewidth
solid
0 0 0 edgecolor
newpath 1108.83 75.83 moveto
1105.65 65.72 lineto
1101.83 75.6 lineto
closepath stroke
grestore
% l3
gsave
1 setlinewidth
0 0 0 nodecolor
newpath 870 158 moveto
830 158 lineto
830 112 lineto
870 112 lineto
closepath stroke
0 0 0 nodecolor
18 /Times-Roman set_font
843 137.8 moveto 14 (l3) alignedtext
0 0 0 nodecolor
18 /Times-Roman set_font
838 118.8 moveto 24 (top) alignedtext
grestore
% 3
gsave
0 0 0 nodecolor
18 /Times-Roman set_font
764 45.3 moveto 172 (thetap := thetap+thetav;) alignedtext
0 0 0 nodecolor
18 /Times-Roman set_font
736 26.3 moveto 228 (thetav := -1/64thetap+3/4thetav) alignedtext
0 0 0 nodecolor
18 /Times-Roman set_font
843.5 7.3 moveto 13 (\(\)) alignedtext
grestore
% l3->3
gsave
1 setlinewidth
0 0 0 edgecolor
newpath 844.24 111.85 moveto
843.4 101.2 843.09 88.21 843.33 75.87 curveto
stroke
0 0 0 edgecolor
newpath 846.83 75.83 moveto
843.65 65.72 lineto
839.83 75.6 lineto
closepath fill
1 setlinewidth
solid
0 0 0 edgecolor
newpath 846.83 75.83 moveto
843.65 65.72 lineto
839.83 75.6 lineto
closepath stroke
grestore
% l4
gsave
1 setlinewidth
0 0 0 nodecolor
newpath 608 158 moveto
568 158 lineto
568 112 lineto
608 112 lineto
closepath stroke
0 0 0 nodecolor
18 /Times-Roman set_font
581 137.8 moveto 14 (l4) alignedtext
0 0 0 nodecolor
18 /Times-Roman set_font
576 118.8 moveto 24 (top) alignedtext
grestore
% 2
gsave
0 0 0 nodecolor
18 /Times-Roman set_font
502 45.3 moveto 172 (thetap := thetap+thetav;) alignedtext
0 0 0 nodecolor
18 /Times-Roman set_font
474 26.3 moveto 228 (thetav := -1/64thetap+1/2thetav) alignedtext
0 0 0 nodecolor
18 /Times-Roman set_font
581.5 7.3 moveto 13 (\(\)) alignedtext
grestore
% l4->2
gsave
1 setlinewidth
0 0 0 edgecolor
newpath 582.24 111.85 moveto
581.4 101.2 581.09 88.21 581.33 75.87 curveto
stroke
0 0 0 edgecolor
newpath 584.83 75.83 moveto
581.65 65.72 lineto
577.83 75.6 lineto
closepath fill
1 setlinewidth
solid
0 0 0 edgecolor
newpath 584.83 75.83 moveto
581.65 65.72 lineto
577.83 75.6 lineto
closepath stroke
grestore
% l5
gsave
1 setlinewidth
0 0 0 nodecolor
newpath 374 158 moveto
334 158 lineto
334 112 lineto
374 112 lineto
closepath stroke
0 0 0 nodecolor
18 /Times-Roman set_font
347 137.8 moveto 14 (l5) alignedtext
0 0 0 nodecolor
18 /Times-Roman set_font
342 118.8 moveto 24 (top) alignedtext
grestore
% 1
gsave
0 0 0 nodecolor
18 /Times-Roman set_font
268 45.3 moveto 172 (thetap := thetap+thetav;) alignedtext
0 0 0 nodecolor
18 /Times-Roman set_font
278.5 26.3 moveto 151 (thetav := -1/64thetap) alignedtext
0 0 0 nodecolor
18 /Times-Roman set_font
347.5 7.3 moveto 13 (\(\)) alignedtext
grestore
% l5->1
gsave
1 setlinewidth
0 0 0 edgecolor
newpath 348.24 111.85 moveto
347.4 101.2 347.09 88.21 347.33 75.87 curveto
stroke
0 0 0 edgecolor
newpath 350.83 75.83 moveto
347.65 65.72 lineto
343.83 75.6 lineto
closepath fill
1 setlinewidth
solid
0 0 0 edgecolor
newpath 350.83 75.83 moveto
347.65 65.72 lineto
343.83 75.6 lineto
closepath stroke
grestore
% l6
gsave
1 setlinewidth
0 0 0 nodecolor
newpath 223 167.5 moveto
17 167.5 lineto
17 102.5 lineto
223 102.5 lineto
closepath stroke
0 0 0 nodecolor
18 /Times-Roman set_font
113 147.3 moveto 14 (l6) alignedtext
0 0 0 nodecolor
18 /Times-Roman set_font
106 128.3 moveto 28 ([|; |]) alignedtext
0 0 0 nodecolor
18 /Times-Roman set_font
25 109.3 moveto 190 (3 constraints, 4 generators) alignedtext
grestore
% 0
gsave
0 0 0 nodecolor
18 /Times-Roman set_font
34 45.3 moveto 172 (thetap := thetap+thetav;) alignedtext
0 0 0 nodecolor
18 /Times-Roman set_font
7.5 26.3 moveto 225 (thetav := -1/64thetap-1/2thetav) alignedtext
0 0 0 nodecolor
18 /Times-Roman set_font
113.5 7.3 moveto 13 (\(\)) alignedtext
grestore
% l6->0
gsave
1 setlinewidth
0 0 0 edgecolor
newpath 113.66 102.45 moveto
113.27 93.98 113.16 84.73 113.33 75.83 curveto
stroke
0 0 0 edgecolor
newpath 116.83 75.7 moveto
113.66 65.59 lineto
109.84 75.48 lineto
closepath fill
1 setlinewidth
solid
0 0 0 edgecolor
newpath 116.83 75.7 moveto
113.66 65.59 lineto
109.84 75.48 lineto
closepath stroke
grestore
% 0->l6
gsave
1 setlinewidth
0 0 0 edgecolor
newpath 126.34 65.59 moveto
126.73 74.06 126.84 83.31 126.67 92.22 curveto
stroke
0 0 0 edgecolor
newpath 123.17 92.34 moveto
126.34 102.45 lineto
130.16 92.56 lineto
closepath fill
1 setlinewidth
solid
0 0 0 edgecolor
newpath 123.17 92.34 moveto
126.34 102.45 lineto
130.16 92.56 lineto
closepath stroke
grestore
% 1->l5
gsave
1 setlinewidth
0 0 0 edgecolor
newpath 360.35 65.72 moveto
360.88 77.23 360.88 90.16 360.37 101.72 curveto
stroke
0 0 0 edgecolor
newpath 356.87 101.66 moveto
359.76 111.85 lineto
363.86 102.08 lineto
closepath fill
1 setlinewidth
solid
0 0 0 edgecolor
newpath 356.87 101.66 moveto
359.76 111.85 lineto
363.86 102.08 lineto
closepath stroke
grestore
% 2->l4
gsave
1 setlinewidth
0 0 0 edgecolor
newpath 594.35 65.72 moveto
594.88 77.23 594.88 90.16 594.37 101.72 curveto
stroke
0 0 0 edgecolor
newpath 590.87 101.66 moveto
593.76 111.85 lineto
597.86 102.08 lineto
closepath fill
1 setlinewidth
solid
0 0 0 edgecolor
newpath 590.87 101.66 moveto
593.76 111.85 lineto
597.86 102.08 lineto
closepath stroke
grestore
% 3->l3
gsave
1 setlinewidth
0 0 0 edgecolor
newpath 856.35 65.72 moveto
856.88 77.23 856.88 90.16 856.37 101.72 curveto
stroke
0 0 0 edgecolor
newpath 852.87 101.66 moveto
855.76 111.85 lineto
859.86 102.08 lineto
closepath fill
1 setlinewidth
solid
0 0 0 edgecolor
newpath 852.87 101.66 moveto
855.76 111.85 lineto
859.86 102.08 lineto
closepath stroke
grestore
% 4->l2
gsave
1 setlinewidth
0 0 0 edgecolor
newpath 1118.35 65.72 moveto
1118.88 77.23 1118.88 90.16 1118.37 101.72 curveto
stroke
0 0 0 edgecolor
newpath 1114.87 101.66 moveto
1117.76 111.85 lineto
1121.86 102.08 lineto
closepath fill
1 setlinewidth
solid
0 0 0 edgecolor
newpath 1114.87 101.66 moveto
1117.76 111.85 lineto
1121.86 102.08 lineto
closepath stroke
grestore
% 5->l1
gsave
1 setlinewidth
0 0 0 edgecolor
newpath 1389.35 65.72 moveto
1389.88 77.23 1389.88 90.16 1389.37 101.72 curveto
stroke
0 0 0 edgecolor
newpath 1385.87 101.66 moveto
1388.76 111.85 lineto
1392.86 102.08 lineto
closepath fill
1 setlinewidth
solid
0 0 0 edgecolor
newpath 1385.87 101.66 moveto
1388.76 111.85 lineto
1392.86 102.08 lineto
closepath stroke
grestore
% 6->l0
gsave
1 setlinewidth
0 0 0 edgecolor
newpath 1648.35 65.72 moveto
1648.88 77.23 1648.88 90.16 1648.37 101.72 curveto
stroke
0 0 0 edgecolor
newpath 1644.87 101.66 moveto
1647.76 111.85 lineto
1651.86 102.08 lineto
closepath fill
1 setlinewidth
solid
0 0 0 edgecolor
newpath 1644.87 101.66 moveto
1647.76 111.85 lineto
1651.86 102.08 lineto
closepath stroke
grestore
% 7->l6
gsave
1 setlinewidth
0 0 0 edgecolor
newpath 120 203.78 moveto
120 195.82 120 186.63 120 177.62 curveto
stroke
0 0 0 edgecolor
newpath 123.5 177.59 moveto
120 167.59 lineto
116.5 177.59 lineto
closepath fill
1 setlinewidth
solid
0 0 0 edgecolor
newpath 123.5 177.59 moveto
120 167.59 lineto
116.5 177.59 lineto
closepath stroke
grestore
% 8->l5
gsave
1 setlinewidth
0 0 0 edgecolor
newpath 361.48 203.78 moveto
360.3 193 358.89 179.97 357.61 168.18 curveto
stroke
0 0 0 edgecolor
newpath 361.08 167.77 moveto
356.52 158.21 lineto
354.12 168.53 lineto
closepath fill
1 setlinewidth
solid
0 0 0 edgecolor
newpath 361.08 167.77 moveto
356.52 158.21 lineto
354.12 168.53 lineto
closepath stroke
grestore
% 9->l4
gsave
1 setlinewidth
0 0 0 edgecolor
newpath 602.95 203.78 moveto
600.61 193 597.78 179.97 595.21 168.18 curveto
stroke
0 0 0 edgecolor
newpath 598.59 167.24 moveto
593.05 158.21 lineto
591.75 168.72 lineto
closepath fill
1 setlinewidth
solid
0 0 0 edgecolor
newpath 598.59 167.24 moveto
593.05 158.21 lineto
591.75 168.72 lineto
closepath stroke
grestore
% 10->l3
gsave
1 setlinewidth
0 0 0 edgecolor
newpath 851.5 203.78 moveto
851.26 193.11 850.98 180.24 850.73 168.53 curveto
stroke
0 0 0 edgecolor
newpath 854.22 168.13 moveto
850.5 158.21 lineto
847.22 168.28 lineto
closepath fill
1 setlinewidth
solid
0 0 0 edgecolor
newpath 854.22 168.13 moveto
850.5 158.21 lineto
847.22 168.28 lineto
closepath stroke
grestore
% 11->l2
gsave
1 setlinewidth
0 0 0 edgecolor
newpath 1106.77 203.78 moveto
1107.58 193.11 1108.56 180.24 1109.45 168.53 curveto
stroke
0 0 0 edgecolor
newpath 1112.97 168.44 moveto
1110.23 158.21 lineto
1105.99 167.91 lineto
closepath fill
1 setlinewidth
solid
0 0 0 edgecolor
newpath 1112.97 168.44 moveto
1110.23 158.21 lineto
1105.99 167.91 lineto
closepath stroke
grestore
% 12->l1
gsave
1 setlinewidth
0 0 0 edgecolor
newpath 1370.29 203.78 moveto
1372.28 193 1374.69 179.97 1376.87 168.18 curveto
stroke
0 0 0 edgecolor
newpath 1380.34 168.68 moveto
1378.71 158.21 lineto
1373.45 167.41 lineto
closepath fill
1 setlinewidth
solid
0 0 0 edgecolor
newpath 1380.34 168.68 moveto
1378.71 158.21 lineto
1373.45 167.41 lineto
closepath stroke
grestore
% 13->l0
gsave
1 setlinewidth
0 0 0 edgecolor
newpath 1630.04 203.78 moveto
1631.91 193 1634.18 179.97 1636.23 168.18 curveto
stroke
0 0 0 edgecolor
newpath 1639.7 168.66 moveto
1637.96 158.21 lineto
1632.8 167.46 lineto
closepath fill
1 setlinewidth
solid
0 0 0 edgecolor
newpath 1639.7 168.66 moveto
1637.96 158.21 lineto
1632.8 167.46 lineto
closepath stroke
grestore
endpage
showpage
grestore
%%PageTrailer
%%EndPage: 2
setupLatin1
%%Page: 3 3
%%PageBoundingBox: 36 36 1882 458
%%PageOrientation: Portrait
0 0 1 beginpage
gsave
36 36 1846 422 boxprim clip newpath
1 1 set_scale 0 rotate 40 41 translate
% 1073741823
gsave
1 setlinewidth
0 0 0 nodecolor
801 391 43.84 19.09 ellipse_path stroke
0 0 0 nodecolor
18 /Times-Roman set_font
778 384.3 moveto 46 (Result) alignedtext
grestore
% l5_start
gsave
1 setlinewidth
0 0 0 nodecolor
newpath 472 249.5 moveto
266 249.5 lineto
266 184.5 lineto
472 184.5 lineto
closepath stroke
0 0 0 nodecolor
18 /Times-Roman set_font
341.5 229.3 moveto 55 (l5_start) alignedtext
0 0 0 nodecolor
18 /Times-Roman set_font
291.5 210.3 moveto 155 ([|thetap=8; thetav=8|]) alignedtext
0 0 0 nodecolor
18 /Times-Roman set_font
274 191.3 moveto 190 (2 constraints, 1 generators) alignedtext
grestore
% 1
gsave
0 0 0 nodecolor
18 /Times-Roman set_font
282 127.3 moveto 172 (thetap := thetap+thetav;) alignedtext
0 0 0 nodecolor
18 /Times-Roman set_font
285 108.3 moveto 166 (thetav := -1/64thetap\)*) alignedtext
0 0 0 nodecolor
18 /Times-Roman set_font
361.5 89.3 moveto 13 (\(\)) alignedtext
grestore
% l5_start->1
gsave
1 setlinewidth
0 0 0 edgecolor
newpath 368.68 184.45 moveto
368.6 175.98 368.51 166.73 368.42 157.83 curveto
stroke
0 0 0 edgecolor
newpath 371.92 157.56 moveto
368.32 147.59 lineto
364.92 157.63 lineto
closepath fill
1 setlinewidth
solid
0 0 0 edgecolor
newpath 371.92 157.56 moveto
368.32 147.59 lineto
364.92 157.63 lineto
closepath stroke
grestore
% l0_start
gsave
1 setlinewidth
0 0 0 nodecolor
newpath 1808 249.5 moveto
1602 249.5 lineto
1602 184.5 lineto
1808 184.5 lineto
closepath stroke
0 0 0 nodecolor
18 /Times-Roman set_font
1677.5 229.3 moveto 55 (l0_start) alignedtext
0 0 0 nodecolor
18 /Times-Roman set_font
1627.5 210.3 moveto 155 ([|thetap=8; thetav=8|]) alignedtext
0 0 0 nodecolor
18 /Times-Roman set_font
1610 191.3 moveto 190 (2 constraints, 1 generators) alignedtext
grestore
% 6
gsave
0 0 0 nodecolor
18 /Times-Roman set_font
1634 127.3 moveto 172 (thetap := thetap+thetav;) alignedtext
0 0 0 nodecolor
18 /Times-Roman set_font
1610 108.3 moveto 220 (thetav := -1/64thetap+thetav\)*) alignedtext
0 0 0 nodecolor
18 /Times-Roman set_font
1713.5 89.3 moveto 13 (\(\)) alignedtext
grestore
% l0_start->6
gsave
1 setlinewidth
0 0 0 edgecolor
newpath 1709.79 184.45 moveto
1711.05 175.89 1712.42 166.53 1713.74 157.54 curveto
stroke
0 0 0 edgecolor
newpath 1717.21 158 moveto
1715.21 147.59 lineto
1710.29 156.98 lineto
closepath fill
1 setlinewidth
solid
0 0 0 edgecolor
newpath 1717.21 158 moveto
1715.21 147.59 lineto
1710.29 156.98 lineto
closepath stroke
grestore
% l4_start
gsave
1 setlinewidth
0 0 0 nodecolor
newpath 728 249.5 moveto
522 249.5 lineto
522 184.5 lineto
728 184.5 lineto
closepath stroke
0 0 0 nodecolor
18 /Times-Roman set_font
597.5 229.3 moveto 55 (l4_start) alignedtext
0 0 0 nodecolor
18 /Times-Roman set_font
547.5 210.3 moveto 155 ([|thetap=8; thetav=8|]) alignedtext
0 0 0 nodecolor
18 /Times-Roman set_font
530 191.3 moveto 190 (2 constraints, 1 generators) alignedtext
grestore
% 2
gsave
0 0 0 nodecolor
18 /Times-Roman set_font
523 127.3 moveto 172 (thetap := thetap+thetav;) alignedtext
0 0 0 nodecolor
18 /Times-Roman set_font
487.5 108.3 moveto 243 (thetav := -1/64thetap+1/2thetav\)*) alignedtext
0 0 0 nodecolor
18 /Times-Roman set_font
602.5 89.3 moveto 13 (\(\)) alignedtext
grestore
% l4_start->2
gsave
1 setlinewidth
0 0 0 edgecolor
newpath 619.89 184.45 moveto
618.55 175.89 617.08 166.53 615.67 157.54 curveto
stroke
0 0 0 edgecolor
newpath 619.12 156.93 moveto
614.11 147.59 lineto
612.2 158.02 lineto
closepath fill
1 setlinewidth
solid
0 0 0 edgecolor
newpath 619.12 156.93 moveto
614.11 147.59 lineto
612.2 158.02 lineto
closepath stroke
grestore
% linit
gsave
1 setlinewidth
0 0 0 nodecolor
newpath 907 414 moveto
863 414 lineto
863 368 lineto
907 368 lineto
closepath stroke
0 0 0 nodecolor
18 /Times-Roman set_font
871 393.8 moveto 28 (linit) alignedtext
0 0 0 nodecolor
18 /Times-Roman set_font
873 374.8 moveto 24 (top) alignedtext
grestore
% 7
gsave
0 0 0 nodecolor
18 /Times-Roman set_font
42 311.8 moveto 210 (thetav-8=0 and thetap-8=0 ? ) alignedtext
0 0 0 nodecolor
18 /Times-Roman set_font
140.5 292.8 moveto 13 (\(\)) alignedtext
grestore
% linit->7
gsave
1 setlinewidth
0 0 0 edgecolor
newpath 862.85 372.31 moveto
860 370.6 857.02 369.1 854 368 curveto
732.28 323.56 400.62 347.75 272 332 curveto
271.38 331.92 270.77 331.85 270.15 331.77 curveto
stroke
0 0 0 edgecolor
newpath 270.38 328.27 moveto
260.01 330.42 lineto
269.46 335.21 lineto
closepath fill
1 setlinewidth
solid
0 0 0 edgecolor
newpath 270.38 328.27 moveto
260.01 330.42 lineto
269.46 335.21 lineto
closepath stroke
grestore
% 8
gsave
0 0 0 nodecolor
18 /Times-Roman set_font
289 311.8 moveto 210 (thetav-8=0 and thetap-8=0 ? ) alignedtext
0 0 0 nodecolor
18 /Times-Roman set_font
387.5 292.8 moveto 13 (\(\)) alignedtext
grestore
% linit->8
gsave
1 setlinewidth
0 0 0 edgecolor
newpath 862.79 372.44 moveto
859.96 370.71 857 369.17 854 368 curveto
714.11 313.34 666.61 353.71 518 332 curveto
517.78 331.97 517.55 331.93 517.33 331.9 curveto
stroke
0 0 0 edgecolor
newpath 517.55 328.39 moveto
507.13 330.35 lineto
516.5 335.32 lineto
closepath fill
1 setlinewidth
solid
0 0 0 edgecolor
newpath 517.55 328.39 moveto
507.13 330.35 lineto
516.5 335.32 lineto
closepath stroke
grestore
% 9
gsave
0 0 0 nodecolor
18 /Times-Roman set_font
535 311.8 moveto 210 (thetav-8=0 and thetap-8=0 ? ) alignedtext
0 0 0 nodecolor
18 /Times-Roman set_font
633.5 292.8 moveto 13 (\(\)) alignedtext
grestore
% linit->9
gsave
1 setlinewidth
0 0 0 edgecolor
newpath 862.94 373.14 moveto
860.03 371.24 857.01 369.47 854 368 curveto
825.63 354.17 793.52 343.15 762.95 334.56 curveto
stroke
0 0 0 edgecolor
newpath 763.66 331.12 moveto
753.09 331.85 lineto
761.81 337.87 lineto
closepath fill
1 setlinewidth
solid
0 0 0 edgecolor
newpath 763.66 331.12 moveto
753.09 331.85 lineto
761.81 337.87 lineto
closepath stroke
grestore
% 10
gsave
0 0 0 nodecolor
18 /Times-Roman set_font
780 311.8 moveto 210 (thetav-8=0 and thetap-8=0 ? ) alignedtext
0 0 0 nodecolor
18 /Times-Roman set_font
878.5 292.8 moveto 13 (\(\)) alignedtext
grestore
% linit->10
gsave
1 setlinewidth
0 0 0 edgecolor
newpath 885 367.72 moveto
885 359.78 885 350.73 885 342.16 curveto
stroke
0 0 0 edgecolor
newpath 888.5 342.05 moveto
885 332.05 lineto
881.5 342.05 lineto
closepath fill
1 setlinewidth
solid
0 0 0 edgecolor
newpath 888.5 342.05 moveto
885 332.05 lineto
881.5 342.05 lineto
closepath stroke
grestore
% 11
gsave
0 0 0 nodecolor
18 /Times-Roman set_font
1032 311.8 moveto 210 (thetav-8=0 and thetap-8=0 ? ) alignedtext
0 0 0 nodecolor
18 /Times-Roman set_font
1130.5 292.8 moveto 13 (\(\)) alignedtext
grestore
% linit->11
gsave
1 setlinewidth
0 0 0 edgecolor
newpath 907.36 383.72 moveto
940.59 372.91 1004.66 352.06 1056.71 335.13 curveto
stroke
0 0 0 edgecolor
newpath 1057.85 338.44 moveto
1066.27 332.01 lineto
1055.68 331.78 lineto
closepath fill
1 setlinewidth
solid
0 0 0 edgecolor
newpath 1057.85 338.44 moveto
1066.27 332.01 lineto
1055.68 331.78 lineto
closepath stroke
grestore
% 12
gsave
0 0 0 nodecolor
18 /Times-Roman set_font
1291 311.8 moveto 210 (thetav-8=0 and thetap-8=0 ? ) alignedtext
0 0 0 nodecolor
18 /Times-Roman set_font
1389.5 292.8 moveto 13 (\(\)) alignedtext
grestore
% linit->12
gsave
1 setlinewidth
0 0 0 edgecolor
newpath 907.35 387.55 moveto
965.4 378.58 1125.67 353.71 1259 332 curveto
1263.47 331.27 1268.03 330.53 1272.63 329.77 curveto
stroke
0 0 0 edgecolor
newpath 1273.46 333.18 moveto
1282.75 328.1 lineto
1272.32 326.27 lineto
closepath fill
1 setlinewidth
solid
0 0 0 edgecolor
newpath 1273.46 333.18 moveto
1282.75 328.1 lineto
1272.32 326.27 lineto
closepath stroke
grestore
% 13
gsave
0 0 0 nodecolor
18 /Times-Roman set_font
1549 311.8 moveto 210 (thetav-8=0 and thetap-8=0 ? ) alignedtext
0 0 0 nodecolor
18 /Times-Roman set_font
1647.5 292.8 moveto 13 (\(\)) alignedtext
grestore
% linit->13
gsave
1 setlinewidth
0 0 0 edgecolor
newpath 907.21 389.53 moveto
988.82 384.01 1279.7 363.21 1518 332 curveto
1522.21 331.45 1526.48 330.86 1530.8 330.25 curveto
stroke
0 0 0 edgecolor
newpath 1531.53 333.68 moveto
1540.93 328.78 lineto
1530.53 326.76 lineto
closepath fill
1 setlinewidth
solid
0 0 0 edgecolor
newpath 1531.53 333.68 moveto
1540.93 328.78 lineto
1530.53 326.76 lineto
closepath stroke
grestore
% l3_start
gsave
1 setlinewidth
0 0 0 nodecolor
newpath 988 249.5 moveto
782 249.5 lineto
782 184.5 lineto
988 184.5 lineto
closepath stroke
0 0 0 nodecolor
18 /Times-Roman set_font
857.5 229.3 moveto 55 (l3_start) alignedtext
0 0 0 nodecolor
18 /Times-Roman set_font
807.5 210.3 moveto 155 ([|thetap=8; thetav=8|]) alignedtext
0 0 0 nodecolor
18 /Times-Roman set_font
790 191.3 moveto 190 (2 constraints, 1 generators) alignedtext
grestore
% 3
gsave
0 0 0 nodecolor
18 /Times-Roman set_font
799 127.3 moveto 172 (thetap := thetap+thetav;) alignedtext
0 0 0 nodecolor
18 /Times-Roman set_font
763.5 108.3 moveto 243 (thetav := -1/64thetap+3/4thetav\)*) alignedtext
0 0 0 nodecolor
18 /Times-Roman set_font
878.5 89.3 moveto 13 (\(\)) alignedtext
grestore
% l3_start->3
gsave
1 setlinewidth
0 0 0 edgecolor
newpath 885 184.45 moveto
885 175.98 885 166.73 885 157.83 curveto
stroke
0 0 0 edgecolor
newpath 888.5 157.59 moveto
885 147.59 lineto
881.5 157.59 lineto
closepath fill
1 setlinewidth
solid
0 0 0 edgecolor
newpath 888.5 157.59 moveto
885 147.59 lineto
881.5 157.59 lineto
closepath stroke
grestore
% l0
gsave
1 setlinewidth
0 0 0 nodecolor
newpath 1740 46 moveto
1700 46 lineto
1700 0 lineto
1740 0 lineto
closepath stroke
0 0 0 nodecolor
18 /Times-Roman set_font
1713 25.8 moveto 14 (l0) alignedtext
0 0 0 nodecolor
18 /Times-Roman set_font
1708 6.8 moveto 24 (top) alignedtext
grestore
% l2_start
gsave
1 setlinewidth
0 0 0 nodecolor
newpath 1256 249.5 moveto
1050 249.5 lineto
1050 184.5 lineto
1256 184.5 lineto
closepath stroke
0 0 0 nodecolor
18 /Times-Roman set_font
1125.5 229.3 moveto 55 (l2_start) alignedtext
0 0 0 nodecolor
18 /Times-Roman set_font
1075.5 210.3 moveto 155 ([|thetap=8; thetav=8|]) alignedtext
0 0 0 nodecolor
18 /Times-Roman set_font
1058 191.3 moveto 190 (2 constraints, 1 generators) alignedtext
grestore
% 4
gsave
0 0 0 nodecolor
18 /Times-Roman set_font
1075 127.3 moveto 172 (thetap := thetap+thetav;) alignedtext
0 0 0 nodecolor
18 /Times-Roman set_font
1039.5 108.3 moveto 243 (thetav := -1/64thetap+7/8thetav\)*) alignedtext
0 0 0 nodecolor
18 /Times-Roman set_font
1154.5 89.3 moveto 13 (\(\)) alignedtext
grestore
% l2_start->4
gsave
1 setlinewidth
0 0 0 edgecolor
newpath 1155.55 184.45 moveto
1156.22 175.98 1156.94 166.73 1157.64 157.83 curveto
stroke
0 0 0 edgecolor
newpath 1161.15 157.84 moveto
1158.44 147.59 lineto
1154.17 157.29 lineto
closepath fill
1 setlinewidth
solid
0 0 0 edgecolor
newpath 1161.15 157.84 moveto
1158.44 147.59 lineto
1154.17 157.29 lineto
closepath stroke
grestore
% l1
gsave
1 setlinewidth
0 0 0 nodecolor
newpath 1466 46 moveto
1426 46 lineto
1426 0 lineto
1466 0 lineto
closepath stroke
0 0 0 nodecolor
18 /Times-Roman set_font
1439 25.8 moveto 14 (l1) alignedtext
0 0 0 nodecolor
18 /Times-Roman set_font
1434 6.8 moveto 24 (top) alignedtext
grestore
% l2
gsave
1 setlinewidth
0 0 0 nodecolor
newpath 1181 46 moveto
1141 46 lineto
1141 0 lineto
1181 0 lineto
closepath stroke
0 0 0 nodecolor
18 /Times-Roman set_font
1154 25.8 moveto 14 (l2) alignedtext
0 0 0 nodecolor
18 /Times-Roman set_font
1149 6.8 moveto 24 (top) alignedtext
grestore
% l3
gsave
1 setlinewidth
0 0 0 nodecolor
newpath 905 46 moveto
865 46 lineto
865 0 lineto
905 0 lineto
closepath stroke
0 0 0 nodecolor
18 /Times-Roman set_font
878 25.8 moveto 14 (l3) alignedtext
0 0 0 nodecolor
18 /Times-Roman set_font
873 6.8 moveto 24 (top) alignedtext
grestore
% l4
gsave
1 setlinewidth
0 0 0 nodecolor
newpath 629 46 moveto
589 46 lineto
589 0 lineto
629 0 lineto
closepath stroke
0 0 0 nodecolor
18 /Times-Roman set_font
602 25.8 moveto 14 (l4) alignedtext
0 0 0 nodecolor
18 /Times-Roman set_font
597 6.8 moveto 24 (top) alignedtext
grestore
% l6_start
gsave
1 setlinewidth
0 0 0 nodecolor
newpath 244 249.5 moveto
38 249.5 lineto
38 184.5 lineto
244 184.5 lineto
closepath stroke
0 0 0 nodecolor
18 /Times-Roman set_font
113.5 229.3 moveto 55 (l6_start) alignedtext
0 0 0 nodecolor
18 /Times-Roman set_font
63.5 210.3 moveto 155 ([|thetap=8; thetav=8|]) alignedtext
0 0 0 nodecolor
18 /Times-Roman set_font
46 191.3 moveto 190 (2 constraints, 1 generators) alignedtext
grestore
% 0
gsave
0 0 0 nodecolor
18 /Times-Roman set_font
42 127.3 moveto 172 (thetap := thetap+thetav;) alignedtext
0 0 0 nodecolor
18 /Times-Roman set_font
8 108.3 moveto 240 (thetav := -1/64thetap-1/2thetav\)*) alignedtext
0 0 0 nodecolor
18 /Times-Roman set_font
121.5 89.3 moveto 13 (\(\)) alignedtext
grestore
% l6_start->0
gsave
1 setlinewidth
0 0 0 edgecolor
newpath 136.85 184.45 moveto
135.76 175.89 134.57 166.53 133.42 157.54 curveto
stroke
0 0 0 edgecolor
newpath 136.89 157.07 moveto
132.15 147.59 lineto
129.95 157.96 lineto
closepath fill
1 setlinewidth
solid
0 0 0 edgecolor
newpath 136.89 157.07 moveto
132.15 147.59 lineto
129.95 157.96 lineto
closepath stroke
grestore
% l5
gsave
1 setlinewidth
0 0 0 nodecolor
newpath 388 46 moveto
348 46 lineto
348 0 lineto
388 0 lineto
closepath stroke
0 0 0 nodecolor
18 /Times-Roman set_font
361 25.8 moveto 14 (l5) alignedtext
0 0 0 nodecolor
18 /Times-Roman set_font
356 6.8 moveto 24 (top) alignedtext
grestore
% l6
gsave
1 setlinewidth
0 0 0 nodecolor
newpath 148 46 moveto
108 46 lineto
108 0 lineto
148 0 lineto
closepath stroke
0 0 0 nodecolor
18 /Times-Roman set_font
121 25.8 moveto 14 (l6) alignedtext
0 0 0 nodecolor
18 /Times-Roman set_font
116 6.8 moveto 24 (top) alignedtext
grestore
% l1_start
gsave
1 setlinewidth
0 0 0 nodecolor
newpath 1534 249.5 moveto
1328 249.5 lineto
1328 184.5 lineto
1534 184.5 lineto
closepath stroke
0 0 0 nodecolor
18 /Times-Roman set_font
1403.5 229.3 moveto 55 (l1_start) alignedtext
0 0 0 nodecolor
18 /Times-Roman set_font
1353.5 210.3 moveto 155 ([|thetap=8; thetav=8|]) alignedtext
0 0 0 nodecolor
18 /Times-Roman set_font
1336 191.3 moveto 190 (2 constraints, 1 generators) alignedtext
grestore
% 5
gsave
0 0 0 nodecolor
18 /Times-Roman set_font
1360 127.3 moveto 172 (thetap := thetap+thetav;) alignedtext
0 0 0 nodecolor
18 /Times-Roman set_font
1315.5 108.3 moveto 261 (thetav := -1/64thetap+31/32thetav\)*) alignedtext
0 0 0 nodecolor
18 /Times-Roman set_font
1439.5 89.3 moveto 13 (\(\)) alignedtext
grestore
% l1_start->5
gsave
1 setlinewidth
0 0 0 edgecolor
newpath 1435.79 184.45 moveto
1437.05 175.89 1438.42 166.53 1439.74 157.54 curveto
stroke
0 0 0 edgecolor
newpath 1443.21 158 moveto
1441.21 147.59 lineto
1436.29 156.98 lineto
closepath fill
1 setlinewidth
solid
0 0 0 edgecolor
newpath 1443.21 158 moveto
1441.21 147.59 lineto
1436.29 156.98 lineto
closepath stroke
grestore
% 0->l6
gsave
1 setlinewidth
0 0 0 edgecolor
newpath 128 82.31 moveto
128 73.79 128 64.6 128 56.06 curveto
stroke
0 0 0 edgecolor
newpath 131.5 56.06 moveto
128 46.06 lineto
124.5 56.06 lineto
closepath fill
1 setlinewidth
solid
0 0 0 edgecolor
newpath 131.5 56.06 moveto
128 46.06 lineto
124.5 56.06 lineto
closepath stroke
grestore
% 1->l5
gsave
1 setlinewidth
0 0 0 edgecolor
newpath 368 82.31 moveto
368 73.79 368 64.6 368 56.06 curveto
stroke
0 0 0 edgecolor
newpath 371.5 56.06 moveto
368 46.06 lineto
364.5 56.06 lineto
closepath fill
1 setlinewidth
solid
0 0 0 edgecolor
newpath 371.5 56.06 moveto
368 46.06 lineto
364.5 56.06 lineto
closepath stroke
grestore
% 2->l4
gsave
1 setlinewidth
0 0 0 edgecolor
newpath 609 82.31 moveto
609 73.79 609 64.6 609 56.06 curveto
stroke
0 0 0 edgecolor
newpath 612.5 56.06 moveto
609 46.06 lineto
605.5 56.06 lineto
closepath fill
1 setlinewidth
solid
0 0 0 edgecolor
newpath 612.5 56.06 moveto
609 46.06 lineto
605.5 56.06 lineto
closepath stroke
grestore
% 3->l3
gsave
1 setlinewidth
0 0 0 edgecolor
newpath 885 82.31 moveto
885 73.79 885 64.6 885 56.06 curveto
stroke
0 0 0 edgecolor
newpath 888.5 56.06 moveto
885 46.06 lineto
881.5 56.06 lineto
closepath fill
1 setlinewidth
solid
0 0 0 edgecolor
newpath 888.5 56.06 moveto
885 46.06 lineto
881.5 56.06 lineto
closepath stroke
grestore
% 4->l2
gsave
1 setlinewidth
0 0 0 edgecolor
newpath 1161 82.31 moveto
1161 73.79 1161 64.6 1161 56.06 curveto
stroke
0 0 0 edgecolor
newpath 1164.5 56.06 moveto
1161 46.06 lineto
1157.5 56.06 lineto
closepath fill
1 setlinewidth
solid
0 0 0 edgecolor
newpath 1164.5 56.06 moveto
1161 46.06 lineto
1157.5 56.06 lineto
closepath stroke
grestore
% 5->l1
gsave
1 setlinewidth
0 0 0 edgecolor
newpath 1446 82.31 moveto
1446 73.79 1446 64.6 1446 56.06 curveto
stroke
0 0 0 edgecolor
newpath 1449.5 56.06 moveto
1446 46.06 lineto
1442.5 56.06 lineto
closepath fill
1 setlinewidth
solid
0 0 0 edgecolor
newpath 1449.5 56.06 moveto
1446 46.06 lineto
1442.5 56.06 lineto
closepath stroke
grestore
% 6->l0
gsave
1 setlinewidth
0 0 0 edgecolor
newpath 1720 82.31 moveto
1720 73.79 1720 64.6 1720 56.06 curveto
stroke
0 0 0 edgecolor
newpath 1723.5 56.06 moveto
1720 46.06 lineto
1716.5 56.06 lineto
closepath fill
1 setlinewidth
solid
0 0 0 edgecolor
newpath 1723.5 56.06 moveto
1720 46.06 lineto
1716.5 56.06 lineto
closepath stroke
grestore
% 7->l6_start
gsave
1 setlinewidth
0 0 0 edgecolor
newpath 145.49 285.78 moveto
144.97 277.82 144.37 268.63 143.78 259.62 curveto
stroke
0 0 0 edgecolor
newpath 147.27 259.34 moveto
143.13 249.59 lineto
140.28 259.8 lineto
closepath fill
1 setlinewidth
solid
0 0 0 edgecolor
newpath 147.27 259.34 moveto
143.13 249.59 lineto
140.28 259.8 lineto
closepath stroke
grestore
% 8->l5_start
gsave
1 setlinewidth
0 0 0 edgecolor
newpath 387.69 285.78 moveto
385.5 277.73 382.98 268.43 380.5 259.33 curveto
stroke
0 0 0 edgecolor
newpath 383.86 258.32 moveto
377.86 249.59 lineto
377.1 260.16 lineto
closepath fill
1 setlinewidth
solid
0 0 0 edgecolor
newpath 383.86 258.32 moveto
377.86 249.59 lineto
377.1 260.16 lineto
closepath stroke
grestore
% 9->l4_start
gsave
1 setlinewidth
0 0 0 edgecolor
newpath 636.21 285.78 moveto
634.92 277.82 633.42 268.63 631.95 259.62 curveto
stroke
0 0 0 edgecolor
newpath 635.38 258.9 moveto
630.31 249.59 lineto
628.47 260.02 lineto
closepath fill
1 setlinewidth
solid
0 0 0 edgecolor
newpath 635.38 258.9 moveto
630.31 249.59 lineto
628.47 260.02 lineto
closepath stroke
grestore
% 10->l3_start
gsave
1 setlinewidth
0 0 0 edgecolor
newpath 885 285.78 moveto
885 277.82 885 268.63 885 259.62 curveto
stroke
0 0 0 edgecolor
newpath 888.5 259.59 moveto
885 249.59 lineto
881.5 259.59 lineto
closepath fill
1 setlinewidth
solid
0 0 0 edgecolor
newpath 888.5 259.59 moveto
885 249.59 lineto
881.5 259.59 lineto
closepath stroke
grestore
% 11->l2_start
gsave
1 setlinewidth
0 0 0 edgecolor
newpath 1141.04 285.78 moveto
1142.42 277.82 1144.02 268.63 1145.59 259.62 curveto
stroke
0 0 0 edgecolor
newpath 1149.07 260.04 moveto
1147.33 249.59 lineto
1142.17 258.84 lineto
closepath fill
1 setlinewidth
solid
0 0 0 edgecolor
newpath 1149.07 260.04 moveto
1147.33 249.59 lineto
1142.17 258.84 lineto
closepath stroke
grestore
% 12->l1_start
gsave
1 setlinewidth
0 0 0 edgecolor
newpath 1404.83 285.78 moveto
1407.93 277.65 1411.51 268.23 1415.01 259.04 curveto
stroke
0 0 0 edgecolor
newpath 1418.32 260.18 moveto
1418.6 249.59 lineto
1411.77 257.69 lineto
closepath fill
1 setlinewidth
solid
0 0 0 edgecolor
newpath 1418.32 260.18 moveto
1418.6 249.59 lineto
1411.77 257.69 lineto
closepath stroke
grestore
% 13->l0_start
gsave
1 setlinewidth
0 0 0 edgecolor
newpath 1666.87 285.78 moveto
1671.48 277.47 1676.82 267.84 1682.02 258.46 curveto
stroke
0 0 0 edgecolor
newpath 1685.15 260.03 moveto
1686.93 249.59 lineto
1679.02 256.64 lineto
closepath fill
1 setlinewidth
solid
0 0 0 edgecolor
newpath 1685.15 260.03 moveto
1686.93 249.59 lineto
1679.02 256.64 lineto
closepath stroke
grestore
endpage
showpage
grestore
%%PageTrailer
%%EndPage: 3
%%Trailer
%%Pages: 3
%%BoundingBox: 36 36 1882 496
end
restore
%%EOF
