%!PS-Adobe-3.0
%%Creator: graphviz version 2.26.3 (20100126.1600)
%%Title: G
%%Pages: (atend)
%%BoundingBox: (atend)
%%EndComments
save
%%BeginProlog
/DotDict 200 dict def
DotDict begin

/setupLatin1 {
mark
/EncodingVector 256 array def
 EncodingVector 0

ISOLatin1Encoding 0 255 getinterval putinterval
EncodingVector 45 /hyphen put

% Set up ISO Latin 1 character encoding
/starnetISO {
        dup dup findfont dup length dict begin
        { 1 index /FID ne { def }{ pop pop } ifelse
        } forall
        /Encoding EncodingVector def
        currentdict end definefont
} def
/Times-Roman starnetISO def
/Times-Italic starnetISO def
/Times-Bold starnetISO def
/Times-BoldItalic starnetISO def
/Helvetica starnetISO def
/Helvetica-Oblique starnetISO def
/Helvetica-Bold starnetISO def
/Helvetica-BoldOblique starnetISO def
/Courier starnetISO def
/Courier-Oblique starnetISO def
/Courier-Bold starnetISO def
/Courier-BoldOblique starnetISO def
cleartomark
} bind def

%%BeginResource: procset graphviz 0 0
/coord-font-family /Times-Roman def
/default-font-family /Times-Roman def
/coordfont coord-font-family findfont 8 scalefont def

/InvScaleFactor 1.0 def
/set_scale {
       dup 1 exch div /InvScaleFactor exch def
       scale
} bind def

% styles
/solid { [] 0 setdash } bind def
/dashed { [9 InvScaleFactor mul dup ] 0 setdash } bind def
/dotted { [1 InvScaleFactor mul 6 InvScaleFactor mul] 0 setdash } bind def
/invis {/fill {newpath} def /stroke {newpath} def /show {pop newpath} def} bind def
/bold { 2 setlinewidth } bind def
/filled { } bind def
/unfilled { } bind def
/rounded { } bind def
/diagonals { } bind def

% hooks for setting color 
/nodecolor { sethsbcolor } bind def
/edgecolor { sethsbcolor } bind def
/graphcolor { sethsbcolor } bind def
/nopcolor {pop pop pop} bind def

/beginpage {	% i j npages
	/npages exch def
	/j exch def
	/i exch def
	/str 10 string def
	npages 1 gt {
		gsave
			coordfont setfont
			0 0 moveto
			(\() show i str cvs show (,) show j str cvs show (\)) show
		grestore
	} if
} bind def

/set_font {
	findfont exch
	scalefont setfont
} def

% draw text fitted to its expected width
/alignedtext {			% width text
	/text exch def
	/width exch def
	gsave
		width 0 gt {
			[] 0 setdash
			text stringwidth pop width exch sub text length div 0 text ashow
		} if
	grestore
} def

/boxprim {				% xcorner ycorner xsize ysize
		4 2 roll
		moveto
		2 copy
		exch 0 rlineto
		0 exch rlineto
		pop neg 0 rlineto
		closepath
} bind def

/ellipse_path {
	/ry exch def
	/rx exch def
	/y exch def
	/x exch def
	matrix currentmatrix
	newpath
	x y translate
	rx ry scale
	0 0 1 0 360 arc
	setmatrix
} bind def

/endpage { showpage } bind def
/showpage { } def

/layercolorseq
	[	% layer color sequence - darkest to lightest
		[0 0 0]
		[.2 .8 .8]
		[.4 .8 .8]
		[.6 .8 .8]
		[.8 .8 .8]
	]
def

/layerlen layercolorseq length def

/setlayer {/maxlayer exch def /curlayer exch def
	layercolorseq curlayer 1 sub layerlen mod get
	aload pop sethsbcolor
	/nodecolor {nopcolor} def
	/edgecolor {nopcolor} def
	/graphcolor {nopcolor} def
} bind def

/onlayer { curlayer ne {invis} if } def

/onlayers {
	/myupper exch def
	/mylower exch def
	curlayer mylower lt
	curlayer myupper gt
	or
	{invis} if
} def

/curlayer 0 def

%%EndResource
%%EndProlog
%%BeginSetup
14 default-font-family set_font
1 setmiterlimit
% /arrowlength 10 def
% /arrowwidth 5 def

% make sure pdfmark is harmless for PS-interpreters other than Distiller
/pdfmark where {pop} {userdict /pdfmark /cleartomark load put} ifelse
% make '<<' and '>>' safe on PS Level 1 devices
/languagelevel where {pop languagelevel}{1} ifelse
2 lt {
    userdict (<<) cvn ([) cvn load put
    userdict (>>) cvn ([) cvn load put
} if

%%EndSetup
setupLatin1
%%Page: 1 1
%%PageBoundingBox: 36 36 1882 496
%%PageOrientation: Portrait
0 0 1 beginpage
gsave
36 36 1846 460 boxprim clip newpath
1 1 set_scale 0 rotate 40 41 translate
% 1073741823
gsave
1 setlinewidth
0 0 0 nodecolor
801 429 43.84 19.09 ellipse_path stroke
0 0 0 nodecolor
18 /Times-Roman set_font
778 422.3 moveto 46 (Result) alignedtext
grestore
% l5_start
gsave
1 setlinewidth
0 0 0 nodecolor
newpath 472 287.5 moveto
266 287.5 lineto
266 222.5 lineto
472 222.5 lineto
closepath stroke
0 0 0 nodecolor
18 /Times-Roman set_font
341.5 267.3 moveto 55 (l5_start) alignedtext
0 0 0 nodecolor
18 /Times-Roman set_font
291.5 248.3 moveto 155 ([|thetap=8; thetav=8|]) alignedtext
0 0 0 nodecolor
18 /Times-Roman set_font
274 229.3 moveto 190 (2 constraints, 1 generators) alignedtext
grestore
% 1
gsave
0 0 0 nodecolor
18 /Times-Roman set_font
282 165.3 moveto 172 (thetap := thetap+thetav;) alignedtext
0 0 0 nodecolor
18 /Times-Roman set_font
285 146.3 moveto 166 (thetav := -1/64thetap\)*) alignedtext
0 0 0 nodecolor
18 /Times-Roman set_font
361.5 127.3 moveto 13 (\(\)) alignedtext
grestore
% l5_start->1
gsave
1 setlinewidth
0 0 0 edgecolor
newpath 368.68 222.45 moveto
368.6 213.98 368.51 204.73 368.42 195.83 curveto
stroke
0 0 0 edgecolor
newpath 371.92 195.56 moveto
368.32 185.59 lineto
364.92 195.63 lineto
closepath fill
1 setlinewidth
solid
0 0 0 edgecolor
newpath 371.92 195.56 moveto
368.32 185.59 lineto
364.92 195.63 lineto
closepath stroke
grestore
% l0_start
gsave
1 setlinewidth
0 0 0 nodecolor
newpath 1808 287.5 moveto
1602 287.5 lineto
1602 222.5 lineto
1808 222.5 lineto
closepath stroke
0 0 0 nodecolor
18 /Times-Roman set_font
1677.5 267.3 moveto 55 (l0_start) alignedtext
0 0 0 nodecolor
18 /Times-Roman set_font
1627.5 248.3 moveto 155 ([|thetap=8; thetav=8|]) alignedtext
0 0 0 nodecolor
18 /Times-Roman set_font
1610 229.3 moveto 190 (2 constraints, 1 generators) alignedtext
grestore
% 6
gsave
0 0 0 nodecolor
18 /Times-Roman set_font
1634 165.3 moveto 172 (thetap := thetap+thetav;) alignedtext
0 0 0 nodecolor
18 /Times-Roman set_font
1610 146.3 moveto 220 (thetav := -1/64thetap+thetav\)*) alignedtext
0 0 0 nodecolor
18 /Times-Roman set_font
1713.5 127.3 moveto 13 (\(\)) alignedtext
grestore
% l0_start->6
gsave
1 setlinewidth
0 0 0 edgecolor
newpath 1709.79 222.45 moveto
1711.05 213.89 1712.42 204.53 1713.74 195.54 curveto
stroke
0 0 0 edgecolor
newpath 1717.21 196 moveto
1715.21 185.59 lineto
1710.29 194.98 lineto
closepath fill
1 setlinewidth
solid
0 0 0 edgecolor
newpath 1717.21 196 moveto
1715.21 185.59 lineto
1710.29 194.98 lineto
closepath stroke
grestore
% l4_start
gsave
1 setlinewidth
0 0 0 nodecolor
newpath 728 287.5 moveto
522 287.5 lineto
522 222.5 lineto
728 222.5 lineto
closepath stroke
0 0 0 nodecolor
18 /Times-Roman set_font
597.5 267.3 moveto 55 (l4_start) alignedtext
0 0 0 nodecolor
18 /Times-Roman set_font
547.5 248.3 moveto 155 ([|thetap=8; thetav=8|]) alignedtext
0 0 0 nodecolor
18 /Times-Roman set_font
530 229.3 moveto 190 (2 constraints, 1 generators) alignedtext
grestore
% 2
gsave
0 0 0 nodecolor
18 /Times-Roman set_font
523 165.3 moveto 172 (thetap := thetap+thetav;) alignedtext
0 0 0 nodecolor
18 /Times-Roman set_font
487.5 146.3 moveto 243 (thetav := -1/64thetap+1/2thetav\)*) alignedtext
0 0 0 nodecolor
18 /Times-Roman set_font
602.5 127.3 moveto 13 (\(\)) alignedtext
grestore
% l4_start->2
gsave
1 setlinewidth
0 0 0 edgecolor
newpath 619.89 222.45 moveto
618.55 213.89 617.08 204.53 615.67 195.54 curveto
stroke
0 0 0 edgecolor
newpath 619.12 194.93 moveto
614.11 185.59 lineto
612.2 196.02 lineto
closepath fill
1 setlinewidth
solid
0 0 0 edgecolor
newpath 619.12 194.93 moveto
614.11 185.59 lineto
612.2 196.02 lineto
closepath stroke
grestore
% linit
gsave
1 setlinewidth
0 0 0 nodecolor
newpath 907 452 moveto
863 452 lineto
863 406 lineto
907 406 lineto
closepath stroke
0 0 0 nodecolor
18 /Times-Roman set_font
871 431.8 moveto 28 (linit) alignedtext
0 0 0 nodecolor
18 /Times-Roman set_font
873 412.8 moveto 24 (top) alignedtext
grestore
% 7
gsave
0 0 0 nodecolor
18 /Times-Roman set_font
42 349.8 moveto 210 (thetav-8=0 and thetap-8=0 ? ) alignedtext
0 0 0 nodecolor
18 /Times-Roman set_font
140.5 330.8 moveto 13 (\(\)) alignedtext
grestore
% linit->7
gsave
1 setlinewidth
0 0 0 edgecolor
newpath 862.85 410.31 moveto
860 408.6 857.02 407.1 854 406 curveto
732.28 361.56 400.62 385.75 272 370 curveto
271.38 369.92 270.77 369.85 270.15 369.77 curveto
stroke
0 0 0 edgecolor
newpath 270.38 366.27 moveto
260.01 368.42 lineto
269.46 373.21 lineto
closepath fill
1 setlinewidth
solid
0 0 0 edgecolor
newpath 270.38 366.27 moveto
260.01 368.42 lineto
269.46 373.21 lineto
closepath stroke
grestore
% 8
gsave
0 0 0 nodecolor
18 /Times-Roman set_font
289 349.8 moveto 210 (thetav-8=0 and thetap-8=0 ? ) alignedtext
0 0 0 nodecolor
18 /Times-Roman set_font
387.5 330.8 moveto 13 (\(\)) alignedtext
grestore
% linit->8
gsave
1 setlinewidth
0 0 0 edgecolor
newpath 862.79 410.44 moveto
859.96 408.71 857 407.17 854 406 curveto
714.11 351.34 666.61 391.71 518 370 curveto
517.78 369.97 517.55 369.93 517.33 369.9 curveto
stroke
0 0 0 edgecolor
newpath 517.55 366.39 moveto
507.13 368.35 lineto
516.5 373.32 lineto
closepath fill
1 setlinewidth
solid
0 0 0 edgecolor
newpath 517.55 366.39 moveto
507.13 368.35 lineto
516.5 373.32 lineto
closepath stroke
grestore
% 9
gsave
0 0 0 nodecolor
18 /Times-Roman set_font
535 349.8 moveto 210 (thetav-8=0 and thetap-8=0 ? ) alignedtext
0 0 0 nodecolor
18 /Times-Roman set_font
633.5 330.8 moveto 13 (\(\)) alignedtext
grestore
% linit->9
gsave
1 setlinewidth
0 0 0 edgecolor
newpath 862.94 411.14 moveto
860.03 409.24 857.01 407.47 854 406 curveto
825.63 392.17 793.52 381.15 762.95 372.56 curveto
stroke
0 0 0 edgecolor
newpath 763.66 369.12 moveto
753.09 369.85 lineto
761.81 375.87 lineto
closepath fill
1 setlinewidth
solid
0 0 0 edgecolor
newpath 763.66 369.12 moveto
753.09 369.85 lineto
761.81 375.87 lineto
closepath stroke
grestore
% 10
gsave
0 0 0 nodecolor
18 /Times-Roman set_font
780 349.8 moveto 210 (thetav-8=0 and thetap-8=0 ? ) alignedtext
0 0 0 nodecolor
18 /Times-Roman set_font
878.5 330.8 moveto 13 (\(\)) alignedtext
grestore
% linit->10
gsave
1 setlinewidth
0 0 0 edgecolor
newpath 885 405.72 moveto
885 397.78 885 388.73 885 380.16 curveto
stroke
0 0 0 edgecolor
newpath 888.5 380.05 moveto
885 370.05 lineto
881.5 380.05 lineto
closepath fill
1 setlinewidth
solid
0 0 0 edgecolor
newpath 888.5 380.05 moveto
885 370.05 lineto
881.5 380.05 lineto
closepath stroke
grestore
% 11
gsave
0 0 0 nodecolor
18 /Times-Roman set_font
1032 349.8 moveto 210 (thetav-8=0 and thetap-8=0 ? ) alignedtext
0 0 0 nodecolor
18 /Times-Roman set_font
1130.5 330.8 moveto 13 (\(\)) alignedtext
grestore
% linit->11
gsave
1 setlinewidth
0 0 0 edgecolor
newpath 907.36 421.72 moveto
940.59 410.91 1004.66 390.06 1056.71 373.13 curveto
stroke
0 0 0 edgecolor
newpath 1057.85 376.44 moveto
1066.27 370.01 lineto
1055.68 369.78 lineto
closepath fill
1 setlinewidth
solid
0 0 0 edgecolor
newpath 1057.85 376.44 moveto
1066.27 370.01 lineto
1055.68 369.78 lineto
closepath stroke
grestore
% 12
gsave
0 0 0 nodecolor
18 /Times-Roman set_font
1291 349.8 moveto 210 (thetav-8=0 and thetap-8=0 ? ) alignedtext
0 0 0 nodecolor
18 /Times-Roman set_font
1389.5 330.8 moveto 13 (\(\)) alignedtext
grestore
% linit->12
gsave
1 setlinewidth
0 0 0 edgecolor
newpath 907.35 425.55 moveto
965.4 416.58 1125.67 391.71 1259 370 curveto
1263.47 369.27 1268.03 368.53 1272.63 367.77 curveto
stroke
0 0 0 edgecolor
newpath 1273.46 371.18 moveto
1282.75 366.1 lineto
1272.32 364.27 lineto
closepath fill
1 setlinewidth
solid
0 0 0 edgecolor
newpath 1273.46 371.18 moveto
1282.75 366.1 lineto
1272.32 364.27 lineto
closepath stroke
grestore
% 13
gsave
0 0 0 nodecolor
18 /Times-Roman set_font
1549 349.8 moveto 210 (thetav-8=0 and thetap-8=0 ? ) alignedtext
0 0 0 nodecolor
18 /Times-Roman set_font
1647.5 330.8 moveto 13 (\(\)) alignedtext
grestore
% linit->13
gsave
1 setlinewidth
0 0 0 edgecolor
newpath 907.21 427.53 moveto
988.82 422.01 1279.7 401.21 1518 370 curveto
1522.21 369.45 1526.48 368.86 1530.8 368.25 curveto
stroke
0 0 0 edgecolor
newpath 1531.53 371.68 moveto
1540.93 366.78 lineto
1530.53 364.76 lineto
closepath fill
1 setlinewidth
solid
0 0 0 edgecolor
newpath 1531.53 371.68 moveto
1540.93 366.78 lineto
1530.53 364.76 lineto
closepath stroke
grestore
% l3_start
gsave
1 setlinewidth
0 0 0 nodecolor
newpath 988 287.5 moveto
782 287.5 lineto
782 222.5 lineto
988 222.5 lineto
closepath stroke
0 0 0 nodecolor
18 /Times-Roman set_font
857.5 267.3 moveto 55 (l3_start) alignedtext
0 0 0 nodecolor
18 /Times-Roman set_font
807.5 248.3 moveto 155 ([|thetap=8; thetav=8|]) alignedtext
0 0 0 nodecolor
18 /Times-Roman set_font
790 229.3 moveto 190 (2 constraints, 1 generators) alignedtext
grestore
% 3
gsave
0 0 0 nodecolor
18 /Times-Roman set_font
799 165.3 moveto 172 (thetap := thetap+thetav;) alignedtext
0 0 0 nodecolor
18 /Times-Roman set_font
763.5 146.3 moveto 243 (thetav := -1/64thetap+3/4thetav\)*) alignedtext
0 0 0 nodecolor
18 /Times-Roman set_font
878.5 127.3 moveto 13 (\(\)) alignedtext
grestore
% l3_start->3
gsave
1 setlinewidth
0 0 0 edgecolor
newpath 885 222.45 moveto
885 213.98 885 204.73 885 195.83 curveto
stroke
0 0 0 edgecolor
newpath 888.5 195.59 moveto
885 185.59 lineto
881.5 195.59 lineto
closepath fill
1 setlinewidth
solid
0 0 0 edgecolor
newpath 888.5 195.59 moveto
885 185.59 lineto
881.5 195.59 lineto
closepath stroke
grestore
% l0
gsave
1 setlinewidth
0 0 0 nodecolor
newpath 1740 65 moveto
1700 65 lineto
1700 19 lineto
1740 19 lineto
closepath stroke
0 0 0 nodecolor
18 /Times-Roman set_font
1713 44.8 moveto 14 (l0) alignedtext
0 0 0 nodecolor
18 /Times-Roman set_font
1708 25.8 moveto 24 (top) alignedtext
grestore
% l2_start
gsave
1 setlinewidth
0 0 0 nodecolor
newpath 1256 287.5 moveto
1050 287.5 lineto
1050 222.5 lineto
1256 222.5 lineto
closepath stroke
0 0 0 nodecolor
18 /Times-Roman set_font
1125.5 267.3 moveto 55 (l2_start) alignedtext
0 0 0 nodecolor
18 /Times-Roman set_font
1075.5 248.3 moveto 155 ([|thetap=8; thetav=8|]) alignedtext
0 0 0 nodecolor
18 /Times-Roman set_font
1058 229.3 moveto 190 (2 constraints, 1 generators) alignedtext
grestore
% 4
gsave
0 0 0 nodecolor
18 /Times-Roman set_font
1075 165.3 moveto 172 (thetap := thetap+thetav;) alignedtext
0 0 0 nodecolor
18 /Times-Roman set_font
1039.5 146.3 moveto 243 (thetav := -1/64thetap+7/8thetav\)*) alignedtext
0 0 0 nodecolor
18 /Times-Roman set_font
1154.5 127.3 moveto 13 (\(\)) alignedtext
grestore
% l2_start->4
gsave
1 setlinewidth
0 0 0 edgecolor
newpath 1155.55 222.45 moveto
1156.22 213.98 1156.94 204.73 1157.64 195.83 curveto
stroke
0 0 0 edgecolor
newpath 1161.15 195.84 moveto
1158.44 185.59 lineto
1154.17 195.29 lineto
closepath fill
1 setlinewidth
solid
0 0 0 edgecolor
newpath 1161.15 195.84 moveto
1158.44 185.59 lineto
1154.17 195.29 lineto
closepath stroke
grestore
% l1
gsave
1 setlinewidth
0 0 0 nodecolor
newpath 1549 84 moveto
1343 84 lineto
1343 0 lineto
1549 0 lineto
closepath stroke
0 0 0 nodecolor
18 /Times-Roman set_font
1439 63.8 moveto 14 (l1) alignedtext
0 0 0 nodecolor
18 /Times-Roman set_font
1354.5 44.8 moveto 183 ([|thetap in [-53.11 , 64.7];) alignedtext
0 0 0 nodecolor
18 /Times-Roman set_font
1363 25.8 moveto 166 (  thetav in [-7.461 , 8]|]) alignedtext
0 0 0 nodecolor
18 /Times-Roman set_font
1351 6.8 moveto 190 (8 constraints, 8 generators) alignedtext
grestore
% l2
gsave
1 setlinewidth
0 0 0 nodecolor
newpath 1265 84 moveto
1057 84 lineto
1057 0 lineto
1265 0 lineto
closepath stroke
0 0 0 nodecolor
18 /Times-Roman set_font
1154 63.8 moveto 14 (l2) alignedtext
0 0 0 nodecolor
18 /Times-Roman set_font
1065 44.8 moveto 192 ([|thetap in [-9.504 , 46.27];) alignedtext
0 0 0 nodecolor
18 /Times-Roman set_font
1078 25.8 moveto 166 (  thetav in [-3.199 , 8]|]) alignedtext
0 0 0 nodecolor
18 /Times-Roman set_font
1066 6.8 moveto 190 (7 constraints, 7 generators) alignedtext
grestore
% l3
gsave
1 setlinewidth
0 0 0 nodecolor
newpath 988 84 moveto
782 84 lineto
782 0 lineto
988 0 lineto
closepath stroke
0 0 0 nodecolor
18 /Times-Roman set_font
878 63.8 moveto 14 (l3) alignedtext
0 0 0 nodecolor
18 /Times-Roman set_font
807.5 44.8 moveto 155 ([|thetap in [0 , 35.96];) alignedtext
0 0 0 nodecolor
18 /Times-Roman set_font
802 25.8 moveto 166 (  thetav in [-2.754 , 8]|]) alignedtext
0 0 0 nodecolor
18 /Times-Roman set_font
790 6.8 moveto 190 (6 constraints, 6 generators) alignedtext
grestore
% l4
gsave
1 setlinewidth
0 0 0 nodecolor
newpath 712 84 moveto
506 84 lineto
506 0 lineto
712 0 lineto
closepath stroke
0 0 0 nodecolor
18 /Times-Roman set_font
602 63.8 moveto 14 (l4) alignedtext
0 0 0 nodecolor
18 /Times-Roman set_font
531.5 44.8 moveto 155 ([|thetap in [0 , 24.15];) alignedtext
0 0 0 nodecolor
18 /Times-Roman set_font
521.5 25.8 moveto 175 (  thetav in [-0.7018 , 8]|]) alignedtext
0 0 0 nodecolor
18 /Times-Roman set_font
514 6.8 moveto 190 (4 constraints, 4 generators) alignedtext
grestore
% l6_start
gsave
1 setlinewidth
0 0 0 nodecolor
newpath 244 287.5 moveto
38 287.5 lineto
38 222.5 lineto
244 222.5 lineto
closepath stroke
0 0 0 nodecolor
18 /Times-Roman set_font
113.5 267.3 moveto 55 (l6_start) alignedtext
0 0 0 nodecolor
18 /Times-Roman set_font
63.5 248.3 moveto 155 ([|thetap=8; thetav=8|]) alignedtext
0 0 0 nodecolor
18 /Times-Roman set_font
46 229.3 moveto 190 (2 constraints, 1 generators) alignedtext
grestore
% 0
gsave
0 0 0 nodecolor
18 /Times-Roman set_font
42 165.3 moveto 172 (thetap := thetap+thetav;) alignedtext
0 0 0 nodecolor
18 /Times-Roman set_font
8 146.3 moveto 240 (thetav := -1/64thetap-1/2thetav\)*) alignedtext
0 0 0 nodecolor
18 /Times-Roman set_font
121.5 127.3 moveto 13 (\(\)) alignedtext
grestore
% l6_start->0
gsave
1 setlinewidth
0 0 0 edgecolor
newpath 136.85 222.45 moveto
135.76 213.89 134.57 204.53 133.42 195.54 curveto
stroke
0 0 0 edgecolor
newpath 136.89 195.07 moveto
132.15 185.59 lineto
129.95 195.96 lineto
closepath fill
1 setlinewidth
solid
0 0 0 edgecolor
newpath 136.89 195.07 moveto
132.15 185.59 lineto
129.95 195.96 lineto
closepath stroke
grestore
% l5
gsave
1 setlinewidth
0 0 0 nodecolor
newpath 471 84 moveto
265 84 lineto
265 0 lineto
471 0 lineto
closepath stroke
0 0 0 nodecolor
18 /Times-Roman set_font
361 63.8 moveto 14 (l5) alignedtext
0 0 0 nodecolor
18 /Times-Roman set_font
290.5 44.8 moveto 155 ([|thetap in [0 , 16.13];) alignedtext
0 0 0 nodecolor
18 /Times-Roman set_font
285 25.8 moveto 166 (  thetav in [-0.252 , 8]|]) alignedtext
0 0 0 nodecolor
18 /Times-Roman set_font
273 6.8 moveto 190 (4 constraints, 4 generators) alignedtext
grestore
% l6
gsave
1 setlinewidth
0 0 0 nodecolor
newpath 231 84 moveto
25 84 lineto
25 0 lineto
231 0 lineto
closepath stroke
0 0 0 nodecolor
18 /Times-Roman set_font
121 63.8 moveto 14 (l6) alignedtext
0 0 0 nodecolor
18 /Times-Roman set_font
61.5 44.8 moveto 133 ([|thetap in [0 , 16];) alignedtext
0 0 0 nodecolor
18 /Times-Roman set_font
45 25.8 moveto 166 (  thetav in [-4.125 , 8]|]) alignedtext
0 0 0 nodecolor
18 /Times-Roman set_font
33 6.8 moveto 190 (3 constraints, 3 generators) alignedtext
grestore
% l1_start
gsave
1 setlinewidth
0 0 0 nodecolor
newpath 1534 287.5 moveto
1328 287.5 lineto
1328 222.5 lineto
1534 222.5 lineto
closepath stroke
0 0 0 nodecolor
18 /Times-Roman set_font
1403.5 267.3 moveto 55 (l1_start) alignedtext
0 0 0 nodecolor
18 /Times-Roman set_font
1353.5 248.3 moveto 155 ([|thetap=8; thetav=8|]) alignedtext
0 0 0 nodecolor
18 /Times-Roman set_font
1336 229.3 moveto 190 (2 constraints, 1 generators) alignedtext
grestore
% 5
gsave
0 0 0 nodecolor
18 /Times-Roman set_font
1360 165.3 moveto 172 (thetap := thetap+thetav;) alignedtext
0 0 0 nodecolor
18 /Times-Roman set_font
1315.5 146.3 moveto 261 (thetav := -1/64thetap+31/32thetav\)*) alignedtext
0 0 0 nodecolor
18 /Times-Roman set_font
1439.5 127.3 moveto 13 (\(\)) alignedtext
grestore
% l1_start->5
gsave
1 setlinewidth
0 0 0 edgecolor
newpath 1435.79 222.45 moveto
1437.05 213.89 1438.42 204.53 1439.74 195.54 curveto
stroke
0 0 0 edgecolor
newpath 1443.21 196 moveto
1441.21 185.59 lineto
1436.29 194.98 lineto
closepath fill
1 setlinewidth
solid
0 0 0 edgecolor
newpath 1443.21 196 moveto
1441.21 185.59 lineto
1436.29 194.98 lineto
closepath stroke
grestore
% 0->l6
gsave
1 setlinewidth
0 0 0 edgecolor
newpath 128 120.3 moveto
128 112.21 128 103.34 128 94.56 curveto
stroke
0 0 0 edgecolor
newpath 131.5 94.36 moveto
128 84.36 lineto
124.5 94.36 lineto
closepath fill
1 setlinewidth
solid
0 0 0 edgecolor
newpath 131.5 94.36 moveto
128 84.36 lineto
124.5 94.36 lineto
closepath stroke
grestore
% 1->l5
gsave
1 setlinewidth
0 0 0 edgecolor
newpath 368 120.3 moveto
368 112.21 368 103.34 368 94.56 curveto
stroke
0 0 0 edgecolor
newpath 371.5 94.36 moveto
368 84.36 lineto
364.5 94.36 lineto
closepath fill
1 setlinewidth
solid
0 0 0 edgecolor
newpath 371.5 94.36 moveto
368 84.36 lineto
364.5 94.36 lineto
closepath stroke
grestore
% 2->l4
gsave
1 setlinewidth
0 0 0 edgecolor
newpath 609 120.3 moveto
609 112.21 609 103.34 609 94.56 curveto
stroke
0 0 0 edgecolor
newpath 612.5 94.36 moveto
609 84.36 lineto
605.5 94.36 lineto
closepath fill
1 setlinewidth
solid
0 0 0 edgecolor
newpath 612.5 94.36 moveto
609 84.36 lineto
605.5 94.36 lineto
closepath stroke
grestore
% 3->l3
gsave
1 setlinewidth
0 0 0 edgecolor
newpath 885 120.3 moveto
885 112.21 885 103.34 885 94.56 curveto
stroke
0 0 0 edgecolor
newpath 888.5 94.36 moveto
885 84.36 lineto
881.5 94.36 lineto
closepath fill
1 setlinewidth
solid
0 0 0 edgecolor
newpath 888.5 94.36 moveto
885 84.36 lineto
881.5 94.36 lineto
closepath stroke
grestore
% 4->l2
gsave
1 setlinewidth
0 0 0 edgecolor
newpath 1161 120.3 moveto
1161 112.21 1161 103.34 1161 94.56 curveto
stroke
0 0 0 edgecolor
newpath 1164.5 94.36 moveto
1161 84.36 lineto
1157.5 94.36 lineto
closepath fill
1 setlinewidth
solid
0 0 0 edgecolor
newpath 1164.5 94.36 moveto
1161 84.36 lineto
1157.5 94.36 lineto
closepath stroke
grestore
% 5->l1
gsave
1 setlinewidth
0 0 0 edgecolor
newpath 1446 120.3 moveto
1446 112.21 1446 103.34 1446 94.56 curveto
stroke
0 0 0 edgecolor
newpath 1449.5 94.36 moveto
1446 84.36 lineto
1442.5 94.36 lineto
closepath fill
1 setlinewidth
solid
0 0 0 edgecolor
newpath 1449.5 94.36 moveto
1446 84.36 lineto
1442.5 94.36 lineto
closepath stroke
grestore
% 6->l0
gsave
1 setlinewidth
0 0 0 edgecolor
newpath 1720 120.3 moveto
1720 106.23 1720 89.8 1720 75.64 curveto
stroke
0 0 0 edgecolor
newpath 1723.5 75.32 moveto
1720 65.32 lineto
1716.5 75.32 lineto
closepath fill
1 setlinewidth
solid
0 0 0 edgecolor
newpath 1723.5 75.32 moveto
1720 65.32 lineto
1716.5 75.32 lineto
closepath stroke
grestore
% 7->l6_start
gsave
1 setlinewidth
0 0 0 edgecolor
newpath 145.49 323.78 moveto
144.97 315.82 144.37 306.63 143.78 297.62 curveto
stroke
0 0 0 edgecolor
newpath 147.27 297.34 moveto
143.13 287.59 lineto
140.28 297.8 lineto
closepath fill
1 setlinewidth
solid
0 0 0 edgecolor
newpath 147.27 297.34 moveto
143.13 287.59 lineto
140.28 297.8 lineto
closepath stroke
grestore
% 8->l5_start
gsave
1 setlinewidth
0 0 0 edgecolor
newpath 387.69 323.78 moveto
385.5 315.73 382.98 306.43 380.5 297.33 curveto
stroke
0 0 0 edgecolor
newpath 383.86 296.32 moveto
377.86 287.59 lineto
377.1 298.16 lineto
closepath fill
1 setlinewidth
solid
0 0 0 edgecolor
newpath 383.86 296.32 moveto
377.86 287.59 lineto
377.1 298.16 lineto
closepath stroke
grestore
% 9->l4_start
gsave
1 setlinewidth
0 0 0 edgecolor
newpath 636.21 323.78 moveto
634.92 315.82 633.42 306.63 631.95 297.62 curveto
stroke
0 0 0 edgecolor
newpath 635.38 296.9 moveto
630.31 287.59 lineto
628.47 298.02 lineto
closepath fill
1 setlinewidth
solid
0 0 0 edgecolor
newpath 635.38 296.9 moveto
630.31 287.59 lineto
628.47 298.02 lineto
closepath stroke
grestore
% 10->l3_start
gsave
1 setlinewidth
0 0 0 edgecolor
newpath 885 323.78 moveto
885 315.82 885 306.63 885 297.62 curveto
stroke
0 0 0 edgecolor
newpath 888.5 297.59 moveto
885 287.59 lineto
881.5 297.59 lineto
closepath fill
1 setlinewidth
solid
0 0 0 edgecolor
newpath 888.5 297.59 moveto
885 287.59 lineto
881.5 297.59 lineto
closepath stroke
grestore
% 11->l2_start
gsave
1 setlinewidth
0 0 0 edgecolor
newpath 1141.04 323.78 moveto
1142.42 315.82 1144.02 306.63 1145.59 297.62 curveto
stroke
0 0 0 edgecolor
newpath 1149.07 298.04 moveto
1147.33 287.59 lineto
1142.17 296.84 lineto
closepath fill
1 setlinewidth
solid
0 0 0 edgecolor
newpath 1149.07 298.04 moveto
1147.33 287.59 lineto
1142.17 296.84 lineto
closepath stroke
grestore
% 12->l1_start
gsave
1 setlinewidth
0 0 0 edgecolor
newpath 1404.83 323.78 moveto
1407.93 315.65 1411.51 306.23 1415.01 297.04 curveto
stroke
0 0 0 edgecolor
newpath 1418.32 298.18 moveto
1418.6 287.59 lineto
1411.77 295.69 lineto
closepath fill
1 setlinewidth
solid
0 0 0 edgecolor
newpath 1418.32 298.18 moveto
1418.6 287.59 lineto
1411.77 295.69 lineto
closepath stroke
grestore
% 13->l0_start
gsave
1 setlinewidth
0 0 0 edgecolor
newpath 1666.87 323.78 moveto
1671.48 315.47 1676.82 305.84 1682.02 296.46 curveto
stroke
0 0 0 edgecolor
newpath 1685.15 298.03 moveto
1686.93 287.59 lineto
1679.02 294.64 lineto
closepath fill
1 setlinewidth
solid
0 0 0 edgecolor
newpath 1685.15 298.03 moveto
1686.93 287.59 lineto
1679.02 294.64 lineto
closepath stroke
grestore
endpage
showpage
grestore
%%PageTrailer
%%EndPage: 1
%%Trailer
%%Pages: 1
%%BoundingBox: 36 36 1882 496
end
restore
%%EOF
