%!PS-Adobe-3.0
%%Creator: graphviz version 2.26.3 (20100126.1600)
%%Title: G
%%Pages: (atend)
%%BoundingBox: (atend)
%%EndComments
save
%%BeginProlog
/DotDict 200 dict def
DotDict begin

/setupLatin1 {
mark
/EncodingVector 256 array def
 EncodingVector 0

ISOLatin1Encoding 0 255 getinterval putinterval
EncodingVector 45 /hyphen put

% Set up ISO Latin 1 character encoding
/starnetISO {
        dup dup findfont dup length dict begin
        { 1 index /FID ne { def }{ pop pop } ifelse
        } forall
        /Encoding EncodingVector def
        currentdict end definefont
} def
/Times-Roman starnetISO def
/Times-Italic starnetISO def
/Times-Bold starnetISO def
/Times-BoldItalic starnetISO def
/Helvetica starnetISO def
/Helvetica-Oblique starnetISO def
/Helvetica-Bold starnetISO def
/Helvetica-BoldOblique starnetISO def
/Courier starnetISO def
/Courier-Oblique starnetISO def
/Courier-Bold starnetISO def
/Courier-BoldOblique starnetISO def
cleartomark
} bind def

%%BeginResource: procset graphviz 0 0
/coord-font-family /Times-Roman def
/default-font-family /Times-Roman def
/coordfont coord-font-family findfont 8 scalefont def

/InvScaleFactor 1.0 def
/set_scale {
       dup 1 exch div /InvScaleFactor exch def
       scale
} bind def

% styles
/solid { [] 0 setdash } bind def
/dashed { [9 InvScaleFactor mul dup ] 0 setdash } bind def
/dotted { [1 InvScaleFactor mul 6 InvScaleFactor mul] 0 setdash } bind def
/invis {/fill {newpath} def /stroke {newpath} def /show {pop newpath} def} bind def
/bold { 2 setlinewidth } bind def
/filled { } bind def
/unfilled { } bind def
/rounded { } bind def
/diagonals { } bind def

% hooks for setting color 
/nodecolor { sethsbcolor } bind def
/edgecolor { sethsbcolor } bind def
/graphcolor { sethsbcolor } bind def
/nopcolor {pop pop pop} bind def

/beginpage {	% i j npages
	/npages exch def
	/j exch def
	/i exch def
	/str 10 string def
	npages 1 gt {
		gsave
			coordfont setfont
			0 0 moveto
			(\() show i str cvs show (,) show j str cvs show (\)) show
		grestore
	} if
} bind def

/set_font {
	findfont exch
	scalefont setfont
} def

% draw text fitted to its expected width
/alignedtext {			% width text
	/text exch def
	/width exch def
	gsave
		width 0 gt {
			[] 0 setdash
			text stringwidth pop width exch sub text length div 0 text ashow
		} if
	grestore
} def

/boxprim {				% xcorner ycorner xsize ysize
		4 2 roll
		moveto
		2 copy
		exch 0 rlineto
		0 exch rlineto
		pop neg 0 rlineto
		closepath
} bind def

/ellipse_path {
	/ry exch def
	/rx exch def
	/y exch def
	/x exch def
	matrix currentmatrix
	newpath
	x y translate
	rx ry scale
	0 0 1 0 360 arc
	setmatrix
} bind def

/endpage { showpage } bind def
/showpage { } def

/layercolorseq
	[	% layer color sequence - darkest to lightest
		[0 0 0]
		[.2 .8 .8]
		[.4 .8 .8]
		[.6 .8 .8]
		[.8 .8 .8]
	]
def

/layerlen layercolorseq length def

/setlayer {/maxlayer exch def /curlayer exch def
	layercolorseq curlayer 1 sub layerlen mod get
	aload pop sethsbcolor
	/nodecolor {nopcolor} def
	/edgecolor {nopcolor} def
	/graphcolor {nopcolor} def
} bind def

/onlayer { curlayer ne {invis} if } def

/onlayers {
	/myupper exch def
	/mylower exch def
	curlayer mylower lt
	curlayer myupper gt
	or
	{invis} if
} def

/curlayer 0 def

%%EndResource
%%EndProlog
%%BeginSetup
14 default-font-family set_font
1 setmiterlimit
% /arrowlength 10 def
% /arrowwidth 5 def

% make sure pdfmark is harmless for PS-interpreters other than Distiller
/pdfmark where {pop} {userdict /pdfmark /cleartomark load put} ifelse
% make '<<' and '>>' safe on PS Level 1 devices
/languagelevel where {pop languagelevel}{1} ifelse
2 lt {
    userdict (<<) cvn ([) cvn load put
    userdict (>>) cvn ([) cvn load put
} if

%%EndSetup
setupLatin1
%%Page: 1 1
%%PageBoundingBox: 36 36 1882 496
%%PageOrientation: Portrait
0 0 1 beginpage
gsave
36 36 1846 460 boxprim clip newpath
1 1 set_scale 0 rotate 40 41 translate
% 1073741823
gsave
1 setlinewidth
0 0 0 nodecolor
801 429 43.84 19.09 ellipse_path stroke
0 0 0 nodecolor
18 /Times-Roman set_font
778 422.3 moveto 46 (Result) alignedtext
grestore
% l5_start
gsave
1 setlinewidth
0 0 0 nodecolor
newpath 488 287.5 moveto
282 287.5 lineto
282 222.5 lineto
488 222.5 lineto
closepath stroke
0 0 0 nodecolor
18 /Times-Roman set_font
357.5 267.3 moveto 55 (l5_start) alignedtext
0 0 0 nodecolor
18 /Times-Roman set_font
307.5 248.3 moveto 155 ([|thetap=8; thetav=0|]) alignedtext
0 0 0 nodecolor
18 /Times-Roman set_font
290 229.3 moveto 190 (2 constraints, 1 generators) alignedtext
grestore
% 1
gsave
0 0 0 nodecolor
18 /Times-Roman set_font
282 165.3 moveto 172 (thetap := thetap+thetav;) alignedtext
0 0 0 nodecolor
18 /Times-Roman set_font
285 146.3 moveto 166 (thetav := -1/64thetap\)*) alignedtext
0 0 0 nodecolor
18 /Times-Roman set_font
361.5 127.3 moveto 13 (\(\)) alignedtext
grestore
% l5_start->1
gsave
1 setlinewidth
0 0 0 edgecolor
newpath 379.57 222.45 moveto
378.15 213.89 376.59 204.53 375.09 195.54 curveto
stroke
0 0 0 edgecolor
newpath 378.53 194.88 moveto
373.43 185.59 lineto
371.62 196.03 lineto
closepath fill
1 setlinewidth
solid
0 0 0 edgecolor
newpath 378.53 194.88 moveto
373.43 185.59 lineto
371.62 196.03 lineto
closepath stroke
grestore
% l0_start
gsave
1 setlinewidth
0 0 0 nodecolor
newpath 1804 287.5 moveto
1598 287.5 lineto
1598 222.5 lineto
1804 222.5 lineto
closepath stroke
0 0 0 nodecolor
18 /Times-Roman set_font
1673.5 267.3 moveto 55 (l0_start) alignedtext
0 0 0 nodecolor
18 /Times-Roman set_font
1623.5 248.3 moveto 155 ([|thetap=8; thetav=0|]) alignedtext
0 0 0 nodecolor
18 /Times-Roman set_font
1606 229.3 moveto 190 (2 constraints, 1 generators) alignedtext
grestore
% 6
gsave
0 0 0 nodecolor
18 /Times-Roman set_font
1634 165.3 moveto 172 (thetap := thetap+thetav;) alignedtext
0 0 0 nodecolor
18 /Times-Roman set_font
1610 146.3 moveto 220 (thetav := -1/64thetap+thetav\)*) alignedtext
0 0 0 nodecolor
18 /Times-Roman set_font
1713.5 127.3 moveto 13 (\(\)) alignedtext
grestore
% l0_start->6
gsave
1 setlinewidth
0 0 0 edgecolor
newpath 1707.06 222.45 moveto
1708.66 213.89 1710.4 204.53 1712.08 195.54 curveto
stroke
0 0 0 edgecolor
newpath 1715.54 196.07 moveto
1713.93 185.59 lineto
1708.66 194.78 lineto
closepath fill
1 setlinewidth
solid
0 0 0 edgecolor
newpath 1715.54 196.07 moveto
1713.93 185.59 lineto
1708.66 194.78 lineto
closepath stroke
grestore
% l4_start
gsave
1 setlinewidth
0 0 0 nodecolor
newpath 715 287.5 moveto
509 287.5 lineto
509 222.5 lineto
715 222.5 lineto
closepath stroke
0 0 0 nodecolor
18 /Times-Roman set_font
584.5 267.3 moveto 55 (l4_start) alignedtext
0 0 0 nodecolor
18 /Times-Roman set_font
534.5 248.3 moveto 155 ([|thetap=8; thetav=0|]) alignedtext
0 0 0 nodecolor
18 /Times-Roman set_font
517 229.3 moveto 190 (2 constraints, 1 generators) alignedtext
grestore
% 2
gsave
0 0 0 nodecolor
18 /Times-Roman set_font
523 165.3 moveto 172 (thetap := thetap+thetav;) alignedtext
0 0 0 nodecolor
18 /Times-Roman set_font
487.5 146.3 moveto 243 (thetav := -1/64thetap+1/2thetav\)*) alignedtext
0 0 0 nodecolor
18 /Times-Roman set_font
602.5 127.3 moveto 13 (\(\)) alignedtext
grestore
% l4_start->2
gsave
1 setlinewidth
0 0 0 edgecolor
newpath 611.04 222.45 moveto
610.79 213.98 610.52 204.73 610.26 195.83 curveto
stroke
0 0 0 edgecolor
newpath 613.75 195.49 moveto
609.96 185.59 lineto
606.75 195.69 lineto
closepath fill
1 setlinewidth
solid
0 0 0 edgecolor
newpath 613.75 195.49 moveto
609.96 185.59 lineto
606.75 195.69 lineto
closepath stroke
grestore
% linit
gsave
1 setlinewidth
0 0 0 nodecolor
newpath 907 452 moveto
863 452 lineto
863 406 lineto
907 406 lineto
closepath stroke
0 0 0 nodecolor
18 /Times-Roman set_font
871 431.8 moveto 28 (linit) alignedtext
0 0 0 nodecolor
18 /Times-Roman set_font
873 412.8 moveto 24 (top) alignedtext
grestore
% 7
gsave
0 0 0 nodecolor
18 /Times-Roman set_font
83.5 349.8 moveto 195 (thetav=0 and thetap-8=0 ? ) alignedtext
0 0 0 nodecolor
18 /Times-Roman set_font
174.5 330.8 moveto 13 (\(\)) alignedtext
grestore
% linit->7
gsave
1 setlinewidth
0 0 0 edgecolor
newpath 862.84 410.32 moveto
860 408.61 857.02 407.11 854 406 curveto
739.44 363.93 427.11 385.07 306 370 curveto
302.77 369.6 299.5 369.17 296.2 368.71 curveto
stroke
0 0 0 edgecolor
newpath 296.63 365.24 moveto
286.23 367.27 lineto
295.63 372.16 lineto
closepath fill
1 setlinewidth
solid
0 0 0 edgecolor
newpath 296.63 365.24 moveto
286.23 367.27 lineto
295.63 372.16 lineto
closepath stroke
grestore
% 8
gsave
0 0 0 nodecolor
18 /Times-Roman set_font
322.5 349.8 moveto 195 (thetav=0 and thetap-8=0 ? ) alignedtext
0 0 0 nodecolor
18 /Times-Roman set_font
413.5 330.8 moveto 13 (\(\)) alignedtext
grestore
% linit->8
gsave
1 setlinewidth
0 0 0 edgecolor
newpath 862.79 410.46 moveto
859.95 408.73 856.99 407.18 854 406 curveto
723.36 354.39 678.86 391.24 540 370 curveto
538.49 369.77 536.98 369.53 535.45 369.29 curveto
stroke
0 0 0 edgecolor
newpath 535.71 365.79 moveto
525.28 367.64 lineto
534.59 372.7 lineto
closepath fill
1 setlinewidth
solid
0 0 0 edgecolor
newpath 535.71 365.79 moveto
525.28 367.64 lineto
534.59 372.7 lineto
closepath stroke
grestore
% 9
gsave
0 0 0 nodecolor
18 /Times-Roman set_font
556.5 349.8 moveto 195 (thetav=0 and thetap-8=0 ? ) alignedtext
0 0 0 nodecolor
18 /Times-Roman set_font
647.5 330.8 moveto 13 (\(\)) alignedtext
grestore
% linit->9
gsave
1 setlinewidth
0 0 0 edgecolor
newpath 862.91 411.19 moveto
860.01 409.28 857 407.5 854 406 curveto
826.93 392.5 796.23 381.53 767.14 372.87 curveto
stroke
0 0 0 edgecolor
newpath 767.93 369.46 moveto
757.35 370.02 lineto
765.97 376.18 lineto
closepath fill
1 setlinewidth
solid
0 0 0 edgecolor
newpath 767.93 369.46 moveto
757.35 370.02 lineto
765.97 376.18 lineto
closepath stroke
grestore
% 10
gsave
0 0 0 nodecolor
18 /Times-Roman set_font
787.5 349.8 moveto 195 (thetav=0 and thetap-8=0 ? ) alignedtext
0 0 0 nodecolor
18 /Times-Roman set_font
878.5 330.8 moveto 13 (\(\)) alignedtext
grestore
% linit->10
gsave
1 setlinewidth
0 0 0 edgecolor
newpath 885 405.72 moveto
885 397.78 885 388.73 885 380.16 curveto
stroke
0 0 0 edgecolor
newpath 888.5 380.05 moveto
885 370.05 lineto
881.5 380.05 lineto
closepath fill
1 setlinewidth
solid
0 0 0 edgecolor
newpath 888.5 380.05 moveto
885 370.05 lineto
881.5 380.05 lineto
closepath stroke
grestore
% 11
gsave
0 0 0 nodecolor
18 /Times-Roman set_font
1028.5 349.8 moveto 195 (thetav=0 and thetap-8=0 ? ) alignedtext
0 0 0 nodecolor
18 /Times-Roman set_font
1119.5 330.8 moveto 13 (\(\)) alignedtext
grestore
% linit->11
gsave
1 setlinewidth
0 0 0 edgecolor
newpath 907.24 421.43 moveto
939.14 410.58 999.46 390.05 1048.7 373.3 curveto
stroke
0 0 0 edgecolor
newpath 1050.05 376.54 moveto
1058.39 370.01 lineto
1047.79 369.91 lineto
closepath fill
1 setlinewidth
solid
0 0 0 edgecolor
newpath 1050.05 376.54 moveto
1058.39 370.01 lineto
1047.79 369.91 lineto
closepath stroke
grestore
% 12
gsave
0 0 0 nodecolor
18 /Times-Roman set_font
1282.5 349.8 moveto 195 (thetav=0 and thetap-8=0 ? ) alignedtext
0 0 0 nodecolor
18 /Times-Roman set_font
1373.5 330.8 moveto 13 (\(\)) alignedtext
grestore
% linit->12
gsave
1 setlinewidth
0 0 0 edgecolor
newpath 907.23 425.32 moveto
968.99 415.09 1145.9 385.78 1264.91 366.06 curveto
stroke
0 0 0 edgecolor
newpath 1265.52 369.51 moveto
1274.81 364.43 lineto
1264.37 362.61 lineto
closepath fill
1 setlinewidth
solid
0 0 0 edgecolor
newpath 1265.52 369.51 moveto
1274.81 364.43 lineto
1264.37 362.61 lineto
closepath stroke
grestore
% 13
gsave
0 0 0 nodecolor
18 /Times-Roman set_font
1528.5 349.8 moveto 195 (thetav=0 and thetap-8=0 ? ) alignedtext
0 0 0 nodecolor
18 /Times-Roman set_font
1619.5 330.8 moveto 13 (\(\)) alignedtext
grestore
% linit->13
gsave
1 setlinewidth
0 0 0 edgecolor
newpath 907.19 427.46 moveto
986.82 421.81 1265.58 400.92 1494 370 curveto
1499.47 369.26 1505.07 368.46 1510.72 367.61 curveto
stroke
0 0 0 edgecolor
newpath 1511.56 371.02 moveto
1520.92 366.05 lineto
1510.5 364.1 lineto
closepath fill
1 setlinewidth
solid
0 0 0 edgecolor
newpath 1511.56 371.02 moveto
1520.92 366.05 lineto
1510.5 364.1 lineto
closepath stroke
grestore
% l3_start
gsave
1 setlinewidth
0 0 0 nodecolor
newpath 988 287.5 moveto
782 287.5 lineto
782 222.5 lineto
988 222.5 lineto
closepath stroke
0 0 0 nodecolor
18 /Times-Roman set_font
857.5 267.3 moveto 55 (l3_start) alignedtext
0 0 0 nodecolor
18 /Times-Roman set_font
807.5 248.3 moveto 155 ([|thetap=8; thetav=0|]) alignedtext
0 0 0 nodecolor
18 /Times-Roman set_font
790 229.3 moveto 190 (2 constraints, 1 generators) alignedtext
grestore
% 3
gsave
0 0 0 nodecolor
18 /Times-Roman set_font
799 165.3 moveto 172 (thetap := thetap+thetav;) alignedtext
0 0 0 nodecolor
18 /Times-Roman set_font
763.5 146.3 moveto 243 (thetav := -1/64thetap+3/4thetav\)*) alignedtext
0 0 0 nodecolor
18 /Times-Roman set_font
878.5 127.3 moveto 13 (\(\)) alignedtext
grestore
% l3_start->3
gsave
1 setlinewidth
0 0 0 edgecolor
newpath 885 222.45 moveto
885 213.98 885 204.73 885 195.83 curveto
stroke
0 0 0 edgecolor
newpath 888.5 195.59 moveto
885 185.59 lineto
881.5 195.59 lineto
closepath fill
1 setlinewidth
solid
0 0 0 edgecolor
newpath 888.5 195.59 moveto
885 185.59 lineto
881.5 195.59 lineto
closepath stroke
grestore
% l0
gsave
1 setlinewidth
0 0 0 nodecolor
newpath 1740 65 moveto
1700 65 lineto
1700 19 lineto
1740 19 lineto
closepath stroke
0 0 0 nodecolor
18 /Times-Roman set_font
1713 44.8 moveto 14 (l0) alignedtext
0 0 0 nodecolor
18 /Times-Roman set_font
1708 25.8 moveto 24 (top) alignedtext
grestore
% l2_start
gsave
1 setlinewidth
0 0 0 nodecolor
newpath 1250 287.5 moveto
1044 287.5 lineto
1044 222.5 lineto
1250 222.5 lineto
closepath stroke
0 0 0 nodecolor
18 /Times-Roman set_font
1119.5 267.3 moveto 55 (l2_start) alignedtext
0 0 0 nodecolor
18 /Times-Roman set_font
1069.5 248.3 moveto 155 ([|thetap=8; thetav=0|]) alignedtext
0 0 0 nodecolor
18 /Times-Roman set_font
1052 229.3 moveto 190 (2 constraints, 1 generators) alignedtext
grestore
% 4
gsave
0 0 0 nodecolor
18 /Times-Roman set_font
1075 165.3 moveto 172 (thetap := thetap+thetav;) alignedtext
0 0 0 nodecolor
18 /Times-Roman set_font
1039.5 146.3 moveto 243 (thetav := -1/64thetap+7/8thetav\)*) alignedtext
0 0 0 nodecolor
18 /Times-Roman set_font
1154.5 127.3 moveto 13 (\(\)) alignedtext
grestore
% l2_start->4
gsave
1 setlinewidth
0 0 0 edgecolor
newpath 1151.47 222.45 moveto
1152.64 213.89 1153.93 204.53 1155.16 195.54 curveto
stroke
0 0 0 edgecolor
newpath 1158.63 195.98 moveto
1156.53 185.59 lineto
1151.7 195.03 lineto
closepath fill
1 setlinewidth
solid
0 0 0 edgecolor
newpath 1158.63 195.98 moveto
1156.53 185.59 lineto
1151.7 195.03 lineto
closepath stroke
grestore
% l1
gsave
1 setlinewidth
0 0 0 nodecolor
newpath 1561 84 moveto
1331 84 lineto
1331 0 lineto
1561 0 lineto
closepath stroke
0 0 0 nodecolor
18 /Times-Roman set_font
1439 63.8 moveto 14 (l1) alignedtext
0 0 0 nodecolor
18 /Times-Roman set_font
1370 44.8 moveto 152 ([|thetap in [-6.58 , 8];) alignedtext
0 0 0 nodecolor
18 /Times-Roman set_font
1339 25.8 moveto 214 (  thetav in [-0.9558 , 0.7846]|]) alignedtext
0 0 0 nodecolor
18 /Times-Roman set_font
1351 6.8 moveto 190 (9 constraints, 9 generators) alignedtext
grestore
% l2
gsave
1 setlinewidth
0 0 0 nodecolor
newpath 1276 84 moveto
1046 84 lineto
1046 0 lineto
1276 0 lineto
closepath stroke
0 0 0 nodecolor
18 /Times-Roman set_font
1154 63.8 moveto 14 (l2) alignedtext
0 0 0 nodecolor
18 /Times-Roman set_font
1065 44.8 moveto 192 ([|thetap in [-1.818 , 8.262];) alignedtext
0 0 0 nodecolor
18 /Times-Roman set_font
1054 25.8 moveto 214 (  thetav in [-0.6248 , 0.1283]|]) alignedtext
0 0 0 nodecolor
18 /Times-Roman set_font
1066 6.8 moveto 190 (7 constraints, 7 generators) alignedtext
grestore
% l3
gsave
1 setlinewidth
0 0 0 nodecolor
newpath 988 84 moveto
782 84 lineto
782 0 lineto
988 0 lineto
closepath stroke
0 0 0 nodecolor
18 /Times-Roman set_font
878 63.8 moveto 14 (l3) alignedtext
0 0 0 nodecolor
18 /Times-Roman set_font
807.5 44.8 moveto 155 ([|thetap in [0 , 10.22];) alignedtext
0 0 0 nodecolor
18 /Times-Roman set_font
797.5 25.8 moveto 175 (  thetav in [-0.4022 , 0]|]) alignedtext
0 0 0 nodecolor
18 /Times-Roman set_font
790 6.8 moveto 190 (6 constraints, 6 generators) alignedtext
grestore
% l4
gsave
1 setlinewidth
0 0 0 nodecolor
newpath 712 84 moveto
506 84 lineto
506 0 lineto
712 0 lineto
closepath stroke
0 0 0 nodecolor
18 /Times-Roman set_font
602 63.8 moveto 14 (l4) alignedtext
0 0 0 nodecolor
18 /Times-Roman set_font
531.5 44.8 moveto 155 ([|thetap in [0 , 8.264];) alignedtext
0 0 0 nodecolor
18 /Times-Roman set_font
521.5 25.8 moveto 175 (  thetav in [-0.2482 , 0]|]) alignedtext
0 0 0 nodecolor
18 /Times-Roman set_font
514 6.8 moveto 190 (4 constraints, 4 generators) alignedtext
grestore
% l6_start
gsave
1 setlinewidth
0 0 0 nodecolor
newpath 262 287.5 moveto
56 287.5 lineto
56 222.5 lineto
262 222.5 lineto
closepath stroke
0 0 0 nodecolor
18 /Times-Roman set_font
131.5 267.3 moveto 55 (l6_start) alignedtext
0 0 0 nodecolor
18 /Times-Roman set_font
81.5 248.3 moveto 155 ([|thetap=8; thetav=0|]) alignedtext
0 0 0 nodecolor
18 /Times-Roman set_font
64 229.3 moveto 190 (2 constraints, 1 generators) alignedtext
grestore
% 0
gsave
0 0 0 nodecolor
18 /Times-Roman set_font
42 165.3 moveto 172 (thetap := thetap+thetav;) alignedtext
0 0 0 nodecolor
18 /Times-Roman set_font
8 146.3 moveto 240 (thetav := -1/64thetap-1/2thetav\)*) alignedtext
0 0 0 nodecolor
18 /Times-Roman set_font
121.5 127.3 moveto 13 (\(\)) alignedtext
grestore
% l6_start->0
gsave
1 setlinewidth
0 0 0 edgecolor
newpath 149.11 222.45 moveto
146.48 213.8 143.6 204.33 140.84 195.25 curveto
stroke
0 0 0 edgecolor
newpath 144.16 194.14 moveto
137.91 185.59 lineto
137.47 196.18 lineto
closepath fill
1 setlinewidth
solid
0 0 0 edgecolor
newpath 144.16 194.14 moveto
137.91 185.59 lineto
137.47 196.18 lineto
closepath stroke
grestore
% l5
gsave
1 setlinewidth
0 0 0 nodecolor
newpath 471 84 moveto
265 84 lineto
265 0 lineto
471 0 lineto
closepath stroke
0 0 0 nodecolor
18 /Times-Roman set_font
361 63.8 moveto 14 (l5) alignedtext
0 0 0 nodecolor
18 /Times-Roman set_font
290.5 44.8 moveto 155 ([|thetap in [0 , 8.002];) alignedtext
0 0 0 nodecolor
18 /Times-Roman set_font
285 25.8 moveto 166 (  thetav in [-0.127 , 0]|]) alignedtext
0 0 0 nodecolor
18 /Times-Roman set_font
273 6.8 moveto 190 (4 constraints, 4 generators) alignedtext
grestore
% l6
gsave
1 setlinewidth
0 0 0 nodecolor
newpath 231 84 moveto
25 84 lineto
25 0 lineto
231 0 lineto
closepath stroke
0 0 0 nodecolor
18 /Times-Roman set_font
121 63.8 moveto 14 (l6) alignedtext
0 0 0 nodecolor
18 /Times-Roman set_font
66 44.8 moveto 124 ([|thetap in [0 , 8];) alignedtext
0 0 0 nodecolor
18 /Times-Roman set_font
45 25.8 moveto 166 (  thetav in [-0.125 , 0]|]) alignedtext
0 0 0 nodecolor
18 /Times-Roman set_font
33 6.8 moveto 190 (3 constraints, 3 generators) alignedtext
grestore
% l1_start
gsave
1 setlinewidth
0 0 0 nodecolor
newpath 1522 287.5 moveto
1316 287.5 lineto
1316 222.5 lineto
1522 222.5 lineto
closepath stroke
0 0 0 nodecolor
18 /Times-Roman set_font
1391.5 267.3 moveto 55 (l1_start) alignedtext
0 0 0 nodecolor
18 /Times-Roman set_font
1341.5 248.3 moveto 155 ([|thetap=8; thetav=0|]) alignedtext
0 0 0 nodecolor
18 /Times-Roman set_font
1324 229.3 moveto 190 (2 constraints, 1 generators) alignedtext
grestore
% 5
gsave
0 0 0 nodecolor
18 /Times-Roman set_font
1360 165.3 moveto 172 (thetap := thetap+thetav;) alignedtext
0 0 0 nodecolor
18 /Times-Roman set_font
1315.5 146.3 moveto 261 (thetav := -1/64thetap+31/32thetav\)*) alignedtext
0 0 0 nodecolor
18 /Times-Roman set_font
1439.5 127.3 moveto 13 (\(\)) alignedtext
grestore
% l1_start->5
gsave
1 setlinewidth
0 0 0 edgecolor
newpath 1427.62 222.45 moveto
1429.88 213.89 1432.36 204.53 1434.74 195.54 curveto
stroke
0 0 0 edgecolor
newpath 1438.2 196.16 moveto
1437.37 185.59 lineto
1431.43 194.37 lineto
closepath fill
1 setlinewidth
solid
0 0 0 edgecolor
newpath 1438.2 196.16 moveto
1437.37 185.59 lineto
1431.43 194.37 lineto
closepath stroke
grestore
% 0->l6
gsave
1 setlinewidth
0 0 0 edgecolor
newpath 128 120.3 moveto
128 112.21 128 103.34 128 94.56 curveto
stroke
0 0 0 edgecolor
newpath 131.5 94.36 moveto
128 84.36 lineto
124.5 94.36 lineto
closepath fill
1 setlinewidth
solid
0 0 0 edgecolor
newpath 131.5 94.36 moveto
128 84.36 lineto
124.5 94.36 lineto
closepath stroke
grestore
% 1->l5
gsave
1 setlinewidth
0 0 0 edgecolor
newpath 368 120.3 moveto
368 112.21 368 103.34 368 94.56 curveto
stroke
0 0 0 edgecolor
newpath 371.5 94.36 moveto
368 84.36 lineto
364.5 94.36 lineto
closepath fill
1 setlinewidth
solid
0 0 0 edgecolor
newpath 371.5 94.36 moveto
368 84.36 lineto
364.5 94.36 lineto
closepath stroke
grestore
% 2->l4
gsave
1 setlinewidth
0 0 0 edgecolor
newpath 609 120.3 moveto
609 112.21 609 103.34 609 94.56 curveto
stroke
0 0 0 edgecolor
newpath 612.5 94.36 moveto
609 84.36 lineto
605.5 94.36 lineto
closepath fill
1 setlinewidth
solid
0 0 0 edgecolor
newpath 612.5 94.36 moveto
609 84.36 lineto
605.5 94.36 lineto
closepath stroke
grestore
% 3->l3
gsave
1 setlinewidth
0 0 0 edgecolor
newpath 885 120.3 moveto
885 112.21 885 103.34 885 94.56 curveto
stroke
0 0 0 edgecolor
newpath 888.5 94.36 moveto
885 84.36 lineto
881.5 94.36 lineto
closepath fill
1 setlinewidth
solid
0 0 0 edgecolor
newpath 888.5 94.36 moveto
885 84.36 lineto
881.5 94.36 lineto
closepath stroke
grestore
% 4->l2
gsave
1 setlinewidth
0 0 0 edgecolor
newpath 1161 120.3 moveto
1161 112.21 1161 103.34 1161 94.56 curveto
stroke
0 0 0 edgecolor
newpath 1164.5 94.36 moveto
1161 84.36 lineto
1157.5 94.36 lineto
closepath fill
1 setlinewidth
solid
0 0 0 edgecolor
newpath 1164.5 94.36 moveto
1161 84.36 lineto
1157.5 94.36 lineto
closepath stroke
grestore
% 5->l1
gsave
1 setlinewidth
0 0 0 edgecolor
newpath 1446 120.3 moveto
1446 112.21 1446 103.34 1446 94.56 curveto
stroke
0 0 0 edgecolor
newpath 1449.5 94.36 moveto
1446 84.36 lineto
1442.5 94.36 lineto
closepath fill
1 setlinewidth
solid
0 0 0 edgecolor
newpath 1449.5 94.36 moveto
1446 84.36 lineto
1442.5 94.36 lineto
closepath stroke
grestore
% 6->l0
gsave
1 setlinewidth
0 0 0 edgecolor
newpath 1720 120.3 moveto
1720 106.23 1720 89.8 1720 75.64 curveto
stroke
0 0 0 edgecolor
newpath 1723.5 75.32 moveto
1720 65.32 lineto
1716.5 75.32 lineto
closepath fill
1 setlinewidth
solid
0 0 0 edgecolor
newpath 1723.5 75.32 moveto
1720 65.32 lineto
1716.5 75.32 lineto
closepath stroke
grestore
% 7->l6_start
gsave
1 setlinewidth
0 0 0 edgecolor
newpath 175.45 323.78 moveto
173.52 315.73 171.3 306.43 169.12 297.33 curveto
stroke
0 0 0 edgecolor
newpath 172.52 296.5 moveto
166.79 287.59 lineto
165.71 298.13 lineto
closepath fill
1 setlinewidth
solid
0 0 0 edgecolor
newpath 172.52 296.5 moveto
166.79 287.59 lineto
165.71 298.13 lineto
closepath stroke
grestore
% 8->l5_start
gsave
1 setlinewidth
0 0 0 edgecolor
newpath 411.17 323.78 moveto
408.07 315.65 404.49 306.23 400.99 297.04 curveto
stroke
0 0 0 edgecolor
newpath 404.23 295.69 moveto
397.4 287.59 lineto
397.68 298.18 lineto
closepath fill
1 setlinewidth
solid
0 0 0 edgecolor
newpath 404.23 295.69 moveto
397.4 287.59 lineto
397.68 298.18 lineto
closepath stroke
grestore
% 9->l4_start
gsave
1 setlinewidth
0 0 0 edgecolor
newpath 643.4 323.78 moveto
639.65 315.56 635.3 306.04 631.06 296.75 curveto
stroke
0 0 0 edgecolor
newpath 634.21 295.23 moveto
626.88 287.59 lineto
627.85 298.14 lineto
closepath fill
1 setlinewidth
solid
0 0 0 edgecolor
newpath 634.21 295.23 moveto
626.88 287.59 lineto
627.85 298.14 lineto
closepath stroke
grestore
% 10->l3_start
gsave
1 setlinewidth
0 0 0 edgecolor
newpath 885 323.78 moveto
885 315.82 885 306.63 885 297.62 curveto
stroke
0 0 0 edgecolor
newpath 888.5 297.59 moveto
885 287.59 lineto
881.5 297.59 lineto
closepath fill
1 setlinewidth
solid
0 0 0 edgecolor
newpath 888.5 297.59 moveto
885 287.59 lineto
881.5 297.59 lineto
closepath stroke
grestore
% 11->l2_start
gsave
1 setlinewidth
0 0 0 edgecolor
newpath 1131.3 323.78 moveto
1133.12 315.82 1135.21 306.63 1137.27 297.62 curveto
stroke
0 0 0 edgecolor
newpath 1140.75 298.12 moveto
1139.56 287.59 lineto
1133.92 296.56 lineto
closepath fill
1 setlinewidth
solid
0 0 0 edgecolor
newpath 1140.75 298.12 moveto
1139.56 287.59 lineto
1133.92 296.56 lineto
closepath stroke
grestore
% 12->l1_start
gsave
1 setlinewidth
0 0 0 edgecolor
newpath 1389.84 323.78 moveto
1393.29 315.65 1397.28 306.23 1401.18 297.04 curveto
stroke
0 0 0 edgecolor
newpath 1404.5 298.16 moveto
1405.18 287.59 lineto
1398.06 295.43 lineto
closepath fill
1 setlinewidth
solid
0 0 0 edgecolor
newpath 1404.5 298.16 moveto
1405.18 287.59 lineto
1398.06 295.43 lineto
closepath stroke
grestore
% 13->l0_start
gsave
1 setlinewidth
0 0 0 edgecolor
newpath 1644.93 323.78 moveto
1651.91 315.22 1660.04 305.24 1667.91 295.59 curveto
stroke
0 0 0 edgecolor
newpath 1670.83 297.55 moveto
1674.43 287.59 lineto
1665.4 293.13 lineto
closepath fill
1 setlinewidth
solid
0 0 0 edgecolor
newpath 1670.83 297.55 moveto
1674.43 287.59 lineto
1665.4 293.13 lineto
closepath stroke
grestore
endpage
showpage
grestore
%%PageTrailer
%%EndPage: 1
%%Trailer
%%Pages: 1
%%BoundingBox: 36 36 1882 496
end
restore
%%EOF
