%!PS-Adobe-3.0
%%Creator: graphviz version 2.26.3 (20100126.1600)
%%Title: G
%%Pages: (atend)
%%BoundingBox: (atend)
%%EndComments
save
%%BeginProlog
/DotDict 200 dict def
DotDict begin

/setupLatin1 {
mark
/EncodingVector 256 array def
 EncodingVector 0

ISOLatin1Encoding 0 255 getinterval putinterval
EncodingVector 45 /hyphen put

% Set up ISO Latin 1 character encoding
/starnetISO {
        dup dup findfont dup length dict begin
        { 1 index /FID ne { def }{ pop pop } ifelse
        } forall
        /Encoding EncodingVector def
        currentdict end definefont
} def
/Times-Roman starnetISO def
/Times-Italic starnetISO def
/Times-Bold starnetISO def
/Times-BoldItalic starnetISO def
/Helvetica starnetISO def
/Helvetica-Oblique starnetISO def
/Helvetica-Bold starnetISO def
/Helvetica-BoldOblique starnetISO def
/Courier starnetISO def
/Courier-Oblique starnetISO def
/Courier-Bold starnetISO def
/Courier-BoldOblique starnetISO def
cleartomark
} bind def

%%BeginResource: procset graphviz 0 0
/coord-font-family /Times-Roman def
/default-font-family /Times-Roman def
/coordfont coord-font-family findfont 8 scalefont def

/InvScaleFactor 1.0 def
/set_scale {
       dup 1 exch div /InvScaleFactor exch def
       scale
} bind def

% styles
/solid { [] 0 setdash } bind def
/dashed { [9 InvScaleFactor mul dup ] 0 setdash } bind def
/dotted { [1 InvScaleFactor mul 6 InvScaleFactor mul] 0 setdash } bind def
/invis {/fill {newpath} def /stroke {newpath} def /show {pop newpath} def} bind def
/bold { 2 setlinewidth } bind def
/filled { } bind def
/unfilled { } bind def
/rounded { } bind def
/diagonals { } bind def

% hooks for setting color 
/nodecolor { sethsbcolor } bind def
/edgecolor { sethsbcolor } bind def
/graphcolor { sethsbcolor } bind def
/nopcolor {pop pop pop} bind def

/beginpage {	% i j npages
	/npages exch def
	/j exch def
	/i exch def
	/str 10 string def
	npages 1 gt {
		gsave
			coordfont setfont
			0 0 moveto
			(\() show i str cvs show (,) show j str cvs show (\)) show
		grestore
	} if
} bind def

/set_font {
	findfont exch
	scalefont setfont
} def

% draw text fitted to its expected width
/alignedtext {			% width text
	/text exch def
	/width exch def
	gsave
		width 0 gt {
			[] 0 setdash
			text stringwidth pop width exch sub text length div 0 text ashow
		} if
	grestore
} def

/boxprim {				% xcorner ycorner xsize ysize
		4 2 roll
		moveto
		2 copy
		exch 0 rlineto
		0 exch rlineto
		pop neg 0 rlineto
		closepath
} bind def

/ellipse_path {
	/ry exch def
	/rx exch def
	/y exch def
	/x exch def
	matrix currentmatrix
	newpath
	x y translate
	rx ry scale
	0 0 1 0 360 arc
	setmatrix
} bind def

/endpage { showpage } bind def
/showpage { } def

/layercolorseq
	[	% layer color sequence - darkest to lightest
		[0 0 0]
		[.2 .8 .8]
		[.4 .8 .8]
		[.6 .8 .8]
		[.8 .8 .8]
	]
def

/layerlen layercolorseq length def

/setlayer {/maxlayer exch def /curlayer exch def
	layercolorseq curlayer 1 sub layerlen mod get
	aload pop sethsbcolor
	/nodecolor {nopcolor} def
	/edgecolor {nopcolor} def
	/graphcolor {nopcolor} def
} bind def

/onlayer { curlayer ne {invis} if } def

/onlayers {
	/myupper exch def
	/mylower exch def
	curlayer mylower lt
	curlayer myupper gt
	or
	{invis} if
} def

/curlayer 0 def

%%EndResource
%%EndProlog
%%BeginSetup
14 default-font-family set_font
1 setmiterlimit
% /arrowlength 10 def
% /arrowwidth 5 def

% make sure pdfmark is harmless for PS-interpreters other than Distiller
/pdfmark where {pop} {userdict /pdfmark /cleartomark load put} ifelse
% make '<<' and '>>' safe on PS Level 1 devices
/languagelevel where {pop languagelevel}{1} ifelse
2 lt {
    userdict (<<) cvn ([) cvn load put
    userdict (>>) cvn ([) cvn load put
} if

%%EndSetup
setupLatin1
%%Page: 1 1
%%PageBoundingBox: 36 36 641 3384
%%PageOrientation: Portrait
0 0 1 beginpage
gsave
36 36 605 3348 boxprim clip newpath
1 1 set_scale 0 rotate 40 41 translate
% 1073741823
gsave
1 setlinewidth
0 0 0 nodecolor
395.47 3317 43.84 19.09 ellipse_path stroke
0 0 0 nodecolor
18 /Times-Roman set_font
372.47 3310.3 moveto 46 (Result) alignedtext
grestore
% freepi
gsave
1 setlinewidth
0 0 0 nodecolor
newpath 591.47 2954 moveto
367.47 2954 lineto
367.47 2870 lineto
591.47 2870 lineto
closepath stroke
0 0 0 nodecolor
18 /Times-Roman set_font
458.97 2933.8 moveto 41 (freepi) alignedtext
0 0 0 nodecolor
18 /Times-Roman set_font
397.47 2914.8 moveto 164 ([|thetap in [3.473 , 10];) alignedtext
0 0 0 nodecolor
18 /Times-Roman set_font
396.47 2895.8 moveto 166 (  thetav in [-1.279 , 0]|]) alignedtext
0 0 0 nodecolor
18 /Times-Roman set_font
375.47 2876.8 moveto 208 (11 constraints, 11 generators) alignedtext
grestore
% 13
gsave
0 0 0 nodecolor
18 /Times-Roman set_font
421.97 2813.8 moveto 115 (-thetap+4>=0 ? ) alignedtext
0 0 0 nodecolor
18 /Times-Roman set_font
472.97 2794.8 moveto 13 (\(\)) alignedtext
grestore
% freepi->13
gsave
1 setlinewidth
0 0 0 edgecolor
newpath 479.47 2869.75 moveto
479.47 2861.26 479.47 2852.44 479.47 2844.31 curveto
stroke
0 0 0 edgecolor
newpath 482.97 2844.08 moveto
479.47 2834.08 lineto
475.97 2844.08 lineto
closepath fill
1 setlinewidth
solid
0 0 0 edgecolor
newpath 482.97 2844.08 moveto
479.47 2834.08 lineto
475.97 2844.08 lineto
closepath stroke
grestore
% dampedp_start
gsave
1 setlinewidth
0 0 0 nodecolor
newpath 589.47 2548 moveto
369.47 2548 lineto
369.47 2464 lineto
589.47 2464 lineto
closepath stroke
0 0 0 nodecolor
18 /Times-Roman set_font
425.97 2527.8 moveto 107 (dampedp_start) alignedtext
0 0 0 nodecolor
18 /Times-Roman set_font
401.97 2508.8 moveto 155 ([|thetap in [3.331 , 4];) alignedtext
0 0 0 nodecolor
18 /Times-Roman set_font
376.97 2489.8 moveto 205 (  thetav in [-1.279 , 0.5622]|]) alignedtext
0 0 0 nodecolor
18 /Times-Roman set_font
384.47 2470.8 moveto 190 (5 constraints, 5 generators) alignedtext
grestore
% 15
gsave
0 0 0 nodecolor
18 /Times-Roman set_font
274.47 2407.8 moveto 244 (\(thetap+4>=0 and -thetap+4>=0 ?) alignedtext
0 0 0 nodecolor
18 /Times-Roman set_font
310.47 2388.8 moveto 172 (thetap := thetap+thetav;) alignedtext
0 0 0 nodecolor
18 /Times-Roman set_font
265.97 2369.8 moveto 261 (thetav := -1/64thetap+15/16thetav\)*) alignedtext
0 0 0 nodecolor
18 /Times-Roman set_font
389.97 2350.8 moveto 13 (\(\)) alignedtext
grestore
% dampedp_start->15
gsave
1 setlinewidth
0 0 0 edgecolor
newpath 450.2 2463.69 moveto
444.19 2455 437.8 2445.76 431.61 2436.81 curveto
stroke
0 0 0 edgecolor
newpath 434.31 2434.56 moveto
425.74 2428.33 lineto
428.55 2438.55 lineto
closepath fill
1 setlinewidth
solid
0 0 0 edgecolor
newpath 434.31 2434.56 moveto
425.74 2428.33 lineto
428.55 2438.55 lineto
closepath stroke
grestore
% dampedne2
gsave
1 setlinewidth
0 0 0 nodecolor
newpath 235.47 814 moveto
29.47 814 lineto
29.47 730 lineto
235.47 730 lineto
closepath stroke
0 0 0 nodecolor
18 /Times-Roman set_font
90.47 793.8 moveto 84 (dampedne2) alignedtext
0 0 0 nodecolor
18 /Times-Roman set_font
48.97 774.8 moveto 167 ([|thetap in [-4.827 , -4];) alignedtext
0 0 0 nodecolor
18 /Times-Roman set_font
44.97 755.8 moveto 175 (  thetav in [-0.8265 , 0]|]) alignedtext
0 0 0 nodecolor
18 /Times-Roman set_font
37.47 736.8 moveto 190 (4 constraints, 4 generators) alignedtext
grestore
% 2
gsave
0 0 0 nodecolor
18 /Times-Roman set_font
60.97 652.8 moveto 13 (\(\)) alignedtext
grestore
% dampedne2->2
gsave
1 setlinewidth
0 0 0 edgecolor
newpath 105.65 729.92 moveto
99.4 720.11 92.85 709.84 86.99 700.63 curveto
stroke
0 0 0 edgecolor
newpath 89.92 698.73 moveto
81.6 692.18 lineto
84.02 702.49 lineto
closepath fill
1 setlinewidth
solid
0 0 0 edgecolor
newpath 89.92 698.73 moveto
81.6 692.18 lineto
84.02 702.49 lineto
closepath stroke
grestore
% freen_start
gsave
1 setlinewidth
0 0 0 nodecolor
newpath 283.47 1902 moveto
53.47 1902 lineto
53.47 1818 lineto
283.47 1818 lineto
closepath stroke
0 0 0 nodecolor
18 /Times-Roman set_font
129.97 1881.8 moveto 77 (freen_start) alignedtext
0 0 0 nodecolor
18 /Times-Roman set_font
84.97 1862.8 moveto 167 ([|thetap in [-4.827 , -4];) alignedtext
0 0 0 nodecolor
18 /Times-Roman set_font
61.47 1843.8 moveto 214 (  thetav in [-0.8265 , 0.0625]|]) alignedtext
0 0 0 nodecolor
18 /Times-Roman set_font
73.47 1824.8 moveto 190 (5 constraints, 5 generators) alignedtext
grestore
% 16
gsave
0 0 0 nodecolor
18 /Times-Roman set_font
111.47 1761.8 moveto 114 (\(-thetap-4>=0 ?) alignedtext
0 0 0 nodecolor
18 /Times-Roman set_font
82.47 1742.8 moveto 172 (thetap := thetap+thetav;) alignedtext
0 0 0 nodecolor
18 /Times-Roman set_font
58.47 1723.8 moveto 220 (thetav := -1/64thetap+thetav\)*) alignedtext
0 0 0 nodecolor
18 /Times-Roman set_font
161.97 1704.8 moveto 13 (\(\)) alignedtext
grestore
% freen_start->16
gsave
1 setlinewidth
0 0 0 edgecolor
newpath 168.47 1817.69 moveto
168.47 1809.54 168.47 1800.9 168.47 1792.47 curveto
stroke
0 0 0 edgecolor
newpath 171.97 1792.33 moveto
168.47 1782.33 lineto
164.97 1792.33 lineto
closepath fill
1 setlinewidth
solid
0 0 0 edgecolor
newpath 171.97 1792.33 moveto
168.47 1782.33 lineto
164.97 1792.33 lineto
closepath stroke
grestore
% freen
gsave
1 setlinewidth
0 0 0 nodecolor
newpath 280.47 1662 moveto
56.47 1662 lineto
56.47 1578 lineto
280.47 1578 lineto
closepath stroke
0 0 0 nodecolor
18 /Times-Roman set_font
149.97 1641.8 moveto 37 (freen) alignedtext
0 0 0 nodecolor
18 /Times-Roman set_font
73.97 1622.8 moveto 189 ([|thetap in [-8.317 , -3.02];) alignedtext
0 0 0 nodecolor
18 /Times-Roman set_font
65.97 1603.8 moveto 205 (  thetav in [-0.8265 , 1.042]|]) alignedtext
0 0 0 nodecolor
18 /Times-Roman set_font
64.47 1584.8 moveto 208 (15 constraints, 15 generators) alignedtext
grestore
% 7
gsave
0 0 0 nodecolor
18 /Times-Roman set_font
113.97 1521.8 moveto 109 (thetap+4>=0 ? ) alignedtext
0 0 0 nodecolor
18 /Times-Roman set_font
161.97 1502.8 moveto 13 (\(\)) alignedtext
grestore
% freen->7
gsave
1 setlinewidth
0 0 0 edgecolor
newpath 168.47 1577.75 moveto
168.47 1569.26 168.47 1560.44 168.47 1552.31 curveto
stroke
0 0 0 edgecolor
newpath 171.97 1552.08 moveto
168.47 1542.08 lineto
164.97 1552.08 lineto
closepath fill
1 setlinewidth
solid
0 0 0 edgecolor
newpath 171.97 1552.08 moveto
168.47 1542.08 lineto
164.97 1552.08 lineto
closepath stroke
grestore
% dampedne
gsave
1 setlinewidth
0 0 0 nodecolor
newpath 483.47 814 moveto
253.47 814 lineto
253.47 730 lineto
483.47 730 lineto
closepath stroke
0 0 0 nodecolor
18 /Times-Roman set_font
330.97 793.8 moveto 75 (dampedne) alignedtext
0 0 0 nodecolor
18 /Times-Roman set_font
290.97 774.8 moveto 155 ([|thetap in [4 , 4.566];) alignedtext
0 0 0 nodecolor
18 /Times-Roman set_font
261.47 755.8 moveto 214 (  thetav in [-0.0625 , 0.5622]|]) alignedtext
0 0 0 nodecolor
18 /Times-Roman set_font
273.47 736.8 moveto 190 (4 constraints, 4 generators) alignedtext
grestore
% 4
gsave
0 0 0 nodecolor
18 /Times-Roman set_font
385.97 652.8 moveto 13 (\(\)) alignedtext
grestore
% dampedne->4
gsave
1 setlinewidth
0 0 0 edgecolor
newpath 378.37 729.92 moveto
380.4 721.26 382.53 712.25 384.49 703.92 curveto
stroke
0 0 0 edgecolor
newpath 387.9 704.71 moveto
386.78 694.17 lineto
381.08 703.1 lineto
closepath fill
1 setlinewidth
solid
0 0 0 edgecolor
newpath 387.9 704.71 moveto
386.78 694.17 lineto
381.08 703.1 lineto
closepath stroke
grestore
% freepi_start
gsave
1 setlinewidth
0 0 0 nodecolor
newpath 582.47 3175.5 moveto
376.47 3175.5 lineto
376.47 3110.5 lineto
582.47 3110.5 lineto
closepath stroke
0 0 0 nodecolor
18 /Times-Roman set_font
438.47 3155.3 moveto 82 (freepi_start) alignedtext
0 0 0 nodecolor
18 /Times-Roman set_font
397.47 3136.3 moveto 164 ([|thetap=10; thetav=0|]) alignedtext
0 0 0 nodecolor
18 /Times-Roman set_font
384.47 3117.3 moveto 190 (2 constraints, 1 generators) alignedtext
grestore
% 18
gsave
0 0 0 nodecolor
18 /Times-Roman set_font
425.47 3053.8 moveto 108 (\(thetap-4>=0 ?) alignedtext
0 0 0 nodecolor
18 /Times-Roman set_font
393.47 3034.8 moveto 172 (thetap := thetap+thetav;) alignedtext
0 0 0 nodecolor
18 /Times-Roman set_font
369.47 3015.8 moveto 220 (thetav := -1/64thetap+thetav\)*) alignedtext
0 0 0 nodecolor
18 /Times-Roman set_font
472.97 2996.8 moveto 13 (\(\)) alignedtext
grestore
% freepi_start->18
gsave
1 setlinewidth
0 0 0 edgecolor
newpath 479.47 3110.3 moveto
479.47 3102.21 479.47 3093.34 479.47 3084.56 curveto
stroke
0 0 0 edgecolor
newpath 482.97 3084.36 moveto
479.47 3074.36 lineto
475.97 3084.36 lineto
closepath fill
1 setlinewidth
solid
0 0 0 edgecolor
newpath 482.97 3084.36 moveto
479.47 3074.36 lineto
475.97 3084.36 lineto
closepath stroke
grestore
% freep
gsave
1 setlinewidth
0 0 0 nodecolor
newpath 533.47 370 moveto
303.47 370 lineto
303.47 286 lineto
533.47 286 lineto
closepath stroke
0 0 0 nodecolor
18 /Times-Roman set_font
399.97 349.8 moveto 37 (freep) alignedtext
0 0 0 nodecolor
18 /Times-Roman set_font
325.47 330.8 moveto 186 ([|thetap in [3.331 , 6.394];) alignedtext
0 0 0 nodecolor
18 /Times-Roman set_font
311.47 311.8 moveto 214 (  thetav in [-0.7311 , 0.5622]|]) alignedtext
0 0 0 nodecolor
18 /Times-Roman set_font
314.47 292.8 moveto 208 (13 constraints, 13 generators) alignedtext
grestore
% 1
gsave
0 0 0 nodecolor
18 /Times-Roman set_font
360.97 229.8 moveto 115 (-thetap+4>=0 ? ) alignedtext
0 0 0 nodecolor
18 /Times-Roman set_font
411.97 210.8 moveto 13 (\(\)) alignedtext
grestore
% freep->1
gsave
1 setlinewidth
0 0 0 edgecolor
newpath 418.47 285.75 moveto
418.47 277.26 418.47 268.44 418.47 260.31 curveto
stroke
0 0 0 edgecolor
newpath 421.97 260.08 moveto
418.47 250.08 lineto
414.97 260.08 lineto
closepath fill
1 setlinewidth
solid
0 0 0 edgecolor
newpath 421.97 260.08 moveto
418.47 250.08 lineto
414.97 260.08 lineto
closepath stroke
grestore
% dampedpe
gsave
1 setlinewidth
0 0 0 nodecolor
newpath 299.47 2106 moveto
69.47 2106 lineto
69.47 2022 lineto
299.47 2022 lineto
closepath stroke
0 0 0 nodecolor
18 /Times-Roman set_font
146.97 2085.8 moveto 75 (dampedpe) alignedtext
0 0 0 nodecolor
18 /Times-Roman set_font
100.97 2066.8 moveto 167 ([|thetap in [-4.821 , -4];) alignedtext
0 0 0 nodecolor
18 /Times-Roman set_font
77.47 2047.8 moveto 214 (  thetav in [-0.8265 , 0.0625]|]) alignedtext
0 0 0 nodecolor
18 /Times-Roman set_font
89.47 2028.8 moveto 190 (4 constraints, 4 generators) alignedtext
grestore
% 10
gsave
0 0 0 nodecolor
18 /Times-Roman set_font
163.97 1944.8 moveto 13 (\(\)) alignedtext
grestore
% dampedpe->10
gsave
1 setlinewidth
0 0 0 edgecolor
newpath 178.69 2021.92 moveto
177.52 2013.36 176.29 2004.45 175.16 1996.19 curveto
stroke
0 0 0 edgecolor
newpath 178.61 1995.6 moveto
173.78 1986.17 lineto
171.68 1996.55 lineto
closepath fill
1 setlinewidth
solid
0 0 0 edgecolor
newpath 178.61 1995.6 moveto
173.78 1986.17 lineto
171.68 1996.55 lineto
closepath stroke
grestore
% linit
gsave
1 setlinewidth
0 0 0 nodecolor
newpath 501.47 3340 moveto
457.47 3340 lineto
457.47 3294 lineto
501.47 3294 lineto
closepath stroke
0 0 0 nodecolor
18 /Times-Roman set_font
465.47 3319.8 moveto 28 (linit) alignedtext
0 0 0 nodecolor
18 /Times-Roman set_font
467.47 3300.8 moveto 24 (top) alignedtext
grestore
% 19
gsave
0 0 0 nodecolor
18 /Times-Roman set_font
377.47 3237.8 moveto 204 (thetav=0 and thetap-10=0 ? ) alignedtext
0 0 0 nodecolor
18 /Times-Roman set_font
472.97 3218.8 moveto 13 (\(\)) alignedtext
grestore
% linit->19
gsave
1 setlinewidth
0 0 0 edgecolor
newpath 479.47 3293.72 moveto
479.47 3285.78 479.47 3276.73 479.47 3268.16 curveto
stroke
0 0 0 edgecolor
newpath 482.97 3268.05 moveto
479.47 3258.05 lineto
475.97 3268.05 lineto
closepath fill
1 setlinewidth
solid
0 0 0 edgecolor
newpath 482.97 3268.05 moveto
479.47 3258.05 lineto
475.97 3268.05 lineto
closepath stroke
grestore
% dampedn_start
gsave
1 setlinewidth
0 0 0 nodecolor
newpath 278.47 1256 moveto
58.47 1256 lineto
58.47 1172 lineto
278.47 1172 lineto
closepath stroke
0 0 0 nodecolor
18 /Times-Roman set_font
114.97 1235.8 moveto 107 (dampedn_start) alignedtext
0 0 0 nodecolor
18 /Times-Roman set_font
89.47 1216.8 moveto 158 ([|thetap in [-4 , -3.02];) alignedtext
0 0 0 nodecolor
18 /Times-Roman set_font
65.97 1197.8 moveto 205 (  thetav in [-0.8265 , 1.042]|]) alignedtext
0 0 0 nodecolor
18 /Times-Roman set_font
73.47 1178.8 moveto 190 (5 constraints, 5 generators) alignedtext
grestore
% 14
gsave
0 0 0 nodecolor
18 /Times-Roman set_font
46.47 1115.8 moveto 244 (\(thetap+4>=0 and -thetap+4>=0 ?) alignedtext
0 0 0 nodecolor
18 /Times-Roman set_font
82.47 1096.8 moveto 172 (thetap := thetap+thetav;) alignedtext
0 0 0 nodecolor
18 /Times-Roman set_font
37.97 1077.8 moveto 261 (thetav := -1/64thetap+15/16thetav\)*) alignedtext
0 0 0 nodecolor
18 /Times-Roman set_font
161.97 1058.8 moveto 13 (\(\)) alignedtext
grestore
% dampedn_start->14
gsave
1 setlinewidth
0 0 0 edgecolor
newpath 168.47 1171.69 moveto
168.47 1163.54 168.47 1154.9 168.47 1146.47 curveto
stroke
0 0 0 edgecolor
newpath 171.97 1146.33 moveto
168.47 1136.33 lineto
164.97 1146.33 lineto
closepath fill
1 setlinewidth
solid
0 0 0 edgecolor
newpath 171.97 1146.33 moveto
168.47 1136.33 lineto
164.97 1146.33 lineto
closepath stroke
grestore
% dampedpe2
gsave
1 setlinewidth
0 0 0 nodecolor
newpath 530.47 2106 moveto
324.47 2106 lineto
324.47 2022 lineto
530.47 2022 lineto
closepath stroke
0 0 0 nodecolor
18 /Times-Roman set_font
385.47 2085.8 moveto 84 (dampedpe2) alignedtext
0 0 0 nodecolor
18 /Times-Roman set_font
349.97 2066.8 moveto 155 ([|thetap in [4 , 4.562];) alignedtext
0 0 0 nodecolor
18 /Times-Roman set_font
342.97 2047.8 moveto 169 (  thetav in [0 , 0.5622]|]) alignedtext
0 0 0 nodecolor
18 /Times-Roman set_font
332.47 2028.8 moveto 190 (4 constraints, 4 generators) alignedtext
grestore
% 8
gsave
0 0 0 nodecolor
18 /Times-Roman set_font
490.97 1842.8 moveto 13 (\(\)) alignedtext
grestore
% dampedpe2->8
gsave
1 setlinewidth
0 0 0 edgecolor
newpath 441.97 2021.73 moveto
454.98 1983.81 473.83 1928.88 485.87 1893.81 curveto
stroke
0 0 0 edgecolor
newpath 489.28 1894.63 moveto
489.22 1884.04 lineto
482.66 1892.36 lineto
closepath fill
1 setlinewidth
solid
0 0 0 edgecolor
newpath 489.28 1894.63 moveto
489.22 1884.04 lineto
482.66 1892.36 lineto
closepath stroke
grestore
% freep_start
gsave
1 setlinewidth
0 0 0 nodecolor
newpath 531.47 610 moveto
301.47 610 lineto
301.47 526 lineto
531.47 526 lineto
closepath stroke
0 0 0 nodecolor
18 /Times-Roman set_font
377.97 589.8 moveto 77 (freep_start) alignedtext
0 0 0 nodecolor
18 /Times-Roman set_font
338.97 570.8 moveto 155 ([|thetap in [4 , 4.566];) alignedtext
0 0 0 nodecolor
18 /Times-Roman set_font
309.47 551.8 moveto 214 (  thetav in [-0.0625 , 0.5622]|]) alignedtext
0 0 0 nodecolor
18 /Times-Roman set_font
321.47 532.8 moveto 190 (5 constraints, 5 generators) alignedtext
grestore
% 17
gsave
0 0 0 nodecolor
18 /Times-Roman set_font
362.47 469.8 moveto 108 (\(thetap-4>=0 ?) alignedtext
0 0 0 nodecolor
18 /Times-Roman set_font
330.47 450.8 moveto 172 (thetap := thetap+thetav;) alignedtext
0 0 0 nodecolor
18 /Times-Roman set_font
306.47 431.8 moveto 220 (thetav := -1/64thetap+thetav\)*) alignedtext
0 0 0 nodecolor
18 /Times-Roman set_font
409.97 412.8 moveto 13 (\(\)) alignedtext
grestore
% freep_start->17
gsave
1 setlinewidth
0 0 0 edgecolor
newpath 416.47 525.69 moveto
416.47 517.54 416.47 508.9 416.47 500.47 curveto
stroke
0 0 0 edgecolor
newpath 419.97 500.33 moveto
416.47 490.33 lineto
412.97 500.33 lineto
closepath fill
1 setlinewidth
solid
0 0 0 edgecolor
newpath 419.97 500.33 moveto
416.47 490.33 lineto
412.97 500.33 lineto
closepath stroke
grestore
% freene
gsave
1 setlinewidth
0 0 0 nodecolor
newpath 278.47 1460 moveto
58.47 1460 lineto
58.47 1376 lineto
278.47 1376 lineto
closepath stroke
0 0 0 nodecolor
18 /Times-Roman set_font
145.97 1439.8 moveto 45 (freene) alignedtext
0 0 0 nodecolor
18 /Times-Roman set_font
89.47 1420.8 moveto 158 ([|thetap in [-4 , -3.02];) alignedtext
0 0 0 nodecolor
18 /Times-Roman set_font
65.97 1401.8 moveto 205 (  thetav in [-0.8265 , 1.042]|]) alignedtext
0 0 0 nodecolor
18 /Times-Roman set_font
73.47 1382.8 moveto 190 (5 constraints, 5 generators) alignedtext
grestore
% 6
gsave
0 0 0 nodecolor
18 /Times-Roman set_font
161.97 1298.8 moveto 13 (\(\)) alignedtext
grestore
% freene->6
gsave
1 setlinewidth
0 0 0 edgecolor
newpath 168.47 1375.92 moveto
168.47 1367.36 168.47 1358.45 168.47 1350.19 curveto
stroke
0 0 0 edgecolor
newpath 171.97 1350.17 moveto
168.47 1340.17 lineto
164.97 1350.17 lineto
closepath fill
1 setlinewidth
solid
0 0 0 edgecolor
newpath 171.97 1350.17 moveto
168.47 1340.17 lineto
164.97 1350.17 lineto
closepath stroke
grestore
% freepie
gsave
1 setlinewidth
0 0 0 nodecolor
newpath 588.47 2752 moveto
370.47 2752 lineto
370.47 2668 lineto
588.47 2668 lineto
closepath stroke
0 0 0 nodecolor
18 /Times-Roman set_font
454.97 2731.8 moveto 49 (freepie) alignedtext
0 0 0 nodecolor
18 /Times-Roman set_font
401.97 2712.8 moveto 155 ([|thetap in [3.473 , 4];) alignedtext
0 0 0 nodecolor
18 /Times-Roman set_font
378.47 2693.8 moveto 202 (  thetav in [-1.279 , -1.141]|]) alignedtext
0 0 0 nodecolor
18 /Times-Roman set_font
384.47 2674.8 moveto 190 (5 constraints, 5 generators) alignedtext
grestore
% 12
gsave
0 0 0 nodecolor
18 /Times-Roman set_font
472.97 2590.8 moveto 13 (\(\)) alignedtext
grestore
% freepie->12
gsave
1 setlinewidth
0 0 0 edgecolor
newpath 479.47 2667.92 moveto
479.47 2659.36 479.47 2650.45 479.47 2642.19 curveto
stroke
0 0 0 edgecolor
newpath 482.97 2642.17 moveto
479.47 2632.17 lineto
475.97 2642.17 lineto
closepath fill
1 setlinewidth
solid
0 0 0 edgecolor
newpath 482.97 2642.17 moveto
479.47 2632.17 lineto
475.97 2642.17 lineto
closepath stroke
grestore
% dampedn
gsave
1 setlinewidth
0 0 0 nodecolor
newpath 280.47 1016 moveto
56.47 1016 lineto
56.47 932 lineto
280.47 932 lineto
closepath stroke
0 0 0 nodecolor
18 /Times-Roman set_font
134.97 995.8 moveto 67 (dampedn) alignedtext
0 0 0 nodecolor
18 /Times-Roman set_font
72.47 976.8 moveto 192 ([|thetap in [-4.827 , 4.566];) alignedtext
0 0 0 nodecolor
18 /Times-Roman set_font
65.97 957.8 moveto 205 (  thetav in [-0.8265 , 1.042]|]) alignedtext
0 0 0 nodecolor
18 /Times-Roman set_font
64.47 938.8 moveto 208 (15 constraints, 15 generators) alignedtext
grestore
% 3
gsave
0 0 0 nodecolor
18 /Times-Roman set_font
41.47 875.8 moveto 228 (-thetav>=0 and -thetap-4>=0 ? ) alignedtext
0 0 0 nodecolor
18 /Times-Roman set_font
148.97 856.8 moveto 13 (\(\)) alignedtext
grestore
% dampedn->3
gsave
1 setlinewidth
0 0 0 edgecolor
newpath 163.03 931.75 moveto
161.92 923.16 160.78 914.25 159.72 906.03 curveto
stroke
0 0 0 edgecolor
newpath 163.19 905.55 moveto
158.44 896.08 lineto
156.24 906.45 lineto
closepath fill
1 setlinewidth
solid
0 0 0 edgecolor
newpath 163.19 905.55 moveto
158.44 896.08 lineto
156.24 906.45 lineto
closepath stroke
grestore
% 5
gsave
0 0 0 nodecolor
18 /Times-Roman set_font
307.47 875.8 moveto 106 (thetap-4>=0 ? ) alignedtext
0 0 0 nodecolor
18 /Times-Roman set_font
353.97 856.8 moveto 13 (\(\)) alignedtext
grestore
% dampedn->5
gsave
1 setlinewidth
0 0 0 edgecolor
newpath 248.5 931.9 moveto
268.48 921.39 289.41 910.38 307.7 900.76 curveto
stroke
0 0 0 edgecolor
newpath 309.5 903.76 moveto
316.72 896.01 lineto
306.24 897.57 lineto
closepath fill
1 setlinewidth
solid
0 0 0 edgecolor
newpath 309.5 903.76 moveto
316.72 896.01 lineto
306.24 897.57 lineto
closepath stroke
grestore
% freepe
gsave
1 setlinewidth
0 0 0 nodecolor
newpath 533.47 168 moveto
303.47 168 lineto
303.47 84 lineto
533.47 84 lineto
closepath stroke
0 0 0 nodecolor
18 /Times-Roman set_font
395.97 147.8 moveto 45 (freepe) alignedtext
0 0 0 nodecolor
18 /Times-Roman set_font
340.97 128.8 moveto 155 ([|thetap in [3.331 , 4];) alignedtext
0 0 0 nodecolor
18 /Times-Roman set_font
311.47 109.8 moveto 214 (  thetav in [-0.7311 , 0.5622]|]) alignedtext
0 0 0 nodecolor
18 /Times-Roman set_font
323.47 90.8 moveto 190 (5 constraints, 5 generators) alignedtext
grestore
% 0
gsave
0 0 0 nodecolor
18 /Times-Roman set_font
483.97 6.8 moveto 13 (\(\)) alignedtext
grestore
% freepe->0
gsave
1 setlinewidth
0 0 0 edgecolor
newpath 448.17 83.92 moveto
455.72 73.23 463.65 61.99 470.58 52.18 curveto
stroke
0 0 0 edgecolor
newpath 473.47 54.15 moveto
476.37 43.97 lineto
467.75 50.12 lineto
closepath fill
1 setlinewidth
solid
0 0 0 edgecolor
newpath 473.47 54.15 moveto
476.37 43.97 lineto
467.75 50.12 lineto
closepath stroke
grestore
% dampedp
gsave
1 setlinewidth
0 0 0 nodecolor
newpath 508.47 2308 moveto
284.47 2308 lineto
284.47 2224 lineto
508.47 2224 lineto
closepath stroke
0 0 0 nodecolor
18 /Times-Roman set_font
362.97 2287.8 moveto 67 (dampedp) alignedtext
0 0 0 nodecolor
18 /Times-Roman set_font
300.47 2268.8 moveto 192 ([|thetap in [-4.821 , 4.562];) alignedtext
0 0 0 nodecolor
18 /Times-Roman set_font
298.47 2249.8 moveto 196 (  thetav in [-1.279 , 0.702]|]) alignedtext
0 0 0 nodecolor
18 /Times-Roman set_font
292.47 2230.8 moveto 208 (15 constraints, 15 generators) alignedtext
grestore
% 9
gsave
0 0 0 nodecolor
18 /Times-Roman set_font
299.47 2167.8 moveto 216 (thetav>=0 and thetap-4>=0 ? ) alignedtext
0 0 0 nodecolor
18 /Times-Roman set_font
400.97 2148.8 moveto 13 (\(\)) alignedtext
grestore
% dampedp->9
gsave
1 setlinewidth
0 0 0 edgecolor
newpath 401.07 2223.75 moveto
402 2215.16 402.97 2206.25 403.87 2198.03 curveto
stroke
0 0 0 edgecolor
newpath 407.35 2198.4 moveto
404.95 2188.08 lineto
400.39 2197.64 lineto
closepath fill
1 setlinewidth
solid
0 0 0 edgecolor
newpath 407.35 2198.4 moveto
404.95 2188.08 lineto
400.39 2197.64 lineto
closepath stroke
grestore
% 11
gsave
0 0 0 nodecolor
18 /Times-Roman set_font
135.47 2167.8 moveto 112 (-thetap-4>=0 ? ) alignedtext
0 0 0 nodecolor
18 /Times-Roman set_font
184.97 2148.8 moveto 13 (\(\)) alignedtext
grestore
% dampedp->11
gsave
1 setlinewidth
0 0 0 edgecolor
newpath 311.01 2223.9 moveto
289.48 2213.29 266.92 2202.18 247.27 2192.49 curveto
stroke
0 0 0 edgecolor
newpath 248.69 2189.29 moveto
238.17 2188.01 lineto
245.59 2195.57 lineto
closepath fill
1 setlinewidth
solid
0 0 0 edgecolor
newpath 248.69 2189.29 moveto
238.17 2188.01 lineto
245.59 2195.57 lineto
closepath stroke
grestore
% 0->dampedp_start
gsave
1 setlinewidth
0 0 0 edgecolor
newpath 504.47 35.78 moveto
516.65 46.89 533.68 64.67 542.47 84 curveto
569.02 142.42 562.47 162.83 562.47 227 curveto
562.47 2266 562.47 2266 562.47 2266 curveto
562.47 2338.49 571.83 2361.28 543.47 2428 curveto
539.36 2437.65 533.68 2447.05 527.38 2455.8 curveto
stroke
0 0 0 edgecolor
newpath 524.44 2453.88 moveto
521.18 2463.96 lineto
530.01 2458.11 lineto
closepath fill
1 setlinewidth
solid
0 0 0 edgecolor
newpath 524.44 2453.88 moveto
521.18 2463.96 lineto
530.01 2458.11 lineto
closepath stroke
grestore
% 1->freepe
gsave
1 setlinewidth
0 0 0 edgecolor
newpath 418.47 203.83 moveto
418.47 196.13 418.47 187.21 418.47 178.22 curveto
stroke
0 0 0 edgecolor
newpath 421.97 178.11 moveto
418.47 168.11 lineto
414.97 178.11 lineto
closepath fill
1 setlinewidth
solid
0 0 0 edgecolor
newpath 421.97 178.11 moveto
418.47 168.11 lineto
414.97 178.11 lineto
closepath stroke
grestore
% 2->freen_start
gsave
1 setlinewidth
0 0 0 edgecolor
newpath 53.04 683.85 moveto
42.19 695.18 27.96 712.19 20.47 730 curveto
-4.4 789.1 1.47 808.89 1.47 873 curveto
1.47 1620 1.47 1620 1.47 1620 curveto
1.47 1694.16 -2.29 1722.12 41.47 1782 curveto
49.64 1793.18 59.94 1803.09 71.13 1811.78 curveto
stroke
0 0 0 edgecolor
newpath 69.29 1814.77 moveto
79.41 1817.89 lineto
73.44 1809.14 lineto
closepath fill
1 setlinewidth
solid
0 0 0 edgecolor
newpath 69.29 1814.77 moveto
79.41 1817.89 lineto
73.44 1809.14 lineto
closepath stroke
grestore
% 3->dampedne2
gsave
1 setlinewidth
0 0 0 edgecolor
newpath 150.19 849.83 moveto
148.42 842.04 146.36 833.02 144.29 823.94 curveto
stroke
0 0 0 edgecolor
newpath 147.69 823.08 moveto
142.06 814.11 lineto
140.86 824.63 lineto
closepath fill
1 setlinewidth
solid
0 0 0 edgecolor
newpath 147.69 823.08 moveto
142.06 814.11 lineto
140.86 824.63 lineto
closepath stroke
grestore
% 4->freep_start
gsave
1 setlinewidth
0 0 0 edgecolor
newpath 398.15 645.83 moveto
399.97 638.12 402.05 629.28 404.14 620.37 curveto
stroke
0 0 0 edgecolor
newpath 407.62 620.89 moveto
406.5 610.36 lineto
400.8 619.29 lineto
closepath fill
1 setlinewidth
solid
0 0 0 edgecolor
newpath 407.62 620.89 moveto
406.5 610.36 lineto
400.8 619.29 lineto
closepath stroke
grestore
% 5->dampedne
gsave
1 setlinewidth
0 0 0 edgecolor
newpath 362.3 849.83 moveto
362.91 842.13 363.62 833.21 364.33 824.22 curveto
stroke
0 0 0 edgecolor
newpath 367.83 824.35 moveto
365.13 814.11 lineto
360.85 823.8 lineto
closepath fill
1 setlinewidth
solid
0 0 0 edgecolor
newpath 367.83 824.35 moveto
365.13 814.11 lineto
360.85 823.8 lineto
closepath stroke
grestore
% 6->dampedn_start
gsave
1 setlinewidth
0 0 0 edgecolor
newpath 168.47 1291.83 moveto
168.47 1284.12 168.47 1275.28 168.47 1266.37 curveto
stroke
0 0 0 edgecolor
newpath 171.97 1266.36 moveto
168.47 1256.36 lineto
164.97 1266.36 lineto
closepath fill
1 setlinewidth
solid
0 0 0 edgecolor
newpath 171.97 1266.36 moveto
168.47 1256.36 lineto
164.97 1266.36 lineto
closepath stroke
grestore
% 7->freene
gsave
1 setlinewidth
0 0 0 edgecolor
newpath 168.47 1495.83 moveto
168.47 1488.13 168.47 1479.21 168.47 1470.22 curveto
stroke
0 0 0 edgecolor
newpath 171.97 1470.11 moveto
168.47 1460.11 lineto
164.97 1470.11 lineto
closepath fill
1 setlinewidth
solid
0 0 0 edgecolor
newpath 171.97 1470.11 moveto
168.47 1460.11 lineto
164.97 1470.11 lineto
closepath stroke
grestore
% 8->freep_start
gsave
1 setlinewidth
0 0 0 edgecolor
newpath 499.81 1835.84 moveto
503.8 1792.6 511.47 1699.09 511.47 1620 curveto
511.47 1620 511.47 1620 511.47 772 curveto
511.47 715.88 481.56 658.52 455.31 618.97 curveto
stroke
0 0 0 edgecolor
newpath 457.94 616.62 moveto
449.43 610.31 lineto
452.15 620.55 lineto
closepath fill
1 setlinewidth
solid
0 0 0 edgecolor
newpath 457.94 616.62 moveto
449.43 610.31 lineto
452.15 620.55 lineto
closepath stroke
grestore
% 9->dampedpe2
gsave
1 setlinewidth
0 0 0 edgecolor
newpath 412.06 2141.83 moveto
413.6 2134.04 415.38 2125.02 417.18 2115.94 curveto
stroke
0 0 0 edgecolor
newpath 420.62 2116.6 moveto
419.13 2106.11 lineto
413.75 2115.24 lineto
closepath fill
1 setlinewidth
solid
0 0 0 edgecolor
newpath 420.62 2116.6 moveto
419.13 2106.11 lineto
413.75 2115.24 lineto
closepath stroke
grestore
% 10->freen_start
gsave
1 setlinewidth
0 0 0 edgecolor
newpath 169.99 1937.83 moveto
169.84 1930.12 169.67 1921.28 169.49 1912.37 curveto
stroke
0 0 0 edgecolor
newpath 172.99 1912.29 moveto
169.3 1902.36 lineto
165.99 1912.42 lineto
closepath fill
1 setlinewidth
solid
0 0 0 edgecolor
newpath 172.99 1912.29 moveto
169.3 1902.36 lineto
165.99 1912.42 lineto
closepath stroke
grestore
% 11->dampedpe
gsave
1 setlinewidth
0 0 0 edgecolor
newpath 189.86 2141.83 moveto
189.33 2134.13 188.71 2125.21 188.09 2116.22 curveto
stroke
0 0 0 edgecolor
newpath 191.57 2115.84 moveto
187.38 2106.11 lineto
184.58 2116.33 lineto
closepath fill
1 setlinewidth
solid
0 0 0 edgecolor
newpath 191.57 2115.84 moveto
187.38 2106.11 lineto
184.58 2116.33 lineto
closepath stroke
grestore
% 12->dampedp_start
gsave
1 setlinewidth
0 0 0 edgecolor
newpath 479.47 2583.83 moveto
479.47 2576.12 479.47 2567.28 479.47 2558.37 curveto
stroke
0 0 0 edgecolor
newpath 482.97 2558.36 moveto
479.47 2548.36 lineto
475.97 2558.36 lineto
closepath fill
1 setlinewidth
solid
0 0 0 edgecolor
newpath 482.97 2558.36 moveto
479.47 2548.36 lineto
475.97 2558.36 lineto
closepath stroke
grestore
% 13->freepie
gsave
1 setlinewidth
0 0 0 edgecolor
newpath 479.47 2787.83 moveto
479.47 2780.13 479.47 2771.21 479.47 2762.22 curveto
stroke
0 0 0 edgecolor
newpath 482.97 2762.11 moveto
479.47 2752.11 lineto
475.97 2762.11 lineto
closepath fill
1 setlinewidth
solid
0 0 0 edgecolor
newpath 482.97 2762.11 moveto
479.47 2752.11 lineto
475.97 2762.11 lineto
closepath stroke
grestore
% 14->dampedn
gsave
1 setlinewidth
0 0 0 edgecolor
newpath 168.47 1051.69 moveto
168.47 1043.54 168.47 1034.9 168.47 1026.47 curveto
stroke
0 0 0 edgecolor
newpath 171.97 1026.33 moveto
168.47 1016.33 lineto
164.97 1026.33 lineto
closepath fill
1 setlinewidth
solid
0 0 0 edgecolor
newpath 171.97 1026.33 moveto
168.47 1016.33 lineto
164.97 1026.33 lineto
closepath stroke
grestore
% 15->dampedp
gsave
1 setlinewidth
0 0 0 edgecolor
newpath 396.47 2343.69 moveto
396.47 2335.54 396.47 2326.9 396.47 2318.47 curveto
stroke
0 0 0 edgecolor
newpath 399.97 2318.33 moveto
396.47 2308.33 lineto
392.97 2318.33 lineto
closepath fill
1 setlinewidth
solid
0 0 0 edgecolor
newpath 399.97 2318.33 moveto
396.47 2308.33 lineto
392.97 2318.33 lineto
closepath stroke
grestore
% 16->freen
gsave
1 setlinewidth
0 0 0 edgecolor
newpath 168.47 1697.69 moveto
168.47 1689.54 168.47 1680.9 168.47 1672.47 curveto
stroke
0 0 0 edgecolor
newpath 171.97 1672.33 moveto
168.47 1662.33 lineto
164.97 1672.33 lineto
closepath fill
1 setlinewidth
solid
0 0 0 edgecolor
newpath 171.97 1672.33 moveto
168.47 1662.33 lineto
164.97 1672.33 lineto
closepath stroke
grestore
% 17->freep
gsave
1 setlinewidth
0 0 0 edgecolor
newpath 417.17 405.69 moveto
417.31 397.54 417.45 388.9 417.59 380.47 curveto
stroke
0 0 0 edgecolor
newpath 421.09 380.39 moveto
417.76 370.33 lineto
414.09 380.27 lineto
closepath fill
1 setlinewidth
solid
0 0 0 edgecolor
newpath 421.09 380.39 moveto
417.76 370.33 lineto
414.09 380.27 lineto
closepath stroke
grestore
% 18->freepi
gsave
1 setlinewidth
0 0 0 edgecolor
newpath 479.47 2989.69 moveto
479.47 2981.54 479.47 2972.9 479.47 2964.47 curveto
stroke
0 0 0 edgecolor
newpath 482.97 2964.33 moveto
479.47 2954.33 lineto
475.97 2964.33 lineto
closepath fill
1 setlinewidth
solid
0 0 0 edgecolor
newpath 482.97 2964.33 moveto
479.47 2954.33 lineto
475.97 2964.33 lineto
closepath stroke
grestore
% 19->freepi_start
gsave
1 setlinewidth
0 0 0 edgecolor
newpath 479.47 3211.78 moveto
479.47 3203.82 479.47 3194.63 479.47 3185.62 curveto
stroke
0 0 0 edgecolor
newpath 482.97 3185.59 moveto
479.47 3175.59 lineto
475.97 3185.59 lineto
closepath fill
1 setlinewidth
solid
0 0 0 edgecolor
newpath 482.97 3185.59 moveto
479.47 3175.59 lineto
475.97 3185.59 lineto
closepath stroke
grestore
endpage
showpage
grestore
%%PageTrailer
%%EndPage: 1
setupLatin1
%%Page: 2 2
%%PageBoundingBox: 36 36 968 2150
%%PageOrientation: Portrait
0 0 1 beginpage
gsave
36 36 932 2114 boxprim clip newpath
1 1 set_scale 0 rotate 40 41 translate
% 1073741823
gsave
1 setlinewidth
0 0 0 nodecolor
730 2083 43.84 19.09 ellipse_path stroke
0 0 0 nodecolor
18 /Times-Roman set_font
707 2076.3 moveto 46 (Result) alignedtext
grestore
% freepi
gsave
1 setlinewidth
0 0 0 nodecolor
newpath 842 1942 moveto
786 1942 lineto
786 1896 lineto
842 1896 lineto
closepath stroke
0 0 0 nodecolor
18 /Times-Roman set_font
793.5 1921.8 moveto 41 (freepi) alignedtext
0 0 0 nodecolor
18 /Times-Roman set_font
802 1902.8 moveto 24 (top) alignedtext
grestore
% 13
gsave
0 0 0 nodecolor
18 /Times-Roman set_font
563.5 1820.8 moveto 115 (-thetap+4>=0 ? ) alignedtext
0 0 0 nodecolor
18 /Times-Roman set_font
614.5 1801.8 moveto 13 (\(\)) alignedtext
grestore
% freepi->13
gsave
1 setlinewidth
0 0 0 edgecolor
newpath 785.88 1905.61 moveto
761.63 1893.93 725.75 1876.33 695 1860 curveto
686.76 1855.62 678.08 1850.85 669.68 1846.14 curveto
stroke
0 0 0 edgecolor
newpath 671.14 1842.95 moveto
660.71 1841.08 lineto
667.7 1849.04 lineto
closepath fill
1 setlinewidth
solid
0 0 0 edgecolor
newpath 671.14 1842.95 moveto
660.71 1841.08 lineto
667.7 1849.04 lineto
closepath stroke
grestore
% 18
gsave
0 0 0 nodecolor
18 /Times-Roman set_font
763 1839.8 moveto 102 (thetap-4>=0 ?) alignedtext
0 0 0 nodecolor
18 /Times-Roman set_font
728 1820.8 moveto 172 (thetap := thetap+thetav;) alignedtext
0 0 0 nodecolor
18 /Times-Roman set_font
711.5 1801.8 moveto 205 (thetav := -1/64thetap+thetav) alignedtext
0 0 0 nodecolor
18 /Times-Roman set_font
807.5 1782.8 moveto 13 (\(\)) alignedtext
grestore
% freepi->18
gsave
1 setlinewidth
0 0 0 edgecolor
newpath 808.22 1895.83 moveto
807.61 1888.13 807.29 1879.21 807.25 1870.22 curveto
stroke
0 0 0 edgecolor
newpath 810.75 1870.13 moveto
807.33 1860.11 lineto
803.75 1870.08 lineto
closepath fill
1 setlinewidth
solid
0 0 0 edgecolor
newpath 810.75 1870.13 moveto
807.33 1860.11 lineto
803.75 1870.08 lineto
closepath stroke
grestore
% dampedne2
gsave
1 setlinewidth
0 0 0 nodecolor
newpath 305 556 moveto
99 556 lineto
99 472 lineto
305 472 lineto
closepath stroke
0 0 0 nodecolor
18 /Times-Roman set_font
160 535.8 moveto 84 (dampedne2) alignedtext
0 0 0 nodecolor
18 /Times-Roman set_font
124.5 516.8 moveto 155 ([|thetap in [-INF , -4];) alignedtext
0 0 0 nodecolor
18 /Times-Roman set_font
125 497.8 moveto 154 (  thetav in [-INF , 0]|]) alignedtext
0 0 0 nodecolor
18 /Times-Roman set_font
107 478.8 moveto 190 (2 constraints, 3 generators) alignedtext
grestore
% 2
gsave
0 0 0 nodecolor
18 /Times-Roman set_font
132.5 394.8 moveto 13 (\(\)) alignedtext
grestore
% dampedne2->2
gsave
1 setlinewidth
0 0 0 edgecolor
newpath 176.01 471.92 moveto
170.11 462.38 163.95 452.4 158.38 443.38 curveto
stroke
0 0 0 edgecolor
newpath 161.28 441.41 moveto
153.05 434.74 lineto
155.32 445.09 lineto
closepath fill
1 setlinewidth
solid
0 0 0 edgecolor
newpath 161.28 441.41 moveto
153.05 434.74 lineto
155.32 445.09 lineto
closepath stroke
grestore
% dampedne
gsave
1 setlinewidth
0 0 0 nodecolor
newpath 529 546.5 moveto
323 546.5 lineto
323 481.5 lineto
529 481.5 lineto
closepath stroke
0 0 0 nodecolor
18 /Times-Roman set_font
388.5 526.3 moveto 75 (dampedne) alignedtext
0 0 0 nodecolor
18 /Times-Roman set_font
347.5 507.3 moveto 157 ([|thetap in [4 , INF]; |]) alignedtext
0 0 0 nodecolor
18 /Times-Roman set_font
331 488.3 moveto 190 (1 constraints, 3 generators) alignedtext
grestore
% 4
gsave
0 0 0 nodecolor
18 /Times-Roman set_font
419.5 394.8 moveto 13 (\(\)) alignedtext
grestore
% dampedne->4
gsave
1 setlinewidth
0 0 0 edgecolor
newpath 426 481.45 moveto
426 470.2 426 457.56 426 446.19 curveto
stroke
0 0 0 edgecolor
newpath 429.5 446.17 moveto
426 436.17 lineto
422.5 446.17 lineto
closepath fill
1 setlinewidth
solid
0 0 0 edgecolor
newpath 429.5 446.17 moveto
426 436.17 lineto
422.5 446.17 lineto
closepath stroke
grestore
% freen
gsave
1 setlinewidth
0 0 0 nodecolor
newpath 434 1147 moveto
382 1147 lineto
382 1101 lineto
434 1101 lineto
closepath stroke
0 0 0 nodecolor
18 /Times-Roman set_font
389.5 1126.8 moveto 37 (freen) alignedtext
0 0 0 nodecolor
18 /Times-Roman set_font
396 1107.8 moveto 24 (top) alignedtext
grestore
% 7
gsave
0 0 0 nodecolor
18 /Times-Roman set_font
258.5 1024.8 moveto 109 (thetap+4>=0 ? ) alignedtext
0 0 0 nodecolor
18 /Times-Roman set_font
306.5 1005.8 moveto 13 (\(\)) alignedtext
grestore
% freen->7
gsave
1 setlinewidth
0 0 0 edgecolor
newpath 386.44 1100.85 moveto
373.08 1086.51 355.77 1067.92 341.31 1052.4 curveto
stroke
0 0 0 edgecolor
newpath 343.85 1049.99 moveto
334.47 1045.05 lineto
338.73 1054.76 lineto
closepath fill
1 setlinewidth
solid
0 0 0 edgecolor
newpath 343.85 1049.99 moveto
334.47 1045.05 lineto
338.73 1054.76 lineto
closepath stroke
grestore
% 16
gsave
0 0 0 nodecolor
18 /Times-Roman set_font
449 1043.8 moveto 108 (-thetap-4>=0 ?) alignedtext
0 0 0 nodecolor
18 /Times-Roman set_font
417 1024.8 moveto 172 (thetap := thetap+thetav;) alignedtext
0 0 0 nodecolor
18 /Times-Roman set_font
400.5 1005.8 moveto 205 (thetav := -1/64thetap+thetav) alignedtext
0 0 0 nodecolor
18 /Times-Roman set_font
496.5 986.8 moveto 13 (\(\)) alignedtext
grestore
% freen->16
gsave
1 setlinewidth
0 0 0 edgecolor
newpath 423.8 1100.85 moveto
431.21 1092.15 440.44 1081.89 449.97 1071.69 curveto
stroke
0 0 0 edgecolor
newpath 452.62 1073.98 moveto
456.93 1064.31 lineto
447.53 1069.18 lineto
closepath fill
1 setlinewidth
solid
0 0 0 edgecolor
newpath 452.62 1073.98 moveto
456.93 1064.31 lineto
447.53 1069.18 lineto
closepath stroke
grestore
% freep
gsave
1 setlinewidth
0 0 0 nodecolor
newpath 452 352 moveto
400 352 lineto
400 306 lineto
452 306 lineto
closepath stroke
0 0 0 nodecolor
18 /Times-Roman set_font
407.5 331.8 moveto 37 (freep) alignedtext
0 0 0 nodecolor
18 /Times-Roman set_font
414 312.8 moveto 24 (top) alignedtext
grestore
% 1
gsave
0 0 0 nodecolor
18 /Times-Roman set_font
572.5 230.8 moveto 115 (-thetap+4>=0 ? ) alignedtext
0 0 0 nodecolor
18 /Times-Roman set_font
623.5 211.8 moveto 13 (\(\)) alignedtext
grestore
% freep->1
gsave
1 setlinewidth
0 0 0 edgecolor
newpath 452.25 316 moveto
482.9 300.83 534.45 275.3 574.17 255.64 curveto
stroke
0 0 0 edgecolor
newpath 575.81 258.73 moveto
583.22 251.16 lineto
572.71 252.46 lineto
closepath fill
1 setlinewidth
solid
0 0 0 edgecolor
newpath 575.81 258.73 moveto
583.22 251.16 lineto
572.71 252.46 lineto
closepath stroke
grestore
% 17
gsave
0 0 0 nodecolor
18 /Times-Roman set_font
375 249.8 moveto 102 (thetap-4>=0 ?) alignedtext
0 0 0 nodecolor
18 /Times-Roman set_font
340 230.8 moveto 172 (thetap := thetap+thetav;) alignedtext
0 0 0 nodecolor
18 /Times-Roman set_font
323.5 211.8 moveto 205 (thetav := -1/64thetap+thetav) alignedtext
0 0 0 nodecolor
18 /Times-Roman set_font
419.5 192.8 moveto 13 (\(\)) alignedtext
grestore
% freep->17
gsave
1 setlinewidth
0 0 0 edgecolor
newpath 420.22 305.83 moveto
419.61 298.13 419.29 289.21 419.25 280.22 curveto
stroke
0 0 0 edgecolor
newpath 422.75 280.13 moveto
419.33 270.11 lineto
415.75 280.08 lineto
closepath fill
1 setlinewidth
solid
0 0 0 edgecolor
newpath 422.75 280.13 moveto
419.33 270.11 lineto
415.75 280.08 lineto
closepath stroke
grestore
% linit
gsave
1 setlinewidth
0 0 0 nodecolor
newpath 836 2106 moveto
792 2106 lineto
792 2060 lineto
836 2060 lineto
closepath stroke
0 0 0 nodecolor
18 /Times-Roman set_font
800 2085.8 moveto 28 (linit) alignedtext
0 0 0 nodecolor
18 /Times-Roman set_font
802 2066.8 moveto 24 (top) alignedtext
grestore
% 19
gsave
0 0 0 nodecolor
18 /Times-Roman set_font
712 2003.8 moveto 204 (thetav=0 and thetap-10=0 ? ) alignedtext
0 0 0 nodecolor
18 /Times-Roman set_font
807.5 1984.8 moveto 13 (\(\)) alignedtext
grestore
% linit->19
gsave
1 setlinewidth
0 0 0 edgecolor
newpath 814 2059.72 moveto
814 2051.78 814 2042.73 814 2034.16 curveto
stroke
0 0 0 edgecolor
newpath 817.5 2034.05 moveto
814 2024.05 lineto
810.5 2034.05 lineto
closepath fill
1 setlinewidth
solid
0 0 0 edgecolor
newpath 817.5 2034.05 moveto
814 2024.05 lineto
810.5 2034.05 lineto
closepath stroke
grestore
% dampedpe
gsave
1 setlinewidth
0 0 0 nodecolor
newpath 511 1342.5 moveto
305 1342.5 lineto
305 1277.5 lineto
511 1277.5 lineto
closepath stroke
0 0 0 nodecolor
18 /Times-Roman set_font
370.5 1322.3 moveto 75 (dampedpe) alignedtext
0 0 0 nodecolor
18 /Times-Roman set_font
323.5 1303.3 moveto 169 ([|thetap in [-INF , -4]; |]) alignedtext
0 0 0 nodecolor
18 /Times-Roman set_font
313 1284.3 moveto 190 (1 constraints, 3 generators) alignedtext
grestore
% 10
gsave
0 0 0 nodecolor
18 /Times-Roman set_font
401.5 1190.8 moveto 13 (\(\)) alignedtext
grestore
% dampedpe->10
gsave
1 setlinewidth
0 0 0 edgecolor
newpath 408 1277.45 moveto
408 1266.2 408 1253.56 408 1242.19 curveto
stroke
0 0 0 edgecolor
newpath 411.5 1242.17 moveto
408 1232.17 lineto
404.5 1242.17 lineto
closepath fill
1 setlinewidth
solid
0 0 0 edgecolor
newpath 411.5 1242.17 moveto
408 1232.17 lineto
404.5 1242.17 lineto
closepath stroke
grestore
% dampedpe2
gsave
1 setlinewidth
0 0 0 nodecolor
newpath 206 1352 moveto
0 1352 lineto
0 1268 lineto
206 1268 lineto
closepath stroke
0 0 0 nodecolor
18 /Times-Roman set_font
61 1331.8 moveto 84 (dampedpe2) alignedtext
0 0 0 nodecolor
18 /Times-Roman set_font
31.5 1312.8 moveto 143 ([|thetap in [4 , INF];) alignedtext
0 0 0 nodecolor
18 /Times-Roman set_font
29 1293.8 moveto 148 (  thetav in [0 , INF]|]) alignedtext
0 0 0 nodecolor
18 /Times-Roman set_font
8 1274.8 moveto 190 (2 constraints, 3 generators) alignedtext
grestore
% 8
gsave
0 0 0 nodecolor
18 /Times-Roman set_font
36.5 1106.8 moveto 13 (\(\)) alignedtext
grestore
% dampedpe2->8
gsave
1 setlinewidth
0 0 0 edgecolor
newpath 89.39 1267.79 moveto
78.67 1234.57 63.93 1188.87 53.96 1157.98 curveto
stroke
0 0 0 edgecolor
newpath 57.18 1156.55 moveto
50.78 1148.11 lineto
50.52 1158.7 lineto
closepath fill
1 setlinewidth
solid
0 0 0 edgecolor
newpath 57.18 1156.55 moveto
50.78 1148.11 lineto
50.52 1158.7 lineto
closepath stroke
grestore
% freene
gsave
1 setlinewidth
0 0 0 nodecolor
newpath 444 943.5 moveto
238 943.5 lineto
238 878.5 lineto
444 878.5 lineto
closepath stroke
0 0 0 nodecolor
18 /Times-Roman set_font
318.5 923.3 moveto 45 (freene) alignedtext
0 0 0 nodecolor
18 /Times-Roman set_font
259.5 904.3 moveto 163 ([|thetap in [-4 , INF]; |]) alignedtext
0 0 0 nodecolor
18 /Times-Roman set_font
246 885.3 moveto 190 (1 constraints, 3 generators) alignedtext
grestore
% 6
gsave
0 0 0 nodecolor
18 /Times-Roman set_font
361.5 800.8 moveto 13 (\(\)) alignedtext
grestore
% freene->6
gsave
1 setlinewidth
0 0 0 edgecolor
newpath 350.44 878.47 moveto
352.94 869.89 355.63 860.61 358.14 851.95 curveto
stroke
0 0 0 edgecolor
newpath 361.56 852.73 moveto
360.99 842.15 lineto
354.84 850.78 lineto
closepath fill
1 setlinewidth
solid
0 0 0 edgecolor
newpath 361.56 852.73 moveto
360.99 842.15 lineto
354.84 850.78 lineto
closepath stroke
grestore
% freepie
gsave
1 setlinewidth
0 0 0 nodecolor
newpath 724 1739.5 moveto
518 1739.5 lineto
518 1674.5 lineto
724 1674.5 lineto
closepath stroke
0 0 0 nodecolor
18 /Times-Roman set_font
596.5 1719.3 moveto 49 (freepie) alignedtext
0 0 0 nodecolor
18 /Times-Roman set_font
539.5 1700.3 moveto 163 ([|thetap in [-INF , 4]; |]) alignedtext
0 0 0 nodecolor
18 /Times-Roman set_font
526 1681.3 moveto 190 (1 constraints, 3 generators) alignedtext
grestore
% 12
gsave
0 0 0 nodecolor
18 /Times-Roman set_font
614.5 1596.8 moveto 13 (\(\)) alignedtext
grestore
% freepie->12
gsave
1 setlinewidth
0 0 0 edgecolor
newpath 621 1674.47 moveto
621 1665.98 621 1656.81 621 1648.23 curveto
stroke
0 0 0 edgecolor
newpath 624.5 1648.15 moveto
621 1638.15 lineto
617.5 1648.15 lineto
closepath fill
1 setlinewidth
solid
0 0 0 edgecolor
newpath 624.5 1648.15 moveto
621 1638.15 lineto
617.5 1648.15 lineto
closepath stroke
grestore
% dampedn
gsave
1 setlinewidth
0 0 0 nodecolor
newpath 463 758 moveto
381 758 lineto
381 712 lineto
463 712 lineto
closepath stroke
0 0 0 nodecolor
18 /Times-Roman set_font
388.5 737.8 moveto 67 (dampedn) alignedtext
0 0 0 nodecolor
18 /Times-Roman set_font
410 718.8 moveto 24 (top) alignedtext
grestore
% 3
gsave
0 0 0 nodecolor
18 /Times-Roman set_font
107 636.8 moveto 228 (-thetav>=0 and -thetap-4>=0 ? ) alignedtext
0 0 0 nodecolor
18 /Times-Roman set_font
214.5 617.8 moveto 13 (\(\)) alignedtext
grestore
% dampedn->3
gsave
1 setlinewidth
0 0 0 edgecolor
newpath 380.84 714.32 moveto
350.6 699.12 309.21 678.32 276.12 661.69 curveto
stroke
0 0 0 edgecolor
newpath 277.53 658.49 moveto
267.02 657.12 lineto
274.38 664.74 lineto
closepath fill
1 setlinewidth
solid
0 0 0 edgecolor
newpath 277.53 658.49 moveto
267.02 657.12 lineto
274.38 664.74 lineto
closepath stroke
grestore
% 5
gsave
0 0 0 nodecolor
18 /Times-Roman set_font
369 636.8 moveto 106 (thetap-4>=0 ? ) alignedtext
0 0 0 nodecolor
18 /Times-Roman set_font
415.5 617.8 moveto 13 (\(\)) alignedtext
grestore
% dampedn->5
gsave
1 setlinewidth
0 0 0 edgecolor
newpath 422 711.83 moveto
422 698.61 422 681.82 422 667.22 curveto
stroke
0 0 0 edgecolor
newpath 425.5 667.06 moveto
422 657.06 lineto
418.5 667.06 lineto
closepath fill
1 setlinewidth
solid
0 0 0 edgecolor
newpath 425.5 667.06 moveto
422 657.06 lineto
418.5 667.06 lineto
closepath stroke
grestore
% 14
gsave
0 0 0 nodecolor
18 /Times-Roman set_font
513 655.8 moveto 238 (thetap+4>=0 and -thetap+4>=0 ?) alignedtext
0 0 0 nodecolor
18 /Times-Roman set_font
546 636.8 moveto 172 (thetap := thetap+thetav;) alignedtext
0 0 0 nodecolor
18 /Times-Roman set_font
509 617.8 moveto 246 (thetav := -1/64thetap+15/16thetav) alignedtext
0 0 0 nodecolor
18 /Times-Roman set_font
625.5 598.8 moveto 13 (\(\)) alignedtext
grestore
% dampedn->14
gsave
1 setlinewidth
0 0 0 edgecolor
newpath 463.14 712.46 moveto
482 703.02 505.26 691.67 528.43 680.57 curveto
stroke
0 0 0 edgecolor
newpath 530.13 683.64 moveto
537.65 676.17 lineto
527.11 677.32 lineto
closepath fill
1 setlinewidth
solid
0 0 0 edgecolor
newpath 530.13 683.64 moveto
537.65 676.17 lineto
527.11 677.32 lineto
closepath stroke
grestore
% dampedp
gsave
1 setlinewidth
0 0 0 nodecolor
newpath 662 1554 moveto
580 1554 lineto
580 1508 lineto
662 1508 lineto
closepath stroke
0 0 0 nodecolor
18 /Times-Roman set_font
587.5 1533.8 moveto 67 (dampedp) alignedtext
0 0 0 nodecolor
18 /Times-Roman set_font
609 1514.8 moveto 24 (top) alignedtext
grestore
% 9
gsave
0 0 0 nodecolor
18 /Times-Roman set_font
89 1432.8 moveto 216 (thetav>=0 and thetap-4>=0 ? ) alignedtext
0 0 0 nodecolor
18 /Times-Roman set_font
190.5 1413.8 moveto 13 (\(\)) alignedtext
grestore
% dampedp->9
gsave
1 setlinewidth
0 0 0 edgecolor
newpath 580 1523.77 moveto
524.22 1513.65 421.47 1494.03 335 1472 curveto
316.4 1467.26 296.57 1461.6 277.91 1455.98 curveto
stroke
0 0 0 edgecolor
newpath 278.86 1452.61 moveto
268.27 1453.06 lineto
276.83 1459.31 lineto
closepath fill
1 setlinewidth
solid
0 0 0 edgecolor
newpath 278.86 1452.61 moveto
268.27 1453.06 lineto
276.83 1459.31 lineto
closepath stroke
grestore
% 11
gsave
0 0 0 nodecolor
18 /Times-Roman set_font
352 1432.8 moveto 112 (-thetap-4>=0 ? ) alignedtext
0 0 0 nodecolor
18 /Times-Roman set_font
401.5 1413.8 moveto 13 (\(\)) alignedtext
grestore
% dampedp->11
gsave
1 setlinewidth
0 0 0 edgecolor
newpath 579.97 1515.26 moveto
551.74 1504.06 513.61 1488.17 481 1472 curveto
472.44 1467.76 463.5 1462.94 454.93 1458.13 curveto
stroke
0 0 0 edgecolor
newpath 456.58 1455.04 moveto
446.16 1453.14 lineto
453.12 1461.13 lineto
closepath fill
1 setlinewidth
solid
0 0 0 edgecolor
newpath 456.58 1455.04 moveto
446.16 1453.14 lineto
453.12 1461.13 lineto
closepath stroke
grestore
% 15
gsave
0 0 0 nodecolor
18 /Times-Roman set_font
502 1451.8 moveto 238 (thetap+4>=0 and -thetap+4>=0 ?) alignedtext
0 0 0 nodecolor
18 /Times-Roman set_font
535 1432.8 moveto 172 (thetap := thetap+thetav;) alignedtext
0 0 0 nodecolor
18 /Times-Roman set_font
498 1413.8 moveto 246 (thetav := -1/64thetap+15/16thetav) alignedtext
0 0 0 nodecolor
18 /Times-Roman set_font
614.5 1394.8 moveto 13 (\(\)) alignedtext
grestore
% dampedp->15
gsave
1 setlinewidth
0 0 0 edgecolor
newpath 615.22 1507.83 moveto
614.61 1500.13 614.29 1491.21 614.25 1482.22 curveto
stroke
0 0 0 edgecolor
newpath 617.75 1482.13 moveto
614.33 1472.11 lineto
610.75 1482.08 lineto
closepath fill
1 setlinewidth
solid
0 0 0 edgecolor
newpath 617.75 1482.13 moveto
614.33 1472.11 lineto
610.75 1482.08 lineto
closepath stroke
grestore
% freepe
gsave
1 setlinewidth
0 0 0 nodecolor
newpath 743 149.5 moveto
537 149.5 lineto
537 84.5 lineto
743 84.5 lineto
closepath stroke
0 0 0 nodecolor
18 /Times-Roman set_font
617.5 129.3 moveto 45 (freepe) alignedtext
0 0 0 nodecolor
18 /Times-Roman set_font
558.5 110.3 moveto 163 ([|thetap in [-INF , 4]; |]) alignedtext
0 0 0 nodecolor
18 /Times-Roman set_font
545 91.3 moveto 190 (1 constraints, 3 generators) alignedtext
grestore
% 0
gsave
0 0 0 nodecolor
18 /Times-Roman set_font
708.5 6.8 moveto 13 (\(\)) alignedtext
grestore
% freepe->0
gsave
1 setlinewidth
0 0 0 edgecolor
newpath 666.23 84.47 moveto
675.52 72.95 685.83 60.17 694.57 49.34 curveto
stroke
0 0 0 edgecolor
newpath 697.35 51.47 moveto
700.9 41.49 lineto
691.9 47.07 lineto
closepath fill
1 setlinewidth
solid
0 0 0 edgecolor
newpath 697.35 51.47 moveto
700.9 41.49 lineto
691.9 47.07 lineto
closepath stroke
grestore
% 0->dampedp
gsave
1 setlinewidth
0 0 0 edgecolor
newpath 729.01 43.49 moveto
736.67 54.86 745.83 69.74 752 84 curveto
778.34 144.85 791 161.69 791 228 curveto
791 1310 791 1310 791 1310 curveto
791 1383.22 806.9 1414.95 761 1472 curveto
739.16 1499.14 702.6 1513.98 672.31 1521.99 curveto
stroke
0 0 0 edgecolor
newpath 671.18 1518.66 moveto
662.31 1524.45 lineto
672.86 1525.46 lineto
closepath fill
1 setlinewidth
solid
0 0 0 edgecolor
newpath 671.18 1518.66 moveto
662.31 1524.45 lineto
672.86 1525.46 lineto
closepath stroke
grestore
% 1->freepe
gsave
1 setlinewidth
0 0 0 edgecolor
newpath 632.1 204.73 moveto
633.26 191.82 634.74 175.34 636.11 160.16 curveto
stroke
0 0 0 edgecolor
newpath 639.62 160.2 moveto
637.03 149.92 lineto
632.65 159.57 lineto
closepath fill
1 setlinewidth
solid
0 0 0 edgecolor
newpath 639.62 160.2 moveto
637.03 149.92 lineto
632.65 159.57 lineto
closepath stroke
grestore
% 2->freen
gsave
1 setlinewidth
0 0 0 edgecolor
newpath 124.8 424.79 moveto
113.34 436.02 97.87 453.43 90 472 curveto
61.72 538.75 71 561.51 71 634 curveto
71 911 71 911 71 911 curveto
71 1052.17 284.91 1103.6 371.88 1118.67 curveto
stroke
0 0 0 edgecolor
newpath 371.4 1122.14 moveto
381.84 1120.34 lineto
372.55 1115.24 lineto
closepath fill
1 setlinewidth
solid
0 0 0 edgecolor
newpath 371.4 1122.14 moveto
381.84 1120.34 lineto
372.55 1115.24 lineto
closepath stroke
grestore
% 3->dampedne2
gsave
1 setlinewidth
0 0 0 edgecolor
newpath 217.34 610.86 moveto
215.32 598.12 212.73 581.77 210.25 566.14 curveto
stroke
0 0 0 edgecolor
newpath 213.67 565.34 moveto
208.65 556.01 lineto
206.76 566.44 lineto
closepath fill
1 setlinewidth
solid
0 0 0 edgecolor
newpath 213.67 565.34 moveto
208.65 556.01 lineto
206.76 566.44 lineto
closepath stroke
grestore
% 4->freep
gsave
1 setlinewidth
0 0 0 edgecolor
newpath 426 387.99 moveto
426 379.96 426 370.86 426 362.25 curveto
stroke
0 0 0 edgecolor
newpath 429.5 362.1 moveto
426 352.1 lineto
422.5 362.1 lineto
closepath fill
1 setlinewidth
solid
0 0 0 edgecolor
newpath 429.5 362.1 moveto
426 352.1 lineto
422.5 362.1 lineto
closepath stroke
grestore
% 5->dampedne
gsave
1 setlinewidth
0 0 0 edgecolor
newpath 422.77 610.86 moveto
423.28 595.53 423.97 574.96 424.58 556.72 curveto
stroke
0 0 0 edgecolor
newpath 428.08 556.7 moveto
424.91 546.59 lineto
421.08 556.47 lineto
closepath fill
1 setlinewidth
solid
0 0 0 edgecolor
newpath 428.08 556.7 moveto
424.91 546.59 lineto
421.08 556.47 lineto
closepath stroke
grestore
% 6->dampedn
gsave
1 setlinewidth
0 0 0 edgecolor
newpath 382.19 796.19 moveto
388.09 787.13 395.04 776.43 401.48 766.54 curveto
stroke
0 0 0 edgecolor
newpath 404.44 768.4 moveto
406.96 758.11 lineto
398.58 764.59 lineto
closepath fill
1 setlinewidth
solid
0 0 0 edgecolor
newpath 404.44 768.4 moveto
406.96 758.11 lineto
398.58 764.59 lineto
closepath stroke
grestore
% 7->freene
gsave
1 setlinewidth
0 0 0 edgecolor
newpath 318.87 998.73 moveto
322.16 985.69 326.36 969.03 330.22 953.73 curveto
stroke
0 0 0 edgecolor
newpath 333.64 954.47 moveto
332.7 943.92 lineto
326.86 952.76 lineto
closepath fill
1 setlinewidth
solid
0 0 0 edgecolor
newpath 333.64 954.47 moveto
332.7 943.92 lineto
326.86 952.76 lineto
closepath stroke
grestore
% 8->freep
gsave
1 setlinewidth
0 0 0 edgecolor
newpath 41.12 1099.74 moveto
38.22 1060.22 33 979.49 33 911 curveto
33 911 33 911 33 514 curveto
33 446.94 60.21 425.21 116 388 curveto
160.53 358.3 317.67 339.57 389.59 332.36 curveto
stroke
0 0 0 edgecolor
newpath 389.94 335.84 moveto
399.55 331.38 lineto
389.26 328.88 lineto
closepath fill
1 setlinewidth
solid
0 0 0 edgecolor
newpath 389.94 335.84 moveto
399.55 331.38 lineto
389.26 328.88 lineto
closepath stroke
grestore
% 9->dampedpe2
gsave
1 setlinewidth
0 0 0 edgecolor
newpath 178.88 1406.86 moveto
168.42 1393.52 154.86 1376.2 142.09 1359.91 curveto
stroke
0 0 0 edgecolor
newpath 144.83 1357.73 moveto
135.91 1352.01 lineto
139.32 1362.04 lineto
closepath fill
1 setlinewidth
solid
0 0 0 edgecolor
newpath 144.83 1357.73 moveto
135.91 1352.01 lineto
139.32 1362.04 lineto
closepath stroke
grestore
% 10->freen
gsave
1 setlinewidth
0 0 0 edgecolor
newpath 408 1183.7 moveto
408 1175.42 408 1166 408 1157.14 curveto
stroke
0 0 0 edgecolor
newpath 411.5 1157.09 moveto
408 1147.09 lineto
404.5 1157.09 lineto
closepath fill
1 setlinewidth
solid
0 0 0 edgecolor
newpath 411.5 1157.09 moveto
408 1147.09 lineto
404.5 1157.09 lineto
closepath stroke
grestore
% 11->dampedpe
gsave
1 setlinewidth
0 0 0 edgecolor
newpath 408 1406.86 moveto
408 1391.53 408 1370.96 408 1352.72 curveto
stroke
0 0 0 edgecolor
newpath 411.5 1352.59 moveto
408 1342.59 lineto
404.5 1352.59 lineto
closepath fill
1 setlinewidth
solid
0 0 0 edgecolor
newpath 411.5 1352.59 moveto
408 1342.59 lineto
404.5 1352.59 lineto
closepath stroke
grestore
% 12->dampedp
gsave
1 setlinewidth
0 0 0 edgecolor
newpath 621 1589.99 moveto
621 1581.96 621 1572.86 621 1564.25 curveto
stroke
0 0 0 edgecolor
newpath 624.5 1564.1 moveto
621 1554.1 lineto
617.5 1564.1 lineto
closepath fill
1 setlinewidth
solid
0 0 0 edgecolor
newpath 624.5 1564.1 moveto
621 1554.1 lineto
617.5 1564.1 lineto
closepath stroke
grestore
% 13->freepie
gsave
1 setlinewidth
0 0 0 edgecolor
newpath 621 1794.73 moveto
621 1781.82 621 1765.34 621 1750.16 curveto
stroke
0 0 0 edgecolor
newpath 624.5 1749.92 moveto
621 1739.92 lineto
617.5 1749.92 lineto
closepath fill
1 setlinewidth
solid
0 0 0 edgecolor
newpath 624.5 1749.92 moveto
621 1739.92 lineto
617.5 1749.92 lineto
closepath stroke
grestore
% 14->dampedn
gsave
1 setlinewidth
0 0 0 edgecolor
newpath 550.93 676.2 moveto
524.42 689.07 495.76 702.69 472.19 713.57 curveto
stroke
0 0 0 edgecolor
newpath 470.72 710.4 moveto
463.09 717.75 lineto
473.64 716.76 lineto
closepath fill
1 setlinewidth
solid
0 0 0 edgecolor
newpath 470.72 710.4 moveto
463.09 717.75 lineto
473.64 716.76 lineto
closepath stroke
grestore
% 15->dampedp
gsave
1 setlinewidth
0 0 0 edgecolor
newpath 627.67 1472.11 moveto
627.84 1480.61 627.75 1489.43 627.39 1497.58 curveto
stroke
0 0 0 edgecolor
newpath 623.88 1497.64 moveto
626.78 1507.83 lineto
630.87 1498.06 lineto
closepath fill
1 setlinewidth
solid
0 0 0 edgecolor
newpath 623.88 1497.64 moveto
626.78 1507.83 lineto
630.87 1498.06 lineto
closepath stroke
grestore
% 16->freen
gsave
1 setlinewidth
0 0 0 edgecolor
newpath 470.53 1064.01 moveto
461.04 1074.44 450.68 1085.38 441.14 1095.03 curveto
stroke
0 0 0 edgecolor
newpath 438.64 1092.58 moveto
434.04 1102.12 lineto
443.59 1097.53 lineto
closepath fill
1 setlinewidth
solid
0 0 0 edgecolor
newpath 438.64 1092.58 moveto
434.04 1102.12 lineto
443.59 1097.53 lineto
closepath stroke
grestore
% 17->freep
gsave
1 setlinewidth
0 0 0 edgecolor
newpath 432.67 270.11 moveto
432.84 278.61 432.75 287.43 432.39 295.58 curveto
stroke
0 0 0 edgecolor
newpath 428.88 295.64 moveto
431.78 305.83 lineto
435.87 296.06 lineto
closepath fill
1 setlinewidth
solid
0 0 0 edgecolor
newpath 428.88 295.64 moveto
431.78 305.83 lineto
435.87 296.06 lineto
closepath stroke
grestore
% 18->freepi
gsave
1 setlinewidth
0 0 0 edgecolor
newpath 820.67 1860.11 moveto
820.84 1868.61 820.75 1877.43 820.39 1885.58 curveto
stroke
0 0 0 edgecolor
newpath 816.88 1885.64 moveto
819.78 1895.83 lineto
823.87 1886.06 lineto
closepath fill
1 setlinewidth
solid
0 0 0 edgecolor
newpath 816.88 1885.64 moveto
819.78 1895.83 lineto
823.87 1886.06 lineto
closepath stroke
grestore
% 19->freepi
gsave
1 setlinewidth
0 0 0 edgecolor
newpath 814 1977.72 moveto
814 1969.78 814 1960.73 814 1952.16 curveto
stroke
0 0 0 edgecolor
newpath 817.5 1952.05 moveto
814 1942.05 lineto
810.5 1952.05 lineto
closepath fill
1 setlinewidth
solid
0 0 0 edgecolor
newpath 817.5 1952.05 moveto
814 1942.05 lineto
810.5 1952.05 lineto
closepath stroke
grestore
endpage
showpage
grestore
%%PageTrailer
%%EndPage: 2
setupLatin1
%%Page: 3 3
%%PageBoundingBox: 36 36 617 3106
%%PageOrientation: Portrait
0 0 1 beginpage
gsave
36 36 581 3070 boxprim clip newpath
1 1 set_scale 0 rotate 40 41 translate
% 1073741823
gsave
1 setlinewidth
0 0 0 nodecolor
371.47 3039 43.84 19.09 ellipse_path stroke
0 0 0 nodecolor
18 /Times-Roman set_font
348.47 3032.3 moveto 46 (Result) alignedtext
grestore
% freepi
gsave
1 setlinewidth
0 0 0 nodecolor
newpath 558.47 2675.5 moveto
352.47 2675.5 lineto
352.47 2610.5 lineto
558.47 2610.5 lineto
closepath stroke
0 0 0 nodecolor
18 /Times-Roman set_font
434.97 2655.3 moveto 41 (freepi) alignedtext
0 0 0 nodecolor
18 /Times-Roman set_font
441.47 2636.3 moveto 28 ([|; |]) alignedtext
0 0 0 nodecolor
18 /Times-Roman set_font
360.47 2617.3 moveto 190 (1 constraints, 3 generators) alignedtext
grestore
% 13
gsave
0 0 0 nodecolor
18 /Times-Roman set_font
397.97 2553.8 moveto 115 (-thetap+4>=0 ? ) alignedtext
0 0 0 nodecolor
18 /Times-Roman set_font
448.97 2534.8 moveto 13 (\(\)) alignedtext
grestore
% freepi->13
gsave
1 setlinewidth
0 0 0 edgecolor
newpath 455.47 2610.31 moveto
455.47 2601.79 455.47 2592.6 455.47 2584.06 curveto
stroke
0 0 0 edgecolor
newpath 458.97 2584.06 moveto
455.47 2574.06 lineto
451.97 2584.06 lineto
closepath fill
1 setlinewidth
solid
0 0 0 edgecolor
newpath 458.97 2584.06 moveto
455.47 2574.06 lineto
451.97 2584.06 lineto
closepath stroke
grestore
% dampedp_start
gsave
1 setlinewidth
0 0 0 nodecolor
newpath 558.47 2287.5 moveto
352.47 2287.5 lineto
352.47 2222.5 lineto
558.47 2222.5 lineto
closepath stroke
0 0 0 nodecolor
18 /Times-Roman set_font
401.97 2267.3 moveto 107 (dampedp_start) alignedtext
0 0 0 nodecolor
18 /Times-Roman set_font
373.97 2248.3 moveto 163 ([|thetap in [-INF , 4]; |]) alignedtext
0 0 0 nodecolor
18 /Times-Roman set_font
360.47 2229.3 moveto 190 (1 constraints, 3 generators) alignedtext
grestore
% 15
gsave
0 0 0 nodecolor
18 /Times-Roman set_font
250.47 2165.8 moveto 244 (\(thetap+4>=0 and -thetap+4>=0 ?) alignedtext
0 0 0 nodecolor
18 /Times-Roman set_font
286.47 2146.8 moveto 172 (thetap := thetap+thetav;) alignedtext
0 0 0 nodecolor
18 /Times-Roman set_font
241.97 2127.8 moveto 261 (thetav := -1/64thetap+15/16thetav\)*) alignedtext
0 0 0 nodecolor
18 /Times-Roman set_font
365.97 2108.8 moveto 13 (\(\)) alignedtext
grestore
% dampedp_start->15
gsave
1 setlinewidth
0 0 0 edgecolor
newpath 431.01 2222.3 moveto
424.5 2213.59 417.32 2203.98 410.27 2194.56 curveto
stroke
0 0 0 edgecolor
newpath 412.93 2192.27 moveto
404.14 2186.36 lineto
407.33 2196.46 lineto
closepath fill
1 setlinewidth
solid
0 0 0 edgecolor
newpath 412.93 2192.27 moveto
404.14 2186.36 lineto
407.33 2196.46 lineto
closepath stroke
grestore
% dampedne2
gsave
1 setlinewidth
0 0 0 nodecolor
newpath 235.47 740 moveto
29.47 740 lineto
29.47 656 lineto
235.47 656 lineto
closepath stroke
0 0 0 nodecolor
18 /Times-Roman set_font
90.47 719.8 moveto 84 (dampedne2) alignedtext
0 0 0 nodecolor
18 /Times-Roman set_font
54.97 700.8 moveto 155 ([|thetap in [-INF , -4];) alignedtext
0 0 0 nodecolor
18 /Times-Roman set_font
55.47 681.8 moveto 154 (  thetav in [-INF , 0]|]) alignedtext
0 0 0 nodecolor
18 /Times-Roman set_font
37.47 662.8 moveto 190 (2 constraints, 3 generators) alignedtext
grestore
% 2
gsave
0 0 0 nodecolor
18 /Times-Roman set_font
60.97 578.8 moveto 13 (\(\)) alignedtext
grestore
% dampedne2->2
gsave
1 setlinewidth
0 0 0 edgecolor
newpath 105.65 655.92 moveto
99.4 646.11 92.85 635.84 86.99 626.63 curveto
stroke
0 0 0 edgecolor
newpath 89.92 624.73 moveto
81.6 618.18 lineto
84.02 628.49 lineto
closepath fill
1 setlinewidth
solid
0 0 0 edgecolor
newpath 89.92 624.73 moveto
81.6 618.18 lineto
84.02 628.49 lineto
closepath stroke
grestore
% freen_start
gsave
1 setlinewidth
0 0 0 nodecolor
newpath 270.47 1697.5 moveto
64.47 1697.5 lineto
64.47 1632.5 lineto
270.47 1632.5 lineto
closepath stroke
0 0 0 nodecolor
18 /Times-Roman set_font
128.97 1677.3 moveto 77 (freen_start) alignedtext
0 0 0 nodecolor
18 /Times-Roman set_font
82.97 1658.3 moveto 169 ([|thetap in [-INF , -4]; |]) alignedtext
0 0 0 nodecolor
18 /Times-Roman set_font
72.47 1639.3 moveto 190 (1 constraints, 3 generators) alignedtext
grestore
% 16
gsave
0 0 0 nodecolor
18 /Times-Roman set_font
110.47 1575.8 moveto 114 (\(-thetap-4>=0 ?) alignedtext
0 0 0 nodecolor
18 /Times-Roman set_font
81.47 1556.8 moveto 172 (thetap := thetap+thetav;) alignedtext
0 0 0 nodecolor
18 /Times-Roman set_font
57.47 1537.8 moveto 220 (thetav := -1/64thetap+thetav\)*) alignedtext
0 0 0 nodecolor
18 /Times-Roman set_font
160.97 1518.8 moveto 13 (\(\)) alignedtext
grestore
% freen_start->16
gsave
1 setlinewidth
0 0 0 edgecolor
newpath 167.47 1632.3 moveto
167.47 1624.21 167.47 1615.34 167.47 1606.56 curveto
stroke
0 0 0 edgecolor
newpath 170.97 1606.36 moveto
167.47 1596.36 lineto
163.97 1606.36 lineto
closepath fill
1 setlinewidth
solid
0 0 0 edgecolor
newpath 170.97 1606.36 moveto
167.47 1596.36 lineto
163.97 1606.36 lineto
closepath stroke
grestore
% freen
gsave
1 setlinewidth
0 0 0 nodecolor
newpath 193.47 1476 moveto
141.47 1476 lineto
141.47 1430 lineto
193.47 1430 lineto
closepath stroke
0 0 0 nodecolor
18 /Times-Roman set_font
148.97 1455.8 moveto 37 (freen) alignedtext
0 0 0 nodecolor
18 /Times-Roman set_font
155.47 1436.8 moveto 24 (top) alignedtext
grestore
% 7
gsave
0 0 0 nodecolor
18 /Times-Roman set_font
112.97 1373.8 moveto 109 (thetap+4>=0 ? ) alignedtext
0 0 0 nodecolor
18 /Times-Roman set_font
160.97 1354.8 moveto 13 (\(\)) alignedtext
grestore
% freen->7
gsave
1 setlinewidth
0 0 0 edgecolor
newpath 167.47 1429.72 moveto
167.47 1421.78 167.47 1412.73 167.47 1404.16 curveto
stroke
0 0 0 edgecolor
newpath 170.97 1404.05 moveto
167.47 1394.05 lineto
163.97 1404.05 lineto
closepath fill
1 setlinewidth
solid
0 0 0 edgecolor
newpath 170.97 1404.05 moveto
167.47 1394.05 lineto
163.97 1404.05 lineto
closepath stroke
grestore
% dampedne
gsave
1 setlinewidth
0 0 0 nodecolor
newpath 459.47 730.5 moveto
253.47 730.5 lineto
253.47 665.5 lineto
459.47 665.5 lineto
closepath stroke
0 0 0 nodecolor
18 /Times-Roman set_font
318.97 710.3 moveto 75 (dampedne) alignedtext
0 0 0 nodecolor
18 /Times-Roman set_font
277.97 691.3 moveto 157 ([|thetap in [4 , INF]; |]) alignedtext
0 0 0 nodecolor
18 /Times-Roman set_font
261.47 672.3 moveto 190 (1 constraints, 3 generators) alignedtext
grestore
% 4
gsave
0 0 0 nodecolor
18 /Times-Roman set_font
367.97 578.8 moveto 13 (\(\)) alignedtext
grestore
% dampedne->4
gsave
1 setlinewidth
0 0 0 edgecolor
newpath 362.21 665.45 moveto
364.2 654.2 366.43 641.56 368.43 630.19 curveto
stroke
0 0 0 edgecolor
newpath 371.91 630.63 moveto
370.2 620.17 lineto
365.02 629.41 lineto
closepath fill
1 setlinewidth
solid
0 0 0 edgecolor
newpath 371.91 630.63 moveto
370.2 620.17 lineto
365.02 629.41 lineto
closepath stroke
grestore
% freepi_start
gsave
1 setlinewidth
0 0 0 nodecolor
newpath 558.47 2897.5 moveto
352.47 2897.5 lineto
352.47 2832.5 lineto
558.47 2832.5 lineto
closepath stroke
0 0 0 nodecolor
18 /Times-Roman set_font
414.47 2877.3 moveto 82 (freepi_start) alignedtext
0 0 0 nodecolor
18 /Times-Roman set_font
373.47 2858.3 moveto 164 ([|thetap=10; thetav=0|]) alignedtext
0 0 0 nodecolor
18 /Times-Roman set_font
360.47 2839.3 moveto 190 (2 constraints, 1 generators) alignedtext
grestore
% 18
gsave
0 0 0 nodecolor
18 /Times-Roman set_font
401.47 2775.8 moveto 108 (\(thetap-4>=0 ?) alignedtext
0 0 0 nodecolor
18 /Times-Roman set_font
369.47 2756.8 moveto 172 (thetap := thetap+thetav;) alignedtext
0 0 0 nodecolor
18 /Times-Roman set_font
345.47 2737.8 moveto 220 (thetav := -1/64thetap+thetav\)*) alignedtext
0 0 0 nodecolor
18 /Times-Roman set_font
448.97 2718.8 moveto 13 (\(\)) alignedtext
grestore
% freepi_start->18
gsave
1 setlinewidth
0 0 0 edgecolor
newpath 455.47 2832.3 moveto
455.47 2824.21 455.47 2815.34 455.47 2806.56 curveto
stroke
0 0 0 edgecolor
newpath 458.97 2806.36 moveto
455.47 2796.36 lineto
451.97 2806.36 lineto
closepath fill
1 setlinewidth
solid
0 0 0 edgecolor
newpath 458.97 2806.36 moveto
455.47 2796.36 lineto
451.97 2806.36 lineto
closepath stroke
grestore
% freep
gsave
1 setlinewidth
0 0 0 nodecolor
newpath 425.47 314 moveto
373.47 314 lineto
373.47 268 lineto
425.47 268 lineto
closepath stroke
0 0 0 nodecolor
18 /Times-Roman set_font
380.97 293.8 moveto 37 (freep) alignedtext
0 0 0 nodecolor
18 /Times-Roman set_font
387.47 274.8 moveto 24 (top) alignedtext
grestore
% 1
gsave
0 0 0 nodecolor
18 /Times-Roman set_font
343.97 211.8 moveto 115 (-thetap+4>=0 ? ) alignedtext
0 0 0 nodecolor
18 /Times-Roman set_font
394.97 192.8 moveto 13 (\(\)) alignedtext
grestore
% freep->1
gsave
1 setlinewidth
0 0 0 edgecolor
newpath 400.03 267.72 moveto
400.23 259.78 400.45 250.73 400.66 242.16 curveto
stroke
0 0 0 edgecolor
newpath 404.16 242.14 moveto
400.9 232.05 lineto
397.16 241.96 lineto
closepath fill
1 setlinewidth
solid
0 0 0 edgecolor
newpath 404.16 242.14 moveto
400.9 232.05 lineto
397.16 241.96 lineto
closepath stroke
grestore
% dampedpe
gsave
1 setlinewidth
0 0 0 nodecolor
newpath 284.47 1892.5 moveto
78.47 1892.5 lineto
78.47 1827.5 lineto
284.47 1827.5 lineto
closepath stroke
0 0 0 nodecolor
18 /Times-Roman set_font
143.97 1872.3 moveto 75 (dampedpe) alignedtext
0 0 0 nodecolor
18 /Times-Roman set_font
96.97 1853.3 moveto 169 ([|thetap in [-INF , -4]; |]) alignedtext
0 0 0 nodecolor
18 /Times-Roman set_font
86.47 1834.3 moveto 190 (1 constraints, 3 generators) alignedtext
grestore
% 10
gsave
0 0 0 nodecolor
18 /Times-Roman set_font
160.97 1740.8 moveto 13 (\(\)) alignedtext
grestore
% dampedpe->10
gsave
1 setlinewidth
0 0 0 edgecolor
newpath 177 1827.45 moveto
175.45 1816.2 173.72 1803.56 172.16 1792.19 curveto
stroke
0 0 0 edgecolor
newpath 175.61 1791.6 moveto
170.78 1782.17 lineto
168.68 1792.55 lineto
closepath fill
1 setlinewidth
solid
0 0 0 edgecolor
newpath 175.61 1791.6 moveto
170.78 1782.17 lineto
168.68 1792.55 lineto
closepath stroke
grestore
% linit
gsave
1 setlinewidth
0 0 0 nodecolor
newpath 477.47 3062 moveto
433.47 3062 lineto
433.47 3016 lineto
477.47 3016 lineto
closepath stroke
0 0 0 nodecolor
18 /Times-Roman set_font
441.47 3041.8 moveto 28 (linit) alignedtext
0 0 0 nodecolor
18 /Times-Roman set_font
443.47 3022.8 moveto 24 (top) alignedtext
grestore
% 19
gsave
0 0 0 nodecolor
18 /Times-Roman set_font
353.47 2959.8 moveto 204 (thetav=0 and thetap-10=0 ? ) alignedtext
0 0 0 nodecolor
18 /Times-Roman set_font
448.97 2940.8 moveto 13 (\(\)) alignedtext
grestore
% linit->19
gsave
1 setlinewidth
0 0 0 edgecolor
newpath 455.47 3015.72 moveto
455.47 3007.78 455.47 2998.73 455.47 2990.16 curveto
stroke
0 0 0 edgecolor
newpath 458.97 2990.05 moveto
455.47 2980.05 lineto
451.97 2990.05 lineto
closepath fill
1 setlinewidth
solid
0 0 0 edgecolor
newpath 458.97 2990.05 moveto
455.47 2980.05 lineto
451.97 2990.05 lineto
closepath stroke
grestore
% dampedn_start
gsave
1 setlinewidth
0 0 0 nodecolor
newpath 270.47 1125.5 moveto
64.47 1125.5 lineto
64.47 1060.5 lineto
270.47 1060.5 lineto
closepath stroke
0 0 0 nodecolor
18 /Times-Roman set_font
113.97 1105.3 moveto 107 (dampedn_start) alignedtext
0 0 0 nodecolor
18 /Times-Roman set_font
85.97 1086.3 moveto 163 ([|thetap in [-4 , INF]; |]) alignedtext
0 0 0 nodecolor
18 /Times-Roman set_font
72.47 1067.3 moveto 190 (1 constraints, 3 generators) alignedtext
grestore
% 14
gsave
0 0 0 nodecolor
18 /Times-Roman set_font
45.47 1003.8 moveto 244 (\(thetap+4>=0 and -thetap+4>=0 ?) alignedtext
0 0 0 nodecolor
18 /Times-Roman set_font
81.47 984.8 moveto 172 (thetap := thetap+thetav;) alignedtext
0 0 0 nodecolor
18 /Times-Roman set_font
36.97 965.8 moveto 261 (thetav := -1/64thetap+15/16thetav\)*) alignedtext
0 0 0 nodecolor
18 /Times-Roman set_font
160.97 946.8 moveto 13 (\(\)) alignedtext
grestore
% dampedn_start->14
gsave
1 setlinewidth
0 0 0 edgecolor
newpath 167.47 1060.3 moveto
167.47 1052.21 167.47 1043.34 167.47 1034.56 curveto
stroke
0 0 0 edgecolor
newpath 170.97 1034.36 moveto
167.47 1024.36 lineto
163.97 1034.36 lineto
closepath fill
1 setlinewidth
solid
0 0 0 edgecolor
newpath 170.97 1034.36 moveto
167.47 1024.36 lineto
163.97 1034.36 lineto
closepath stroke
grestore
% dampedpe2
gsave
1 setlinewidth
0 0 0 nodecolor
newpath 509.47 1902 moveto
303.47 1902 lineto
303.47 1818 lineto
509.47 1818 lineto
closepath stroke
0 0 0 nodecolor
18 /Times-Roman set_font
364.47 1881.8 moveto 84 (dampedpe2) alignedtext
0 0 0 nodecolor
18 /Times-Roman set_font
334.97 1862.8 moveto 143 ([|thetap in [4 , INF];) alignedtext
0 0 0 nodecolor
18 /Times-Roman set_font
332.47 1843.8 moveto 148 (  thetav in [0 , INF]|]) alignedtext
0 0 0 nodecolor
18 /Times-Roman set_font
311.47 1824.8 moveto 190 (2 constraints, 3 generators) alignedtext
grestore
% 8
gsave
0 0 0 nodecolor
18 /Times-Roman set_font
467.97 1647.8 moveto 13 (\(\)) alignedtext
grestore
% dampedpe2->8
gsave
1 setlinewidth
0 0 0 edgecolor
newpath 421.22 1817.69 moveto
433.65 1782.06 451.18 1731.76 462.69 1698.78 curveto
stroke
0 0 0 edgecolor
newpath 466.06 1699.73 moveto
466.05 1689.14 lineto
459.45 1697.43 lineto
closepath fill
1 setlinewidth
solid
0 0 0 edgecolor
newpath 466.06 1699.73 moveto
466.05 1689.14 lineto
459.45 1697.43 lineto
closepath stroke
grestore
% freep_start
gsave
1 setlinewidth
0 0 0 nodecolor
newpath 495.47 535.5 moveto
289.47 535.5 lineto
289.47 470.5 lineto
495.47 470.5 lineto
closepath stroke
0 0 0 nodecolor
18 /Times-Roman set_font
353.97 515.3 moveto 77 (freep_start) alignedtext
0 0 0 nodecolor
18 /Times-Roman set_font
313.97 496.3 moveto 157 ([|thetap in [4 , INF]; |]) alignedtext
0 0 0 nodecolor
18 /Times-Roman set_font
297.47 477.3 moveto 190 (1 constraints, 3 generators) alignedtext
grestore
% 17
gsave
0 0 0 nodecolor
18 /Times-Roman set_font
338.47 413.8 moveto 108 (\(thetap-4>=0 ?) alignedtext
0 0 0 nodecolor
18 /Times-Roman set_font
306.47 394.8 moveto 172 (thetap := thetap+thetav;) alignedtext
0 0 0 nodecolor
18 /Times-Roman set_font
282.47 375.8 moveto 220 (thetav := -1/64thetap+thetav\)*) alignedtext
0 0 0 nodecolor
18 /Times-Roman set_font
385.97 356.8 moveto 13 (\(\)) alignedtext
grestore
% freep_start->17
gsave
1 setlinewidth
0 0 0 edgecolor
newpath 392.47 470.3 moveto
392.47 462.21 392.47 453.34 392.47 444.56 curveto
stroke
0 0 0 edgecolor
newpath 395.97 444.36 moveto
392.47 434.36 lineto
388.97 444.36 lineto
closepath fill
1 setlinewidth
solid
0 0 0 edgecolor
newpath 395.97 444.36 moveto
392.47 434.36 lineto
388.97 444.36 lineto
closepath stroke
grestore
% freene
gsave
1 setlinewidth
0 0 0 nodecolor
newpath 270.47 1311.5 moveto
64.47 1311.5 lineto
64.47 1246.5 lineto
270.47 1246.5 lineto
closepath stroke
0 0 0 nodecolor
18 /Times-Roman set_font
144.97 1291.3 moveto 45 (freene) alignedtext
0 0 0 nodecolor
18 /Times-Roman set_font
85.97 1272.3 moveto 163 ([|thetap in [-4 , INF]; |]) alignedtext
0 0 0 nodecolor
18 /Times-Roman set_font
72.47 1253.3 moveto 190 (1 constraints, 3 generators) alignedtext
grestore
% 6
gsave
0 0 0 nodecolor
18 /Times-Roman set_font
160.97 1168.8 moveto 13 (\(\)) alignedtext
grestore
% freene->6
gsave
1 setlinewidth
0 0 0 edgecolor
newpath 167.47 1246.47 moveto
167.47 1237.98 167.47 1228.81 167.47 1220.23 curveto
stroke
0 0 0 edgecolor
newpath 170.97 1220.15 moveto
167.47 1210.15 lineto
163.97 1220.15 lineto
closepath fill
1 setlinewidth
solid
0 0 0 edgecolor
newpath 170.97 1220.15 moveto
167.47 1210.15 lineto
163.97 1220.15 lineto
closepath stroke
grestore
% freepie
gsave
1 setlinewidth
0 0 0 nodecolor
newpath 562.47 2492 moveto
348.47 2492 lineto
348.47 2408 lineto
562.47 2408 lineto
closepath stroke
0 0 0 nodecolor
18 /Times-Roman set_font
430.97 2471.8 moveto 49 (freepie) alignedtext
0 0 0 nodecolor
18 /Times-Roman set_font
380.97 2452.8 moveto 149 ([|thetap in [-INF , 4];) alignedtext
0 0 0 nodecolor
18 /Times-Roman set_font
355.97 2433.8 moveto 199 (  thetav in [-INF , -0.0625]|]) alignedtext
0 0 0 nodecolor
18 /Times-Roman set_font
360.47 2414.8 moveto 190 (2 constraints, 3 generators) alignedtext
grestore
% 12
gsave
0 0 0 nodecolor
18 /Times-Roman set_font
448.97 2330.8 moveto 13 (\(\)) alignedtext
grestore
% freepie->12
gsave
1 setlinewidth
0 0 0 edgecolor
newpath 455.47 2407.92 moveto
455.47 2399.36 455.47 2390.45 455.47 2382.19 curveto
stroke
0 0 0 edgecolor
newpath 458.97 2382.17 moveto
455.47 2372.17 lineto
451.97 2382.17 lineto
closepath fill
1 setlinewidth
solid
0 0 0 edgecolor
newpath 458.97 2382.17 moveto
455.47 2372.17 lineto
451.97 2382.17 lineto
closepath stroke
grestore
% dampedn
gsave
1 setlinewidth
0 0 0 nodecolor
newpath 208.47 904 moveto
126.47 904 lineto
126.47 858 lineto
208.47 858 lineto
closepath stroke
0 0 0 nodecolor
18 /Times-Roman set_font
133.97 883.8 moveto 67 (dampedn) alignedtext
0 0 0 nodecolor
18 /Times-Roman set_font
155.47 864.8 moveto 24 (top) alignedtext
grestore
% 3
gsave
0 0 0 nodecolor
18 /Times-Roman set_font
38.47 801.8 moveto 228 (-thetav>=0 and -thetap-4>=0 ? ) alignedtext
0 0 0 nodecolor
18 /Times-Roman set_font
145.97 782.8 moveto 13 (\(\)) alignedtext
grestore
% dampedn->3
gsave
1 setlinewidth
0 0 0 edgecolor
newpath 163.21 857.72 moveto
161.76 849.78 160.1 840.73 158.53 832.16 curveto
stroke
0 0 0 edgecolor
newpath 161.93 831.26 moveto
156.68 822.05 lineto
155.04 832.52 lineto
closepath fill
1 setlinewidth
solid
0 0 0 edgecolor
newpath 161.93 831.26 moveto
156.68 822.05 lineto
155.04 832.52 lineto
closepath stroke
grestore
% 5
gsave
0 0 0 nodecolor
18 /Times-Roman set_font
301.47 801.8 moveto 106 (thetap-4>=0 ? ) alignedtext
0 0 0 nodecolor
18 /Times-Roman set_font
347.97 782.8 moveto 13 (\(\)) alignedtext
grestore
% dampedn->5
gsave
1 setlinewidth
0 0 0 edgecolor
newpath 208.5 863 moveto
233.14 852.2 264.95 838.25 292.59 826.14 curveto
stroke
0 0 0 edgecolor
newpath 294.03 829.32 moveto
301.78 822.1 lineto
291.22 822.91 lineto
closepath fill
1 setlinewidth
solid
0 0 0 edgecolor
newpath 294.03 829.32 moveto
301.78 822.1 lineto
291.22 822.91 lineto
closepath stroke
grestore
% freepe
gsave
1 setlinewidth
0 0 0 nodecolor
newpath 508.47 149.5 moveto
302.47 149.5 lineto
302.47 84.5 lineto
508.47 84.5 lineto
closepath stroke
0 0 0 nodecolor
18 /Times-Roman set_font
382.97 129.3 moveto 45 (freepe) alignedtext
0 0 0 nodecolor
18 /Times-Roman set_font
323.97 110.3 moveto 163 ([|thetap in [-INF , 4]; |]) alignedtext
0 0 0 nodecolor
18 /Times-Roman set_font
310.47 91.3 moveto 190 (1 constraints, 3 generators) alignedtext
grestore
% 0
gsave
0 0 0 nodecolor
18 /Times-Roman set_font
464.97 6.8 moveto 13 (\(\)) alignedtext
grestore
% freepe->0
gsave
1 setlinewidth
0 0 0 edgecolor
newpath 428.55 84.47 moveto
436.04 73.92 444.29 62.3 451.53 52.09 curveto
stroke
0 0 0 edgecolor
newpath 454.41 54.09 moveto
457.34 43.9 lineto
448.7 50.03 lineto
closepath fill
1 setlinewidth
solid
0 0 0 edgecolor
newpath 454.41 54.09 moveto
457.34 43.9 lineto
448.7 50.03 lineto
closepath stroke
grestore
% dampedp
gsave
1 setlinewidth
0 0 0 nodecolor
newpath 413.47 2066 moveto
331.47 2066 lineto
331.47 2020 lineto
413.47 2020 lineto
closepath stroke
0 0 0 nodecolor
18 /Times-Roman set_font
338.97 2045.8 moveto 67 (dampedp) alignedtext
0 0 0 nodecolor
18 /Times-Roman set_font
360.47 2026.8 moveto 24 (top) alignedtext
grestore
% 9
gsave
0 0 0 nodecolor
18 /Times-Roman set_font
280.47 1963.8 moveto 216 (thetav>=0 and thetap-4>=0 ? ) alignedtext
0 0 0 nodecolor
18 /Times-Roman set_font
381.97 1944.8 moveto 13 (\(\)) alignedtext
grestore
% dampedp->9
gsave
1 setlinewidth
0 0 0 edgecolor
newpath 377.01 2019.72 moveto
378.58 2011.69 380.36 2002.53 382.05 1993.88 curveto
stroke
0 0 0 edgecolor
newpath 385.49 1994.54 moveto
383.97 1984.05 lineto
378.62 1993.2 lineto
closepath fill
1 setlinewidth
solid
0 0 0 edgecolor
newpath 385.49 1994.54 moveto
383.97 1984.05 lineto
378.62 1993.2 lineto
closepath stroke
grestore
% 11
gsave
0 0 0 nodecolor
18 /Times-Roman set_font
128.47 1963.8 moveto 112 (-thetap-4>=0 ? ) alignedtext
0 0 0 nodecolor
18 /Times-Roman set_font
177.97 1944.8 moveto 13 (\(\)) alignedtext
grestore
% dampedp->11
gsave
1 setlinewidth
0 0 0 edgecolor
newpath 331.21 2025 moveto
306.45 2014.2 274.46 2000.25 246.68 1988.14 curveto
stroke
0 0 0 edgecolor
newpath 248 1984.89 moveto
237.43 1984.1 lineto
245.2 1991.31 lineto
closepath fill
1 setlinewidth
solid
0 0 0 edgecolor
newpath 248 1984.89 moveto
237.43 1984.1 lineto
245.2 1991.31 lineto
closepath stroke
grestore
% 0->dampedp_start
gsave
1 setlinewidth
0 0 0 edgecolor
newpath 485.85 38.45 moveto
496.32 49.85 509.93 66.67 517.47 84 curveto
539.94 135.66 538.47 152.67 538.47 209 curveto
538.47 2043 538.47 2043 538.47 2043 curveto
538.47 2107.11 546.77 2127.99 519.47 2186 curveto
514.62 2196.29 507.68 2206.09 500.14 2214.9 curveto
stroke
0 0 0 edgecolor
newpath 497.5 2212.6 moveto
493.4 2222.37 lineto
502.69 2217.29 lineto
closepath fill
1 setlinewidth
solid
0 0 0 edgecolor
newpath 497.5 2212.6 moveto
493.4 2222.37 lineto
502.69 2217.29 lineto
closepath stroke
grestore
% 1->freepe
gsave
1 setlinewidth
0 0 0 edgecolor
newpath 402.48 185.78 moveto
402.82 177.82 403.22 168.63 403.61 159.62 curveto
stroke
0 0 0 edgecolor
newpath 407.11 159.73 moveto
404.05 149.59 lineto
400.12 159.43 lineto
closepath fill
1 setlinewidth
solid
0 0 0 edgecolor
newpath 407.11 159.73 moveto
404.05 149.59 lineto
400.12 159.43 lineto
closepath stroke
grestore
% 2->freen_start
gsave
1 setlinewidth
0 0 0 edgecolor
newpath 53.04 609.85 moveto
42.19 621.18 27.96 638.19 20.47 656 curveto
-4.4 715.1 1.47 734.89 1.47 799 curveto
1.47 1453 1.47 1453 1.47 1453 curveto
1.47 1518.88 -.43 1544.35 40.47 1596 curveto
50.05 1608.1 62.36 1618.37 75.54 1627 curveto
stroke
0 0 0 edgecolor
newpath 73.96 1630.13 moveto
84.3 1632.42 lineto
77.64 1624.18 lineto
closepath fill
1 setlinewidth
solid
0 0 0 edgecolor
newpath 73.96 1630.13 moveto
84.3 1632.42 lineto
77.64 1624.18 lineto
closepath stroke
grestore
% 3->dampedne2
gsave
1 setlinewidth
0 0 0 edgecolor
newpath 147.88 775.83 moveto
146.34 768.04 144.55 759.02 142.75 749.94 curveto
stroke
0 0 0 edgecolor
newpath 146.18 749.24 moveto
140.8 740.11 lineto
139.31 750.6 lineto
closepath fill
1 setlinewidth
solid
0 0 0 edgecolor
newpath 146.18 749.24 moveto
140.8 740.11 lineto
139.31 750.6 lineto
closepath stroke
grestore
% 4->freep_start
gsave
1 setlinewidth
0 0 0 edgecolor
newpath 379.2 571.57 moveto
380.74 563.59 382.5 554.48 384.23 545.57 curveto
stroke
0 0 0 edgecolor
newpath 387.68 546.15 moveto
386.14 535.67 lineto
380.81 544.82 lineto
closepath fill
1 setlinewidth
solid
0 0 0 edgecolor
newpath 387.68 546.15 moveto
386.14 535.67 lineto
380.81 544.82 lineto
closepath stroke
grestore
% 5->dampedne
gsave
1 setlinewidth
0 0 0 edgecolor
newpath 354.93 775.83 moveto
355.13 765.47 355.38 752.91 355.62 740.94 curveto
stroke
0 0 0 edgecolor
newpath 359.12 740.7 moveto
355.82 730.63 lineto
352.12 740.56 lineto
closepath fill
1 setlinewidth
solid
0 0 0 edgecolor
newpath 359.12 740.7 moveto
355.82 730.63 lineto
352.12 740.56 lineto
closepath stroke
grestore
% 6->dampedn_start
gsave
1 setlinewidth
0 0 0 edgecolor
newpath 167.47 1161.57 moveto
167.47 1153.67 167.47 1144.68 167.47 1135.86 curveto
stroke
0 0 0 edgecolor
newpath 170.97 1135.67 moveto
167.47 1125.67 lineto
163.97 1135.67 lineto
closepath fill
1 setlinewidth
solid
0 0 0 edgecolor
newpath 170.97 1135.67 moveto
167.47 1125.67 lineto
163.97 1135.67 lineto
closepath stroke
grestore
% 7->freene
gsave
1 setlinewidth
0 0 0 edgecolor
newpath 167.47 1347.78 moveto
167.47 1339.82 167.47 1330.63 167.47 1321.62 curveto
stroke
0 0 0 edgecolor
newpath 170.97 1321.59 moveto
167.47 1311.59 lineto
163.97 1321.59 lineto
closepath fill
1 setlinewidth
solid
0 0 0 edgecolor
newpath 170.97 1321.59 moveto
167.47 1311.59 lineto
163.97 1321.59 lineto
closepath stroke
grestore
% 8->freep_start
gsave
1 setlinewidth
0 0 0 edgecolor
newpath 476.91 1640.87 moveto
480.68 1601.55 487.47 1521.22 487.47 1453 curveto
487.47 1453 487.47 1453 487.47 698 curveto
487.47 640.06 453.15 581.32 425.77 543.68 curveto
stroke
0 0 0 edgecolor
newpath 428.47 541.45 moveto
419.69 535.51 lineto
422.85 545.63 lineto
closepath fill
1 setlinewidth
solid
0 0 0 edgecolor
newpath 428.47 541.45 moveto
419.69 535.51 lineto
422.85 545.63 lineto
closepath stroke
grestore
% 9->dampedpe2
gsave
1 setlinewidth
0 0 0 edgecolor
newpath 392.6 1937.83 moveto
393.97 1930.13 395.56 1921.21 397.16 1912.22 curveto
stroke
0 0 0 edgecolor
newpath 400.65 1912.57 moveto
398.96 1902.11 lineto
393.76 1911.34 lineto
closepath fill
1 setlinewidth
solid
0 0 0 edgecolor
newpath 400.65 1912.57 moveto
398.96 1902.11 lineto
393.76 1911.34 lineto
closepath stroke
grestore
% 10->freen_start
gsave
1 setlinewidth
0 0 0 edgecolor
newpath 167.47 1733.57 moveto
167.47 1725.67 167.47 1716.68 167.47 1707.86 curveto
stroke
0 0 0 edgecolor
newpath 170.97 1707.67 moveto
167.47 1697.67 lineto
163.97 1707.67 lineto
closepath fill
1 setlinewidth
solid
0 0 0 edgecolor
newpath 170.97 1707.67 moveto
167.47 1697.67 lineto
163.97 1707.67 lineto
closepath stroke
grestore
% 11->dampedpe
gsave
1 setlinewidth
0 0 0 edgecolor
newpath 183.78 1937.83 moveto
183.47 1927.47 183.1 1914.91 182.74 1902.94 curveto
stroke
0 0 0 edgecolor
newpath 186.23 1902.52 moveto
182.44 1892.63 lineto
179.23 1902.73 lineto
closepath fill
1 setlinewidth
solid
0 0 0 edgecolor
newpath 186.23 1902.52 moveto
182.44 1892.63 lineto
179.23 1902.73 lineto
closepath stroke
grestore
% 12->dampedp_start
gsave
1 setlinewidth
0 0 0 edgecolor
newpath 455.47 2323.57 moveto
455.47 2315.67 455.47 2306.68 455.47 2297.86 curveto
stroke
0 0 0 edgecolor
newpath 458.97 2297.67 moveto
455.47 2287.67 lineto
451.97 2297.67 lineto
closepath fill
1 setlinewidth
solid
0 0 0 edgecolor
newpath 458.97 2297.67 moveto
455.47 2287.67 lineto
451.97 2297.67 lineto
closepath stroke
grestore
% 13->freepie
gsave
1 setlinewidth
0 0 0 edgecolor
newpath 455.47 2527.83 moveto
455.47 2520.13 455.47 2511.21 455.47 2502.22 curveto
stroke
0 0 0 edgecolor
newpath 458.97 2502.11 moveto
455.47 2492.11 lineto
451.97 2502.11 lineto
closepath fill
1 setlinewidth
solid
0 0 0 edgecolor
newpath 458.97 2502.11 moveto
455.47 2492.11 lineto
451.97 2502.11 lineto
closepath stroke
grestore
% 14->dampedn
gsave
1 setlinewidth
0 0 0 edgecolor
newpath 167.47 939.75 moveto
167.47 931.26 167.47 922.44 167.47 914.31 curveto
stroke
0 0 0 edgecolor
newpath 170.97 914.08 moveto
167.47 904.08 lineto
163.97 914.08 lineto
closepath fill
1 setlinewidth
solid
0 0 0 edgecolor
newpath 170.97 914.08 moveto
167.47 904.08 lineto
163.97 914.08 lineto
closepath stroke
grestore
% 15->dampedp
gsave
1 setlinewidth
0 0 0 edgecolor
newpath 372.47 2101.75 moveto
372.47 2093.26 372.47 2084.44 372.47 2076.31 curveto
stroke
0 0 0 edgecolor
newpath 375.97 2076.08 moveto
372.47 2066.08 lineto
368.97 2076.08 lineto
closepath fill
1 setlinewidth
solid
0 0 0 edgecolor
newpath 375.97 2076.08 moveto
372.47 2066.08 lineto
368.97 2076.08 lineto
closepath stroke
grestore
% 16->freen
gsave
1 setlinewidth
0 0 0 edgecolor
newpath 167.47 1511.75 moveto
167.47 1503.26 167.47 1494.44 167.47 1486.31 curveto
stroke
0 0 0 edgecolor
newpath 170.97 1486.08 moveto
167.47 1476.08 lineto
163.97 1486.08 lineto
closepath fill
1 setlinewidth
solid
0 0 0 edgecolor
newpath 170.97 1486.08 moveto
167.47 1476.08 lineto
163.97 1486.08 lineto
closepath stroke
grestore
% 17->freep
gsave
1 setlinewidth
0 0 0 edgecolor
newpath 395.39 349.75 moveto
395.98 341.26 396.59 332.44 397.16 324.31 curveto
stroke
0 0 0 edgecolor
newpath 400.67 324.3 moveto
397.87 314.08 lineto
393.68 323.81 lineto
closepath fill
1 setlinewidth
solid
0 0 0 edgecolor
newpath 400.67 324.3 moveto
397.87 314.08 lineto
393.68 323.81 lineto
closepath stroke
grestore
% 18->freepi
gsave
1 setlinewidth
0 0 0 edgecolor
newpath 455.47 2711.72 moveto
455.47 2703.27 455.47 2694.38 455.47 2685.91 curveto
stroke
0 0 0 edgecolor
newpath 458.97 2685.84 moveto
455.47 2675.84 lineto
451.97 2685.84 lineto
closepath fill
1 setlinewidth
solid
0 0 0 edgecolor
newpath 458.97 2685.84 moveto
455.47 2675.84 lineto
451.97 2685.84 lineto
closepath stroke
grestore
% 19->freepi_start
gsave
1 setlinewidth
0 0 0 edgecolor
newpath 455.47 2933.78 moveto
455.47 2925.82 455.47 2916.63 455.47 2907.62 curveto
stroke
0 0 0 edgecolor
newpath 458.97 2907.59 moveto
455.47 2897.59 lineto
451.97 2907.59 lineto
closepath fill
1 setlinewidth
solid
0 0 0 edgecolor
newpath 458.97 2907.59 moveto
455.47 2897.59 lineto
451.97 2907.59 lineto
closepath stroke
grestore
endpage
showpage
grestore
%%PageTrailer
%%EndPage: 3
%%Trailer
%%Pages: 3
%%BoundingBox: 36 36 968 3384
end
restore
%%EOF
