%!PS-Adobe-3.0
%%Creator: graphviz version 2.26.3 (20100126.1600)
%%Title: G
%%Pages: (atend)
%%BoundingBox: (atend)
%%EndComments
save
%%BeginProlog
/DotDict 200 dict def
DotDict begin

/setupLatin1 {
mark
/EncodingVector 256 array def
 EncodingVector 0

ISOLatin1Encoding 0 255 getinterval putinterval
EncodingVector 45 /hyphen put

% Set up ISO Latin 1 character encoding
/starnetISO {
        dup dup findfont dup length dict begin
        { 1 index /FID ne { def }{ pop pop } ifelse
        } forall
        /Encoding EncodingVector def
        currentdict end definefont
} def
/Times-Roman starnetISO def
/Times-Italic starnetISO def
/Times-Bold starnetISO def
/Times-BoldItalic starnetISO def
/Helvetica starnetISO def
/Helvetica-Oblique starnetISO def
/Helvetica-Bold starnetISO def
/Helvetica-BoldOblique starnetISO def
/Courier starnetISO def
/Courier-Oblique starnetISO def
/Courier-Bold starnetISO def
/Courier-BoldOblique starnetISO def
cleartomark
} bind def

%%BeginResource: procset graphviz 0 0
/coord-font-family /Times-Roman def
/default-font-family /Times-Roman def
/coordfont coord-font-family findfont 8 scalefont def

/InvScaleFactor 1.0 def
/set_scale {
       dup 1 exch div /InvScaleFactor exch def
       scale
} bind def

% styles
/solid { [] 0 setdash } bind def
/dashed { [9 InvScaleFactor mul dup ] 0 setdash } bind def
/dotted { [1 InvScaleFactor mul 6 InvScaleFactor mul] 0 setdash } bind def
/invis {/fill {newpath} def /stroke {newpath} def /show {pop newpath} def} bind def
/bold { 2 setlinewidth } bind def
/filled { } bind def
/unfilled { } bind def
/rounded { } bind def
/diagonals { } bind def

% hooks for setting color 
/nodecolor { sethsbcolor } bind def
/edgecolor { sethsbcolor } bind def
/graphcolor { sethsbcolor } bind def
/nopcolor {pop pop pop} bind def

/beginpage {	% i j npages
	/npages exch def
	/j exch def
	/i exch def
	/str 10 string def
	npages 1 gt {
		gsave
			coordfont setfont
			0 0 moveto
			(\() show i str cvs show (,) show j str cvs show (\)) show
		grestore
	} if
} bind def

/set_font {
	findfont exch
	scalefont setfont
} def

% draw text fitted to its expected width
/alignedtext {			% width text
	/text exch def
	/width exch def
	gsave
		width 0 gt {
			[] 0 setdash
			text stringwidth pop width exch sub text length div 0 text ashow
		} if
	grestore
} def

/boxprim {				% xcorner ycorner xsize ysize
		4 2 roll
		moveto
		2 copy
		exch 0 rlineto
		0 exch rlineto
		pop neg 0 rlineto
		closepath
} bind def

/ellipse_path {
	/ry exch def
	/rx exch def
	/y exch def
	/x exch def
	matrix currentmatrix
	newpath
	x y translate
	rx ry scale
	0 0 1 0 360 arc
	setmatrix
} bind def

/endpage { showpage } bind def
/showpage { } def

/layercolorseq
	[	% layer color sequence - darkest to lightest
		[0 0 0]
		[.2 .8 .8]
		[.4 .8 .8]
		[.6 .8 .8]
		[.8 .8 .8]
	]
def

/layerlen layercolorseq length def

/setlayer {/maxlayer exch def /curlayer exch def
	layercolorseq curlayer 1 sub layerlen mod get
	aload pop sethsbcolor
	/nodecolor {nopcolor} def
	/edgecolor {nopcolor} def
	/graphcolor {nopcolor} def
} bind def

/onlayer { curlayer ne {invis} if } def

/onlayers {
	/myupper exch def
	/mylower exch def
	curlayer mylower lt
	curlayer myupper gt
	or
	{invis} if
} def

/curlayer 0 def

%%EndResource
%%EndProlog
%%BeginSetup
14 default-font-family set_font
1 setmiterlimit
% /arrowlength 10 def
% /arrowwidth 5 def

% make sure pdfmark is harmless for PS-interpreters other than Distiller
/pdfmark where {pop} {userdict /pdfmark /cleartomark load put} ifelse
% make '<<' and '>>' safe on PS Level 1 devices
/languagelevel where {pop languagelevel}{1} ifelse
2 lt {
    userdict (<<) cvn ([) cvn load put
    userdict (>>) cvn ([) cvn load put
} if

%%EndSetup
setupLatin1
%%Page: 1 1
%%PageBoundingBox: 36 36 1786 740
%%PageOrientation: Portrait
0 0 1 beginpage
gsave
36 36 1750 704 boxprim clip newpath
1 1 set_scale 0 rotate 40 41 translate
% 1073741823
gsave
1 setlinewidth
0 0 0 nodecolor
787 673 43.84 19.09 ellipse_path stroke
0 0 0 nodecolor
18 /Times-Roman set_font
764 666.3 moveto 46 (Result) alignedtext
grestore
% paraxye
gsave
1 setlinewidth
0 0 0 nodecolor
newpath 641 94 moveto
397 94 lineto
397 10 lineto
641 10 lineto
closepath stroke
0 0 0 nodecolor
18 /Times-Roman set_font
490 73.8 moveto 58 (paraxye) alignedtext
0 0 0 nodecolor
18 /Times-Roman set_font
404.5 54.8 moveto 229 ([|t in [4.32 , 8]; x in [23.48 , 30];) alignedtext
0 0 0 nodecolor
18 /Times-Roman set_font
442 35.8 moveto 154 (  y in [5.618 , 8.409]|]) alignedtext
0 0 0 nodecolor
18 /Times-Roman set_font
415 16.8 moveto 208 (11 constraints, 15 generators) alignedtext
grestore
% parax
gsave
1 setlinewidth
0 0 0 nodecolor
newpath 983 308 moveto
759 308 lineto
759 224 lineto
983 224 lineto
closepath stroke
0 0 0 nodecolor
18 /Times-Roman set_font
850.5 287.8 moveto 41 (parax) alignedtext
0 0 0 nodecolor
18 /Times-Roman set_font
771.5 268.8 moveto 199 ([|t in [0 , 9]; x in [0 , 38.44];) alignedtext
0 0 0 nodecolor
18 /Times-Roman set_font
809 249.8 moveto 124 (  y in [0 , 9.444]|]) alignedtext
0 0 0 nodecolor
18 /Times-Roman set_font
767 230.8 moveto 208 (23 constraints, 25 generators) alignedtext
grestore
% 4
gsave
0 0 0 nodecolor
18 /Times-Roman set_font
831.5 166.8 moveto 79 (x-31>=0 ? ) alignedtext
0 0 0 nodecolor
18 /Times-Roman set_font
864.5 147.8 moveto 13 (\(\)) alignedtext
grestore
% parax->4
gsave
1 setlinewidth
0 0 0 edgecolor
newpath 871 223.92 moveto
871 215.05 871 205.8 871 197.3 curveto
stroke
0 0 0 edgecolor
newpath 874.5 197.02 moveto
871 187.02 lineto
867.5 197.02 lineto
closepath fill
1 setlinewidth
solid
0 0 0 edgecolor
newpath 874.5 197.02 moveto
871 187.02 lineto
867.5 197.02 lineto
closepath stroke
grestore
% paray
gsave
1 setlinewidth
0 0 0 nodecolor
newpath 1335 308 moveto
1111 308 lineto
1111 224 lineto
1335 224 lineto
closepath stroke
0 0 0 nodecolor
18 /Times-Roman set_font
1202.5 287.8 moveto 41 (paray) alignedtext
0 0 0 nodecolor
18 /Times-Roman set_font
1123.5 268.8 moveto 199 ([|t in [0 , 8]; x in [0 , 36.22];) alignedtext
0 0 0 nodecolor
18 /Times-Roman set_font
1176.5 249.8 moveto 93 (  y in [0 , 8]|]) alignedtext
0 0 0 nodecolor
18 /Times-Roman set_font
1119 230.8 moveto 208 (20 constraints, 23 generators) alignedtext
grestore
% 6
gsave
0 0 0 nodecolor
18 /Times-Roman set_font
1188 166.8 moveto 70 (y-8>=0 ? ) alignedtext
0 0 0 nodecolor
18 /Times-Roman set_font
1216.5 147.8 moveto 13 (\(\)) alignedtext
grestore
% paray->6
gsave
1 setlinewidth
0 0 0 edgecolor
newpath 1223 223.92 moveto
1223 215.05 1223 205.8 1223 197.3 curveto
stroke
0 0 0 edgecolor
newpath 1226.5 197.02 moveto
1223 187.02 lineto
1219.5 197.02 lineto
closepath fill
1 setlinewidth
solid
0 0 0 edgecolor
newpath 1226.5 197.02 moveto
1223 187.02 lineto
1219.5 197.02 lineto
closepath stroke
grestore
% paraxyy_start
gsave
1 setlinewidth
0 0 0 nodecolor
newpath 279 511.5 moveto
55 511.5 lineto
55 446.5 lineto
279 446.5 lineto
closepath stroke
0 0 0 nodecolor
18 /Times-Roman set_font
117 491.3 moveto 100 (paraxyy_start) alignedtext
0 0 0 nodecolor
18 /Times-Roman set_font
62.5 472.3 moveto 209 ([|t=0; x in [0 , 2]; y in [0 , 2]|]) alignedtext
0 0 0 nodecolor
18 /Times-Roman set_font
72 453.3 moveto 190 (5 constraints, 4 generators) alignedtext
grestore
% 1
gsave
0 0 0 nodecolor
18 /Times-Roman set_font
108.5 389.3 moveto 117 (\(-x+2y+30>=0 ?) alignedtext
0 0 0 nodecolor
18 /Times-Roman set_font
65 370.3 moveto 204 (t := t+1; x := x+y; y := y+1\)*) alignedtext
0 0 0 nodecolor
18 /Times-Roman set_font
160.5 351.3 moveto 13 (\(\)) alignedtext
grestore
% paraxyy_start->1
gsave
1 setlinewidth
0 0 0 edgecolor
newpath 167 446.45 moveto
167 437.98 167 428.73 167 419.83 curveto
stroke
0 0 0 edgecolor
newpath 170.5 419.59 moveto
167 409.59 lineto
163.5 419.59 lineto
closepath fill
1 setlinewidth
solid
0 0 0 edgecolor
newpath 170.5 419.59 moveto
167 409.59 lineto
163.5 419.59 lineto
closepath stroke
grestore
% linit
gsave
1 setlinewidth
0 0 0 nodecolor
newpath 893 696 moveto
849 696 lineto
849 650 lineto
893 650 lineto
closepath stroke
0 0 0 nodecolor
18 /Times-Roman set_font
857 675.8 moveto 28 (linit) alignedtext
0 0 0 nodecolor
18 /Times-Roman set_font
859 656.8 moveto 24 (top) alignedtext
grestore
% 10
gsave
0 0 0 nodecolor
18 /Times-Roman set_font
7.5 593.3 moveto 319 (-y+2>=0 and y>=0 and -x+2>=0 and x>=0 ?) alignedtext
0 0 0 nodecolor
18 /Times-Roman set_font
148 574.3 moveto 38 (t := 0) alignedtext
0 0 0 nodecolor
18 /Times-Roman set_font
160.5 555.3 moveto 13 (\(\)) alignedtext
grestore
% linit->10
gsave
1 setlinewidth
0 0 0 edgecolor
newpath 848.83 654.34 moveto
845.99 652.63 843.02 651.12 840 650 curveto
739.02 612.53 468.18 627.35 344.24 614.01 curveto
stroke
0 0 0 edgecolor
newpath 344.49 610.51 moveto
334.14 612.81 lineto
343.66 617.46 lineto
closepath fill
1 setlinewidth
solid
0 0 0 edgecolor
newpath 344.49 610.51 moveto
334.14 612.81 lineto
343.66 617.46 lineto
closepath stroke
grestore
% 11
gsave
0 0 0 nodecolor
18 /Times-Roman set_font
359.5 593.3 moveto 319 (-y+2>=0 and y>=0 and -x+2>=0 and x>=0 ?) alignedtext
0 0 0 nodecolor
18 /Times-Roman set_font
500 574.3 moveto 38 (t := 0) alignedtext
0 0 0 nodecolor
18 /Times-Roman set_font
512.5 555.3 moveto 13 (\(\)) alignedtext
grestore
% linit->11
gsave
1 setlinewidth
0 0 0 edgecolor
newpath 848.66 654.75 moveto
845.85 652.96 842.93 651.33 840 650 curveto
825.43 643.41 761.94 629.33 695.22 615.6 curveto
stroke
0 0 0 edgecolor
newpath 695.86 612.16 moveto
685.36 613.58 lineto
694.46 619.02 lineto
closepath fill
1 setlinewidth
solid
0 0 0 edgecolor
newpath 695.86 612.16 moveto
685.36 613.58 lineto
694.46 619.02 lineto
closepath stroke
grestore
% 12
gsave
0 0 0 nodecolor
18 /Times-Roman set_font
711.5 593.3 moveto 319 (-y+2>=0 and y>=0 and -x+2>=0 and x>=0 ?) alignedtext
0 0 0 nodecolor
18 /Times-Roman set_font
852 574.3 moveto 38 (t := 0) alignedtext
0 0 0 nodecolor
18 /Times-Roman set_font
864.5 555.3 moveto 13 (\(\)) alignedtext
grestore
% linit->12
gsave
1 setlinewidth
0 0 0 edgecolor
newpath 871 649.78 moveto
871 641.82 871 632.63 871 623.62 curveto
stroke
0 0 0 edgecolor
newpath 874.5 623.59 moveto
871 613.59 lineto
867.5 623.59 lineto
closepath fill
1 setlinewidth
solid
0 0 0 edgecolor
newpath 874.5 623.59 moveto
871 613.59 lineto
867.5 623.59 lineto
closepath stroke
grestore
% 13
gsave
0 0 0 nodecolor
18 /Times-Roman set_font
1063.5 593.3 moveto 319 (-y+2>=0 and y>=0 and -x+2>=0 and x>=0 ?) alignedtext
0 0 0 nodecolor
18 /Times-Roman set_font
1204 574.3 moveto 38 (t := 0) alignedtext
0 0 0 nodecolor
18 /Times-Roman set_font
1216.5 555.3 moveto 13 (\(\)) alignedtext
grestore
% linit->13
gsave
1 setlinewidth
0 0 0 edgecolor
newpath 893.02 667.24 moveto
931.84 657.1 1015.28 635.29 1088.55 616.14 curveto
stroke
0 0 0 edgecolor
newpath 1089.56 619.49 moveto
1098.35 613.58 lineto
1087.79 612.72 lineto
closepath fill
1 setlinewidth
solid
0 0 0 edgecolor
newpath 1089.56 619.49 moveto
1098.35 613.58 lineto
1087.79 612.72 lineto
closepath stroke
grestore
% 14
gsave
0 0 0 nodecolor
18 /Times-Roman set_font
1415.5 593.3 moveto 319 (-y+2>=0 and y>=0 and -x+2>=0 and x>=0 ?) alignedtext
0 0 0 nodecolor
18 /Times-Roman set_font
1556 574.3 moveto 38 (t := 0) alignedtext
0 0 0 nodecolor
18 /Times-Roman set_font
1568.5 555.3 moveto 13 (\(\)) alignedtext
grestore
% linit->14
gsave
1 setlinewidth
0 0 0 edgecolor
newpath 893.21 671.11 moveto
964.77 664.9 1195.93 643.88 1397.64 614.17 curveto
stroke
0 0 0 edgecolor
newpath 1398.46 617.58 moveto
1407.83 612.65 lineto
1397.43 610.66 lineto
closepath fill
1 setlinewidth
solid
0 0 0 edgecolor
newpath 1398.46 617.58 moveto
1407.83 612.65 lineto
1397.43 610.66 lineto
closepath stroke
grestore
% paray_start
gsave
1 setlinewidth
0 0 0 nodecolor
newpath 1335 511.5 moveto
1111 511.5 lineto
1111 446.5 lineto
1335 446.5 lineto
closepath stroke
0 0 0 nodecolor
18 /Times-Roman set_font
1182 491.3 moveto 82 (paray_start) alignedtext
0 0 0 nodecolor
18 /Times-Roman set_font
1118.5 472.3 moveto 209 ([|t=0; x in [0 , 2]; y in [0 , 2]|]) alignedtext
0 0 0 nodecolor
18 /Times-Roman set_font
1128 453.3 moveto 190 (5 constraints, 4 generators) alignedtext
grestore
% 7
gsave
0 0 0 nodecolor
18 /Times-Roman set_font
1182.5 389.3 moveto 81 (\(-y+7>=0 ?) alignedtext
0 0 0 nodecolor
18 /Times-Roman set_font
1121 370.3 moveto 204 (t := t+1; x := x+y; y := y+1\)*) alignedtext
0 0 0 nodecolor
18 /Times-Roman set_font
1216.5 351.3 moveto 13 (\(\)) alignedtext
grestore
% paray_start->7
gsave
1 setlinewidth
0 0 0 edgecolor
newpath 1223 446.45 moveto
1223 437.98 1223 428.73 1223 419.83 curveto
stroke
0 0 0 edgecolor
newpath 1226.5 419.59 moveto
1223 409.59 lineto
1219.5 419.59 lineto
closepath fill
1 setlinewidth
solid
0 0 0 edgecolor
newpath 1226.5 419.59 moveto
1223 409.59 lineto
1219.5 419.59 lineto
closepath stroke
grestore
% paraye
gsave
1 setlinewidth
0 0 0 nodecolor
newpath 1355 84.5 moveto
1091 84.5 lineto
1091 19.5 lineto
1355 19.5 lineto
closepath stroke
0 0 0 nodecolor
18 /Times-Roman set_font
1198.5 64.3 moveto 49 (paraye) alignedtext
0 0 0 nodecolor
18 /Times-Roman set_font
1098.5 45.3 moveto 249 ([|t in [6 , 8]; x in [27 , 36.22]; y=8|]) alignedtext
0 0 0 nodecolor
18 /Times-Roman set_font
1128 26.3 moveto 190 (7 constraints, 6 generators) alignedtext
grestore
% para
gsave
1 setlinewidth
0 0 0 nodecolor
newpath 1687 308 moveto
1463 308 lineto
1463 224 lineto
1687 224 lineto
closepath stroke
0 0 0 nodecolor
18 /Times-Roman set_font
1559 287.8 moveto 32 (para) alignedtext
0 0 0 nodecolor
18 /Times-Roman set_font
1472.5 268.8 moveto 205 ([|t in [0 , INF]; x in [0 , INF];) alignedtext
0 0 0 nodecolor
18 /Times-Roman set_font
1519 249.8 moveto 112 (  y in [0 , INF]|]) alignedtext
0 0 0 nodecolor
18 /Times-Roman set_font
1471 230.8 moveto 208 (18 constraints, 20 generators) alignedtext
grestore
% 8
gsave
0 0 0 nodecolor
18 /Times-Roman set_font
1568.5 146.8 moveto 13 (\(\)) alignedtext
grestore
% para->8
gsave
1 setlinewidth
0 0 0 edgecolor
newpath 1575 223.92 moveto
1575 215.36 1575 206.45 1575 198.19 curveto
stroke
0 0 0 edgecolor
newpath 1578.5 198.17 moveto
1575 188.17 lineto
1571.5 198.17 lineto
closepath fill
1 setlinewidth
solid
0 0 0 edgecolor
newpath 1578.5 198.17 moveto
1575 188.17 lineto
1571.5 198.17 lineto
closepath stroke
grestore
% paraxy
gsave
1 setlinewidth
0 0 0 nodecolor
newpath 631 308 moveto
407 308 lineto
407 224 lineto
631 224 lineto
closepath stroke
0 0 0 nodecolor
18 /Times-Roman set_font
494 287.8 moveto 50 (paraxy) alignedtext
0 0 0 nodecolor
18 /Times-Roman set_font
430.5 268.8 moveto 177 ([|t in [0 , 8]; x in [0 , 30];) alignedtext
0 0 0 nodecolor
18 /Times-Roman set_font
457 249.8 moveto 124 (  y in [0 , 8.409]|]) alignedtext
0 0 0 nodecolor
18 /Times-Roman set_font
415 230.8 moveto 208 (22 constraints, 25 generators) alignedtext
grestore
% 2
gsave
0 0 0 nodecolor
18 /Times-Roman set_font
470.5 166.8 moveto 97 (x+y-31>=0 ? ) alignedtext
0 0 0 nodecolor
18 /Times-Roman set_font
512.5 147.8 moveto 13 (\(\)) alignedtext
grestore
% paraxy->2
gsave
1 setlinewidth
0 0 0 edgecolor
newpath 519 223.92 moveto
519 215.05 519 205.8 519 197.3 curveto
stroke
0 0 0 edgecolor
newpath 522.5 197.02 moveto
519 187.02 lineto
515.5 197.02 lineto
closepath fill
1 setlinewidth
solid
0 0 0 edgecolor
newpath 522.5 197.02 moveto
519 187.02 lineto
515.5 197.02 lineto
closepath stroke
grestore
% parae
gsave
1 setlinewidth
0 0 0 nodecolor
newpath 1687 94 moveto
1463 94 lineto
1463 10 lineto
1687 10 lineto
closepath stroke
0 0 0 nodecolor
18 /Times-Roman set_font
1555 73.8 moveto 40 (parae) alignedtext
0 0 0 nodecolor
18 /Times-Roman set_font
1472.5 54.8 moveto 205 ([|t in [0 , INF]; x in [0 , INF];) alignedtext
0 0 0 nodecolor
18 /Times-Roman set_font
1519 35.8 moveto 112 (  y in [0 , INF]|]) alignedtext
0 0 0 nodecolor
18 /Times-Roman set_font
1471 16.8 moveto 208 (18 constraints, 20 generators) alignedtext
grestore
% parax_start
gsave
1 setlinewidth
0 0 0 nodecolor
newpath 983 511.5 moveto
759 511.5 lineto
759 446.5 lineto
983 446.5 lineto
closepath stroke
0 0 0 nodecolor
18 /Times-Roman set_font
830 491.3 moveto 82 (parax_start) alignedtext
0 0 0 nodecolor
18 /Times-Roman set_font
766.5 472.3 moveto 209 ([|t=0; x in [0 , 2]; y in [0 , 2]|]) alignedtext
0 0 0 nodecolor
18 /Times-Roman set_font
776 453.3 moveto 190 (5 constraints, 4 generators) alignedtext
grestore
% 5
gsave
0 0 0 nodecolor
18 /Times-Roman set_font
826 389.3 moveto 90 (\(-x+30>=0 ?) alignedtext
0 0 0 nodecolor
18 /Times-Roman set_font
769 370.3 moveto 204 (t := t+1; x := x+y; y := y+1\)*) alignedtext
0 0 0 nodecolor
18 /Times-Roman set_font
864.5 351.3 moveto 13 (\(\)) alignedtext
grestore
% parax_start->5
gsave
1 setlinewidth
0 0 0 edgecolor
newpath 871 446.45 moveto
871 437.98 871 428.73 871 419.83 curveto
stroke
0 0 0 edgecolor
newpath 874.5 419.59 moveto
871 409.59 lineto
867.5 419.59 lineto
closepath fill
1 setlinewidth
solid
0 0 0 edgecolor
newpath 874.5 419.59 moveto
871 409.59 lineto
867.5 419.59 lineto
closepath stroke
grestore
% paraxy_start
gsave
1 setlinewidth
0 0 0 nodecolor
newpath 631 511.5 moveto
407 511.5 lineto
407 446.5 lineto
631 446.5 lineto
closepath stroke
0 0 0 nodecolor
18 /Times-Roman set_font
473.5 491.3 moveto 91 (paraxy_start) alignedtext
0 0 0 nodecolor
18 /Times-Roman set_font
414.5 472.3 moveto 209 ([|t=0; x in [0 , 2]; y in [0 , 2]|]) alignedtext
0 0 0 nodecolor
18 /Times-Roman set_font
424 453.3 moveto 190 (5 constraints, 4 generators) alignedtext
grestore
% 3
gsave
0 0 0 nodecolor
18 /Times-Roman set_font
466.5 389.3 moveto 105 (\(-x-y+30>=0 ?) alignedtext
0 0 0 nodecolor
18 /Times-Roman set_font
417 370.3 moveto 204 (t := t+1; x := x+y; y := y+1\)*) alignedtext
0 0 0 nodecolor
18 /Times-Roman set_font
512.5 351.3 moveto 13 (\(\)) alignedtext
grestore
% paraxy_start->3
gsave
1 setlinewidth
0 0 0 edgecolor
newpath 519 446.45 moveto
519 437.98 519 428.73 519 419.83 curveto
stroke
0 0 0 edgecolor
newpath 522.5 419.59 moveto
519 409.59 lineto
515.5 419.59 lineto
closepath fill
1 setlinewidth
solid
0 0 0 edgecolor
newpath 522.5 419.59 moveto
519 409.59 lineto
515.5 419.59 lineto
closepath stroke
grestore
% paraxyye
gsave
1 setlinewidth
0 0 0 nodecolor
newpath 279 103.5 moveto
55 103.5 lineto
55 .5 lineto
279 .5 lineto
closepath stroke
0 0 0 nodecolor
18 /Times-Roman set_font
133.5 83.3 moveto 67 (paraxyye) alignedtext
0 0 0 nodecolor
18 /Times-Roman set_font
98.5 64.3 moveto 137 ([|t in [5.76 , 11.77];) alignedtext
0 0 0 nodecolor
18 /Times-Roman set_font
96.5 45.3 moveto 141 (  x in [44.62 , 63.2];) alignedtext
0 0 0 nodecolor
18 /Times-Roman set_font
90 26.3 moveto 154 (  y in [6.809 , 12.07]|]) alignedtext
0 0 0 nodecolor
18 /Times-Roman set_font
63 7.3 moveto 208 (11 constraints, 15 generators) alignedtext
grestore
% paraxyy
gsave
1 setlinewidth
0 0 0 nodecolor
newpath 285 308 moveto
49 308 lineto
49 224 lineto
285 224 lineto
closepath stroke
0 0 0 nodecolor
18 /Times-Roman set_font
137.5 287.8 moveto 59 (paraxyy) alignedtext
0 0 0 nodecolor
18 /Times-Roman set_font
57 268.8 moveto 220 ([|t in [0 , 11.77]; x in [0 , 63.2];) alignedtext
0 0 0 nodecolor
18 /Times-Roman set_font
105 249.8 moveto 124 (  y in [0 , 12.07]|]) alignedtext
0 0 0 nodecolor
18 /Times-Roman set_font
63 230.8 moveto 208 (24 constraints, 27 generators) alignedtext
grestore
% 0
gsave
0 0 0 nodecolor
18 /Times-Roman set_font
115.5 166.8 moveto 103 (x-2y-31>=0 ? ) alignedtext
0 0 0 nodecolor
18 /Times-Roman set_font
160.5 147.8 moveto 13 (\(\)) alignedtext
grestore
% paraxyy->0
gsave
1 setlinewidth
0 0 0 edgecolor
newpath 167 223.92 moveto
167 215.05 167 205.8 167 197.3 curveto
stroke
0 0 0 edgecolor
newpath 170.5 197.02 moveto
167 187.02 lineto
163.5 197.02 lineto
closepath fill
1 setlinewidth
solid
0 0 0 edgecolor
newpath 170.5 197.02 moveto
167 187.02 lineto
163.5 197.02 lineto
closepath stroke
grestore
% paraxe
gsave
1 setlinewidth
0 0 0 nodecolor
newpath 998 94 moveto
744 94 lineto
744 10 lineto
998 10 lineto
closepath stroke
0 0 0 nodecolor
18 /Times-Roman set_font
846.5 73.8 moveto 49 (paraxe) alignedtext
0 0 0 nodecolor
18 /Times-Roman set_font
752 54.8 moveto 238 ([|t in [4.833 , 9]; x in [31 , 38.44];) alignedtext
0 0 0 nodecolor
18 /Times-Roman set_font
794 35.8 moveto 154 (  y in [6.214 , 9.444]|]) alignedtext
0 0 0 nodecolor
18 /Times-Roman set_font
767 16.8 moveto 208 (12 constraints, 16 generators) alignedtext
grestore
% para_start
gsave
1 setlinewidth
0 0 0 nodecolor
newpath 1687 511.5 moveto
1463 511.5 lineto
1463 446.5 lineto
1687 446.5 lineto
closepath stroke
0 0 0 nodecolor
18 /Times-Roman set_font
1538.5 491.3 moveto 73 (para_start) alignedtext
0 0 0 nodecolor
18 /Times-Roman set_font
1470.5 472.3 moveto 209 ([|t=0; x in [0 , 2]; y in [0 , 2]|]) alignedtext
0 0 0 nodecolor
18 /Times-Roman set_font
1480 453.3 moveto 190 (5 constraints, 4 generators) alignedtext
grestore
% 9
gsave
0 0 0 nodecolor
18 /Times-Roman set_font
1473 379.8 moveto 204 (t := t+1; x := x+y; y := y+1\)*) alignedtext
0 0 0 nodecolor
18 /Times-Roman set_font
1568.5 360.8 moveto 13 (\(\)) alignedtext
grestore
% para_start->9
gsave
1 setlinewidth
0 0 0 edgecolor
newpath 1575 446.45 moveto
1575 434.93 1575 421.96 1575 410.38 curveto
stroke
0 0 0 edgecolor
newpath 1578.5 410.21 moveto
1575 400.21 lineto
1571.5 410.21 lineto
closepath fill
1 setlinewidth
solid
0 0 0 edgecolor
newpath 1578.5 410.21 moveto
1575 400.21 lineto
1571.5 410.21 lineto
closepath stroke
grestore
% 0->paraxyye
gsave
1 setlinewidth
0 0 0 edgecolor
newpath 167 140.79 moveto
167 132.8 167 123.44 167 113.84 curveto
stroke
0 0 0 edgecolor
newpath 170.5 113.81 moveto
167 103.81 lineto
163.5 113.81 lineto
closepath fill
1 setlinewidth
solid
0 0 0 edgecolor
newpath 170.5 113.81 moveto
167 103.81 lineto
163.5 113.81 lineto
closepath stroke
grestore
% 1->paraxyy
gsave
1 setlinewidth
0 0 0 edgecolor
newpath 167 344.3 moveto
167 336.21 167 327.34 167 318.56 curveto
stroke
0 0 0 edgecolor
newpath 170.5 318.36 moveto
167 308.36 lineto
163.5 318.36 lineto
closepath fill
1 setlinewidth
solid
0 0 0 edgecolor
newpath 170.5 318.36 moveto
167 308.36 lineto
163.5 318.36 lineto
closepath stroke
grestore
% 2->paraxye
gsave
1 setlinewidth
0 0 0 edgecolor
newpath 519 140.79 moveto
519 130.18 519 117.13 519 104.34 curveto
stroke
0 0 0 edgecolor
newpath 522.5 104.19 moveto
519 94.19 lineto
515.5 104.19 lineto
closepath fill
1 setlinewidth
solid
0 0 0 edgecolor
newpath 522.5 104.19 moveto
519 94.19 lineto
515.5 104.19 lineto
closepath stroke
grestore
% 3->paraxy
gsave
1 setlinewidth
0 0 0 edgecolor
newpath 519 344.3 moveto
519 336.21 519 327.34 519 318.56 curveto
stroke
0 0 0 edgecolor
newpath 522.5 318.36 moveto
519 308.36 lineto
515.5 318.36 lineto
closepath fill
1 setlinewidth
solid
0 0 0 edgecolor
newpath 522.5 318.36 moveto
519 308.36 lineto
515.5 318.36 lineto
closepath stroke
grestore
% 4->paraxe
gsave
1 setlinewidth
0 0 0 edgecolor
newpath 871 140.79 moveto
871 130.18 871 117.13 871 104.34 curveto
stroke
0 0 0 edgecolor
newpath 874.5 104.19 moveto
871 94.19 lineto
867.5 104.19 lineto
closepath fill
1 setlinewidth
solid
0 0 0 edgecolor
newpath 874.5 104.19 moveto
871 94.19 lineto
867.5 104.19 lineto
closepath stroke
grestore
% 5->parax
gsave
1 setlinewidth
0 0 0 edgecolor
newpath 871 344.3 moveto
871 336.21 871 327.34 871 318.56 curveto
stroke
0 0 0 edgecolor
newpath 874.5 318.36 moveto
871 308.36 lineto
867.5 318.36 lineto
closepath fill
1 setlinewidth
solid
0 0 0 edgecolor
newpath 874.5 318.36 moveto
871 308.36 lineto
867.5 318.36 lineto
closepath stroke
grestore
% 6->paraye
gsave
1 setlinewidth
0 0 0 edgecolor
newpath 1223 140.79 moveto
1223 127.44 1223 110.25 1223 94.56 curveto
stroke
0 0 0 edgecolor
newpath 1226.5 94.52 moveto
1223 84.52 lineto
1219.5 94.52 lineto
closepath fill
1 setlinewidth
solid
0 0 0 edgecolor
newpath 1226.5 94.52 moveto
1223 84.52 lineto
1219.5 94.52 lineto
closepath stroke
grestore
% 7->paray
gsave
1 setlinewidth
0 0 0 edgecolor
newpath 1223 344.3 moveto
1223 336.21 1223 327.34 1223 318.56 curveto
stroke
0 0 0 edgecolor
newpath 1226.5 318.36 moveto
1223 308.36 lineto
1219.5 318.36 lineto
closepath fill
1 setlinewidth
solid
0 0 0 edgecolor
newpath 1226.5 318.36 moveto
1223 308.36 lineto
1219.5 318.36 lineto
closepath stroke
grestore
% 8->parae
gsave
1 setlinewidth
0 0 0 edgecolor
newpath 1575 139.97 moveto
1575 129.53 1575 116.85 1575 104.41 curveto
stroke
0 0 0 edgecolor
newpath 1578.5 104.07 moveto
1575 94.07 lineto
1571.5 104.07 lineto
closepath fill
1 setlinewidth
solid
0 0 0 edgecolor
newpath 1578.5 104.07 moveto
1575 94.07 lineto
1571.5 104.07 lineto
closepath stroke
grestore
% 9->para
gsave
1 setlinewidth
0 0 0 edgecolor
newpath 1575 353.73 moveto
1575 343.4 1575 330.79 1575 318.39 curveto
stroke
0 0 0 edgecolor
newpath 1578.5 318.07 moveto
1575 308.07 lineto
1571.5 318.07 lineto
closepath fill
1 setlinewidth
solid
0 0 0 edgecolor
newpath 1578.5 318.07 moveto
1575 308.07 lineto
1571.5 318.07 lineto
closepath stroke
grestore
% 10->paraxyy_start
gsave
1 setlinewidth
0 0 0 edgecolor
newpath 167 548.45 moveto
167 539.98 167 530.73 167 521.83 curveto
stroke
0 0 0 edgecolor
newpath 170.5 521.59 moveto
167 511.59 lineto
163.5 521.59 lineto
closepath fill
1 setlinewidth
solid
0 0 0 edgecolor
newpath 170.5 521.59 moveto
167 511.59 lineto
163.5 521.59 lineto
closepath stroke
grestore
% 11->paraxy_start
gsave
1 setlinewidth
0 0 0 edgecolor
newpath 519 548.45 moveto
519 539.98 519 530.73 519 521.83 curveto
stroke
0 0 0 edgecolor
newpath 522.5 521.59 moveto
519 511.59 lineto
515.5 521.59 lineto
closepath fill
1 setlinewidth
solid
0 0 0 edgecolor
newpath 522.5 521.59 moveto
519 511.59 lineto
515.5 521.59 lineto
closepath stroke
grestore
% 12->parax_start
gsave
1 setlinewidth
0 0 0 edgecolor
newpath 871 548.45 moveto
871 539.98 871 530.73 871 521.83 curveto
stroke
0 0 0 edgecolor
newpath 874.5 521.59 moveto
871 511.59 lineto
867.5 521.59 lineto
closepath fill
1 setlinewidth
solid
0 0 0 edgecolor
newpath 874.5 521.59 moveto
871 511.59 lineto
867.5 521.59 lineto
closepath stroke
grestore
% 13->paray_start
gsave
1 setlinewidth
0 0 0 edgecolor
newpath 1223 548.45 moveto
1223 539.98 1223 530.73 1223 521.83 curveto
stroke
0 0 0 edgecolor
newpath 1226.5 521.59 moveto
1223 511.59 lineto
1219.5 521.59 lineto
closepath fill
1 setlinewidth
solid
0 0 0 edgecolor
newpath 1226.5 521.59 moveto
1223 511.59 lineto
1219.5 521.59 lineto
closepath stroke
grestore
% 14->para_start
gsave
1 setlinewidth
0 0 0 edgecolor
newpath 1575 548.45 moveto
1575 539.98 1575 530.73 1575 521.83 curveto
stroke
0 0 0 edgecolor
newpath 1578.5 521.59 moveto
1575 511.59 lineto
1571.5 521.59 lineto
closepath fill
1 setlinewidth
solid
0 0 0 edgecolor
newpath 1578.5 521.59 moveto
1575 511.59 lineto
1571.5 521.59 lineto
closepath stroke
grestore
endpage
showpage
grestore
%%PageTrailer
%%EndPage: 1
setupLatin1
%%Page: 2 2
%%PageBoundingBox: 36 36 1944 554
%%PageOrientation: Portrait
0 0 1 beginpage
gsave
36 36 1908 518 boxprim clip newpath
1 1 set_scale 0 rotate 40 41 translate
% 1073741823
gsave
1 setlinewidth
0 0 0 nodecolor
940 487 43.84 19.09 ellipse_path stroke
0 0 0 nodecolor
18 /Times-Roman set_font
917 480.3 moveto 46 (Result) alignedtext
grestore
% parax
gsave
1 setlinewidth
0 0 0 nodecolor
newpath 1136 326 moveto
912 326 lineto
912 242 lineto
1136 242 lineto
closepath stroke
0 0 0 nodecolor
18 /Times-Roman set_font
1003.5 305.8 moveto 41 (parax) alignedtext
0 0 0 nodecolor
18 /Times-Roman set_font
931 286.8 moveto 186 ([|t in [0 , 32]; x in [0 , 62];) alignedtext
0 0 0 nodecolor
18 /Times-Roman set_font
973 267.8 moveto 102 (  y in [0 , 33]|]) alignedtext
0 0 0 nodecolor
18 /Times-Roman set_font
920 248.8 moveto 208 (10 constraints, 11 generators) alignedtext
grestore
% 4
gsave
0 0 0 nodecolor
18 /Times-Roman set_font
773.5 175.8 moveto 79 (x-31>=0 ? ) alignedtext
0 0 0 nodecolor
18 /Times-Roman set_font
806.5 156.8 moveto 13 (\(\)) alignedtext
grestore
% parax->4
gsave
1 setlinewidth
0 0 0 edgecolor
newpath 937.79 241.89 moveto
915.25 230.53 891.08 218.05 869 206 curveto
866.13 204.43 863.19 202.8 860.23 201.13 curveto
stroke
0 0 0 edgecolor
newpath 861.79 197.99 moveto
851.37 196.06 lineto
858.31 204.06 lineto
closepath fill
1 setlinewidth
solid
0 0 0 edgecolor
newpath 861.79 197.99 moveto
851.37 196.06 lineto
858.31 204.06 lineto
closepath stroke
grestore
% 5
gsave
0 0 0 nodecolor
18 /Times-Roman set_font
885.5 175.8 moveto 277 (-x+30>=0 ? t := t+1; x := x+y; y := y+1) alignedtext
0 0 0 nodecolor
18 /Times-Roman set_font
1017.5 156.8 moveto 13 (\(\)) alignedtext
grestore
% parax->5
gsave
1 setlinewidth
0 0 0 edgecolor
newpath 1017.42 241.72 moveto
1017.11 230.02 1017.22 217.49 1017.75 206.37 curveto
stroke
0 0 0 edgecolor
newpath 1021.26 206.42 moveto
1018.39 196.22 lineto
1014.27 205.98 lineto
closepath fill
1 setlinewidth
solid
0 0 0 edgecolor
newpath 1021.26 206.42 moveto
1018.39 196.22 lineto
1014.27 205.98 lineto
closepath stroke
grestore
% paraxye
gsave
1 setlinewidth
0 0 0 nodecolor
newpath 577 103.5 moveto
363 103.5 lineto
363 .5 lineto
577 .5 lineto
closepath stroke
0 0 0 nodecolor
18 /Times-Roman set_font
441 83.3 moveto 58 (paraxye) alignedtext
0 0 0 nodecolor
18 /Times-Roman set_font
401.5 64.3 moveto 137 ([|t in [1.713 , 16.5];) alignedtext
0 0 0 nodecolor
18 /Times-Roman set_font
406 45.3 moveto 128 (  x in [19.43 , 30];) alignedtext
0 0 0 nodecolor
18 /Times-Roman set_font
393 26.3 moveto 154 (  y in [1.902 , 16.76]|]) alignedtext
0 0 0 nodecolor
18 /Times-Roman set_font
370.5 7.3 moveto 199 (8 constraints, 11 generators) alignedtext
grestore
% paray
gsave
1 setlinewidth
0 0 0 nodecolor
newpath 1511 326 moveto
1305 326 lineto
1305 242 lineto
1511 242 lineto
closepath stroke
0 0 0 nodecolor
18 /Times-Roman set_font
1387.5 305.8 moveto 41 (paray) alignedtext
0 0 0 nodecolor
18 /Times-Roman set_font
1314.5 286.8 moveto 187 ([|t in [0 , 8]; x in [0 , INF];) alignedtext
0 0 0 nodecolor
18 /Times-Roman set_font
1361.5 267.8 moveto 93 (  y in [0 , 8]|]) alignedtext
0 0 0 nodecolor
18 /Times-Roman set_font
1313 248.8 moveto 190 (8 constraints, 9 generators) alignedtext
grestore
% 6
gsave
0 0 0 nodecolor
18 /Times-Roman set_font
1196 175.8 moveto 70 (y-8>=0 ? ) alignedtext
0 0 0 nodecolor
18 /Times-Roman set_font
1224.5 156.8 moveto 13 (\(\)) alignedtext
grestore
% paray->6
gsave
1 setlinewidth
0 0 0 edgecolor
newpath 1340.47 241.99 moveto
1321.83 230.36 1301.62 217.72 1283 206 curveto
1280.78 204.6 1278.51 203.17 1276.22 201.73 curveto
stroke
0 0 0 edgecolor
newpath 1277.67 198.5 moveto
1267.34 196.11 lineto
1273.93 204.42 lineto
closepath fill
1 setlinewidth
solid
0 0 0 edgecolor
newpath 1277.67 198.5 moveto
1267.34 196.11 lineto
1273.93 204.42 lineto
closepath stroke
grestore
% 7
gsave
0 0 0 nodecolor
18 /Times-Roman set_font
1300 175.8 moveto 268 (-y+7>=0 ? t := t+1; x := x+y; y := y+1) alignedtext
0 0 0 nodecolor
18 /Times-Roman set_font
1427.5 156.8 moveto 13 (\(\)) alignedtext
grestore
% paray->7
gsave
1 setlinewidth
0 0 0 edgecolor
newpath 1411.33 241.72 moveto
1413.78 229.9 1416.86 217.23 1420.03 206.03 curveto
stroke
0 0 0 edgecolor
newpath 1423.45 206.8 moveto
1422.95 196.22 lineto
1416.74 204.81 lineto
closepath fill
1 setlinewidth
solid
0 0 0 edgecolor
newpath 1423.45 206.8 moveto
1422.95 196.22 lineto
1416.74 204.81 lineto
closepath stroke
grestore
% linit
gsave
1 setlinewidth
0 0 0 nodecolor
newpath 1046 510 moveto
1002 510 lineto
1002 464 lineto
1046 464 lineto
closepath stroke
0 0 0 nodecolor
18 /Times-Roman set_font
1010 489.8 moveto 28 (linit) alignedtext
0 0 0 nodecolor
18 /Times-Roman set_font
1012 470.8 moveto 24 (top) alignedtext
grestore
% 10
gsave
0 0 0 nodecolor
18 /Times-Roman set_font
141.5 407.3 moveto 319 (-y+2>=0 and y>=0 and -x+2>=0 and x>=0 ?) alignedtext
0 0 0 nodecolor
18 /Times-Roman set_font
282 388.3 moveto 38 (t := 0) alignedtext
0 0 0 nodecolor
18 /Times-Roman set_font
294.5 369.3 moveto 13 (\(\)) alignedtext
grestore
% linit->10
gsave
1 setlinewidth
0 0 0 edgecolor
newpath 1001.83 468.34 moveto
998.99 466.62 996.02 465.12 993 464 curveto
887.92 425.06 601.23 441.66 490 428 curveto
486.07 427.52 482.09 427.01 478.09 426.48 curveto
stroke
0 0 0 edgecolor
newpath 478.46 422.99 moveto
468.08 425.11 lineto
477.51 429.93 lineto
closepath fill
1 setlinewidth
solid
0 0 0 edgecolor
newpath 478.46 422.99 moveto
468.08 425.11 lineto
477.51 429.93 lineto
closepath stroke
grestore
% 11
gsave
0 0 0 nodecolor
18 /Times-Roman set_font
506.5 407.3 moveto 319 (-y+2>=0 and y>=0 and -x+2>=0 and x>=0 ?) alignedtext
0 0 0 nodecolor
18 /Times-Roman set_font
647 388.3 moveto 38 (t := 0) alignedtext
0 0 0 nodecolor
18 /Times-Roman set_font
659.5 369.3 moveto 13 (\(\)) alignedtext
grestore
% linit->11
gsave
1 setlinewidth
0 0 0 edgecolor
newpath 1001.67 468.74 moveto
998.86 466.95 995.93 465.32 993 464 curveto
978 457.24 912.1 442.93 843.35 429.08 curveto
stroke
0 0 0 edgecolor
newpath 843.69 425.58 moveto
833.19 427.04 lineto
842.31 432.44 lineto
closepath fill
1 setlinewidth
solid
0 0 0 edgecolor
newpath 843.69 425.58 moveto
833.19 427.04 lineto
842.31 432.44 lineto
closepath stroke
grestore
% 12
gsave
0 0 0 nodecolor
18 /Times-Roman set_font
864.5 407.3 moveto 319 (-y+2>=0 and y>=0 and -x+2>=0 and x>=0 ?) alignedtext
0 0 0 nodecolor
18 /Times-Roman set_font
1005 388.3 moveto 38 (t := 0) alignedtext
0 0 0 nodecolor
18 /Times-Roman set_font
1017.5 369.3 moveto 13 (\(\)) alignedtext
grestore
% linit->12
gsave
1 setlinewidth
0 0 0 edgecolor
newpath 1024 463.78 moveto
1024 455.82 1024 446.63 1024 437.62 curveto
stroke
0 0 0 edgecolor
newpath 1027.5 437.59 moveto
1024 427.59 lineto
1020.5 437.59 lineto
closepath fill
1 setlinewidth
solid
0 0 0 edgecolor
newpath 1027.5 437.59 moveto
1024 427.59 lineto
1020.5 437.59 lineto
closepath stroke
grestore
% 13
gsave
0 0 0 nodecolor
18 /Times-Roman set_font
1219.5 407.3 moveto 319 (-y+2>=0 and y>=0 and -x+2>=0 and x>=0 ?) alignedtext
0 0 0 nodecolor
18 /Times-Roman set_font
1360 388.3 moveto 38 (t := 0) alignedtext
0 0 0 nodecolor
18 /Times-Roman set_font
1372.5 369.3 moveto 13 (\(\)) alignedtext
grestore
% linit->13
gsave
1 setlinewidth
0 0 0 edgecolor
newpath 1046.21 481.24 moveto
1085.36 471.1 1169.51 449.29 1243.4 430.14 curveto
stroke
0 0 0 edgecolor
newpath 1244.48 433.48 moveto
1253.28 427.58 lineto
1242.73 426.7 lineto
closepath fill
1 setlinewidth
solid
0 0 0 edgecolor
newpath 1244.48 433.48 moveto
1253.28 427.58 lineto
1242.73 426.7 lineto
closepath stroke
grestore
% 14
gsave
0 0 0 nodecolor
18 /Times-Roman set_font
1573.5 407.3 moveto 319 (-y+2>=0 and y>=0 and -x+2>=0 and x>=0 ?) alignedtext
0 0 0 nodecolor
18 /Times-Roman set_font
1714 388.3 moveto 38 (t := 0) alignedtext
0 0 0 nodecolor
18 /Times-Roman set_font
1726.5 369.3 moveto 13 (\(\)) alignedtext
grestore
% linit->14
gsave
1 setlinewidth
0 0 0 edgecolor
newpath 1046.08 485.13 moveto
1118.95 478.82 1358.42 457.1 1555 428 curveto
1555.22 427.97 1555.45 427.93 1555.67 427.9 curveto
stroke
0 0 0 edgecolor
newpath 1556.47 431.32 moveto
1565.83 426.36 lineto
1555.42 424.4 lineto
closepath fill
1 setlinewidth
solid
0 0 0 edgecolor
newpath 1556.47 431.32 moveto
1565.83 426.36 lineto
1555.42 424.4 lineto
closepath stroke
grestore
% para
gsave
1 setlinewidth
0 0 0 nodecolor
newpath 1850 326 moveto
1630 326 lineto
1630 242 lineto
1850 242 lineto
closepath stroke
0 0 0 nodecolor
18 /Times-Roman set_font
1724 305.8 moveto 32 (para) alignedtext
0 0 0 nodecolor
18 /Times-Roman set_font
1637.5 286.8 moveto 205 ([|t in [0 , INF]; x in [0 , INF];) alignedtext
0 0 0 nodecolor
18 /Times-Roman set_font
1684 267.8 moveto 112 (  y in [0 , INF]|]) alignedtext
0 0 0 nodecolor
18 /Times-Roman set_font
1645 248.8 moveto 190 (6 constraints, 6 generators) alignedtext
grestore
% 8
gsave
0 0 0 nodecolor
18 /Times-Roman set_font
1601.5 155.8 moveto 13 (\(\)) alignedtext
grestore
% para->8
gsave
1 setlinewidth
0 0 0 edgecolor
newpath 1673.4 241.83 moveto
1658.66 231.04 1643.67 218.83 1631 206 curveto
1630.21 205.21 1629.44 204.38 1628.67 203.53 curveto
stroke
0 0 0 edgecolor
newpath 1631.14 201.02 moveto
1622.11 195.48 lineto
1625.71 205.44 lineto
closepath fill
1 setlinewidth
solid
0 0 0 edgecolor
newpath 1631.14 201.02 moveto
1622.11 195.48 lineto
1625.71 205.44 lineto
closepath stroke
grestore
% 9
gsave
0 0 0 nodecolor
18 /Times-Roman set_font
1647.5 175.8 moveto 189 (t := t+1; x := x+y; y := y+1) alignedtext
0 0 0 nodecolor
18 /Times-Roman set_font
1735.5 156.8 moveto 13 (\(\)) alignedtext
grestore
% para->9
gsave
1 setlinewidth
0 0 0 edgecolor
newpath 1734.18 241.72 moveto
1734.08 230.02 1734.42 217.49 1735.15 206.37 curveto
stroke
0 0 0 edgecolor
newpath 1738.65 206.47 moveto
1735.97 196.22 lineto
1731.68 205.91 lineto
closepath fill
1 setlinewidth
solid
0 0 0 edgecolor
newpath 1738.65 206.47 moveto
1735.97 196.22 lineto
1731.68 205.91 lineto
closepath stroke
grestore
% paraye
gsave
1 setlinewidth
0 0 0 nodecolor
newpath 1368 84.5 moveto
1094 84.5 lineto
1094 19.5 lineto
1368 19.5 lineto
closepath stroke
0 0 0 nodecolor
18 /Times-Roman set_font
1206.5 64.3 moveto 49 (paraye) alignedtext
0 0 0 nodecolor
18 /Times-Roman set_font
1101.5 45.3 moveto 259 ([|t in [6 , 8]; x in [12.83 , INF]; y=8|]) alignedtext
0 0 0 nodecolor
18 /Times-Roman set_font
1136 26.3 moveto 190 (5 constraints, 4 generators) alignedtext
grestore
% paraxy
gsave
1 setlinewidth
0 0 0 nodecolor
newpath 758 326 moveto
534 326 lineto
534 242 lineto
758 242 lineto
closepath stroke
0 0 0 nodecolor
18 /Times-Roman set_font
621 305.8 moveto 50 (paraxy) alignedtext
0 0 0 nodecolor
18 /Times-Roman set_font
546.5 286.8 moveto 199 ([|t in [0 , 16.5]; x in [0 , 30];) alignedtext
0 0 0 nodecolor
18 /Times-Roman set_font
584 267.8 moveto 124 (  y in [0 , 16.76]|]) alignedtext
0 0 0 nodecolor
18 /Times-Roman set_font
542 248.8 moveto 208 (10 constraints, 12 generators) alignedtext
grestore
% 2
gsave
0 0 0 nodecolor
18 /Times-Roman set_font
421.5 175.8 moveto 97 (x+y-31>=0 ? ) alignedtext
0 0 0 nodecolor
18 /Times-Roman set_font
463.5 156.8 moveto 13 (\(\)) alignedtext
grestore
% paraxy->2
gsave
1 setlinewidth
0 0 0 edgecolor
newpath 579.21 241.88 moveto
557.96 228.47 534.95 213.97 515.56 201.74 curveto
stroke
0 0 0 edgecolor
newpath 517.25 198.66 moveto
506.93 196.29 lineto
513.52 204.58 lineto
closepath fill
1 setlinewidth
solid
0 0 0 edgecolor
newpath 517.25 198.66 moveto
506.93 196.29 lineto
513.52 204.58 lineto
closepath stroke
grestore
% 3
gsave
0 0 0 nodecolor
18 /Times-Roman set_font
596.5 185.3 moveto 99 (-x-y+30>=0 ?) alignedtext
0 0 0 nodecolor
18 /Times-Roman set_font
551.5 166.3 moveto 189 (t := t+1; x := x+y; y := y+1) alignedtext
0 0 0 nodecolor
18 /Times-Roman set_font
639.5 147.3 moveto 13 (\(\)) alignedtext
grestore
% paraxy->3
gsave
1 setlinewidth
0 0 0 edgecolor
newpath 639.42 241.72 moveto
639.2 233.27 639.19 224.38 639.41 215.91 curveto
stroke
0 0 0 edgecolor
newpath 642.91 215.96 moveto
639.78 205.84 lineto
635.91 215.71 lineto
closepath fill
1 setlinewidth
solid
0 0 0 edgecolor
newpath 642.91 215.96 moveto
639.78 205.84 lineto
635.91 215.71 lineto
closepath stroke
grestore
% parae
gsave
1 setlinewidth
0 0 0 nodecolor
newpath 1718 94 moveto
1498 94 lineto
1498 10 lineto
1718 10 lineto
closepath stroke
0 0 0 nodecolor
18 /Times-Roman set_font
1588 73.8 moveto 40 (parae) alignedtext
0 0 0 nodecolor
18 /Times-Roman set_font
1505.5 54.8 moveto 205 ([|t in [0 , INF]; x in [0 , INF];) alignedtext
0 0 0 nodecolor
18 /Times-Roman set_font
1552 35.8 moveto 112 (  y in [0 , INF]|]) alignedtext
0 0 0 nodecolor
18 /Times-Roman set_font
1513 16.8 moveto 190 (6 constraints, 6 generators) alignedtext
grestore
% paraxyye
gsave
1 setlinewidth
0 0 0 nodecolor
newpath 230 94 moveto
0 94 lineto
0 10 lineto
230 10 lineto
closepath stroke
0 0 0 nodecolor
18 /Times-Roman set_font
81.5 73.8 moveto 67 (paraxyye) alignedtext
0 0 0 nodecolor
18 /Times-Roman set_font
8 54.8 moveto 214 ([|t in [2 , INF]; x in [39 , INF];) alignedtext
0 0 0 nodecolor
18 /Times-Roman set_font
59 35.8 moveto 112 (  y in [4 , INF]|]) alignedtext
0 0 0 nodecolor
18 /Times-Roman set_font
20 16.8 moveto 190 (4 constraints, 4 generators) alignedtext
grestore
% paraxyy
gsave
1 setlinewidth
0 0 0 nodecolor
newpath 406 326 moveto
182 326 lineto
182 242 lineto
406 242 lineto
closepath stroke
0 0 0 nodecolor
18 /Times-Roman set_font
264.5 305.8 moveto 59 (paraxyy) alignedtext
0 0 0 nodecolor
18 /Times-Roman set_font
191.5 286.8 moveto 205 ([|t in [0 , INF]; x in [0 , INF];) alignedtext
0 0 0 nodecolor
18 /Times-Roman set_font
238 267.8 moveto 112 (  y in [0 , INF]|]) alignedtext
0 0 0 nodecolor
18 /Times-Roman set_font
190 248.8 moveto 208 (10 constraints, 11 generators) alignedtext
grestore
% 0
gsave
0 0 0 nodecolor
18 /Times-Roman set_font
63.5 175.8 moveto 103 (x-2y-31>=0 ? ) alignedtext
0 0 0 nodecolor
18 /Times-Roman set_font
108.5 156.8 moveto 13 (\(\)) alignedtext
grestore
% paraxyy->0
gsave
1 setlinewidth
0 0 0 edgecolor
newpath 226.07 241.88 moveto
204.28 228.36 180.66 213.72 160.84 201.42 curveto
stroke
0 0 0 edgecolor
newpath 162.65 198.43 moveto
152.3 196.13 lineto
158.96 204.38 lineto
closepath fill
1 setlinewidth
solid
0 0 0 edgecolor
newpath 162.65 198.43 moveto
152.3 196.13 lineto
158.96 204.38 lineto
closepath stroke
grestore
% 1
gsave
0 0 0 nodecolor
18 /Times-Roman set_font
238.5 185.3 moveto 111 (-x+2y+30>=0 ?) alignedtext
0 0 0 nodecolor
18 /Times-Roman set_font
199.5 166.3 moveto 189 (t := t+1; x := x+y; y := y+1) alignedtext
0 0 0 nodecolor
18 /Times-Roman set_font
287.5 147.3 moveto 13 (\(\)) alignedtext
grestore
% paraxyy->1
gsave
1 setlinewidth
0 0 0 edgecolor
newpath 287.42 241.72 moveto
287.2 233.27 287.19 224.38 287.41 215.91 curveto
stroke
0 0 0 edgecolor
newpath 290.91 215.96 moveto
287.78 205.84 lineto
283.91 215.71 lineto
closepath fill
1 setlinewidth
solid
0 0 0 edgecolor
newpath 290.91 215.96 moveto
287.78 205.84 lineto
283.91 215.71 lineto
closepath stroke
grestore
% paraxe
gsave
1 setlinewidth
0 0 0 nodecolor
newpath 934 94 moveto
692 94 lineto
692 10 lineto
934 10 lineto
closepath stroke
0 0 0 nodecolor
18 /Times-Roman set_font
788.5 73.8 moveto 49 (paraxe) alignedtext
0 0 0 nodecolor
18 /Times-Roman set_font
700 54.8 moveto 226 ([|t in [1.812 , 32]; x in [31 , 62];) alignedtext
0 0 0 nodecolor
18 /Times-Roman set_font
762 35.8 moveto 102 (  y in [2 , 33]|]) alignedtext
0 0 0 nodecolor
18 /Times-Roman set_font
713.5 16.8 moveto 199 (8 constraints, 10 generators) alignedtext
grestore
% 0->paraxyye
gsave
1 setlinewidth
0 0 0 edgecolor
newpath 115 149.96 moveto
115 137.02 115 120.32 115 104.38 curveto
stroke
0 0 0 edgecolor
newpath 118.5 104.06 moveto
115 94.06 lineto
111.5 104.06 lineto
closepath fill
1 setlinewidth
solid
0 0 0 edgecolor
newpath 118.5 104.06 moveto
115 94.06 lineto
111.5 104.06 lineto
closepath stroke
grestore
% 1->paraxyy
gsave
1 setlinewidth
0 0 0 edgecolor
newpath 300.22 205.84 moveto
300.62 213.93 300.79 222.78 300.74 231.54 curveto
stroke
0 0 0 edgecolor
newpath 297.24 231.66 moveto
300.58 241.72 lineto
304.24 231.78 lineto
closepath fill
1 setlinewidth
solid
0 0 0 edgecolor
newpath 297.24 231.66 moveto
300.58 241.72 lineto
304.24 231.78 lineto
closepath stroke
grestore
% 2->paraxye
gsave
1 setlinewidth
0 0 0 edgecolor
newpath 470 149.96 moveto
470 139.57 470 126.75 470 113.85 curveto
stroke
0 0 0 edgecolor
newpath 473.5 113.53 moveto
470 103.53 lineto
466.5 113.53 lineto
closepath fill
1 setlinewidth
solid
0 0 0 edgecolor
newpath 473.5 113.53 moveto
470 103.53 lineto
466.5 113.53 lineto
closepath stroke
grestore
% 3->paraxy
gsave
1 setlinewidth
0 0 0 edgecolor
newpath 652.22 205.84 moveto
652.62 213.93 652.79 222.78 652.74 231.54 curveto
stroke
0 0 0 edgecolor
newpath 649.24 231.66 moveto
652.58 241.72 lineto
656.24 231.78 lineto
closepath fill
1 setlinewidth
solid
0 0 0 edgecolor
newpath 649.24 231.66 moveto
652.58 241.72 lineto
656.24 231.78 lineto
closepath stroke
grestore
% 4->paraxe
gsave
1 setlinewidth
0 0 0 edgecolor
newpath 813 149.96 moveto
813 137.02 813 120.32 813 104.38 curveto
stroke
0 0 0 edgecolor
newpath 816.5 104.06 moveto
813 94.06 lineto
809.5 104.06 lineto
closepath fill
1 setlinewidth
solid
0 0 0 edgecolor
newpath 816.5 104.06 moveto
813 94.06 lineto
809.5 104.06 lineto
closepath stroke
grestore
% 5->parax
gsave
1 setlinewidth
0 0 0 edgecolor
newpath 1029.61 196.22 moveto
1030.44 206.51 1030.81 219.07 1030.74 231.43 curveto
stroke
0 0 0 edgecolor
newpath 1027.24 231.66 moveto
1030.58 241.72 lineto
1034.24 231.78 lineto
closepath fill
1 setlinewidth
solid
0 0 0 edgecolor
newpath 1027.24 231.66 moveto
1030.58 241.72 lineto
1034.24 231.78 lineto
closepath stroke
grestore
% 6->paraye
gsave
1 setlinewidth
0 0 0 edgecolor
newpath 1231 149.96 moveto
1231 134.34 1231 113.22 1231 94.6 curveto
stroke
0 0 0 edgecolor
newpath 1234.5 94.56 moveto
1231 84.56 lineto
1227.5 94.56 lineto
closepath fill
1 setlinewidth
solid
0 0 0 edgecolor
newpath 1234.5 94.56 moveto
1231 84.56 lineto
1227.5 94.56 lineto
closepath stroke
grestore
% 7->paray
gsave
1 setlinewidth
0 0 0 edgecolor
newpath 1434.17 196.22 moveto
1432.57 206.61 1429.97 219.32 1426.97 231.8 curveto
stroke
0 0 0 edgecolor
newpath 1423.52 231.17 moveto
1424.48 241.72 lineto
1430.31 232.87 lineto
closepath fill
1 setlinewidth
solid
0 0 0 edgecolor
newpath 1423.52 231.17 moveto
1424.48 241.72 lineto
1430.31 232.87 lineto
closepath stroke
grestore
% 8->parae
gsave
1 setlinewidth
0 0 0 edgecolor
newpath 1608 148.8 moveto
1608 136.02 1608 119.8 1608 104.31 curveto
stroke
0 0 0 edgecolor
newpath 1611.5 104.28 moveto
1608 94.28 lineto
1604.5 104.28 lineto
closepath fill
1 setlinewidth
solid
0 0 0 edgecolor
newpath 1611.5 104.28 moveto
1608 94.28 lineto
1604.5 104.28 lineto
closepath stroke
grestore
% 9->para
gsave
1 setlinewidth
0 0 0 edgecolor
newpath 1747.19 196.22 moveto
1747.83 206.51 1747.98 219.07 1747.69 231.43 curveto
stroke
0 0 0 edgecolor
newpath 1744.18 231.61 moveto
1747.34 241.72 lineto
1751.18 231.84 lineto
closepath fill
1 setlinewidth
solid
0 0 0 edgecolor
newpath 1744.18 231.61 moveto
1747.34 241.72 lineto
1751.18 231.84 lineto
closepath stroke
grestore
% 10->paraxyy
gsave
1 setlinewidth
0 0 0 edgecolor
newpath 298.94 362.3 moveto
298.43 354.21 297.87 345.34 297.31 336.56 curveto
stroke
0 0 0 edgecolor
newpath 300.79 336.12 moveto
296.67 326.36 lineto
293.81 336.56 lineto
closepath fill
1 setlinewidth
solid
0 0 0 edgecolor
newpath 300.79 336.12 moveto
296.67 326.36 lineto
293.81 336.56 lineto
closepath stroke
grestore
% 11->paraxy
gsave
1 setlinewidth
0 0 0 edgecolor
newpath 660.11 362.3 moveto
658.63 354.12 657.02 345.14 655.42 336.28 curveto
stroke
0 0 0 edgecolor
newpath 658.85 335.58 moveto
653.63 326.36 lineto
651.96 336.82 lineto
closepath fill
1 setlinewidth
solid
0 0 0 edgecolor
newpath 658.85 335.58 moveto
653.63 326.36 lineto
651.96 336.82 lineto
closepath stroke
grestore
% 12->parax
gsave
1 setlinewidth
0 0 0 edgecolor
newpath 1024 362.3 moveto
1024 354.21 1024 345.34 1024 336.56 curveto
stroke
0 0 0 edgecolor
newpath 1027.5 336.36 moveto
1024 326.36 lineto
1020.5 336.36 lineto
closepath fill
1 setlinewidth
solid
0 0 0 edgecolor
newpath 1027.5 336.36 moveto
1024 326.36 lineto
1020.5 336.36 lineto
closepath stroke
grestore
% 13->paray
gsave
1 setlinewidth
0 0 0 edgecolor
newpath 1387.54 362.3 moveto
1389.68 354.12 1392.03 345.14 1394.34 336.28 curveto
stroke
0 0 0 edgecolor
newpath 1397.79 336.92 moveto
1396.93 326.36 lineto
1391.02 335.15 lineto
closepath fill
1 setlinewidth
solid
0 0 0 edgecolor
newpath 1397.79 336.92 moveto
1396.93 326.36 lineto
1391.02 335.15 lineto
closepath stroke
grestore
% 14->para
gsave
1 setlinewidth
0 0 0 edgecolor
newpath 1735.06 362.3 moveto
1735.57 354.21 1736.13 345.34 1736.69 336.56 curveto
stroke
0 0 0 edgecolor
newpath 1740.19 336.56 moveto
1737.33 326.36 lineto
1733.21 336.12 lineto
closepath fill
1 setlinewidth
solid
0 0 0 edgecolor
newpath 1740.19 336.56 moveto
1737.33 326.36 lineto
1733.21 336.12 lineto
closepath stroke
grestore
endpage
showpage
grestore
%%PageTrailer
%%EndPage: 2
setupLatin1
%%Page: 3 3
%%PageBoundingBox: 36 36 1786 720
%%PageOrientation: Portrait
0 0 1 beginpage
gsave
36 36 1750 684 boxprim clip newpath
1 1 set_scale 0 rotate 40 41 translate
% 1073741823
gsave
1 setlinewidth
0 0 0 nodecolor
787 653 43.84 19.09 ellipse_path stroke
0 0 0 nodecolor
18 /Times-Roman set_font
764 646.3 moveto 46 (Result) alignedtext
grestore
% paraxye
gsave
1 setlinewidth
0 0 0 nodecolor
newpath 652 84 moveto
386 84 lineto
386 0 lineto
652 0 lineto
closepath stroke
0 0 0 nodecolor
18 /Times-Roman set_font
490 63.8 moveto 58 (paraxye) alignedtext
0 0 0 nodecolor
18 /Times-Roman set_font
393.5 44.8 moveto 251 ([|t in [0.931 , INF]; x in [-INF , 30];) alignedtext
0 0 0 nodecolor
18 /Times-Roman set_font
463 25.8 moveto 112 (  y in [1 , INF]|]) alignedtext
0 0 0 nodecolor
18 /Times-Roman set_font
424 6.8 moveto 190 (5 constraints, 5 generators) alignedtext
grestore
% parax
gsave
1 setlinewidth
0 0 0 nodecolor
newpath 988 278.5 moveto
754 278.5 lineto
754 213.5 lineto
988 213.5 lineto
closepath stroke
0 0 0 nodecolor
18 /Times-Roman set_font
850.5 258.3 moveto 41 (parax) alignedtext
0 0 0 nodecolor
18 /Times-Roman set_font
761.5 239.3 moveto 219 ([|t in [0 , INF]; ; y in [0 , INF]|]) alignedtext
0 0 0 nodecolor
18 /Times-Roman set_font
776 220.3 moveto 190 (6 constraints, 6 generators) alignedtext
grestore
% 4
gsave
0 0 0 nodecolor
18 /Times-Roman set_font
831.5 146.8 moveto 79 (x-31>=0 ? ) alignedtext
0 0 0 nodecolor
18 /Times-Roman set_font
864.5 127.8 moveto 13 (\(\)) alignedtext
grestore
% parax->4
gsave
1 setlinewidth
0 0 0 edgecolor
newpath 871 213.45 moveto
871 201.93 871 188.96 871 177.38 curveto
stroke
0 0 0 edgecolor
newpath 874.5 177.21 moveto
871 167.21 lineto
867.5 177.21 lineto
closepath fill
1 setlinewidth
solid
0 0 0 edgecolor
newpath 874.5 177.21 moveto
871 167.21 lineto
867.5 177.21 lineto
closepath stroke
grestore
% paray
gsave
1 setlinewidth
0 0 0 nodecolor
newpath 1326 278.5 moveto
1120 278.5 lineto
1120 213.5 lineto
1326 213.5 lineto
closepath stroke
0 0 0 nodecolor
18 /Times-Roman set_font
1202.5 258.3 moveto 41 (paray) alignedtext
0 0 0 nodecolor
18 /Times-Roman set_font
1132.5 239.3 moveto 181 ([|t in [0 , 8]; ; y in [0 , 8]|]) alignedtext
0 0 0 nodecolor
18 /Times-Roman set_font
1128 220.3 moveto 190 (4 constraints, 5 generators) alignedtext
grestore
% 6
gsave
0 0 0 nodecolor
18 /Times-Roman set_font
1188 146.8 moveto 70 (y-8>=0 ? ) alignedtext
0 0 0 nodecolor
18 /Times-Roman set_font
1216.5 127.8 moveto 13 (\(\)) alignedtext
grestore
% paray->6
gsave
1 setlinewidth
0 0 0 edgecolor
newpath 1223 213.45 moveto
1223 201.93 1223 188.96 1223 177.38 curveto
stroke
0 0 0 edgecolor
newpath 1226.5 177.21 moveto
1223 167.21 lineto
1219.5 177.21 lineto
closepath fill
1 setlinewidth
solid
0 0 0 edgecolor
newpath 1226.5 177.21 moveto
1223 167.21 lineto
1219.5 177.21 lineto
closepath stroke
grestore
% paraxyy_start
gsave
1 setlinewidth
0 0 0 nodecolor
newpath 279 491.5 moveto
55 491.5 lineto
55 426.5 lineto
279 426.5 lineto
closepath stroke
0 0 0 nodecolor
18 /Times-Roman set_font
117 471.3 moveto 100 (paraxyy_start) alignedtext
0 0 0 nodecolor
18 /Times-Roman set_font
62.5 452.3 moveto 209 ([|t=0; x in [0 , 2]; y in [0 , 2]|]) alignedtext
0 0 0 nodecolor
18 /Times-Roman set_font
72 433.3 moveto 190 (5 constraints, 4 generators) alignedtext
grestore
% 1
gsave
0 0 0 nodecolor
18 /Times-Roman set_font
108.5 369.3 moveto 117 (\(-x+2y+30>=0 ?) alignedtext
0 0 0 nodecolor
18 /Times-Roman set_font
65 350.3 moveto 204 (t := t+1; x := x+y; y := y+1\)*) alignedtext
0 0 0 nodecolor
18 /Times-Roman set_font
160.5 331.3 moveto 13 (\(\)) alignedtext
grestore
% paraxyy_start->1
gsave
1 setlinewidth
0 0 0 edgecolor
newpath 167 426.45 moveto
167 417.98 167 408.73 167 399.83 curveto
stroke
0 0 0 edgecolor
newpath 170.5 399.59 moveto
167 389.59 lineto
163.5 399.59 lineto
closepath fill
1 setlinewidth
solid
0 0 0 edgecolor
newpath 170.5 399.59 moveto
167 389.59 lineto
163.5 399.59 lineto
closepath stroke
grestore
% linit
gsave
1 setlinewidth
0 0 0 nodecolor
newpath 893 676 moveto
849 676 lineto
849 630 lineto
893 630 lineto
closepath stroke
0 0 0 nodecolor
18 /Times-Roman set_font
857 655.8 moveto 28 (linit) alignedtext
0 0 0 nodecolor
18 /Times-Roman set_font
859 636.8 moveto 24 (top) alignedtext
grestore
% 10
gsave
0 0 0 nodecolor
18 /Times-Roman set_font
7.5 573.3 moveto 319 (-y+2>=0 and y>=0 and -x+2>=0 and x>=0 ?) alignedtext
0 0 0 nodecolor
18 /Times-Roman set_font
148 554.3 moveto 38 (t := 0) alignedtext
0 0 0 nodecolor
18 /Times-Roman set_font
160.5 535.3 moveto 13 (\(\)) alignedtext
grestore
% linit->10
gsave
1 setlinewidth
0 0 0 edgecolor
newpath 848.83 634.34 moveto
845.99 632.63 843.02 631.12 840 630 curveto
739.02 592.53 468.18 607.35 344.24 594.01 curveto
stroke
0 0 0 edgecolor
newpath 344.49 590.51 moveto
334.14 592.81 lineto
343.66 597.46 lineto
closepath fill
1 setlinewidth
solid
0 0 0 edgecolor
newpath 344.49 590.51 moveto
334.14 592.81 lineto
343.66 597.46 lineto
closepath stroke
grestore
% 11
gsave
0 0 0 nodecolor
18 /Times-Roman set_font
359.5 573.3 moveto 319 (-y+2>=0 and y>=0 and -x+2>=0 and x>=0 ?) alignedtext
0 0 0 nodecolor
18 /Times-Roman set_font
500 554.3 moveto 38 (t := 0) alignedtext
0 0 0 nodecolor
18 /Times-Roman set_font
512.5 535.3 moveto 13 (\(\)) alignedtext
grestore
% linit->11
gsave
1 setlinewidth
0 0 0 edgecolor
newpath 848.66 634.75 moveto
845.85 632.96 842.93 631.33 840 630 curveto
825.43 623.41 761.94 609.33 695.22 595.6 curveto
stroke
0 0 0 edgecolor
newpath 695.86 592.16 moveto
685.36 593.58 lineto
694.46 599.02 lineto
closepath fill
1 setlinewidth
solid
0 0 0 edgecolor
newpath 695.86 592.16 moveto
685.36 593.58 lineto
694.46 599.02 lineto
closepath stroke
grestore
% 12
gsave
0 0 0 nodecolor
18 /Times-Roman set_font
711.5 573.3 moveto 319 (-y+2>=0 and y>=0 and -x+2>=0 and x>=0 ?) alignedtext
0 0 0 nodecolor
18 /Times-Roman set_font
852 554.3 moveto 38 (t := 0) alignedtext
0 0 0 nodecolor
18 /Times-Roman set_font
864.5 535.3 moveto 13 (\(\)) alignedtext
grestore
% linit->12
gsave
1 setlinewidth
0 0 0 edgecolor
newpath 871 629.78 moveto
871 621.82 871 612.63 871 603.62 curveto
stroke
0 0 0 edgecolor
newpath 874.5 603.59 moveto
871 593.59 lineto
867.5 603.59 lineto
closepath fill
1 setlinewidth
solid
0 0 0 edgecolor
newpath 874.5 603.59 moveto
871 593.59 lineto
867.5 603.59 lineto
closepath stroke
grestore
% 13
gsave
0 0 0 nodecolor
18 /Times-Roman set_font
1063.5 573.3 moveto 319 (-y+2>=0 and y>=0 and -x+2>=0 and x>=0 ?) alignedtext
0 0 0 nodecolor
18 /Times-Roman set_font
1204 554.3 moveto 38 (t := 0) alignedtext
0 0 0 nodecolor
18 /Times-Roman set_font
1216.5 535.3 moveto 13 (\(\)) alignedtext
grestore
% linit->13
gsave
1 setlinewidth
0 0 0 edgecolor
newpath 893.02 647.24 moveto
931.84 637.1 1015.28 615.29 1088.55 596.14 curveto
stroke
0 0 0 edgecolor
newpath 1089.56 599.49 moveto
1098.35 593.58 lineto
1087.79 592.72 lineto
closepath fill
1 setlinewidth
solid
0 0 0 edgecolor
newpath 1089.56 599.49 moveto
1098.35 593.58 lineto
1087.79 592.72 lineto
closepath stroke
grestore
% 14
gsave
0 0 0 nodecolor
18 /Times-Roman set_font
1415.5 573.3 moveto 319 (-y+2>=0 and y>=0 and -x+2>=0 and x>=0 ?) alignedtext
0 0 0 nodecolor
18 /Times-Roman set_font
1556 554.3 moveto 38 (t := 0) alignedtext
0 0 0 nodecolor
18 /Times-Roman set_font
1568.5 535.3 moveto 13 (\(\)) alignedtext
grestore
% linit->14
gsave
1 setlinewidth
0 0 0 edgecolor
newpath 893.21 651.11 moveto
964.77 644.9 1195.93 623.88 1397.64 594.17 curveto
stroke
0 0 0 edgecolor
newpath 1398.46 597.58 moveto
1407.83 592.65 lineto
1397.43 590.66 lineto
closepath fill
1 setlinewidth
solid
0 0 0 edgecolor
newpath 1398.46 597.58 moveto
1407.83 592.65 lineto
1397.43 590.66 lineto
closepath stroke
grestore
% paray_start
gsave
1 setlinewidth
0 0 0 nodecolor
newpath 1335 491.5 moveto
1111 491.5 lineto
1111 426.5 lineto
1335 426.5 lineto
closepath stroke
0 0 0 nodecolor
18 /Times-Roman set_font
1182 471.3 moveto 82 (paray_start) alignedtext
0 0 0 nodecolor
18 /Times-Roman set_font
1118.5 452.3 moveto 209 ([|t=0; x in [0 , 2]; y in [0 , 2]|]) alignedtext
0 0 0 nodecolor
18 /Times-Roman set_font
1128 433.3 moveto 190 (5 constraints, 4 generators) alignedtext
grestore
% 7
gsave
0 0 0 nodecolor
18 /Times-Roman set_font
1182.5 369.3 moveto 81 (\(-y+7>=0 ?) alignedtext
0 0 0 nodecolor
18 /Times-Roman set_font
1121 350.3 moveto 204 (t := t+1; x := x+y; y := y+1\)*) alignedtext
0 0 0 nodecolor
18 /Times-Roman set_font
1216.5 331.3 moveto 13 (\(\)) alignedtext
grestore
% paray_start->7
gsave
1 setlinewidth
0 0 0 edgecolor
newpath 1223 426.45 moveto
1223 417.98 1223 408.73 1223 399.83 curveto
stroke
0 0 0 edgecolor
newpath 1226.5 399.59 moveto
1223 389.59 lineto
1219.5 399.59 lineto
closepath fill
1 setlinewidth
solid
0 0 0 edgecolor
newpath 1226.5 399.59 moveto
1223 389.59 lineto
1219.5 399.59 lineto
closepath stroke
grestore
% paraye
gsave
1 setlinewidth
0 0 0 nodecolor
newpath 1326 74.5 moveto
1120 74.5 lineto
1120 9.5 lineto
1326 9.5 lineto
closepath stroke
0 0 0 nodecolor
18 /Times-Roman set_font
1198.5 54.3 moveto 49 (paraye) alignedtext
0 0 0 nodecolor
18 /Times-Roman set_font
1155.5 35.3 moveto 135 ([|t in [6 , 8]; ; y=8|]) alignedtext
0 0 0 nodecolor
18 /Times-Roman set_font
1128 16.3 moveto 190 (3 constraints, 3 generators) alignedtext
grestore
% para
gsave
1 setlinewidth
0 0 0 nodecolor
newpath 1692 278.5 moveto
1458 278.5 lineto
1458 213.5 lineto
1692 213.5 lineto
closepath stroke
0 0 0 nodecolor
18 /Times-Roman set_font
1559 258.3 moveto 32 (para) alignedtext
0 0 0 nodecolor
18 /Times-Roman set_font
1465.5 239.3 moveto 219 ([|t in [0 , INF]; ; y in [0 , INF]|]) alignedtext
0 0 0 nodecolor
18 /Times-Roman set_font
1480 220.3 moveto 190 (3 constraints, 4 generators) alignedtext
grestore
% 8
gsave
0 0 0 nodecolor
18 /Times-Roman set_font
1568.5 126.8 moveto 13 (\(\)) alignedtext
grestore
% para->8
gsave
1 setlinewidth
0 0 0 edgecolor
newpath 1575 213.45 moveto
1575 202.2 1575 189.56 1575 178.19 curveto
stroke
0 0 0 edgecolor
newpath 1578.5 178.17 moveto
1575 168.17 lineto
1571.5 178.17 lineto
closepath fill
1 setlinewidth
solid
0 0 0 edgecolor
newpath 1578.5 178.17 moveto
1575 168.17 lineto
1571.5 178.17 lineto
closepath stroke
grestore
% paraxy
gsave
1 setlinewidth
0 0 0 nodecolor
newpath 637 288 moveto
401 288 lineto
401 204 lineto
637 204 lineto
closepath stroke
0 0 0 nodecolor
18 /Times-Roman set_font
494 267.8 moveto 50 (paraxy) alignedtext
0 0 0 nodecolor
18 /Times-Roman set_font
409 248.8 moveto 220 ([|t in [0 , INF]; x in [-INF , 30];) alignedtext
0 0 0 nodecolor
18 /Times-Roman set_font
463 229.8 moveto 112 (  y in [0 , INF]|]) alignedtext
0 0 0 nodecolor
18 /Times-Roman set_font
424 210.8 moveto 190 (5 constraints, 6 generators) alignedtext
grestore
% 2
gsave
0 0 0 nodecolor
18 /Times-Roman set_font
470.5 146.8 moveto 97 (x+y-31>=0 ? ) alignedtext
0 0 0 nodecolor
18 /Times-Roman set_font
512.5 127.8 moveto 13 (\(\)) alignedtext
grestore
% paraxy->2
gsave
1 setlinewidth
0 0 0 edgecolor
newpath 519 203.92 moveto
519 195.05 519 185.8 519 177.3 curveto
stroke
0 0 0 edgecolor
newpath 522.5 177.02 moveto
519 167.02 lineto
515.5 177.02 lineto
closepath fill
1 setlinewidth
solid
0 0 0 edgecolor
newpath 522.5 177.02 moveto
519 167.02 lineto
515.5 177.02 lineto
closepath stroke
grestore
% parae
gsave
1 setlinewidth
0 0 0 nodecolor
newpath 1692 74.5 moveto
1458 74.5 lineto
1458 9.5 lineto
1692 9.5 lineto
closepath stroke
0 0 0 nodecolor
18 /Times-Roman set_font
1555 54.3 moveto 40 (parae) alignedtext
0 0 0 nodecolor
18 /Times-Roman set_font
1465.5 35.3 moveto 219 ([|t in [0 , INF]; ; y in [0 , INF]|]) alignedtext
0 0 0 nodecolor
18 /Times-Roman set_font
1480 16.3 moveto 190 (3 constraints, 4 generators) alignedtext
grestore
% parax_start
gsave
1 setlinewidth
0 0 0 nodecolor
newpath 983 491.5 moveto
759 491.5 lineto
759 426.5 lineto
983 426.5 lineto
closepath stroke
0 0 0 nodecolor
18 /Times-Roman set_font
830 471.3 moveto 82 (parax_start) alignedtext
0 0 0 nodecolor
18 /Times-Roman set_font
766.5 452.3 moveto 209 ([|t=0; x in [0 , 2]; y in [0 , 2]|]) alignedtext
0 0 0 nodecolor
18 /Times-Roman set_font
776 433.3 moveto 190 (5 constraints, 4 generators) alignedtext
grestore
% 5
gsave
0 0 0 nodecolor
18 /Times-Roman set_font
826 369.3 moveto 90 (\(-x+30>=0 ?) alignedtext
0 0 0 nodecolor
18 /Times-Roman set_font
769 350.3 moveto 204 (t := t+1; x := x+y; y := y+1\)*) alignedtext
0 0 0 nodecolor
18 /Times-Roman set_font
864.5 331.3 moveto 13 (\(\)) alignedtext
grestore
% parax_start->5
gsave
1 setlinewidth
0 0 0 edgecolor
newpath 871 426.45 moveto
871 417.98 871 408.73 871 399.83 curveto
stroke
0 0 0 edgecolor
newpath 874.5 399.59 moveto
871 389.59 lineto
867.5 399.59 lineto
closepath fill
1 setlinewidth
solid
0 0 0 edgecolor
newpath 874.5 399.59 moveto
871 389.59 lineto
867.5 399.59 lineto
closepath stroke
grestore
% paraxy_start
gsave
1 setlinewidth
0 0 0 nodecolor
newpath 631 491.5 moveto
407 491.5 lineto
407 426.5 lineto
631 426.5 lineto
closepath stroke
0 0 0 nodecolor
18 /Times-Roman set_font
473.5 471.3 moveto 91 (paraxy_start) alignedtext
0 0 0 nodecolor
18 /Times-Roman set_font
414.5 452.3 moveto 209 ([|t=0; x in [0 , 2]; y in [0 , 2]|]) alignedtext
0 0 0 nodecolor
18 /Times-Roman set_font
424 433.3 moveto 190 (5 constraints, 4 generators) alignedtext
grestore
% 3
gsave
0 0 0 nodecolor
18 /Times-Roman set_font
466.5 369.3 moveto 105 (\(-x-y+30>=0 ?) alignedtext
0 0 0 nodecolor
18 /Times-Roman set_font
417 350.3 moveto 204 (t := t+1; x := x+y; y := y+1\)*) alignedtext
0 0 0 nodecolor
18 /Times-Roman set_font
512.5 331.3 moveto 13 (\(\)) alignedtext
grestore
% paraxy_start->3
gsave
1 setlinewidth
0 0 0 edgecolor
newpath 519 426.45 moveto
519 417.98 519 408.73 519 399.83 curveto
stroke
0 0 0 edgecolor
newpath 522.5 399.59 moveto
519 389.59 lineto
515.5 399.59 lineto
closepath fill
1 setlinewidth
solid
0 0 0 edgecolor
newpath 522.5 399.59 moveto
519 389.59 lineto
515.5 399.59 lineto
closepath stroke
grestore
% paraxyye
gsave
1 setlinewidth
0 0 0 nodecolor
newpath 282 84 moveto
52 84 lineto
52 0 lineto
282 0 lineto
closepath stroke
0 0 0 nodecolor
18 /Times-Roman set_font
133.5 63.8 moveto 67 (paraxyye) alignedtext
0 0 0 nodecolor
18 /Times-Roman set_font
60 44.8 moveto 214 ([|t in [2 , INF]; x in [39 , INF];) alignedtext
0 0 0 nodecolor
18 /Times-Roman set_font
111 25.8 moveto 112 (  y in [4 , INF]|]) alignedtext
0 0 0 nodecolor
18 /Times-Roman set_font
72 6.8 moveto 190 (4 constraints, 4 generators) alignedtext
grestore
% paraxyy
gsave
1 setlinewidth
0 0 0 nodecolor
newpath 284 278.5 moveto
50 278.5 lineto
50 213.5 lineto
284 213.5 lineto
closepath stroke
0 0 0 nodecolor
18 /Times-Roman set_font
137.5 258.3 moveto 59 (paraxyy) alignedtext
0 0 0 nodecolor
18 /Times-Roman set_font
57.5 239.3 moveto 219 ([|t in [0 , INF]; ; y in [0 , INF]|]) alignedtext
0 0 0 nodecolor
18 /Times-Roman set_font
72 220.3 moveto 190 (6 constraints, 6 generators) alignedtext
grestore
% 0
gsave
0 0 0 nodecolor
18 /Times-Roman set_font
115.5 146.8 moveto 103 (x-2y-31>=0 ? ) alignedtext
0 0 0 nodecolor
18 /Times-Roman set_font
160.5 127.8 moveto 13 (\(\)) alignedtext
grestore
% paraxyy->0
gsave
1 setlinewidth
0 0 0 edgecolor
newpath 167 213.45 moveto
167 201.93 167 188.96 167 177.38 curveto
stroke
0 0 0 edgecolor
newpath 170.5 177.21 moveto
167 167.21 lineto
163.5 177.21 lineto
closepath fill
1 setlinewidth
solid
0 0 0 edgecolor
newpath 170.5 177.21 moveto
167 167.21 lineto
163.5 177.21 lineto
closepath stroke
grestore
% paraxe
gsave
1 setlinewidth
0 0 0 nodecolor
newpath 1006 84 moveto
736 84 lineto
736 0 lineto
1006 0 lineto
closepath stroke
0 0 0 nodecolor
18 /Times-Roman set_font
846.5 63.8 moveto 49 (paraxe) alignedtext
0 0 0 nodecolor
18 /Times-Roman set_font
744 44.8 moveto 254 ([|t in [0.9667 , INF]; x in [31 , INF];) alignedtext
0 0 0 nodecolor
18 /Times-Roman set_font
815 25.8 moveto 112 (  y in [2 , INF]|]) alignedtext
0 0 0 nodecolor
18 /Times-Roman set_font
776 6.8 moveto 190 (6 constraints, 7 generators) alignedtext
grestore
% para_start
gsave
1 setlinewidth
0 0 0 nodecolor
newpath 1687 491.5 moveto
1463 491.5 lineto
1463 426.5 lineto
1687 426.5 lineto
closepath stroke
0 0 0 nodecolor
18 /Times-Roman set_font
1538.5 471.3 moveto 73 (para_start) alignedtext
0 0 0 nodecolor
18 /Times-Roman set_font
1470.5 452.3 moveto 209 ([|t=0; x in [0 , 2]; y in [0 , 2]|]) alignedtext
0 0 0 nodecolor
18 /Times-Roman set_font
1480 433.3 moveto 190 (5 constraints, 4 generators) alignedtext
grestore
% 9
gsave
0 0 0 nodecolor
18 /Times-Roman set_font
1473 359.8 moveto 204 (t := t+1; x := x+y; y := y+1\)*) alignedtext
0 0 0 nodecolor
18 /Times-Roman set_font
1568.5 340.8 moveto 13 (\(\)) alignedtext
grestore
% para_start->9
gsave
1 setlinewidth
0 0 0 edgecolor
newpath 1575 426.45 moveto
1575 414.93 1575 401.96 1575 390.38 curveto
stroke
0 0 0 edgecolor
newpath 1578.5 390.21 moveto
1575 380.21 lineto
1571.5 390.21 lineto
closepath fill
1 setlinewidth
solid
0 0 0 edgecolor
newpath 1578.5 390.21 moveto
1575 380.21 lineto
1571.5 390.21 lineto
closepath stroke
grestore
% 0->paraxyye
gsave
1 setlinewidth
0 0 0 edgecolor
newpath 167 120.85 moveto
167 112.91 167 103.67 167 94.37 curveto
stroke
0 0 0 edgecolor
newpath 170.5 94.31 moveto
167 84.31 lineto
163.5 94.31 lineto
closepath fill
1 setlinewidth
solid
0 0 0 edgecolor
newpath 170.5 94.31 moveto
167 84.31 lineto
163.5 94.31 lineto
closepath stroke
grestore
% 1->paraxyy
gsave
1 setlinewidth
0 0 0 edgecolor
newpath 167 324.3 moveto
167 313.22 167 300.67 167 288.92 curveto
stroke
0 0 0 edgecolor
newpath 170.5 288.85 moveto
167 278.85 lineto
163.5 288.85 lineto
closepath fill
1 setlinewidth
solid
0 0 0 edgecolor
newpath 170.5 288.85 moveto
167 278.85 lineto
163.5 288.85 lineto
closepath stroke
grestore
% 2->paraxye
gsave
1 setlinewidth
0 0 0 edgecolor
newpath 519 120.85 moveto
519 112.91 519 103.67 519 94.37 curveto
stroke
0 0 0 edgecolor
newpath 522.5 94.31 moveto
519 84.31 lineto
515.5 94.31 lineto
closepath fill
1 setlinewidth
solid
0 0 0 edgecolor
newpath 522.5 94.31 moveto
519 84.31 lineto
515.5 94.31 lineto
closepath stroke
grestore
% 3->paraxy
gsave
1 setlinewidth
0 0 0 edgecolor
newpath 519 324.3 moveto
519 316.21 519 307.34 519 298.56 curveto
stroke
0 0 0 edgecolor
newpath 522.5 298.36 moveto
519 288.36 lineto
515.5 298.36 lineto
closepath fill
1 setlinewidth
solid
0 0 0 edgecolor
newpath 522.5 298.36 moveto
519 288.36 lineto
515.5 298.36 lineto
closepath stroke
grestore
% 4->paraxe
gsave
1 setlinewidth
0 0 0 edgecolor
newpath 871 120.85 moveto
871 112.91 871 103.67 871 94.37 curveto
stroke
0 0 0 edgecolor
newpath 874.5 94.31 moveto
871 84.31 lineto
867.5 94.31 lineto
closepath fill
1 setlinewidth
solid
0 0 0 edgecolor
newpath 874.5 94.31 moveto
871 84.31 lineto
867.5 94.31 lineto
closepath stroke
grestore
% 5->parax
gsave
1 setlinewidth
0 0 0 edgecolor
newpath 871 324.3 moveto
871 313.22 871 300.67 871 288.92 curveto
stroke
0 0 0 edgecolor
newpath 874.5 288.85 moveto
871 278.85 lineto
867.5 288.85 lineto
closepath fill
1 setlinewidth
solid
0 0 0 edgecolor
newpath 874.5 288.85 moveto
871 278.85 lineto
867.5 288.85 lineto
closepath stroke
grestore
% 6->paraye
gsave
1 setlinewidth
0 0 0 edgecolor
newpath 1223 120.85 moveto
1223 110.2 1223 97.21 1223 84.87 curveto
stroke
0 0 0 edgecolor
newpath 1226.5 84.72 moveto
1223 74.72 lineto
1219.5 84.72 lineto
closepath fill
1 setlinewidth
solid
0 0 0 edgecolor
newpath 1226.5 84.72 moveto
1223 74.72 lineto
1219.5 84.72 lineto
closepath stroke
grestore
% 7->paray
gsave
1 setlinewidth
0 0 0 edgecolor
newpath 1223 324.3 moveto
1223 313.22 1223 300.67 1223 288.92 curveto
stroke
0 0 0 edgecolor
newpath 1226.5 288.85 moveto
1223 278.85 lineto
1219.5 288.85 lineto
closepath fill
1 setlinewidth
solid
0 0 0 edgecolor
newpath 1226.5 288.85 moveto
1223 278.85 lineto
1219.5 288.85 lineto
closepath stroke
grestore
% 8->parae
gsave
1 setlinewidth
0 0 0 edgecolor
newpath 1575 119.83 moveto
1575 109.44 1575 96.97 1575 85.1 curveto
stroke
0 0 0 edgecolor
newpath 1578.5 84.87 moveto
1575 74.87 lineto
1571.5 84.87 lineto
closepath fill
1 setlinewidth
solid
0 0 0 edgecolor
newpath 1578.5 84.87 moveto
1575 74.87 lineto
1571.5 84.87 lineto
closepath stroke
grestore
% 9->para
gsave
1 setlinewidth
0 0 0 edgecolor
newpath 1575 333.73 moveto
1575 320.82 1575 304.34 1575 289.16 curveto
stroke
0 0 0 edgecolor
newpath 1578.5 288.92 moveto
1575 278.92 lineto
1571.5 288.92 lineto
closepath fill
1 setlinewidth
solid
0 0 0 edgecolor
newpath 1578.5 288.92 moveto
1575 278.92 lineto
1571.5 288.92 lineto
closepath stroke
grestore
% 10->paraxyy_start
gsave
1 setlinewidth
0 0 0 edgecolor
newpath 167 528.45 moveto
167 519.98 167 510.73 167 501.83 curveto
stroke
0 0 0 edgecolor
newpath 170.5 501.59 moveto
167 491.59 lineto
163.5 501.59 lineto
closepath fill
1 setlinewidth
solid
0 0 0 edgecolor
newpath 170.5 501.59 moveto
167 491.59 lineto
163.5 501.59 lineto
closepath stroke
grestore
% 11->paraxy_start
gsave
1 setlinewidth
0 0 0 edgecolor
newpath 519 528.45 moveto
519 519.98 519 510.73 519 501.83 curveto
stroke
0 0 0 edgecolor
newpath 522.5 501.59 moveto
519 491.59 lineto
515.5 501.59 lineto
closepath fill
1 setlinewidth
solid
0 0 0 edgecolor
newpath 522.5 501.59 moveto
519 491.59 lineto
515.5 501.59 lineto
closepath stroke
grestore
% 12->parax_start
gsave
1 setlinewidth
0 0 0 edgecolor
newpath 871 528.45 moveto
871 519.98 871 510.73 871 501.83 curveto
stroke
0 0 0 edgecolor
newpath 874.5 501.59 moveto
871 491.59 lineto
867.5 501.59 lineto
closepath fill
1 setlinewidth
solid
0 0 0 edgecolor
newpath 874.5 501.59 moveto
871 491.59 lineto
867.5 501.59 lineto
closepath stroke
grestore
% 13->paray_start
gsave
1 setlinewidth
0 0 0 edgecolor
newpath 1223 528.45 moveto
1223 519.98 1223 510.73 1223 501.83 curveto
stroke
0 0 0 edgecolor
newpath 1226.5 501.59 moveto
1223 491.59 lineto
1219.5 501.59 lineto
closepath fill
1 setlinewidth
solid
0 0 0 edgecolor
newpath 1226.5 501.59 moveto
1223 491.59 lineto
1219.5 501.59 lineto
closepath stroke
grestore
% 14->para_start
gsave
1 setlinewidth
0 0 0 edgecolor
newpath 1575 528.45 moveto
1575 519.98 1575 510.73 1575 501.83 curveto
stroke
0 0 0 edgecolor
newpath 1578.5 501.59 moveto
1575 491.59 lineto
1571.5 501.59 lineto
closepath fill
1 setlinewidth
solid
0 0 0 edgecolor
newpath 1578.5 501.59 moveto
1575 491.59 lineto
1571.5 501.59 lineto
closepath stroke
grestore
endpage
showpage
grestore
%%PageTrailer
%%EndPage: 3
%%Trailer
%%Pages: 3
%%BoundingBox: 36 36 1944 740
end
restore
%%EOF
