%!PS-Adobe-3.0
%%Creator: graphviz version 2.26.3 (20100126.1600)
%%Title: G
%%Pages: (atend)
%%BoundingBox: (atend)
%%EndComments
save
%%BeginProlog
/DotDict 200 dict def
DotDict begin

/setupLatin1 {
mark
/EncodingVector 256 array def
 EncodingVector 0

ISOLatin1Encoding 0 255 getinterval putinterval
EncodingVector 45 /hyphen put

% Set up ISO Latin 1 character encoding
/starnetISO {
        dup dup findfont dup length dict begin
        { 1 index /FID ne { def }{ pop pop } ifelse
        } forall
        /Encoding EncodingVector def
        currentdict end definefont
} def
/Times-Roman starnetISO def
/Times-Italic starnetISO def
/Times-Bold starnetISO def
/Times-BoldItalic starnetISO def
/Helvetica starnetISO def
/Helvetica-Oblique starnetISO def
/Helvetica-Bold starnetISO def
/Helvetica-BoldOblique starnetISO def
/Courier starnetISO def
/Courier-Oblique starnetISO def
/Courier-Bold starnetISO def
/Courier-BoldOblique starnetISO def
cleartomark
} bind def

%%BeginResource: procset graphviz 0 0
/coord-font-family /Times-Roman def
/default-font-family /Times-Roman def
/coordfont coord-font-family findfont 8 scalefont def

/InvScaleFactor 1.0 def
/set_scale {
       dup 1 exch div /InvScaleFactor exch def
       scale
} bind def

% styles
/solid { [] 0 setdash } bind def
/dashed { [9 InvScaleFactor mul dup ] 0 setdash } bind def
/dotted { [1 InvScaleFactor mul 6 InvScaleFactor mul] 0 setdash } bind def
/invis {/fill {newpath} def /stroke {newpath} def /show {pop newpath} def} bind def
/bold { 2 setlinewidth } bind def
/filled { } bind def
/unfilled { } bind def
/rounded { } bind def
/diagonals { } bind def

% hooks for setting color 
/nodecolor { sethsbcolor } bind def
/edgecolor { sethsbcolor } bind def
/graphcolor { sethsbcolor } bind def
/nopcolor {pop pop pop} bind def

/beginpage {	% i j npages
	/npages exch def
	/j exch def
	/i exch def
	/str 10 string def
	npages 1 gt {
		gsave
			coordfont setfont
			0 0 moveto
			(\() show i str cvs show (,) show j str cvs show (\)) show
		grestore
	} if
} bind def

/set_font {
	findfont exch
	scalefont setfont
} def

% draw text fitted to its expected width
/alignedtext {			% width text
	/text exch def
	/width exch def
	gsave
		width 0 gt {
			[] 0 setdash
			text stringwidth pop width exch sub text length div 0 text ashow
		} if
	grestore
} def

/boxprim {				% xcorner ycorner xsize ysize
		4 2 roll
		moveto
		2 copy
		exch 0 rlineto
		0 exch rlineto
		pop neg 0 rlineto
		closepath
} bind def

/ellipse_path {
	/ry exch def
	/rx exch def
	/y exch def
	/x exch def
	matrix currentmatrix
	newpath
	x y translate
	rx ry scale
	0 0 1 0 360 arc
	setmatrix
} bind def

/endpage { showpage } bind def
/showpage { } def

/layercolorseq
	[	% layer color sequence - darkest to lightest
		[0 0 0]
		[.2 .8 .8]
		[.4 .8 .8]
		[.6 .8 .8]
		[.8 .8 .8]
	]
def

/layerlen layercolorseq length def

/setlayer {/maxlayer exch def /curlayer exch def
	layercolorseq curlayer 1 sub layerlen mod get
	aload pop sethsbcolor
	/nodecolor {nopcolor} def
	/edgecolor {nopcolor} def
	/graphcolor {nopcolor} def
} bind def

/onlayer { curlayer ne {invis} if } def

/onlayers {
	/myupper exch def
	/mylower exch def
	curlayer mylower lt
	curlayer myupper gt
	or
	{invis} if
} def

/curlayer 0 def

%%EndResource
%%EndProlog
%%BeginSetup
14 default-font-family set_font
1 setmiterlimit
% /arrowlength 10 def
% /arrowwidth 5 def

% make sure pdfmark is harmless for PS-interpreters other than Distiller
/pdfmark where {pop} {userdict /pdfmark /cleartomark load put} ifelse
% make '<<' and '>>' safe on PS Level 1 devices
/languagelevel where {pop languagelevel}{1} ifelse
2 lt {
    userdict (<<) cvn ([) cvn load put
    userdict (>>) cvn ([) cvn load put
} if

%%EndSetup
setupLatin1
%%Page: 1 1
%%PageBoundingBox: 36 36 1786 720
%%PageOrientation: Portrait
0 0 1 beginpage
gsave
36 36 1750 684 boxprim clip newpath
1 1 set_scale 0 rotate 40 41 translate
% 1073741823
gsave
1 setlinewidth
0 0 0 nodecolor
787 653 43.84 19.09 ellipse_path stroke
0 0 0 nodecolor
18 /Times-Roman set_font
764 646.3 moveto 46 (Result) alignedtext
grestore
% paraxye
gsave
1 setlinewidth
0 0 0 nodecolor
newpath 631 84 moveto
407 84 lineto
407 0 lineto
631 0 lineto
closepath stroke
0 0 0 nodecolor
18 /Times-Roman set_font
490 63.8 moveto 58 (paraxye) alignedtext
0 0 0 nodecolor
18 /Times-Roman set_font
415 44.8 moveto 208 ([|t in [3 , 8]; x in [21.89 , 30];) alignedtext
0 0 0 nodecolor
18 /Times-Roman set_font
452.5 25.8 moveto 133 (  y in [4.231 , 10]|]) alignedtext
0 0 0 nodecolor
18 /Times-Roman set_font
419.5 6.8 moveto 199 (8 constraints, 11 generators) alignedtext
grestore
% parax
gsave
1 setlinewidth
0 0 0 nodecolor
newpath 983 288 moveto
759 288 lineto
759 204 lineto
983 204 lineto
closepath stroke
0 0 0 nodecolor
18 /Times-Roman set_font
850.5 267.8 moveto 41 (parax) alignedtext
0 0 0 nodecolor
18 /Times-Roman set_font
782.5 248.8 moveto 177 ([|t in [0 , 9]; x in [0 , 40];) alignedtext
0 0 0 nodecolor
18 /Times-Roman set_font
820 229.8 moveto 102 (  y in [0 , 11]|]) alignedtext
0 0 0 nodecolor
18 /Times-Roman set_font
767 210.8 moveto 208 (14 constraints, 16 generators) alignedtext
grestore
% 4
gsave
0 0 0 nodecolor
18 /Times-Roman set_font
831.5 146.8 moveto 79 (x-31>=0 ? ) alignedtext
0 0 0 nodecolor
18 /Times-Roman set_font
864.5 127.8 moveto 13 (\(\)) alignedtext
grestore
% parax->4
gsave
1 setlinewidth
0 0 0 edgecolor
newpath 871 203.92 moveto
871 195.05 871 185.8 871 177.3 curveto
stroke
0 0 0 edgecolor
newpath 874.5 177.02 moveto
871 167.02 lineto
867.5 177.02 lineto
closepath fill
1 setlinewidth
solid
0 0 0 edgecolor
newpath 874.5 177.02 moveto
871 167.02 lineto
867.5 177.02 lineto
closepath stroke
grestore
% paray
gsave
1 setlinewidth
0 0 0 nodecolor
newpath 1335 288 moveto
1111 288 lineto
1111 204 lineto
1335 204 lineto
closepath stroke
0 0 0 nodecolor
18 /Times-Roman set_font
1202.5 267.8 moveto 41 (paray) alignedtext
0 0 0 nodecolor
18 /Times-Roman set_font
1123.5 248.8 moveto 199 ([|t in [0 , 8]; x in [0 , 39.33];) alignedtext
0 0 0 nodecolor
18 /Times-Roman set_font
1176.5 229.8 moveto 93 (  y in [0 , 8]|]) alignedtext
0 0 0 nodecolor
18 /Times-Roman set_font
1119 210.8 moveto 208 (13 constraints, 15 generators) alignedtext
grestore
% 6
gsave
0 0 0 nodecolor
18 /Times-Roman set_font
1188 146.8 moveto 70 (y-8>=0 ? ) alignedtext
0 0 0 nodecolor
18 /Times-Roman set_font
1216.5 127.8 moveto 13 (\(\)) alignedtext
grestore
% paray->6
gsave
1 setlinewidth
0 0 0 edgecolor
newpath 1223 203.92 moveto
1223 195.05 1223 185.8 1223 177.3 curveto
stroke
0 0 0 edgecolor
newpath 1226.5 177.02 moveto
1223 167.02 lineto
1219.5 177.02 lineto
closepath fill
1 setlinewidth
solid
0 0 0 edgecolor
newpath 1226.5 177.02 moveto
1223 167.02 lineto
1219.5 177.02 lineto
closepath stroke
grestore
% paraxyy_start
gsave
1 setlinewidth
0 0 0 nodecolor
newpath 279 491.5 moveto
55 491.5 lineto
55 426.5 lineto
279 426.5 lineto
closepath stroke
0 0 0 nodecolor
18 /Times-Roman set_font
117 471.3 moveto 100 (paraxyy_start) alignedtext
0 0 0 nodecolor
18 /Times-Roman set_font
62.5 452.3 moveto 209 ([|t=0; x in [0 , 2]; y in [0 , 2]|]) alignedtext
0 0 0 nodecolor
18 /Times-Roman set_font
72 433.3 moveto 190 (5 constraints, 4 generators) alignedtext
grestore
% 1
gsave
0 0 0 nodecolor
18 /Times-Roman set_font
108.5 369.3 moveto 117 (\(-x+2y+30>=0 ?) alignedtext
0 0 0 nodecolor
18 /Times-Roman set_font
65 350.3 moveto 204 (t := t+1; x := x+y; y := y+1\)*) alignedtext
0 0 0 nodecolor
18 /Times-Roman set_font
160.5 331.3 moveto 13 (\(\)) alignedtext
grestore
% paraxyy_start->1
gsave
1 setlinewidth
0 0 0 edgecolor
newpath 167 426.45 moveto
167 417.98 167 408.73 167 399.83 curveto
stroke
0 0 0 edgecolor
newpath 170.5 399.59 moveto
167 389.59 lineto
163.5 399.59 lineto
closepath fill
1 setlinewidth
solid
0 0 0 edgecolor
newpath 170.5 399.59 moveto
167 389.59 lineto
163.5 399.59 lineto
closepath stroke
grestore
% linit
gsave
1 setlinewidth
0 0 0 nodecolor
newpath 893 676 moveto
849 676 lineto
849 630 lineto
893 630 lineto
closepath stroke
0 0 0 nodecolor
18 /Times-Roman set_font
857 655.8 moveto 28 (linit) alignedtext
0 0 0 nodecolor
18 /Times-Roman set_font
859 636.8 moveto 24 (top) alignedtext
grestore
% 10
gsave
0 0 0 nodecolor
18 /Times-Roman set_font
7.5 573.3 moveto 319 (-y+2>=0 and y>=0 and -x+2>=0 and x>=0 ?) alignedtext
0 0 0 nodecolor
18 /Times-Roman set_font
148 554.3 moveto 38 (t := 0) alignedtext
0 0 0 nodecolor
18 /Times-Roman set_font
160.5 535.3 moveto 13 (\(\)) alignedtext
grestore
% linit->10
gsave
1 setlinewidth
0 0 0 edgecolor
newpath 848.83 634.34 moveto
845.99 632.63 843.02 631.12 840 630 curveto
739.02 592.53 468.18 607.35 344.24 594.01 curveto
stroke
0 0 0 edgecolor
newpath 344.49 590.51 moveto
334.14 592.81 lineto
343.66 597.46 lineto
closepath fill
1 setlinewidth
solid
0 0 0 edgecolor
newpath 344.49 590.51 moveto
334.14 592.81 lineto
343.66 597.46 lineto
closepath stroke
grestore
% 11
gsave
0 0 0 nodecolor
18 /Times-Roman set_font
359.5 573.3 moveto 319 (-y+2>=0 and y>=0 and -x+2>=0 and x>=0 ?) alignedtext
0 0 0 nodecolor
18 /Times-Roman set_font
500 554.3 moveto 38 (t := 0) alignedtext
0 0 0 nodecolor
18 /Times-Roman set_font
512.5 535.3 moveto 13 (\(\)) alignedtext
grestore
% linit->11
gsave
1 setlinewidth
0 0 0 edgecolor
newpath 848.66 634.75 moveto
845.85 632.96 842.93 631.33 840 630 curveto
825.43 623.41 761.94 609.33 695.22 595.6 curveto
stroke
0 0 0 edgecolor
newpath 695.86 592.16 moveto
685.36 593.58 lineto
694.46 599.02 lineto
closepath fill
1 setlinewidth
solid
0 0 0 edgecolor
newpath 695.86 592.16 moveto
685.36 593.58 lineto
694.46 599.02 lineto
closepath stroke
grestore
% 12
gsave
0 0 0 nodecolor
18 /Times-Roman set_font
711.5 573.3 moveto 319 (-y+2>=0 and y>=0 and -x+2>=0 and x>=0 ?) alignedtext
0 0 0 nodecolor
18 /Times-Roman set_font
852 554.3 moveto 38 (t := 0) alignedtext
0 0 0 nodecolor
18 /Times-Roman set_font
864.5 535.3 moveto 13 (\(\)) alignedtext
grestore
% linit->12
gsave
1 setlinewidth
0 0 0 edgecolor
newpath 871 629.78 moveto
871 621.82 871 612.63 871 603.62 curveto
stroke
0 0 0 edgecolor
newpath 874.5 603.59 moveto
871 593.59 lineto
867.5 603.59 lineto
closepath fill
1 setlinewidth
solid
0 0 0 edgecolor
newpath 874.5 603.59 moveto
871 593.59 lineto
867.5 603.59 lineto
closepath stroke
grestore
% 13
gsave
0 0 0 nodecolor
18 /Times-Roman set_font
1063.5 573.3 moveto 319 (-y+2>=0 and y>=0 and -x+2>=0 and x>=0 ?) alignedtext
0 0 0 nodecolor
18 /Times-Roman set_font
1204 554.3 moveto 38 (t := 0) alignedtext
0 0 0 nodecolor
18 /Times-Roman set_font
1216.5 535.3 moveto 13 (\(\)) alignedtext
grestore
% linit->13
gsave
1 setlinewidth
0 0 0 edgecolor
newpath 893.02 647.24 moveto
931.84 637.1 1015.28 615.29 1088.55 596.14 curveto
stroke
0 0 0 edgecolor
newpath 1089.56 599.49 moveto
1098.35 593.58 lineto
1087.79 592.72 lineto
closepath fill
1 setlinewidth
solid
0 0 0 edgecolor
newpath 1089.56 599.49 moveto
1098.35 593.58 lineto
1087.79 592.72 lineto
closepath stroke
grestore
% 14
gsave
0 0 0 nodecolor
18 /Times-Roman set_font
1415.5 573.3 moveto 319 (-y+2>=0 and y>=0 and -x+2>=0 and x>=0 ?) alignedtext
0 0 0 nodecolor
18 /Times-Roman set_font
1556 554.3 moveto 38 (t := 0) alignedtext
0 0 0 nodecolor
18 /Times-Roman set_font
1568.5 535.3 moveto 13 (\(\)) alignedtext
grestore
% linit->14
gsave
1 setlinewidth
0 0 0 edgecolor
newpath 893.21 651.11 moveto
964.77 644.9 1195.93 623.88 1397.64 594.17 curveto
stroke
0 0 0 edgecolor
newpath 1398.46 597.58 moveto
1407.83 592.65 lineto
1397.43 590.66 lineto
closepath fill
1 setlinewidth
solid
0 0 0 edgecolor
newpath 1398.46 597.58 moveto
1407.83 592.65 lineto
1397.43 590.66 lineto
closepath stroke
grestore
% paray_start
gsave
1 setlinewidth
0 0 0 nodecolor
newpath 1335 491.5 moveto
1111 491.5 lineto
1111 426.5 lineto
1335 426.5 lineto
closepath stroke
0 0 0 nodecolor
18 /Times-Roman set_font
1182 471.3 moveto 82 (paray_start) alignedtext
0 0 0 nodecolor
18 /Times-Roman set_font
1118.5 452.3 moveto 209 ([|t=0; x in [0 , 2]; y in [0 , 2]|]) alignedtext
0 0 0 nodecolor
18 /Times-Roman set_font
1128 433.3 moveto 190 (5 constraints, 4 generators) alignedtext
grestore
% 7
gsave
0 0 0 nodecolor
18 /Times-Roman set_font
1182.5 369.3 moveto 81 (\(-y+7>=0 ?) alignedtext
0 0 0 nodecolor
18 /Times-Roman set_font
1121 350.3 moveto 204 (t := t+1; x := x+y; y := y+1\)*) alignedtext
0 0 0 nodecolor
18 /Times-Roman set_font
1216.5 331.3 moveto 13 (\(\)) alignedtext
grestore
% paray_start->7
gsave
1 setlinewidth
0 0 0 edgecolor
newpath 1223 426.45 moveto
1223 417.98 1223 408.73 1223 399.83 curveto
stroke
0 0 0 edgecolor
newpath 1226.5 399.59 moveto
1223 389.59 lineto
1219.5 399.59 lineto
closepath fill
1 setlinewidth
solid
0 0 0 edgecolor
newpath 1226.5 399.59 moveto
1223 389.59 lineto
1219.5 399.59 lineto
closepath stroke
grestore
% paraye
gsave
1 setlinewidth
0 0 0 nodecolor
newpath 1355 74.5 moveto
1091 74.5 lineto
1091 9.5 lineto
1355 9.5 lineto
closepath stroke
0 0 0 nodecolor
18 /Times-Roman set_font
1198.5 54.3 moveto 49 (paraye) alignedtext
0 0 0 nodecolor
18 /Times-Roman set_font
1098.5 35.3 moveto 249 ([|t in [6 , 8]; x in [13 , 39.33]; y=8|]) alignedtext
0 0 0 nodecolor
18 /Times-Roman set_font
1128 16.3 moveto 190 (6 constraints, 5 generators) alignedtext
grestore
% para
gsave
1 setlinewidth
0 0 0 nodecolor
newpath 1685 288 moveto
1465 288 lineto
1465 204 lineto
1685 204 lineto
closepath stroke
0 0 0 nodecolor
18 /Times-Roman set_font
1559 267.8 moveto 32 (para) alignedtext
0 0 0 nodecolor
18 /Times-Roman set_font
1472.5 248.8 moveto 205 ([|t in [0 , INF]; x in [0 , INF];) alignedtext
0 0 0 nodecolor
18 /Times-Roman set_font
1519 229.8 moveto 112 (  y in [0 , INF]|]) alignedtext
0 0 0 nodecolor
18 /Times-Roman set_font
1480 210.8 moveto 190 (6 constraints, 6 generators) alignedtext
grestore
% 8
gsave
0 0 0 nodecolor
18 /Times-Roman set_font
1568.5 126.8 moveto 13 (\(\)) alignedtext
grestore
% para->8
gsave
1 setlinewidth
0 0 0 edgecolor
newpath 1575 203.92 moveto
1575 195.36 1575 186.45 1575 178.19 curveto
stroke
0 0 0 edgecolor
newpath 1578.5 178.17 moveto
1575 168.17 lineto
1571.5 178.17 lineto
closepath fill
1 setlinewidth
solid
0 0 0 edgecolor
newpath 1578.5 178.17 moveto
1575 168.17 lineto
1571.5 178.17 lineto
closepath stroke
grestore
% paraxy
gsave
1 setlinewidth
0 0 0 nodecolor
newpath 631 288 moveto
407 288 lineto
407 204 lineto
631 204 lineto
closepath stroke
0 0 0 nodecolor
18 /Times-Roman set_font
494 267.8 moveto 50 (paraxy) alignedtext
0 0 0 nodecolor
18 /Times-Roman set_font
430.5 248.8 moveto 177 ([|t in [0 , 8]; x in [0 , 30];) alignedtext
0 0 0 nodecolor
18 /Times-Roman set_font
468 229.8 moveto 102 (  y in [0 , 10]|]) alignedtext
0 0 0 nodecolor
18 /Times-Roman set_font
415 210.8 moveto 208 (14 constraints, 16 generators) alignedtext
grestore
% 2
gsave
0 0 0 nodecolor
18 /Times-Roman set_font
470.5 146.8 moveto 97 (x+y-31>=0 ? ) alignedtext
0 0 0 nodecolor
18 /Times-Roman set_font
512.5 127.8 moveto 13 (\(\)) alignedtext
grestore
% paraxy->2
gsave
1 setlinewidth
0 0 0 edgecolor
newpath 519 203.92 moveto
519 195.05 519 185.8 519 177.3 curveto
stroke
0 0 0 edgecolor
newpath 522.5 177.02 moveto
519 167.02 lineto
515.5 177.02 lineto
closepath fill
1 setlinewidth
solid
0 0 0 edgecolor
newpath 522.5 177.02 moveto
519 167.02 lineto
515.5 177.02 lineto
closepath stroke
grestore
% parae
gsave
1 setlinewidth
0 0 0 nodecolor
newpath 1685 84 moveto
1465 84 lineto
1465 0 lineto
1685 0 lineto
closepath stroke
0 0 0 nodecolor
18 /Times-Roman set_font
1555 63.8 moveto 40 (parae) alignedtext
0 0 0 nodecolor
18 /Times-Roman set_font
1472.5 44.8 moveto 205 ([|t in [0 , INF]; x in [0 , INF];) alignedtext
0 0 0 nodecolor
18 /Times-Roman set_font
1519 25.8 moveto 112 (  y in [0 , INF]|]) alignedtext
0 0 0 nodecolor
18 /Times-Roman set_font
1480 6.8 moveto 190 (6 constraints, 6 generators) alignedtext
grestore
% parax_start
gsave
1 setlinewidth
0 0 0 nodecolor
newpath 983 491.5 moveto
759 491.5 lineto
759 426.5 lineto
983 426.5 lineto
closepath stroke
0 0 0 nodecolor
18 /Times-Roman set_font
830 471.3 moveto 82 (parax_start) alignedtext
0 0 0 nodecolor
18 /Times-Roman set_font
766.5 452.3 moveto 209 ([|t=0; x in [0 , 2]; y in [0 , 2]|]) alignedtext
0 0 0 nodecolor
18 /Times-Roman set_font
776 433.3 moveto 190 (5 constraints, 4 generators) alignedtext
grestore
% 5
gsave
0 0 0 nodecolor
18 /Times-Roman set_font
826 369.3 moveto 90 (\(-x+30>=0 ?) alignedtext
0 0 0 nodecolor
18 /Times-Roman set_font
769 350.3 moveto 204 (t := t+1; x := x+y; y := y+1\)*) alignedtext
0 0 0 nodecolor
18 /Times-Roman set_font
864.5 331.3 moveto 13 (\(\)) alignedtext
grestore
% parax_start->5
gsave
1 setlinewidth
0 0 0 edgecolor
newpath 871 426.45 moveto
871 417.98 871 408.73 871 399.83 curveto
stroke
0 0 0 edgecolor
newpath 874.5 399.59 moveto
871 389.59 lineto
867.5 399.59 lineto
closepath fill
1 setlinewidth
solid
0 0 0 edgecolor
newpath 874.5 399.59 moveto
871 389.59 lineto
867.5 399.59 lineto
closepath stroke
grestore
% paraxy_start
gsave
1 setlinewidth
0 0 0 nodecolor
newpath 631 491.5 moveto
407 491.5 lineto
407 426.5 lineto
631 426.5 lineto
closepath stroke
0 0 0 nodecolor
18 /Times-Roman set_font
473.5 471.3 moveto 91 (paraxy_start) alignedtext
0 0 0 nodecolor
18 /Times-Roman set_font
414.5 452.3 moveto 209 ([|t=0; x in [0 , 2]; y in [0 , 2]|]) alignedtext
0 0 0 nodecolor
18 /Times-Roman set_font
424 433.3 moveto 190 (5 constraints, 4 generators) alignedtext
grestore
% 3
gsave
0 0 0 nodecolor
18 /Times-Roman set_font
466.5 369.3 moveto 105 (\(-x-y+30>=0 ?) alignedtext
0 0 0 nodecolor
18 /Times-Roman set_font
417 350.3 moveto 204 (t := t+1; x := x+y; y := y+1\)*) alignedtext
0 0 0 nodecolor
18 /Times-Roman set_font
512.5 331.3 moveto 13 (\(\)) alignedtext
grestore
% paraxy_start->3
gsave
1 setlinewidth
0 0 0 edgecolor
newpath 519 426.45 moveto
519 417.98 519 408.73 519 399.83 curveto
stroke
0 0 0 edgecolor
newpath 522.5 399.59 moveto
519 389.59 lineto
515.5 399.59 lineto
closepath fill
1 setlinewidth
solid
0 0 0 edgecolor
newpath 522.5 399.59 moveto
519 389.59 lineto
515.5 399.59 lineto
closepath stroke
grestore
% paraxyye
gsave
1 setlinewidth
0 0 0 nodecolor
newpath 272 84 moveto
62 84 lineto
62 0 lineto
272 0 lineto
closepath stroke
0 0 0 nodecolor
18 /Times-Roman set_font
133.5 63.8 moveto 67 (paraxyye) alignedtext
0 0 0 nodecolor
18 /Times-Roman set_font
69.5 44.8 moveto 195 ([|t in [2 , 12]; x in [39 , 69];) alignedtext
0 0 0 nodecolor
18 /Times-Roman set_font
116 25.8 moveto 102 (  y in [4 , 14]|]) alignedtext
0 0 0 nodecolor
18 /Times-Roman set_font
72 6.8 moveto 190 (5 constraints, 6 generators) alignedtext
grestore
% paraxyy
gsave
1 setlinewidth
0 0 0 nodecolor
newpath 279 288 moveto
55 288 lineto
55 204 lineto
279 204 lineto
closepath stroke
0 0 0 nodecolor
18 /Times-Roman set_font
137.5 267.8 moveto 59 (paraxyy) alignedtext
0 0 0 nodecolor
18 /Times-Roman set_font
74 248.8 moveto 186 ([|t in [0 , 12]; x in [0 , 69];) alignedtext
0 0 0 nodecolor
18 /Times-Roman set_font
116 229.8 moveto 102 (  y in [0 , 14]|]) alignedtext
0 0 0 nodecolor
18 /Times-Roman set_font
63 210.8 moveto 208 (12 constraints, 14 generators) alignedtext
grestore
% 0
gsave
0 0 0 nodecolor
18 /Times-Roman set_font
115.5 146.8 moveto 103 (x-2y-31>=0 ? ) alignedtext
0 0 0 nodecolor
18 /Times-Roman set_font
160.5 127.8 moveto 13 (\(\)) alignedtext
grestore
% paraxyy->0
gsave
1 setlinewidth
0 0 0 edgecolor
newpath 167 203.92 moveto
167 195.05 167 185.8 167 177.3 curveto
stroke
0 0 0 edgecolor
newpath 170.5 177.02 moveto
167 167.02 lineto
163.5 177.02 lineto
closepath fill
1 setlinewidth
solid
0 0 0 edgecolor
newpath 170.5 177.02 moveto
167 167.02 lineto
163.5 177.02 lineto
closepath stroke
grestore
% paraxe
gsave
1 setlinewidth
0 0 0 nodecolor
newpath 983 84 moveto
759 84 lineto
759 0 lineto
983 0 lineto
closepath stroke
0 0 0 nodecolor
18 /Times-Roman set_font
846.5 63.8 moveto 49 (paraxe) alignedtext
0 0 0 nodecolor
18 /Times-Roman set_font
767 44.8 moveto 208 ([|t in [2.75 , 9]; x in [31 , 40];) alignedtext
0 0 0 nodecolor
18 /Times-Roman set_font
804.5 25.8 moveto 133 (  y in [3.647 , 11]|]) alignedtext
0 0 0 nodecolor
18 /Times-Roman set_font
771.5 6.8 moveto 199 (8 constraints, 11 generators) alignedtext
grestore
% para_start
gsave
1 setlinewidth
0 0 0 nodecolor
newpath 1687 491.5 moveto
1463 491.5 lineto
1463 426.5 lineto
1687 426.5 lineto
closepath stroke
0 0 0 nodecolor
18 /Times-Roman set_font
1538.5 471.3 moveto 73 (para_start) alignedtext
0 0 0 nodecolor
18 /Times-Roman set_font
1470.5 452.3 moveto 209 ([|t=0; x in [0 , 2]; y in [0 , 2]|]) alignedtext
0 0 0 nodecolor
18 /Times-Roman set_font
1480 433.3 moveto 190 (5 constraints, 4 generators) alignedtext
grestore
% 9
gsave
0 0 0 nodecolor
18 /Times-Roman set_font
1473 359.8 moveto 204 (t := t+1; x := x+y; y := y+1\)*) alignedtext
0 0 0 nodecolor
18 /Times-Roman set_font
1568.5 340.8 moveto 13 (\(\)) alignedtext
grestore
% para_start->9
gsave
1 setlinewidth
0 0 0 edgecolor
newpath 1575 426.45 moveto
1575 414.93 1575 401.96 1575 390.38 curveto
stroke
0 0 0 edgecolor
newpath 1578.5 390.21 moveto
1575 380.21 lineto
1571.5 390.21 lineto
closepath fill
1 setlinewidth
solid
0 0 0 edgecolor
newpath 1578.5 390.21 moveto
1575 380.21 lineto
1571.5 390.21 lineto
closepath stroke
grestore
% 0->paraxyye
gsave
1 setlinewidth
0 0 0 edgecolor
newpath 167 120.85 moveto
167 112.91 167 103.67 167 94.37 curveto
stroke
0 0 0 edgecolor
newpath 170.5 94.31 moveto
167 84.31 lineto
163.5 94.31 lineto
closepath fill
1 setlinewidth
solid
0 0 0 edgecolor
newpath 170.5 94.31 moveto
167 84.31 lineto
163.5 94.31 lineto
closepath stroke
grestore
% 1->paraxyy
gsave
1 setlinewidth
0 0 0 edgecolor
newpath 167 324.3 moveto
167 316.21 167 307.34 167 298.56 curveto
stroke
0 0 0 edgecolor
newpath 170.5 298.36 moveto
167 288.36 lineto
163.5 298.36 lineto
closepath fill
1 setlinewidth
solid
0 0 0 edgecolor
newpath 170.5 298.36 moveto
167 288.36 lineto
163.5 298.36 lineto
closepath stroke
grestore
% 2->paraxye
gsave
1 setlinewidth
0 0 0 edgecolor
newpath 519 120.85 moveto
519 112.91 519 103.67 519 94.37 curveto
stroke
0 0 0 edgecolor
newpath 522.5 94.31 moveto
519 84.31 lineto
515.5 94.31 lineto
closepath fill
1 setlinewidth
solid
0 0 0 edgecolor
newpath 522.5 94.31 moveto
519 84.31 lineto
515.5 94.31 lineto
closepath stroke
grestore
% 3->paraxy
gsave
1 setlinewidth
0 0 0 edgecolor
newpath 519 324.3 moveto
519 316.21 519 307.34 519 298.56 curveto
stroke
0 0 0 edgecolor
newpath 522.5 298.36 moveto
519 288.36 lineto
515.5 298.36 lineto
closepath fill
1 setlinewidth
solid
0 0 0 edgecolor
newpath 522.5 298.36 moveto
519 288.36 lineto
515.5 298.36 lineto
closepath stroke
grestore
% 4->paraxe
gsave
1 setlinewidth
0 0 0 edgecolor
newpath 871 120.85 moveto
871 112.91 871 103.67 871 94.37 curveto
stroke
0 0 0 edgecolor
newpath 874.5 94.31 moveto
871 84.31 lineto
867.5 94.31 lineto
closepath fill
1 setlinewidth
solid
0 0 0 edgecolor
newpath 874.5 94.31 moveto
871 84.31 lineto
867.5 94.31 lineto
closepath stroke
grestore
% 5->parax
gsave
1 setlinewidth
0 0 0 edgecolor
newpath 871 324.3 moveto
871 316.21 871 307.34 871 298.56 curveto
stroke
0 0 0 edgecolor
newpath 874.5 298.36 moveto
871 288.36 lineto
867.5 298.36 lineto
closepath fill
1 setlinewidth
solid
0 0 0 edgecolor
newpath 874.5 298.36 moveto
871 288.36 lineto
867.5 298.36 lineto
closepath stroke
grestore
% 6->paraye
gsave
1 setlinewidth
0 0 0 edgecolor
newpath 1223 120.85 moveto
1223 110.2 1223 97.21 1223 84.87 curveto
stroke
0 0 0 edgecolor
newpath 1226.5 84.72 moveto
1223 74.72 lineto
1219.5 84.72 lineto
closepath fill
1 setlinewidth
solid
0 0 0 edgecolor
newpath 1226.5 84.72 moveto
1223 74.72 lineto
1219.5 84.72 lineto
closepath stroke
grestore
% 7->paray
gsave
1 setlinewidth
0 0 0 edgecolor
newpath 1223 324.3 moveto
1223 316.21 1223 307.34 1223 298.56 curveto
stroke
0 0 0 edgecolor
newpath 1226.5 298.36 moveto
1223 288.36 lineto
1219.5 298.36 lineto
closepath fill
1 setlinewidth
solid
0 0 0 edgecolor
newpath 1226.5 298.36 moveto
1223 288.36 lineto
1219.5 298.36 lineto
closepath stroke
grestore
% 8->parae
gsave
1 setlinewidth
0 0 0 edgecolor
newpath 1575 119.83 moveto
1575 112.12 1575 103.28 1575 94.37 curveto
stroke
0 0 0 edgecolor
newpath 1578.5 94.36 moveto
1575 84.36 lineto
1571.5 94.36 lineto
closepath fill
1 setlinewidth
solid
0 0 0 edgecolor
newpath 1578.5 94.36 moveto
1575 84.36 lineto
1571.5 94.36 lineto
closepath stroke
grestore
% 9->para
gsave
1 setlinewidth
0 0 0 edgecolor
newpath 1575 333.73 moveto
1575 323.4 1575 310.79 1575 298.39 curveto
stroke
0 0 0 edgecolor
newpath 1578.5 298.07 moveto
1575 288.07 lineto
1571.5 298.07 lineto
closepath fill
1 setlinewidth
solid
0 0 0 edgecolor
newpath 1578.5 298.07 moveto
1575 288.07 lineto
1571.5 298.07 lineto
closepath stroke
grestore
% 10->paraxyy_start
gsave
1 setlinewidth
0 0 0 edgecolor
newpath 167 528.45 moveto
167 519.98 167 510.73 167 501.83 curveto
stroke
0 0 0 edgecolor
newpath 170.5 501.59 moveto
167 491.59 lineto
163.5 501.59 lineto
closepath fill
1 setlinewidth
solid
0 0 0 edgecolor
newpath 170.5 501.59 moveto
167 491.59 lineto
163.5 501.59 lineto
closepath stroke
grestore
% 11->paraxy_start
gsave
1 setlinewidth
0 0 0 edgecolor
newpath 519 528.45 moveto
519 519.98 519 510.73 519 501.83 curveto
stroke
0 0 0 edgecolor
newpath 522.5 501.59 moveto
519 491.59 lineto
515.5 501.59 lineto
closepath fill
1 setlinewidth
solid
0 0 0 edgecolor
newpath 522.5 501.59 moveto
519 491.59 lineto
515.5 501.59 lineto
closepath stroke
grestore
% 12->parax_start
gsave
1 setlinewidth
0 0 0 edgecolor
newpath 871 528.45 moveto
871 519.98 871 510.73 871 501.83 curveto
stroke
0 0 0 edgecolor
newpath 874.5 501.59 moveto
871 491.59 lineto
867.5 501.59 lineto
closepath fill
1 setlinewidth
solid
0 0 0 edgecolor
newpath 874.5 501.59 moveto
871 491.59 lineto
867.5 501.59 lineto
closepath stroke
grestore
% 13->paray_start
gsave
1 setlinewidth
0 0 0 edgecolor
newpath 1223 528.45 moveto
1223 519.98 1223 510.73 1223 501.83 curveto
stroke
0 0 0 edgecolor
newpath 1226.5 501.59 moveto
1223 491.59 lineto
1219.5 501.59 lineto
closepath fill
1 setlinewidth
solid
0 0 0 edgecolor
newpath 1226.5 501.59 moveto
1223 491.59 lineto
1219.5 501.59 lineto
closepath stroke
grestore
% 14->para_start
gsave
1 setlinewidth
0 0 0 edgecolor
newpath 1575 528.45 moveto
1575 519.98 1575 510.73 1575 501.83 curveto
stroke
0 0 0 edgecolor
newpath 1578.5 501.59 moveto
1575 491.59 lineto
1571.5 501.59 lineto
closepath fill
1 setlinewidth
solid
0 0 0 edgecolor
newpath 1578.5 501.59 moveto
1575 491.59 lineto
1571.5 501.59 lineto
closepath stroke
grestore
endpage
showpage
grestore
%%PageTrailer
%%EndPage: 1
%%Trailer
%%Pages: 1
%%BoundingBox: 36 36 1786 720
end
restore
%%EOF
