%!PS-Adobe-3.0
%%Creator: graphviz version 2.26.3 (20100126.1600)
%%Title: G
%%Pages: (atend)
%%BoundingBox: (atend)
%%EndComments
save
%%BeginProlog
/DotDict 200 dict def
DotDict begin

/setupLatin1 {
mark
/EncodingVector 256 array def
 EncodingVector 0

ISOLatin1Encoding 0 255 getinterval putinterval
EncodingVector 45 /hyphen put

% Set up ISO Latin 1 character encoding
/starnetISO {
        dup dup findfont dup length dict begin
        { 1 index /FID ne { def }{ pop pop } ifelse
        } forall
        /Encoding EncodingVector def
        currentdict end definefont
} def
/Times-Roman starnetISO def
/Times-Italic starnetISO def
/Times-Bold starnetISO def
/Times-BoldItalic starnetISO def
/Helvetica starnetISO def
/Helvetica-Oblique starnetISO def
/Helvetica-Bold starnetISO def
/Helvetica-BoldOblique starnetISO def
/Courier starnetISO def
/Courier-Oblique starnetISO def
/Courier-Bold starnetISO def
/Courier-BoldOblique starnetISO def
cleartomark
} bind def

%%BeginResource: procset graphviz 0 0
/coord-font-family /Times-Roman def
/default-font-family /Times-Roman def
/coordfont coord-font-family findfont 8 scalefont def

/InvScaleFactor 1.0 def
/set_scale {
       dup 1 exch div /InvScaleFactor exch def
       scale
} bind def

% styles
/solid { [] 0 setdash } bind def
/dashed { [9 InvScaleFactor mul dup ] 0 setdash } bind def
/dotted { [1 InvScaleFactor mul 6 InvScaleFactor mul] 0 setdash } bind def
/invis {/fill {newpath} def /stroke {newpath} def /show {pop newpath} def} bind def
/bold { 2 setlinewidth } bind def
/filled { } bind def
/unfilled { } bind def
/rounded { } bind def
/diagonals { } bind def

% hooks for setting color 
/nodecolor { sethsbcolor } bind def
/edgecolor { sethsbcolor } bind def
/graphcolor { sethsbcolor } bind def
/nopcolor {pop pop pop} bind def

/beginpage {	% i j npages
	/npages exch def
	/j exch def
	/i exch def
	/str 10 string def
	npages 1 gt {
		gsave
			coordfont setfont
			0 0 moveto
			(\() show i str cvs show (,) show j str cvs show (\)) show
		grestore
	} if
} bind def

/set_font {
	findfont exch
	scalefont setfont
} def

% draw text fitted to its expected width
/alignedtext {			% width text
	/text exch def
	/width exch def
	gsave
		width 0 gt {
			[] 0 setdash
			text stringwidth pop width exch sub text length div 0 text ashow
		} if
	grestore
} def

/boxprim {				% xcorner ycorner xsize ysize
		4 2 roll
		moveto
		2 copy
		exch 0 rlineto
		0 exch rlineto
		pop neg 0 rlineto
		closepath
} bind def

/ellipse_path {
	/ry exch def
	/rx exch def
	/y exch def
	/x exch def
	matrix currentmatrix
	newpath
	x y translate
	rx ry scale
	0 0 1 0 360 arc
	setmatrix
} bind def

/endpage { showpage } bind def
/showpage { } def

/layercolorseq
	[	% layer color sequence - darkest to lightest
		[0 0 0]
		[.2 .8 .8]
		[.4 .8 .8]
		[.6 .8 .8]
		[.8 .8 .8]
	]
def

/layerlen layercolorseq length def

/setlayer {/maxlayer exch def /curlayer exch def
	layercolorseq curlayer 1 sub layerlen mod get
	aload pop sethsbcolor
	/nodecolor {nopcolor} def
	/edgecolor {nopcolor} def
	/graphcolor {nopcolor} def
} bind def

/onlayer { curlayer ne {invis} if } def

/onlayers {
	/myupper exch def
	/mylower exch def
	curlayer mylower lt
	curlayer myupper gt
	or
	{invis} if
} def

/curlayer 0 def

%%EndResource
%%EndProlog
%%BeginSetup
14 default-font-family set_font
1 setmiterlimit
% /arrowlength 10 def
% /arrowwidth 5 def

% make sure pdfmark is harmless for PS-interpreters other than Distiller
/pdfmark where {pop} {userdict /pdfmark /cleartomark load put} ifelse
% make '<<' and '>>' safe on PS Level 1 devices
/languagelevel where {pop languagelevel}{1} ifelse
2 lt {
    userdict (<<) cvn ([) cvn load put
    userdict (>>) cvn ([) cvn load put
} if

%%EndSetup
setupLatin1
%%Page: 1 1
%%PageBoundingBox: 36 36 1606 758
%%PageOrientation: Portrait
0 0 1 beginpage
gsave
36 36 1570 722 boxprim clip newpath
1 1 set_scale 0 rotate 40 41 translate
% 1073741823
gsave
1 setlinewidth
0 0 0 nodecolor
697 691 43.84 19.09 ellipse_path stroke
0 0 0 nodecolor
18 /Times-Roman set_font
674 684.3 moveto 46 (Result) alignedtext
grestore
% paraxye
gsave
1 setlinewidth
0 0 0 nodecolor
newpath 596 94 moveto
334 94 lineto
334 10 lineto
596 10 lineto
closepath stroke
0 0 0 nodecolor
18 /Times-Roman set_font
436 73.8 moveto 58 (paraxye) alignedtext
0 0 0 nodecolor
18 /Times-Roman set_font
341.5 54.8 moveto 247 ([|t in [3.771 , 10]; x in [22.95 , 30];) alignedtext
0 0 0 nodecolor
18 /Times-Roman set_font
388 35.8 moveto 154 (  y in [4.072 , 8.786]|]) alignedtext
0 0 0 nodecolor
18 /Times-Roman set_font
361 16.8 moveto 208 (15 constraints, 22 generators) alignedtext
grestore
% parax
gsave
1 setlinewidth
0 0 0 nodecolor
newpath 896 308 moveto
666 308 lineto
666 224 lineto
896 224 lineto
closepath stroke
0 0 0 nodecolor
18 /Times-Roman set_font
760.5 287.8 moveto 41 (parax) alignedtext
0 0 0 nodecolor
18 /Times-Roman set_font
674 268.8 moveto 214 ([|t in [0 , 11]; x in [-5 , 38.86];) alignedtext
0 0 0 nodecolor
18 /Times-Roman set_font
716 249.8 moveto 130 (  y in [-2 , 9.859]|]) alignedtext
0 0 0 nodecolor
18 /Times-Roman set_font
677 230.8 moveto 208 (26 constraints, 29 generators) alignedtext
grestore
% 4
gsave
0 0 0 nodecolor
18 /Times-Roman set_font
741.5 166.8 moveto 79 (x-31>=0 ? ) alignedtext
0 0 0 nodecolor
18 /Times-Roman set_font
774.5 147.8 moveto 13 (\(\)) alignedtext
grestore
% parax->4
gsave
1 setlinewidth
0 0 0 edgecolor
newpath 781 223.92 moveto
781 215.05 781 205.8 781 197.3 curveto
stroke
0 0 0 edgecolor
newpath 784.5 197.02 moveto
781 187.02 lineto
777.5 197.02 lineto
closepath fill
1 setlinewidth
solid
0 0 0 edgecolor
newpath 784.5 197.02 moveto
781 187.02 lineto
777.5 197.02 lineto
closepath stroke
grestore
% paray
gsave
1 setlinewidth
0 0 0 nodecolor
newpath 1212 308 moveto
982 308 lineto
982 224 lineto
1212 224 lineto
closepath stroke
0 0 0 nodecolor
18 /Times-Roman set_font
1076.5 287.8 moveto 41 (paray) alignedtext
0 0 0 nodecolor
18 /Times-Roman set_font
990 268.8 moveto 214 ([|t in [0 , 10]; x in [-5 , 46.38];) alignedtext
0 0 0 nodecolor
18 /Times-Roman set_font
1047.5 249.8 moveto 99 (  y in [-2 , 8]|]) alignedtext
0 0 0 nodecolor
18 /Times-Roman set_font
993 230.8 moveto 208 (25 constraints, 28 generators) alignedtext
grestore
% 6
gsave
0 0 0 nodecolor
18 /Times-Roman set_font
1062 166.8 moveto 70 (y-8>=0 ? ) alignedtext
0 0 0 nodecolor
18 /Times-Roman set_font
1090.5 147.8 moveto 13 (\(\)) alignedtext
grestore
% paray->6
gsave
1 setlinewidth
0 0 0 edgecolor
newpath 1097 223.92 moveto
1097 215.05 1097 205.8 1097 197.3 curveto
stroke
0 0 0 edgecolor
newpath 1100.5 197.02 moveto
1097 187.02 lineto
1093.5 197.02 lineto
closepath fill
1 setlinewidth
solid
0 0 0 edgecolor
newpath 1100.5 197.02 moveto
1097 187.02 lineto
1093.5 197.02 lineto
closepath stroke
grestore
% paraxyy_start
gsave
1 setlinewidth
0 0 0 nodecolor
newpath 267 511.5 moveto
31 511.5 lineto
31 446.5 lineto
267 446.5 lineto
closepath stroke
0 0 0 nodecolor
18 /Times-Roman set_font
99 491.3 moveto 100 (paraxyy_start) alignedtext
0 0 0 nodecolor
18 /Times-Roman set_font
38.5 472.3 moveto 221 ([|t=0; x in [-2 , 2]; y in [-2 , 2]|]) alignedtext
0 0 0 nodecolor
18 /Times-Roman set_font
54 453.3 moveto 190 (5 constraints, 4 generators) alignedtext
grestore
% 1
gsave
0 0 0 nodecolor
18 /Times-Roman set_font
90.5 389.3 moveto 117 (\(-x+2y+30>=0 ?) alignedtext
0 0 0 nodecolor
18 /Times-Roman set_font
47 370.3 moveto 204 (t := t+1; x := x+y; y := y+1\)*) alignedtext
0 0 0 nodecolor
18 /Times-Roman set_font
142.5 351.3 moveto 13 (\(\)) alignedtext
grestore
% paraxyy_start->1
gsave
1 setlinewidth
0 0 0 edgecolor
newpath 149 446.45 moveto
149 437.98 149 428.73 149 419.83 curveto
stroke
0 0 0 edgecolor
newpath 152.5 419.59 moveto
149 409.59 lineto
145.5 419.59 lineto
closepath fill
1 setlinewidth
solid
0 0 0 edgecolor
newpath 152.5 419.59 moveto
149 409.59 lineto
145.5 419.59 lineto
closepath stroke
grestore
% linit
gsave
1 setlinewidth
0 0 0 nodecolor
newpath 803 714 moveto
759 714 lineto
759 668 lineto
803 668 lineto
closepath stroke
0 0 0 nodecolor
18 /Times-Roman set_font
767 693.8 moveto 28 (linit) alignedtext
0 0 0 nodecolor
18 /Times-Roman set_font
769 674.8 moveto 24 (top) alignedtext
grestore
% 10
gsave
0 0 0 nodecolor
18 /Times-Roman set_font
7.5 611.8 moveto 283 (-y+2>=0 and y+2>=0 and -x+2>=0 and) alignedtext
0 0 0 nodecolor
18 /Times-Roman set_font
114.5 592.8 moveto 69 (x+2>=0 ?) alignedtext
0 0 0 nodecolor
18 /Times-Roman set_font
130 573.8 moveto 38 (t := 0) alignedtext
0 0 0 nodecolor
18 /Times-Roman set_font
142.5 554.8 moveto 13 (\(\)) alignedtext
grestore
% linit->10
gsave
1 setlinewidth
0 0 0 edgecolor
newpath 758.82 672.36 moveto
755.98 670.65 753.01 669.13 750 668 curveto
568.17 599.62 503.81 663.32 308.14 632.06 curveto
stroke
0 0 0 edgecolor
newpath 308.56 628.59 moveto
298.12 630.4 lineto
307.41 635.49 lineto
closepath fill
1 setlinewidth
solid
0 0 0 edgecolor
newpath 308.56 628.59 moveto
298.12 630.4 lineto
307.41 635.49 lineto
closepath stroke
grestore
% 11
gsave
0 0 0 nodecolor
18 /Times-Roman set_font
323.5 611.8 moveto 283 (-y+2>=0 and y+2>=0 and -x+2>=0 and) alignedtext
0 0 0 nodecolor
18 /Times-Roman set_font
430.5 592.8 moveto 69 (x+2>=0 ?) alignedtext
0 0 0 nodecolor
18 /Times-Roman set_font
446 573.8 moveto 38 (t := 0) alignedtext
0 0 0 nodecolor
18 /Times-Roman set_font
458.5 554.8 moveto 13 (\(\)) alignedtext
grestore
% linit->11
gsave
1 setlinewidth
0 0 0 edgecolor
newpath 758.94 673.14 moveto
756.03 671.24 753.01 669.47 750 668 curveto
746.65 666.37 687.54 650.13 624.02 632.88 curveto
stroke
0 0 0 edgecolor
newpath 624.78 629.46 moveto
614.21 630.22 lineto
622.94 636.22 lineto
closepath fill
1 setlinewidth
solid
0 0 0 edgecolor
newpath 624.78 629.46 moveto
614.21 630.22 lineto
622.94 636.22 lineto
closepath stroke
grestore
% 12
gsave
0 0 0 nodecolor
18 /Times-Roman set_font
639.5 611.8 moveto 283 (-y+2>=0 and y+2>=0 and -x+2>=0 and) alignedtext
0 0 0 nodecolor
18 /Times-Roman set_font
746.5 592.8 moveto 69 (x+2>=0 ?) alignedtext
0 0 0 nodecolor
18 /Times-Roman set_font
762 573.8 moveto 38 (t := 0) alignedtext
0 0 0 nodecolor
18 /Times-Roman set_font
774.5 554.8 moveto 13 (\(\)) alignedtext
grestore
% linit->12
gsave
1 setlinewidth
0 0 0 edgecolor
newpath 781 667.83 moveto
781 660.13 781 651.21 781 642.22 curveto
stroke
0 0 0 edgecolor
newpath 784.5 642.11 moveto
781 632.11 lineto
777.5 642.11 lineto
closepath fill
1 setlinewidth
solid
0 0 0 edgecolor
newpath 784.5 642.11 moveto
781 632.11 lineto
777.5 642.11 lineto
closepath stroke
grestore
% 13
gsave
0 0 0 nodecolor
18 /Times-Roman set_font
955.5 611.8 moveto 283 (-y+2>=0 and y+2>=0 and -x+2>=0 and) alignedtext
0 0 0 nodecolor
18 /Times-Roman set_font
1062.5 592.8 moveto 69 (x+2>=0 ?) alignedtext
0 0 0 nodecolor
18 /Times-Roman set_font
1078 573.8 moveto 38 (t := 0) alignedtext
0 0 0 nodecolor
18 /Times-Roman set_font
1090.5 554.8 moveto 13 (\(\)) alignedtext
grestore
% linit->13
gsave
1 setlinewidth
0 0 0 edgecolor
newpath 803.22 683.9 moveto
835.23 673.67 896.91 653.95 955.53 635.22 curveto
stroke
0 0 0 edgecolor
newpath 956.83 638.48 moveto
965.29 632.1 lineto
954.7 631.81 lineto
closepath fill
1 setlinewidth
solid
0 0 0 edgecolor
newpath 956.83 638.48 moveto
965.29 632.1 lineto
954.7 631.81 lineto
closepath stroke
grestore
% 14
gsave
0 0 0 nodecolor
18 /Times-Roman set_font
1271.5 611.8 moveto 283 (-y+2>=0 and y+2>=0 and -x+2>=0 and) alignedtext
0 0 0 nodecolor
18 /Times-Roman set_font
1378.5 592.8 moveto 69 (x+2>=0 ?) alignedtext
0 0 0 nodecolor
18 /Times-Roman set_font
1394 573.8 moveto 38 (t := 0) alignedtext
0 0 0 nodecolor
18 /Times-Roman set_font
1406.5 554.8 moveto 13 (\(\)) alignedtext
grestore
% linit->14
gsave
1 setlinewidth
0 0 0 edgecolor
newpath 803.38 689.3 moveto
870.38 683.99 1075.24 666.1 1254.01 632.12 curveto
stroke
0 0 0 edgecolor
newpath 1254.69 635.55 moveto
1263.85 630.23 lineto
1253.37 628.68 lineto
closepath fill
1 setlinewidth
solid
0 0 0 edgecolor
newpath 1254.69 635.55 moveto
1263.85 630.23 lineto
1253.37 628.68 lineto
closepath stroke
grestore
% paray_start
gsave
1 setlinewidth
0 0 0 nodecolor
newpath 1215 511.5 moveto
979 511.5 lineto
979 446.5 lineto
1215 446.5 lineto
closepath stroke
0 0 0 nodecolor
18 /Times-Roman set_font
1056 491.3 moveto 82 (paray_start) alignedtext
0 0 0 nodecolor
18 /Times-Roman set_font
986.5 472.3 moveto 221 ([|t=0; x in [-2 , 2]; y in [-2 , 2]|]) alignedtext
0 0 0 nodecolor
18 /Times-Roman set_font
1002 453.3 moveto 190 (5 constraints, 4 generators) alignedtext
grestore
% 7
gsave
0 0 0 nodecolor
18 /Times-Roman set_font
1056.5 389.3 moveto 81 (\(-y+7>=0 ?) alignedtext
0 0 0 nodecolor
18 /Times-Roman set_font
995 370.3 moveto 204 (t := t+1; x := x+y; y := y+1\)*) alignedtext
0 0 0 nodecolor
18 /Times-Roman set_font
1090.5 351.3 moveto 13 (\(\)) alignedtext
grestore
% paray_start->7
gsave
1 setlinewidth
0 0 0 edgecolor
newpath 1097 446.45 moveto
1097 437.98 1097 428.73 1097 419.83 curveto
stroke
0 0 0 edgecolor
newpath 1100.5 419.59 moveto
1097 409.59 lineto
1093.5 419.59 lineto
closepath fill
1 setlinewidth
solid
0 0 0 edgecolor
newpath 1100.5 419.59 moveto
1097 409.59 lineto
1093.5 419.59 lineto
closepath stroke
grestore
% paraye
gsave
1 setlinewidth
0 0 0 nodecolor
newpath 1224 94 moveto
970 94 lineto
970 10 lineto
1224 10 lineto
closepath stroke
0 0 0 nodecolor
18 /Times-Roman set_font
1072.5 73.8 moveto 49 (paraye) alignedtext
0 0 0 nodecolor
18 /Times-Roman set_font
978 54.8 moveto 238 ([|t in [6 , 10]; x in [22.45 , 46.38];) alignedtext
0 0 0 nodecolor
18 /Times-Roman set_font
1074 35.8 moveto 46 (  y=8|]) alignedtext
0 0 0 nodecolor
18 /Times-Roman set_font
997.5 16.8 moveto 199 (10 constraints, 9 generators) alignedtext
grestore
% para
gsave
1 setlinewidth
0 0 0 nodecolor
newpath 1526 308 moveto
1300 308 lineto
1300 224 lineto
1526 224 lineto
closepath stroke
0 0 0 nodecolor
18 /Times-Roman set_font
1397 287.8 moveto 32 (para) alignedtext
0 0 0 nodecolor
18 /Times-Roman set_font
1307.5 268.8 moveto 211 ([|t in [0 , INF]; x in [-5 , INF];) alignedtext
0 0 0 nodecolor
18 /Times-Roman set_font
1354 249.8 moveto 118 (  y in [-2 , INF]|]) alignedtext
0 0 0 nodecolor
18 /Times-Roman set_font
1309 230.8 moveto 208 (18 constraints, 20 generators) alignedtext
grestore
% 8
gsave
0 0 0 nodecolor
18 /Times-Roman set_font
1406.5 146.8 moveto 13 (\(\)) alignedtext
grestore
% para->8
gsave
1 setlinewidth
0 0 0 edgecolor
newpath 1413 223.92 moveto
1413 215.36 1413 206.45 1413 198.19 curveto
stroke
0 0 0 edgecolor
newpath 1416.5 198.17 moveto
1413 188.17 lineto
1409.5 198.17 lineto
closepath fill
1 setlinewidth
solid
0 0 0 edgecolor
newpath 1416.5 198.17 moveto
1413 188.17 lineto
1409.5 198.17 lineto
closepath stroke
grestore
% paraxy
gsave
1 setlinewidth
0 0 0 nodecolor
newpath 577 308 moveto
353 308 lineto
353 224 lineto
577 224 lineto
closepath stroke
0 0 0 nodecolor
18 /Times-Roman set_font
440 287.8 moveto 50 (paraxy) alignedtext
0 0 0 nodecolor
18 /Times-Roman set_font
369 268.8 moveto 192 ([|t in [0 , 10]; x in [-5 , 30];) alignedtext
0 0 0 nodecolor
18 /Times-Roman set_font
400 249.8 moveto 130 (  y in [-2 , 8.786]|]) alignedtext
0 0 0 nodecolor
18 /Times-Roman set_font
361 230.8 moveto 208 (27 constraints, 31 generators) alignedtext
grestore
% 2
gsave
0 0 0 nodecolor
18 /Times-Roman set_font
416.5 166.8 moveto 97 (x+y-31>=0 ? ) alignedtext
0 0 0 nodecolor
18 /Times-Roman set_font
458.5 147.8 moveto 13 (\(\)) alignedtext
grestore
% paraxy->2
gsave
1 setlinewidth
0 0 0 edgecolor
newpath 465 223.92 moveto
465 215.05 465 205.8 465 197.3 curveto
stroke
0 0 0 edgecolor
newpath 468.5 197.02 moveto
465 187.02 lineto
461.5 197.02 lineto
closepath fill
1 setlinewidth
solid
0 0 0 edgecolor
newpath 468.5 197.02 moveto
465 187.02 lineto
461.5 197.02 lineto
closepath stroke
grestore
% parae
gsave
1 setlinewidth
0 0 0 nodecolor
newpath 1526 94 moveto
1300 94 lineto
1300 10 lineto
1526 10 lineto
closepath stroke
0 0 0 nodecolor
18 /Times-Roman set_font
1393 73.8 moveto 40 (parae) alignedtext
0 0 0 nodecolor
18 /Times-Roman set_font
1307.5 54.8 moveto 211 ([|t in [0 , INF]; x in [-5 , INF];) alignedtext
0 0 0 nodecolor
18 /Times-Roman set_font
1354 35.8 moveto 118 (  y in [-2 , INF]|]) alignedtext
0 0 0 nodecolor
18 /Times-Roman set_font
1309 16.8 moveto 208 (18 constraints, 20 generators) alignedtext
grestore
% parax_start
gsave
1 setlinewidth
0 0 0 nodecolor
newpath 899 511.5 moveto
663 511.5 lineto
663 446.5 lineto
899 446.5 lineto
closepath stroke
0 0 0 nodecolor
18 /Times-Roman set_font
740 491.3 moveto 82 (parax_start) alignedtext
0 0 0 nodecolor
18 /Times-Roman set_font
670.5 472.3 moveto 221 ([|t=0; x in [-2 , 2]; y in [-2 , 2]|]) alignedtext
0 0 0 nodecolor
18 /Times-Roman set_font
686 453.3 moveto 190 (5 constraints, 4 generators) alignedtext
grestore
% 5
gsave
0 0 0 nodecolor
18 /Times-Roman set_font
736 389.3 moveto 90 (\(-x+30>=0 ?) alignedtext
0 0 0 nodecolor
18 /Times-Roman set_font
679 370.3 moveto 204 (t := t+1; x := x+y; y := y+1\)*) alignedtext
0 0 0 nodecolor
18 /Times-Roman set_font
774.5 351.3 moveto 13 (\(\)) alignedtext
grestore
% parax_start->5
gsave
1 setlinewidth
0 0 0 edgecolor
newpath 781 446.45 moveto
781 437.98 781 428.73 781 419.83 curveto
stroke
0 0 0 edgecolor
newpath 784.5 419.59 moveto
781 409.59 lineto
777.5 419.59 lineto
closepath fill
1 setlinewidth
solid
0 0 0 edgecolor
newpath 784.5 419.59 moveto
781 409.59 lineto
777.5 419.59 lineto
closepath stroke
grestore
% paraxy_start
gsave
1 setlinewidth
0 0 0 nodecolor
newpath 583 511.5 moveto
347 511.5 lineto
347 446.5 lineto
583 446.5 lineto
closepath stroke
0 0 0 nodecolor
18 /Times-Roman set_font
419.5 491.3 moveto 91 (paraxy_start) alignedtext
0 0 0 nodecolor
18 /Times-Roman set_font
354.5 472.3 moveto 221 ([|t=0; x in [-2 , 2]; y in [-2 , 2]|]) alignedtext
0 0 0 nodecolor
18 /Times-Roman set_font
370 453.3 moveto 190 (5 constraints, 4 generators) alignedtext
grestore
% 3
gsave
0 0 0 nodecolor
18 /Times-Roman set_font
412.5 389.3 moveto 105 (\(-x-y+30>=0 ?) alignedtext
0 0 0 nodecolor
18 /Times-Roman set_font
363 370.3 moveto 204 (t := t+1; x := x+y; y := y+1\)*) alignedtext
0 0 0 nodecolor
18 /Times-Roman set_font
458.5 351.3 moveto 13 (\(\)) alignedtext
grestore
% paraxy_start->3
gsave
1 setlinewidth
0 0 0 edgecolor
newpath 465 446.45 moveto
465 437.98 465 428.73 465 419.83 curveto
stroke
0 0 0 edgecolor
newpath 468.5 419.59 moveto
465 409.59 lineto
461.5 419.59 lineto
closepath fill
1 setlinewidth
solid
0 0 0 edgecolor
newpath 468.5 419.59 moveto
465 409.59 lineto
461.5 419.59 lineto
closepath stroke
grestore
% paraxyye
gsave
1 setlinewidth
0 0 0 nodecolor
newpath 261 103.5 moveto
37 103.5 lineto
37 .5 lineto
261 .5 lineto
closepath stroke
0 0 0 nodecolor
18 /Times-Roman set_font
115.5 83.3 moveto 67 (paraxyye) alignedtext
0 0 0 nodecolor
18 /Times-Roman set_font
76 64.3 moveto 146 ([|t in [4.782 , 14.36];) alignedtext
0 0 0 nodecolor
18 /Times-Roman set_font
74 45.3 moveto 150 (  x in [39.23 , 65.12];) alignedtext
0 0 0 nodecolor
18 /Times-Roman set_font
72 26.3 moveto 154 (  y in [4.115 , 12.71]|]) alignedtext
0 0 0 nodecolor
18 /Times-Roman set_font
45 7.3 moveto 208 (10 constraints, 15 generators) alignedtext
grestore
% paraxyy
gsave
1 setlinewidth
0 0 0 nodecolor
newpath 274 308 moveto
24 308 lineto
24 224 lineto
274 224 lineto
closepath stroke
0 0 0 nodecolor
18 /Times-Roman set_font
119.5 287.8 moveto 59 (paraxyy) alignedtext
0 0 0 nodecolor
18 /Times-Roman set_font
31.5 268.8 moveto 235 ([|t in [0 , 14.36]; x in [-5 , 65.12];) alignedtext
0 0 0 nodecolor
18 /Times-Roman set_font
84 249.8 moveto 130 (  y in [-2 , 12.71]|]) alignedtext
0 0 0 nodecolor
18 /Times-Roman set_font
45 230.8 moveto 208 (23 constraints, 26 generators) alignedtext
grestore
% 0
gsave
0 0 0 nodecolor
18 /Times-Roman set_font
97.5 166.8 moveto 103 (x-2y-31>=0 ? ) alignedtext
0 0 0 nodecolor
18 /Times-Roman set_font
142.5 147.8 moveto 13 (\(\)) alignedtext
grestore
% paraxyy->0
gsave
1 setlinewidth
0 0 0 edgecolor
newpath 149 223.92 moveto
149 215.05 149 205.8 149 197.3 curveto
stroke
0 0 0 edgecolor
newpath 152.5 197.02 moveto
149 187.02 lineto
145.5 197.02 lineto
closepath fill
1 setlinewidth
solid
0 0 0 edgecolor
newpath 152.5 197.02 moveto
149 187.02 lineto
145.5 197.02 lineto
closepath stroke
grestore
% paraxe
gsave
1 setlinewidth
0 0 0 nodecolor
newpath 912 94 moveto
650 94 lineto
650 10 lineto
912 10 lineto
closepath stroke
0 0 0 nodecolor
18 /Times-Roman set_font
756.5 73.8 moveto 49 (paraxe) alignedtext
0 0 0 nodecolor
18 /Times-Roman set_font
657.5 54.8 moveto 247 ([|t in [4.379 , 11]; x in [31 , 38.86];) alignedtext
0 0 0 nodecolor
18 /Times-Roman set_font
704 35.8 moveto 154 (  y in [4.345 , 9.859]|]) alignedtext
0 0 0 nodecolor
18 /Times-Roman set_font
677 16.8 moveto 208 (14 constraints, 20 generators) alignedtext
grestore
% para_start
gsave
1 setlinewidth
0 0 0 nodecolor
newpath 1531 511.5 moveto
1295 511.5 lineto
1295 446.5 lineto
1531 446.5 lineto
closepath stroke
0 0 0 nodecolor
18 /Times-Roman set_font
1376.5 491.3 moveto 73 (para_start) alignedtext
0 0 0 nodecolor
18 /Times-Roman set_font
1302.5 472.3 moveto 221 ([|t=0; x in [-2 , 2]; y in [-2 , 2]|]) alignedtext
0 0 0 nodecolor
18 /Times-Roman set_font
1318 453.3 moveto 190 (5 constraints, 4 generators) alignedtext
grestore
% 9
gsave
0 0 0 nodecolor
18 /Times-Roman set_font
1311 379.8 moveto 204 (t := t+1; x := x+y; y := y+1\)*) alignedtext
0 0 0 nodecolor
18 /Times-Roman set_font
1406.5 360.8 moveto 13 (\(\)) alignedtext
grestore
% para_start->9
gsave
1 setlinewidth
0 0 0 edgecolor
newpath 1413 446.45 moveto
1413 434.93 1413 421.96 1413 410.38 curveto
stroke
0 0 0 edgecolor
newpath 1416.5 410.21 moveto
1413 400.21 lineto
1409.5 410.21 lineto
closepath fill
1 setlinewidth
solid
0 0 0 edgecolor
newpath 1416.5 410.21 moveto
1413 400.21 lineto
1409.5 410.21 lineto
closepath stroke
grestore
% 0->paraxyye
gsave
1 setlinewidth
0 0 0 edgecolor
newpath 149 140.79 moveto
149 132.8 149 123.44 149 113.84 curveto
stroke
0 0 0 edgecolor
newpath 152.5 113.81 moveto
149 103.81 lineto
145.5 113.81 lineto
closepath fill
1 setlinewidth
solid
0 0 0 edgecolor
newpath 152.5 113.81 moveto
149 103.81 lineto
145.5 113.81 lineto
closepath stroke
grestore
% 1->paraxyy
gsave
1 setlinewidth
0 0 0 edgecolor
newpath 149 344.3 moveto
149 336.21 149 327.34 149 318.56 curveto
stroke
0 0 0 edgecolor
newpath 152.5 318.36 moveto
149 308.36 lineto
145.5 318.36 lineto
closepath fill
1 setlinewidth
solid
0 0 0 edgecolor
newpath 152.5 318.36 moveto
149 308.36 lineto
145.5 318.36 lineto
closepath stroke
grestore
% 2->paraxye
gsave
1 setlinewidth
0 0 0 edgecolor
newpath 465 140.79 moveto
465 130.18 465 117.13 465 104.34 curveto
stroke
0 0 0 edgecolor
newpath 468.5 104.19 moveto
465 94.19 lineto
461.5 104.19 lineto
closepath fill
1 setlinewidth
solid
0 0 0 edgecolor
newpath 468.5 104.19 moveto
465 94.19 lineto
461.5 104.19 lineto
closepath stroke
grestore
% 3->paraxy
gsave
1 setlinewidth
0 0 0 edgecolor
newpath 465 344.3 moveto
465 336.21 465 327.34 465 318.56 curveto
stroke
0 0 0 edgecolor
newpath 468.5 318.36 moveto
465 308.36 lineto
461.5 318.36 lineto
closepath fill
1 setlinewidth
solid
0 0 0 edgecolor
newpath 468.5 318.36 moveto
465 308.36 lineto
461.5 318.36 lineto
closepath stroke
grestore
% 4->paraxe
gsave
1 setlinewidth
0 0 0 edgecolor
newpath 781 140.79 moveto
781 130.18 781 117.13 781 104.34 curveto
stroke
0 0 0 edgecolor
newpath 784.5 104.19 moveto
781 94.19 lineto
777.5 104.19 lineto
closepath fill
1 setlinewidth
solid
0 0 0 edgecolor
newpath 784.5 104.19 moveto
781 94.19 lineto
777.5 104.19 lineto
closepath stroke
grestore
% 5->parax
gsave
1 setlinewidth
0 0 0 edgecolor
newpath 781 344.3 moveto
781 336.21 781 327.34 781 318.56 curveto
stroke
0 0 0 edgecolor
newpath 784.5 318.36 moveto
781 308.36 lineto
777.5 318.36 lineto
closepath fill
1 setlinewidth
solid
0 0 0 edgecolor
newpath 784.5 318.36 moveto
781 308.36 lineto
777.5 318.36 lineto
closepath stroke
grestore
% 6->paraye
gsave
1 setlinewidth
0 0 0 edgecolor
newpath 1097 140.79 moveto
1097 130.18 1097 117.13 1097 104.34 curveto
stroke
0 0 0 edgecolor
newpath 1100.5 104.19 moveto
1097 94.19 lineto
1093.5 104.19 lineto
closepath fill
1 setlinewidth
solid
0 0 0 edgecolor
newpath 1100.5 104.19 moveto
1097 94.19 lineto
1093.5 104.19 lineto
closepath stroke
grestore
% 7->paray
gsave
1 setlinewidth
0 0 0 edgecolor
newpath 1097 344.3 moveto
1097 336.21 1097 327.34 1097 318.56 curveto
stroke
0 0 0 edgecolor
newpath 1100.5 318.36 moveto
1097 308.36 lineto
1093.5 318.36 lineto
closepath fill
1 setlinewidth
solid
0 0 0 edgecolor
newpath 1100.5 318.36 moveto
1097 308.36 lineto
1093.5 318.36 lineto
closepath stroke
grestore
% 8->parae
gsave
1 setlinewidth
0 0 0 edgecolor
newpath 1413 139.97 moveto
1413 129.53 1413 116.85 1413 104.41 curveto
stroke
0 0 0 edgecolor
newpath 1416.5 104.07 moveto
1413 94.07 lineto
1409.5 104.07 lineto
closepath fill
1 setlinewidth
solid
0 0 0 edgecolor
newpath 1416.5 104.07 moveto
1413 94.07 lineto
1409.5 104.07 lineto
closepath stroke
grestore
% 9->para
gsave
1 setlinewidth
0 0 0 edgecolor
newpath 1413 353.73 moveto
1413 343.4 1413 330.79 1413 318.39 curveto
stroke
0 0 0 edgecolor
newpath 1416.5 318.07 moveto
1413 308.07 lineto
1409.5 318.07 lineto
closepath fill
1 setlinewidth
solid
0 0 0 edgecolor
newpath 1416.5 318.07 moveto
1413 308.07 lineto
1409.5 318.07 lineto
closepath stroke
grestore
% 10->paraxyy_start
gsave
1 setlinewidth
0 0 0 edgecolor
newpath 149 547.72 moveto
149 539.27 149 530.38 149 521.91 curveto
stroke
0 0 0 edgecolor
newpath 152.5 521.84 moveto
149 511.84 lineto
145.5 521.84 lineto
closepath fill
1 setlinewidth
solid
0 0 0 edgecolor
newpath 152.5 521.84 moveto
149 511.84 lineto
145.5 521.84 lineto
closepath stroke
grestore
% 11->paraxy_start
gsave
1 setlinewidth
0 0 0 edgecolor
newpath 465 547.72 moveto
465 539.27 465 530.38 465 521.91 curveto
stroke
0 0 0 edgecolor
newpath 468.5 521.84 moveto
465 511.84 lineto
461.5 521.84 lineto
closepath fill
1 setlinewidth
solid
0 0 0 edgecolor
newpath 468.5 521.84 moveto
465 511.84 lineto
461.5 521.84 lineto
closepath stroke
grestore
% 12->parax_start
gsave
1 setlinewidth
0 0 0 edgecolor
newpath 781 547.72 moveto
781 539.27 781 530.38 781 521.91 curveto
stroke
0 0 0 edgecolor
newpath 784.5 521.84 moveto
781 511.84 lineto
777.5 521.84 lineto
closepath fill
1 setlinewidth
solid
0 0 0 edgecolor
newpath 784.5 521.84 moveto
781 511.84 lineto
777.5 521.84 lineto
closepath stroke
grestore
% 13->paray_start
gsave
1 setlinewidth
0 0 0 edgecolor
newpath 1097 547.72 moveto
1097 539.27 1097 530.38 1097 521.91 curveto
stroke
0 0 0 edgecolor
newpath 1100.5 521.84 moveto
1097 511.84 lineto
1093.5 521.84 lineto
closepath fill
1 setlinewidth
solid
0 0 0 edgecolor
newpath 1100.5 521.84 moveto
1097 511.84 lineto
1093.5 521.84 lineto
closepath stroke
grestore
% 14->para_start
gsave
1 setlinewidth
0 0 0 edgecolor
newpath 1413 547.72 moveto
1413 539.27 1413 530.38 1413 521.91 curveto
stroke
0 0 0 edgecolor
newpath 1416.5 521.84 moveto
1413 511.84 lineto
1409.5 521.84 lineto
closepath fill
1 setlinewidth
solid
0 0 0 edgecolor
newpath 1416.5 521.84 moveto
1413 511.84 lineto
1409.5 521.84 lineto
closepath stroke
grestore
endpage
showpage
grestore
%%PageTrailer
%%EndPage: 1
setupLatin1
%%Page: 2 2
%%PageBoundingBox: 36 36 1888 552
%%PageOrientation: Portrait
0 0 1 beginpage
gsave
36 36 1852 516 boxprim clip newpath
1 1 set_scale 0 rotate 40 41 translate
% 1073741823
gsave
1 setlinewidth
0 0 0 nodecolor
940 485 43.84 19.09 ellipse_path stroke
0 0 0 nodecolor
18 /Times-Roman set_font
917 478.3 moveto 46 (Result) alignedtext
grestore
% parax
gsave
1 setlinewidth
0 0 0 nodecolor
newpath 1137 306 moveto
911 306 lineto
911 222 lineto
1137 222 lineto
closepath stroke
0 0 0 nodecolor
18 /Times-Roman set_font
1003.5 285.8 moveto 41 (parax) alignedtext
0 0 0 nodecolor
18 /Times-Roman set_font
918.5 266.8 moveto 211 ([|t in [0 , INF]; x in [-5 , INF];) alignedtext
0 0 0 nodecolor
18 /Times-Roman set_font
965 247.8 moveto 118 (  y in [-2 , INF]|]) alignedtext
0 0 0 nodecolor
18 /Times-Roman set_font
920 228.8 moveto 208 (12 constraints, 13 generators) alignedtext
grestore
% 4
gsave
0 0 0 nodecolor
18 /Times-Roman set_font
773.5 155.8 moveto 79 (x-31>=0 ? ) alignedtext
0 0 0 nodecolor
18 /Times-Roman set_font
806.5 136.8 moveto 13 (\(\)) alignedtext
grestore
% parax->4
gsave
1 setlinewidth
0 0 0 edgecolor
newpath 937.79 221.89 moveto
915.25 210.53 891.08 198.05 869 186 curveto
866.13 184.43 863.19 182.8 860.23 181.13 curveto
stroke
0 0 0 edgecolor
newpath 861.79 177.99 moveto
851.37 176.06 lineto
858.31 184.06 lineto
closepath fill
1 setlinewidth
solid
0 0 0 edgecolor
newpath 861.79 177.99 moveto
851.37 176.06 lineto
858.31 184.06 lineto
closepath stroke
grestore
% 5
gsave
0 0 0 nodecolor
18 /Times-Roman set_font
885.5 155.8 moveto 277 (-x+30>=0 ? t := t+1; x := x+y; y := y+1) alignedtext
0 0 0 nodecolor
18 /Times-Roman set_font
1017.5 136.8 moveto 13 (\(\)) alignedtext
grestore
% parax->5
gsave
1 setlinewidth
0 0 0 edgecolor
newpath 1017.42 221.72 moveto
1017.11 210.02 1017.22 197.49 1017.75 186.37 curveto
stroke
0 0 0 edgecolor
newpath 1021.26 186.42 moveto
1018.39 176.22 lineto
1014.27 185.98 lineto
closepath fill
1 setlinewidth
solid
0 0 0 edgecolor
newpath 1021.26 186.42 moveto
1018.39 176.22 lineto
1014.27 185.98 lineto
closepath stroke
grestore
% paraxye
gsave
1 setlinewidth
0 0 0 nodecolor
newpath 594 84 moveto
346 84 lineto
346 0 lineto
594 0 lineto
closepath stroke
0 0 0 nodecolor
18 /Times-Roman set_font
441 63.8 moveto 58 (paraxye) alignedtext
0 0 0 nodecolor
18 /Times-Roman set_font
354 44.8 moveto 232 ([|t in [1.713 , INF]; x in [-5 , 30];) alignedtext
0 0 0 nodecolor
18 /Times-Roman set_font
414 25.8 moveto 112 (  y in [1 , INF]|]) alignedtext
0 0 0 nodecolor
18 /Times-Roman set_font
375 6.8 moveto 190 (7 constraints, 8 generators) alignedtext
grestore
% paray
gsave
1 setlinewidth
0 0 0 nodecolor
newpath 1517 306 moveto
1299 306 lineto
1299 222 lineto
1517 222 lineto
closepath stroke
0 0 0 nodecolor
18 /Times-Roman set_font
1387.5 285.8 moveto 41 (paray) alignedtext
0 0 0 nodecolor
18 /Times-Roman set_font
1307 266.8 moveto 202 ([|t in [0 , 10]; x in [-5 , INF];) alignedtext
0 0 0 nodecolor
18 /Times-Roman set_font
1358.5 247.8 moveto 99 (  y in [-2 , 8]|]) alignedtext
0 0 0 nodecolor
18 /Times-Roman set_font
1313 228.8 moveto 190 (9 constraints, 8 generators) alignedtext
grestore
% 6
gsave
0 0 0 nodecolor
18 /Times-Roman set_font
1196 155.8 moveto 70 (y-8>=0 ? ) alignedtext
0 0 0 nodecolor
18 /Times-Roman set_font
1224.5 136.8 moveto 13 (\(\)) alignedtext
grestore
% paray->6
gsave
1 setlinewidth
0 0 0 edgecolor
newpath 1340.47 221.99 moveto
1321.83 210.36 1301.62 197.72 1283 186 curveto
1280.78 184.6 1278.51 183.17 1276.22 181.73 curveto
stroke
0 0 0 edgecolor
newpath 1277.67 178.5 moveto
1267.34 176.11 lineto
1273.93 184.42 lineto
closepath fill
1 setlinewidth
solid
0 0 0 edgecolor
newpath 1277.67 178.5 moveto
1267.34 176.11 lineto
1273.93 184.42 lineto
closepath stroke
grestore
% 7
gsave
0 0 0 nodecolor
18 /Times-Roman set_font
1300 155.8 moveto 268 (-y+7>=0 ? t := t+1; x := x+y; y := y+1) alignedtext
0 0 0 nodecolor
18 /Times-Roman set_font
1427.5 136.8 moveto 13 (\(\)) alignedtext
grestore
% paray->7
gsave
1 setlinewidth
0 0 0 edgecolor
newpath 1411.33 221.72 moveto
1413.78 209.9 1416.86 197.23 1420.03 186.03 curveto
stroke
0 0 0 edgecolor
newpath 1423.45 186.8 moveto
1422.95 176.22 lineto
1416.74 184.81 lineto
closepath fill
1 setlinewidth
solid
0 0 0 edgecolor
newpath 1423.45 186.8 moveto
1422.95 176.22 lineto
1416.74 184.81 lineto
closepath stroke
grestore
% linit
gsave
1 setlinewidth
0 0 0 nodecolor
newpath 1046 508 moveto
1002 508 lineto
1002 462 lineto
1046 462 lineto
closepath stroke
0 0 0 nodecolor
18 /Times-Roman set_font
1010 487.8 moveto 28 (linit) alignedtext
0 0 0 nodecolor
18 /Times-Roman set_font
1012 468.8 moveto 24 (top) alignedtext
grestore
% 10
gsave
0 0 0 nodecolor
18 /Times-Roman set_font
177.5 405.8 moveto 283 (-y+2>=0 and y+2>=0 and -x+2>=0 and) alignedtext
0 0 0 nodecolor
18 /Times-Roman set_font
284.5 386.8 moveto 69 (x+2>=0 ?) alignedtext
0 0 0 nodecolor
18 /Times-Roman set_font
300 367.8 moveto 38 (t := 0) alignedtext
0 0 0 nodecolor
18 /Times-Roman set_font
312.5 348.8 moveto 13 (\(\)) alignedtext
grestore
% linit->10
gsave
1 setlinewidth
0 0 0 edgecolor
newpath 1001.83 466.35 moveto
998.99 464.64 996.01 463.13 993 462 curveto
798 389.13 732.18 454.75 526 426 curveto
510.44 423.83 494.28 421.21 478.17 418.35 curveto
stroke
0 0 0 edgecolor
newpath 478.61 414.87 moveto
468.15 416.54 lineto
477.37 421.76 lineto
closepath fill
1 setlinewidth
solid
0 0 0 edgecolor
newpath 478.61 414.87 moveto
468.15 416.54 lineto
477.37 421.76 lineto
closepath stroke
grestore
% 11
gsave
0 0 0 nodecolor
18 /Times-Roman set_font
542.5 405.8 moveto 283 (-y+2>=0 and y+2>=0 and -x+2>=0 and) alignedtext
0 0 0 nodecolor
18 /Times-Roman set_font
649.5 386.8 moveto 69 (x+2>=0 ?) alignedtext
0 0 0 nodecolor
18 /Times-Roman set_font
665 367.8 moveto 38 (t := 0) alignedtext
0 0 0 nodecolor
18 /Times-Roman set_font
677.5 348.8 moveto 13 (\(\)) alignedtext
grestore
% linit->11
gsave
1 setlinewidth
0 0 0 edgecolor
newpath 1001.97 467.08 moveto
999.06 465.19 996.03 463.44 993 462 curveto
978.23 455 911.24 437.83 843.39 421.39 curveto
stroke
0 0 0 edgecolor
newpath 843.92 417.91 moveto
833.38 418.97 lineto
842.28 424.72 lineto
closepath fill
1 setlinewidth
solid
0 0 0 edgecolor
newpath 843.92 417.91 moveto
833.38 418.97 lineto
842.28 424.72 lineto
closepath stroke
grestore
% 12
gsave
0 0 0 nodecolor
18 /Times-Roman set_font
882.5 405.8 moveto 283 (-y+2>=0 and y+2>=0 and -x+2>=0 and) alignedtext
0 0 0 nodecolor
18 /Times-Roman set_font
989.5 386.8 moveto 69 (x+2>=0 ?) alignedtext
0 0 0 nodecolor
18 /Times-Roman set_font
1005 367.8 moveto 38 (t := 0) alignedtext
0 0 0 nodecolor
18 /Times-Roman set_font
1017.5 348.8 moveto 13 (\(\)) alignedtext
grestore
% linit->12
gsave
1 setlinewidth
0 0 0 edgecolor
newpath 1024 461.83 moveto
1024 454.13 1024 445.21 1024 436.22 curveto
stroke
0 0 0 edgecolor
newpath 1027.5 436.11 moveto
1024 426.11 lineto
1020.5 436.11 lineto
closepath fill
1 setlinewidth
solid
0 0 0 edgecolor
newpath 1027.5 436.11 moveto
1024 426.11 lineto
1020.5 436.11 lineto
closepath stroke
grestore
% 13
gsave
0 0 0 nodecolor
18 /Times-Roman set_font
1219.5 405.8 moveto 283 (-y+2>=0 and y+2>=0 and -x+2>=0 and) alignedtext
0 0 0 nodecolor
18 /Times-Roman set_font
1326.5 386.8 moveto 69 (x+2>=0 ?) alignedtext
0 0 0 nodecolor
18 /Times-Roman set_font
1342 367.8 moveto 38 (t := 0) alignedtext
0 0 0 nodecolor
18 /Times-Roman set_font
1354.5 348.8 moveto 13 (\(\)) alignedtext
grestore
% linit->13
gsave
1 setlinewidth
0 0 0 edgecolor
newpath 1046.11 478.37 moveto
1079.89 468.25 1147.14 448.09 1210.85 429 curveto
stroke
0 0 0 edgecolor
newpath 1212.05 432.29 moveto
1220.63 426.07 lineto
1210.04 425.59 lineto
closepath fill
1 setlinewidth
solid
0 0 0 edgecolor
newpath 1212.05 432.29 moveto
1220.63 426.07 lineto
1210.04 425.59 lineto
closepath stroke
grestore
% 14
gsave
0 0 0 nodecolor
18 /Times-Roman set_font
1546.5 405.8 moveto 283 (-y+2>=0 and y+2>=0 and -x+2>=0 and) alignedtext
0 0 0 nodecolor
18 /Times-Roman set_font
1653.5 386.8 moveto 69 (x+2>=0 ?) alignedtext
0 0 0 nodecolor
18 /Times-Roman set_font
1669 367.8 moveto 38 (t := 0) alignedtext
0 0 0 nodecolor
18 /Times-Roman set_font
1681.5 348.8 moveto 13 (\(\)) alignedtext
grestore
% linit->14
gsave
1 setlinewidth
0 0 0 edgecolor
newpath 1046.35 483.34 moveto
1116.45 477.91 1338.1 459.13 1519 426 curveto
1522.27 425.4 1525.57 424.78 1528.9 424.13 curveto
stroke
0 0 0 edgecolor
newpath 1529.81 427.51 moveto
1538.93 422.12 lineto
1528.44 420.65 lineto
closepath fill
1 setlinewidth
solid
0 0 0 edgecolor
newpath 1529.81 427.51 moveto
1538.93 422.12 lineto
1528.44 420.65 lineto
closepath stroke
grestore
% para
gsave
1 setlinewidth
0 0 0 nodecolor
newpath 1844 306 moveto
1618 306 lineto
1618 222 lineto
1844 222 lineto
closepath stroke
0 0 0 nodecolor
18 /Times-Roman set_font
1715 285.8 moveto 32 (para) alignedtext
0 0 0 nodecolor
18 /Times-Roman set_font
1625.5 266.8 moveto 211 ([|t in [0 , INF]; x in [-5 , INF];) alignedtext
0 0 0 nodecolor
18 /Times-Roman set_font
1672 247.8 moveto 118 (  y in [-2 , INF]|]) alignedtext
0 0 0 nodecolor
18 /Times-Roman set_font
1636 228.8 moveto 190 (6 constraints, 6 generators) alignedtext
grestore
% 8
gsave
0 0 0 nodecolor
18 /Times-Roman set_font
1601.5 135.8 moveto 13 (\(\)) alignedtext
grestore
% para->8
gsave
1 setlinewidth
0 0 0 edgecolor
newpath 1670.85 221.81 moveto
1657.07 210.89 1642.96 198.63 1631 186 curveto
1630.23 185.19 1629.47 184.35 1628.72 183.49 curveto
stroke
0 0 0 edgecolor
newpath 1631.2 180.99 moveto
1622.22 175.37 lineto
1625.73 185.36 lineto
closepath fill
1 setlinewidth
solid
0 0 0 edgecolor
newpath 1631.2 180.99 moveto
1622.22 175.37 lineto
1625.73 185.36 lineto
closepath stroke
grestore
% 9
gsave
0 0 0 nodecolor
18 /Times-Roman set_font
1647.5 155.8 moveto 189 (t := t+1; x := x+y; y := y+1) alignedtext
0 0 0 nodecolor
18 /Times-Roman set_font
1735.5 136.8 moveto 13 (\(\)) alignedtext
grestore
% para->9
gsave
1 setlinewidth
0 0 0 edgecolor
newpath 1728.61 221.72 moveto
1729.46 210.02 1730.81 197.49 1732.44 186.37 curveto
stroke
0 0 0 edgecolor
newpath 1735.94 186.65 moveto
1734.09 176.22 lineto
1729.03 185.53 lineto
closepath fill
1 setlinewidth
solid
0 0 0 edgecolor
newpath 1735.94 186.65 moveto
1734.09 176.22 lineto
1729.03 185.53 lineto
closepath stroke
grestore
% paraye
gsave
1 setlinewidth
0 0 0 nodecolor
newpath 1360 74.5 moveto
1102 74.5 lineto
1102 9.5 lineto
1360 9.5 lineto
closepath stroke
0 0 0 nodecolor
18 /Times-Roman set_font
1206.5 54.3 moveto 49 (paraye) alignedtext
0 0 0 nodecolor
18 /Times-Roman set_font
1109.5 35.3 moveto 243 ([|t in [6 , 10]; x in [-5 , INF]; y=8|]) alignedtext
0 0 0 nodecolor
18 /Times-Roman set_font
1136 16.3 moveto 190 (5 constraints, 4 generators) alignedtext
grestore
% paraxy
gsave
1 setlinewidth
0 0 0 nodecolor
newpath 758 306 moveto
534 306 lineto
534 222 lineto
758 222 lineto
closepath stroke
0 0 0 nodecolor
18 /Times-Roman set_font
621 285.8 moveto 50 (paraxy) alignedtext
0 0 0 nodecolor
18 /Times-Roman set_font
545 266.8 moveto 202 ([|t in [0 , INF]; x in [-5 , 30];) alignedtext
0 0 0 nodecolor
18 /Times-Roman set_font
587 247.8 moveto 118 (  y in [-2 , INF]|]) alignedtext
0 0 0 nodecolor
18 /Times-Roman set_font
542 228.8 moveto 208 (11 constraints, 11 generators) alignedtext
grestore
% 2
gsave
0 0 0 nodecolor
18 /Times-Roman set_font
421.5 155.8 moveto 97 (x+y-31>=0 ? ) alignedtext
0 0 0 nodecolor
18 /Times-Roman set_font
463.5 136.8 moveto 13 (\(\)) alignedtext
grestore
% paraxy->2
gsave
1 setlinewidth
0 0 0 edgecolor
newpath 579.21 221.88 moveto
557.96 208.47 534.95 193.97 515.56 181.74 curveto
stroke
0 0 0 edgecolor
newpath 517.25 178.66 moveto
506.93 176.29 lineto
513.52 184.58 lineto
closepath fill
1 setlinewidth
solid
0 0 0 edgecolor
newpath 517.25 178.66 moveto
506.93 176.29 lineto
513.52 184.58 lineto
closepath stroke
grestore
% 3
gsave
0 0 0 nodecolor
18 /Times-Roman set_font
596.5 165.3 moveto 99 (-x-y+30>=0 ?) alignedtext
0 0 0 nodecolor
18 /Times-Roman set_font
551.5 146.3 moveto 189 (t := t+1; x := x+y; y := y+1) alignedtext
0 0 0 nodecolor
18 /Times-Roman set_font
639.5 127.3 moveto 13 (\(\)) alignedtext
grestore
% paraxy->3
gsave
1 setlinewidth
0 0 0 edgecolor
newpath 639.42 221.72 moveto
639.2 213.27 639.19 204.38 639.41 195.91 curveto
stroke
0 0 0 edgecolor
newpath 642.91 195.96 moveto
639.78 185.84 lineto
635.91 195.71 lineto
closepath fill
1 setlinewidth
solid
0 0 0 edgecolor
newpath 642.91 195.96 moveto
639.78 185.84 lineto
635.91 195.71 lineto
closepath stroke
grestore
% parae
gsave
1 setlinewidth
0 0 0 nodecolor
newpath 1721 84 moveto
1495 84 lineto
1495 0 lineto
1721 0 lineto
closepath stroke
0 0 0 nodecolor
18 /Times-Roman set_font
1588 63.8 moveto 40 (parae) alignedtext
0 0 0 nodecolor
18 /Times-Roman set_font
1502.5 44.8 moveto 211 ([|t in [0 , INF]; x in [-5 , INF];) alignedtext
0 0 0 nodecolor
18 /Times-Roman set_font
1549 25.8 moveto 118 (  y in [-2 , INF]|]) alignedtext
0 0 0 nodecolor
18 /Times-Roman set_font
1513 6.8 moveto 190 (6 constraints, 6 generators) alignedtext
grestore
% paraxyye
gsave
1 setlinewidth
0 0 0 nodecolor
newpath 230 84 moveto
0 84 lineto
0 0 lineto
230 0 lineto
closepath stroke
0 0 0 nodecolor
18 /Times-Roman set_font
81.5 63.8 moveto 67 (paraxyye) alignedtext
0 0 0 nodecolor
18 /Times-Roman set_font
8 44.8 moveto 214 ([|t in [2 , INF]; x in [39 , INF];) alignedtext
0 0 0 nodecolor
18 /Times-Roman set_font
59 25.8 moveto 112 (  y in [4 , INF]|]) alignedtext
0 0 0 nodecolor
18 /Times-Roman set_font
20 6.8 moveto 190 (4 constraints, 4 generators) alignedtext
grestore
% paraxyy
gsave
1 setlinewidth
0 0 0 nodecolor
newpath 407 306 moveto
181 306 lineto
181 222 lineto
407 222 lineto
closepath stroke
0 0 0 nodecolor
18 /Times-Roman set_font
264.5 285.8 moveto 59 (paraxyy) alignedtext
0 0 0 nodecolor
18 /Times-Roman set_font
188.5 266.8 moveto 211 ([|t in [0 , INF]; x in [-5 , INF];) alignedtext
0 0 0 nodecolor
18 /Times-Roman set_font
235 247.8 moveto 118 (  y in [-2 , INF]|]) alignedtext
0 0 0 nodecolor
18 /Times-Roman set_font
190 228.8 moveto 208 (10 constraints, 11 generators) alignedtext
grestore
% 0
gsave
0 0 0 nodecolor
18 /Times-Roman set_font
63.5 155.8 moveto 103 (x-2y-31>=0 ? ) alignedtext
0 0 0 nodecolor
18 /Times-Roman set_font
108.5 136.8 moveto 13 (\(\)) alignedtext
grestore
% paraxyy->0
gsave
1 setlinewidth
0 0 0 edgecolor
newpath 226.07 221.88 moveto
204.28 208.36 180.66 193.72 160.84 181.42 curveto
stroke
0 0 0 edgecolor
newpath 162.65 178.43 moveto
152.3 176.13 lineto
158.96 184.38 lineto
closepath fill
1 setlinewidth
solid
0 0 0 edgecolor
newpath 162.65 178.43 moveto
152.3 176.13 lineto
158.96 184.38 lineto
closepath stroke
grestore
% 1
gsave
0 0 0 nodecolor
18 /Times-Roman set_font
238.5 165.3 moveto 111 (-x+2y+30>=0 ?) alignedtext
0 0 0 nodecolor
18 /Times-Roman set_font
199.5 146.3 moveto 189 (t := t+1; x := x+y; y := y+1) alignedtext
0 0 0 nodecolor
18 /Times-Roman set_font
287.5 127.3 moveto 13 (\(\)) alignedtext
grestore
% paraxyy->1
gsave
1 setlinewidth
0 0 0 edgecolor
newpath 287.42 221.72 moveto
287.2 213.27 287.19 204.38 287.41 195.91 curveto
stroke
0 0 0 edgecolor
newpath 290.91 195.96 moveto
287.78 185.84 lineto
283.91 195.71 lineto
closepath fill
1 setlinewidth
solid
0 0 0 edgecolor
newpath 290.91 195.96 moveto
287.78 185.84 lineto
283.91 195.71 lineto
closepath stroke
grestore
% paraxe
gsave
1 setlinewidth
0 0 0 nodecolor
newpath 943 84 moveto
683 84 lineto
683 0 lineto
943 0 lineto
closepath stroke
0 0 0 nodecolor
18 /Times-Roman set_font
788.5 63.8 moveto 49 (paraxe) alignedtext
0 0 0 nodecolor
18 /Times-Roman set_font
690.5 44.8 moveto 245 ([|t in [1.812 , INF]; x in [31 , INF];) alignedtext
0 0 0 nodecolor
18 /Times-Roman set_font
757 25.8 moveto 112 (  y in [2 , INF]|]) alignedtext
0 0 0 nodecolor
18 /Times-Roman set_font
718 6.8 moveto 190 (7 constraints, 9 generators) alignedtext
grestore
% 0->paraxyye
gsave
1 setlinewidth
0 0 0 edgecolor
newpath 115 129.73 moveto
115 119.4 115 106.79 115 94.39 curveto
stroke
0 0 0 edgecolor
newpath 118.5 94.07 moveto
115 84.07 lineto
111.5 94.07 lineto
closepath fill
1 setlinewidth
solid
0 0 0 edgecolor
newpath 118.5 94.07 moveto
115 84.07 lineto
111.5 94.07 lineto
closepath stroke
grestore
% 1->paraxyy
gsave
1 setlinewidth
0 0 0 edgecolor
newpath 300.22 185.84 moveto
300.62 193.93 300.79 202.78 300.74 211.54 curveto
stroke
0 0 0 edgecolor
newpath 297.24 211.66 moveto
300.58 221.72 lineto
304.24 211.78 lineto
closepath fill
1 setlinewidth
solid
0 0 0 edgecolor
newpath 297.24 211.66 moveto
300.58 221.72 lineto
304.24 211.78 lineto
closepath stroke
grestore
% 2->paraxye
gsave
1 setlinewidth
0 0 0 edgecolor
newpath 470 129.73 moveto
470 119.4 470 106.79 470 94.39 curveto
stroke
0 0 0 edgecolor
newpath 473.5 94.07 moveto
470 84.07 lineto
466.5 94.07 lineto
closepath fill
1 setlinewidth
solid
0 0 0 edgecolor
newpath 473.5 94.07 moveto
470 84.07 lineto
466.5 94.07 lineto
closepath stroke
grestore
% 3->paraxy
gsave
1 setlinewidth
0 0 0 edgecolor
newpath 652.22 185.84 moveto
652.62 193.93 652.79 202.78 652.74 211.54 curveto
stroke
0 0 0 edgecolor
newpath 649.24 211.66 moveto
652.58 221.72 lineto
656.24 211.78 lineto
closepath fill
1 setlinewidth
solid
0 0 0 edgecolor
newpath 649.24 211.66 moveto
652.58 221.72 lineto
656.24 211.78 lineto
closepath stroke
grestore
% 4->paraxe
gsave
1 setlinewidth
0 0 0 edgecolor
newpath 813 129.73 moveto
813 119.4 813 106.79 813 94.39 curveto
stroke
0 0 0 edgecolor
newpath 816.5 94.07 moveto
813 84.07 lineto
809.5 94.07 lineto
closepath fill
1 setlinewidth
solid
0 0 0 edgecolor
newpath 816.5 94.07 moveto
813 84.07 lineto
809.5 94.07 lineto
closepath stroke
grestore
% 5->parax
gsave
1 setlinewidth
0 0 0 edgecolor
newpath 1029.61 176.22 moveto
1030.44 186.51 1030.81 199.07 1030.74 211.43 curveto
stroke
0 0 0 edgecolor
newpath 1027.24 211.66 moveto
1030.58 221.72 lineto
1034.24 211.78 lineto
closepath fill
1 setlinewidth
solid
0 0 0 edgecolor
newpath 1027.24 211.66 moveto
1030.58 221.72 lineto
1034.24 211.78 lineto
closepath stroke
grestore
% 6->paraye
gsave
1 setlinewidth
0 0 0 edgecolor
newpath 1231 129.73 moveto
1231 116.82 1231 100.34 1231 85.16 curveto
stroke
0 0 0 edgecolor
newpath 1234.5 84.92 moveto
1231 74.92 lineto
1227.5 84.92 lineto
closepath fill
1 setlinewidth
solid
0 0 0 edgecolor
newpath 1234.5 84.92 moveto
1231 74.92 lineto
1227.5 84.92 lineto
closepath stroke
grestore
% 7->paray
gsave
1 setlinewidth
0 0 0 edgecolor
newpath 1434.17 176.22 moveto
1432.57 186.61 1429.97 199.32 1426.97 211.8 curveto
stroke
0 0 0 edgecolor
newpath 1423.52 211.17 moveto
1424.48 221.72 lineto
1430.31 212.87 lineto
closepath fill
1 setlinewidth
solid
0 0 0 edgecolor
newpath 1423.52 211.17 moveto
1424.48 221.72 lineto
1430.31 212.87 lineto
closepath stroke
grestore
% 8->parae
gsave
1 setlinewidth
0 0 0 edgecolor
newpath 1608 128.91 moveto
1608 118.75 1608 106.5 1608 94.43 curveto
stroke
0 0 0 edgecolor
newpath 1611.5 94.39 moveto
1608 84.39 lineto
1604.5 94.39 lineto
closepath fill
1 setlinewidth
solid
0 0 0 edgecolor
newpath 1611.5 94.39 moveto
1608 84.39 lineto
1604.5 94.39 lineto
closepath stroke
grestore
% 9->para
gsave
1 setlinewidth
0 0 0 edgecolor
newpath 1745.31 176.22 moveto
1745.11 186.51 1744.25 199.07 1742.95 211.43 curveto
stroke
0 0 0 edgecolor
newpath 1739.43 211.38 moveto
1741.77 221.72 lineto
1746.39 212.18 lineto
closepath fill
1 setlinewidth
solid
0 0 0 edgecolor
newpath 1739.43 211.38 moveto
1741.77 221.72 lineto
1746.39 212.18 lineto
closepath stroke
grestore
% 10->paraxyy
gsave
1 setlinewidth
0 0 0 edgecolor
newpath 310.19 341.69 moveto
308.47 333.45 306.65 324.71 304.87 316.19 curveto
stroke
0 0 0 edgecolor
newpath 308.28 315.41 moveto
302.82 306.33 lineto
301.43 316.83 lineto
closepath fill
1 setlinewidth
solid
0 0 0 edgecolor
newpath 308.28 315.41 moveto
302.82 306.33 lineto
301.43 316.83 lineto
closepath stroke
grestore
% 11->paraxy
gsave
1 setlinewidth
0 0 0 edgecolor
newpath 670.6 341.69 moveto
667.96 333.36 665.17 324.52 662.44 315.91 curveto
stroke
0 0 0 edgecolor
newpath 665.76 314.81 moveto
659.4 306.33 lineto
659.09 316.92 lineto
closepath fill
1 setlinewidth
solid
0 0 0 edgecolor
newpath 665.76 314.81 moveto
659.4 306.33 lineto
659.09 316.92 lineto
closepath stroke
grestore
% 12->parax
gsave
1 setlinewidth
0 0 0 edgecolor
newpath 1024 341.69 moveto
1024 333.54 1024 324.9 1024 316.47 curveto
stroke
0 0 0 edgecolor
newpath 1027.5 316.33 moveto
1024 306.33 lineto
1020.5 316.33 lineto
closepath fill
1 setlinewidth
solid
0 0 0 edgecolor
newpath 1027.5 316.33 moveto
1024 306.33 lineto
1020.5 316.33 lineto
closepath stroke
grestore
% 13->paray
gsave
1 setlinewidth
0 0 0 edgecolor
newpath 1377.57 341.69 moveto
1380.83 333.36 1384.3 324.52 1387.67 315.91 curveto
stroke
0 0 0 edgecolor
newpath 1391.03 316.92 moveto
1391.42 306.33 lineto
1384.51 314.36 lineto
closepath fill
1 setlinewidth
solid
0 0 0 edgecolor
newpath 1391.03 316.92 moveto
1391.42 306.33 lineto
1384.51 314.36 lineto
closepath stroke
grestore
% 14->para
gsave
1 setlinewidth
0 0 0 edgecolor
newpath 1703.16 341.69 moveto
1706.15 333.36 1709.31 324.52 1712.4 315.91 curveto
stroke
0 0 0 edgecolor
newpath 1715.75 316.92 moveto
1715.83 306.33 lineto
1709.16 314.56 lineto
closepath fill
1 setlinewidth
solid
0 0 0 edgecolor
newpath 1715.75 316.92 moveto
1715.83 306.33 lineto
1709.16 314.56 lineto
closepath stroke
grestore
endpage
showpage
grestore
%%PageTrailer
%%EndPage: 2
setupLatin1
%%Page: 3 3
%%PageBoundingBox: 36 36 1606 738
%%PageOrientation: Portrait
0 0 1 beginpage
gsave
36 36 1570 702 boxprim clip newpath
1 1 set_scale 0 rotate 40 41 translate
% 1073741823
gsave
1 setlinewidth
0 0 0 nodecolor
697 671 43.84 19.09 ellipse_path stroke
0 0 0 nodecolor
18 /Times-Roman set_font
674 664.3 moveto 46 (Result) alignedtext
grestore
% paraxye
gsave
1 setlinewidth
0 0 0 nodecolor
newpath 598 84 moveto
332 84 lineto
332 0 lineto
598 0 lineto
closepath stroke
0 0 0 nodecolor
18 /Times-Roman set_font
436 63.8 moveto 58 (paraxye) alignedtext
0 0 0 nodecolor
18 /Times-Roman set_font
339.5 44.8 moveto 251 ([|t in [0.931 , INF]; x in [-INF , 30];) alignedtext
0 0 0 nodecolor
18 /Times-Roman set_font
409 25.8 moveto 112 (  y in [1 , INF]|]) alignedtext
0 0 0 nodecolor
18 /Times-Roman set_font
370 6.8 moveto 190 (5 constraints, 6 generators) alignedtext
grestore
% parax
gsave
1 setlinewidth
0 0 0 nodecolor
newpath 901 278.5 moveto
661 278.5 lineto
661 213.5 lineto
901 213.5 lineto
closepath stroke
0 0 0 nodecolor
18 /Times-Roman set_font
760.5 258.3 moveto 41 (parax) alignedtext
0 0 0 nodecolor
18 /Times-Roman set_font
668.5 239.3 moveto 225 ([|t in [0 , INF]; ; y in [-2 , INF]|]) alignedtext
0 0 0 nodecolor
18 /Times-Roman set_font
686 220.3 moveto 190 (6 constraints, 6 generators) alignedtext
grestore
% 4
gsave
0 0 0 nodecolor
18 /Times-Roman set_font
741.5 146.8 moveto 79 (x-31>=0 ? ) alignedtext
0 0 0 nodecolor
18 /Times-Roman set_font
774.5 127.8 moveto 13 (\(\)) alignedtext
grestore
% parax->4
gsave
1 setlinewidth
0 0 0 edgecolor
newpath 781 213.45 moveto
781 201.93 781 188.96 781 177.38 curveto
stroke
0 0 0 edgecolor
newpath 784.5 177.21 moveto
781 167.21 lineto
777.5 177.21 lineto
closepath fill
1 setlinewidth
solid
0 0 0 edgecolor
newpath 784.5 177.21 moveto
781 167.21 lineto
777.5 177.21 lineto
closepath stroke
grestore
% paray
gsave
1 setlinewidth
0 0 0 nodecolor
newpath 1203 278.5 moveto
991 278.5 lineto
991 213.5 lineto
1203 213.5 lineto
closepath stroke
0 0 0 nodecolor
18 /Times-Roman set_font
1076.5 258.3 moveto 41 (paray) alignedtext
0 0 0 nodecolor
18 /Times-Roman set_font
999 239.3 moveto 196 ([|t in [0 , 10]; ; y in [-2 , 8]|]) alignedtext
0 0 0 nodecolor
18 /Times-Roman set_font
1002 220.3 moveto 190 (4 constraints, 5 generators) alignedtext
grestore
% 6
gsave
0 0 0 nodecolor
18 /Times-Roman set_font
1062 146.8 moveto 70 (y-8>=0 ? ) alignedtext
0 0 0 nodecolor
18 /Times-Roman set_font
1090.5 127.8 moveto 13 (\(\)) alignedtext
grestore
% paray->6
gsave
1 setlinewidth
0 0 0 edgecolor
newpath 1097 213.45 moveto
1097 201.93 1097 188.96 1097 177.38 curveto
stroke
0 0 0 edgecolor
newpath 1100.5 177.21 moveto
1097 167.21 lineto
1093.5 177.21 lineto
closepath fill
1 setlinewidth
solid
0 0 0 edgecolor
newpath 1100.5 177.21 moveto
1097 167.21 lineto
1093.5 177.21 lineto
closepath stroke
grestore
% paraxyy_start
gsave
1 setlinewidth
0 0 0 nodecolor
newpath 267 491.5 moveto
31 491.5 lineto
31 426.5 lineto
267 426.5 lineto
closepath stroke
0 0 0 nodecolor
18 /Times-Roman set_font
99 471.3 moveto 100 (paraxyy_start) alignedtext
0 0 0 nodecolor
18 /Times-Roman set_font
38.5 452.3 moveto 221 ([|t=0; x in [-2 , 2]; y in [-2 , 2]|]) alignedtext
0 0 0 nodecolor
18 /Times-Roman set_font
54 433.3 moveto 190 (5 constraints, 4 generators) alignedtext
grestore
% 1
gsave
0 0 0 nodecolor
18 /Times-Roman set_font
90.5 369.3 moveto 117 (\(-x+2y+30>=0 ?) alignedtext
0 0 0 nodecolor
18 /Times-Roman set_font
47 350.3 moveto 204 (t := t+1; x := x+y; y := y+1\)*) alignedtext
0 0 0 nodecolor
18 /Times-Roman set_font
142.5 331.3 moveto 13 (\(\)) alignedtext
grestore
% paraxyy_start->1
gsave
1 setlinewidth
0 0 0 edgecolor
newpath 149 426.45 moveto
149 417.98 149 408.73 149 399.83 curveto
stroke
0 0 0 edgecolor
newpath 152.5 399.59 moveto
149 389.59 lineto
145.5 399.59 lineto
closepath fill
1 setlinewidth
solid
0 0 0 edgecolor
newpath 152.5 399.59 moveto
149 389.59 lineto
145.5 399.59 lineto
closepath stroke
grestore
% linit
gsave
1 setlinewidth
0 0 0 nodecolor
newpath 803 694 moveto
759 694 lineto
759 648 lineto
803 648 lineto
closepath stroke
0 0 0 nodecolor
18 /Times-Roman set_font
767 673.8 moveto 28 (linit) alignedtext
0 0 0 nodecolor
18 /Times-Roman set_font
769 654.8 moveto 24 (top) alignedtext
grestore
% 10
gsave
0 0 0 nodecolor
18 /Times-Roman set_font
7.5 591.8 moveto 283 (-y+2>=0 and y+2>=0 and -x+2>=0 and) alignedtext
0 0 0 nodecolor
18 /Times-Roman set_font
114.5 572.8 moveto 69 (x+2>=0 ?) alignedtext
0 0 0 nodecolor
18 /Times-Roman set_font
130 553.8 moveto 38 (t := 0) alignedtext
0 0 0 nodecolor
18 /Times-Roman set_font
142.5 534.8 moveto 13 (\(\)) alignedtext
grestore
% linit->10
gsave
1 setlinewidth
0 0 0 edgecolor
newpath 758.82 652.36 moveto
755.98 650.65 753.01 649.13 750 648 curveto
568.17 579.62 503.81 643.32 308.14 612.06 curveto
stroke
0 0 0 edgecolor
newpath 308.56 608.59 moveto
298.12 610.4 lineto
307.41 615.49 lineto
closepath fill
1 setlinewidth
solid
0 0 0 edgecolor
newpath 308.56 608.59 moveto
298.12 610.4 lineto
307.41 615.49 lineto
closepath stroke
grestore
% 11
gsave
0 0 0 nodecolor
18 /Times-Roman set_font
323.5 591.8 moveto 283 (-y+2>=0 and y+2>=0 and -x+2>=0 and) alignedtext
0 0 0 nodecolor
18 /Times-Roman set_font
430.5 572.8 moveto 69 (x+2>=0 ?) alignedtext
0 0 0 nodecolor
18 /Times-Roman set_font
446 553.8 moveto 38 (t := 0) alignedtext
0 0 0 nodecolor
18 /Times-Roman set_font
458.5 534.8 moveto 13 (\(\)) alignedtext
grestore
% linit->11
gsave
1 setlinewidth
0 0 0 edgecolor
newpath 758.94 653.14 moveto
756.03 651.24 753.01 649.47 750 648 curveto
746.65 646.37 687.54 630.13 624.02 612.88 curveto
stroke
0 0 0 edgecolor
newpath 624.78 609.46 moveto
614.21 610.22 lineto
622.94 616.22 lineto
closepath fill
1 setlinewidth
solid
0 0 0 edgecolor
newpath 624.78 609.46 moveto
614.21 610.22 lineto
622.94 616.22 lineto
closepath stroke
grestore
% 12
gsave
0 0 0 nodecolor
18 /Times-Roman set_font
639.5 591.8 moveto 283 (-y+2>=0 and y+2>=0 and -x+2>=0 and) alignedtext
0 0 0 nodecolor
18 /Times-Roman set_font
746.5 572.8 moveto 69 (x+2>=0 ?) alignedtext
0 0 0 nodecolor
18 /Times-Roman set_font
762 553.8 moveto 38 (t := 0) alignedtext
0 0 0 nodecolor
18 /Times-Roman set_font
774.5 534.8 moveto 13 (\(\)) alignedtext
grestore
% linit->12
gsave
1 setlinewidth
0 0 0 edgecolor
newpath 781 647.83 moveto
781 640.13 781 631.21 781 622.22 curveto
stroke
0 0 0 edgecolor
newpath 784.5 622.11 moveto
781 612.11 lineto
777.5 622.11 lineto
closepath fill
1 setlinewidth
solid
0 0 0 edgecolor
newpath 784.5 622.11 moveto
781 612.11 lineto
777.5 622.11 lineto
closepath stroke
grestore
% 13
gsave
0 0 0 nodecolor
18 /Times-Roman set_font
955.5 591.8 moveto 283 (-y+2>=0 and y+2>=0 and -x+2>=0 and) alignedtext
0 0 0 nodecolor
18 /Times-Roman set_font
1062.5 572.8 moveto 69 (x+2>=0 ?) alignedtext
0 0 0 nodecolor
18 /Times-Roman set_font
1078 553.8 moveto 38 (t := 0) alignedtext
0 0 0 nodecolor
18 /Times-Roman set_font
1090.5 534.8 moveto 13 (\(\)) alignedtext
grestore
% linit->13
gsave
1 setlinewidth
0 0 0 edgecolor
newpath 803.22 663.9 moveto
835.23 653.67 896.91 633.95 955.53 615.22 curveto
stroke
0 0 0 edgecolor
newpath 956.83 618.48 moveto
965.29 612.1 lineto
954.7 611.81 lineto
closepath fill
1 setlinewidth
solid
0 0 0 edgecolor
newpath 956.83 618.48 moveto
965.29 612.1 lineto
954.7 611.81 lineto
closepath stroke
grestore
% 14
gsave
0 0 0 nodecolor
18 /Times-Roman set_font
1271.5 591.8 moveto 283 (-y+2>=0 and y+2>=0 and -x+2>=0 and) alignedtext
0 0 0 nodecolor
18 /Times-Roman set_font
1378.5 572.8 moveto 69 (x+2>=0 ?) alignedtext
0 0 0 nodecolor
18 /Times-Roman set_font
1394 553.8 moveto 38 (t := 0) alignedtext
0 0 0 nodecolor
18 /Times-Roman set_font
1406.5 534.8 moveto 13 (\(\)) alignedtext
grestore
% linit->14
gsave
1 setlinewidth
0 0 0 edgecolor
newpath 803.38 669.3 moveto
870.38 663.99 1075.24 646.1 1254.01 612.12 curveto
stroke
0 0 0 edgecolor
newpath 1254.69 615.55 moveto
1263.85 610.23 lineto
1253.37 608.68 lineto
closepath fill
1 setlinewidth
solid
0 0 0 edgecolor
newpath 1254.69 615.55 moveto
1263.85 610.23 lineto
1253.37 608.68 lineto
closepath stroke
grestore
% paray_start
gsave
1 setlinewidth
0 0 0 nodecolor
newpath 1215 491.5 moveto
979 491.5 lineto
979 426.5 lineto
1215 426.5 lineto
closepath stroke
0 0 0 nodecolor
18 /Times-Roman set_font
1056 471.3 moveto 82 (paray_start) alignedtext
0 0 0 nodecolor
18 /Times-Roman set_font
986.5 452.3 moveto 221 ([|t=0; x in [-2 , 2]; y in [-2 , 2]|]) alignedtext
0 0 0 nodecolor
18 /Times-Roman set_font
1002 433.3 moveto 190 (5 constraints, 4 generators) alignedtext
grestore
% 7
gsave
0 0 0 nodecolor
18 /Times-Roman set_font
1056.5 369.3 moveto 81 (\(-y+7>=0 ?) alignedtext
0 0 0 nodecolor
18 /Times-Roman set_font
995 350.3 moveto 204 (t := t+1; x := x+y; y := y+1\)*) alignedtext
0 0 0 nodecolor
18 /Times-Roman set_font
1090.5 331.3 moveto 13 (\(\)) alignedtext
grestore
% paray_start->7
gsave
1 setlinewidth
0 0 0 edgecolor
newpath 1097 426.45 moveto
1097 417.98 1097 408.73 1097 399.83 curveto
stroke
0 0 0 edgecolor
newpath 1100.5 399.59 moveto
1097 389.59 lineto
1093.5 399.59 lineto
closepath fill
1 setlinewidth
solid
0 0 0 edgecolor
newpath 1100.5 399.59 moveto
1097 389.59 lineto
1093.5 399.59 lineto
closepath stroke
grestore
% paraye
gsave
1 setlinewidth
0 0 0 nodecolor
newpath 1200 74.5 moveto
994 74.5 lineto
994 9.5 lineto
1200 9.5 lineto
closepath stroke
0 0 0 nodecolor
18 /Times-Roman set_font
1072.5 54.3 moveto 49 (paraye) alignedtext
0 0 0 nodecolor
18 /Times-Roman set_font
1025 35.3 moveto 144 ([|t in [6 , 10]; ; y=8|]) alignedtext
0 0 0 nodecolor
18 /Times-Roman set_font
1002 16.3 moveto 190 (3 constraints, 3 generators) alignedtext
grestore
% para
gsave
1 setlinewidth
0 0 0 nodecolor
newpath 1533 278.5 moveto
1293 278.5 lineto
1293 213.5 lineto
1533 213.5 lineto
closepath stroke
0 0 0 nodecolor
18 /Times-Roman set_font
1397 258.3 moveto 32 (para) alignedtext
0 0 0 nodecolor
18 /Times-Roman set_font
1300.5 239.3 moveto 225 ([|t in [0 , INF]; ; y in [-2 , INF]|]) alignedtext
0 0 0 nodecolor
18 /Times-Roman set_font
1318 220.3 moveto 190 (3 constraints, 4 generators) alignedtext
grestore
% 8
gsave
0 0 0 nodecolor
18 /Times-Roman set_font
1406.5 126.8 moveto 13 (\(\)) alignedtext
grestore
% para->8
gsave
1 setlinewidth
0 0 0 edgecolor
newpath 1413 213.45 moveto
1413 202.2 1413 189.56 1413 178.19 curveto
stroke
0 0 0 edgecolor
newpath 1416.5 178.17 moveto
1413 168.17 lineto
1409.5 178.17 lineto
closepath fill
1 setlinewidth
solid
0 0 0 edgecolor
newpath 1416.5 178.17 moveto
1413 168.17 lineto
1409.5 178.17 lineto
closepath stroke
grestore
% paraxy
gsave
1 setlinewidth
0 0 0 nodecolor
newpath 583 288 moveto
347 288 lineto
347 204 lineto
583 204 lineto
closepath stroke
0 0 0 nodecolor
18 /Times-Roman set_font
440 267.8 moveto 50 (paraxy) alignedtext
0 0 0 nodecolor
18 /Times-Roman set_font
355 248.8 moveto 220 ([|t in [0 , INF]; x in [-INF , 30];) alignedtext
0 0 0 nodecolor
18 /Times-Roman set_font
406 229.8 moveto 118 (  y in [-2 , INF]|]) alignedtext
0 0 0 nodecolor
18 /Times-Roman set_font
370 210.8 moveto 190 (5 constraints, 6 generators) alignedtext
grestore
% 2
gsave
0 0 0 nodecolor
18 /Times-Roman set_font
416.5 146.8 moveto 97 (x+y-31>=0 ? ) alignedtext
0 0 0 nodecolor
18 /Times-Roman set_font
458.5 127.8 moveto 13 (\(\)) alignedtext
grestore
% paraxy->2
gsave
1 setlinewidth
0 0 0 edgecolor
newpath 465 203.92 moveto
465 195.05 465 185.8 465 177.3 curveto
stroke
0 0 0 edgecolor
newpath 468.5 177.02 moveto
465 167.02 lineto
461.5 177.02 lineto
closepath fill
1 setlinewidth
solid
0 0 0 edgecolor
newpath 468.5 177.02 moveto
465 167.02 lineto
461.5 177.02 lineto
closepath stroke
grestore
% parae
gsave
1 setlinewidth
0 0 0 nodecolor
newpath 1533 74.5 moveto
1293 74.5 lineto
1293 9.5 lineto
1533 9.5 lineto
closepath stroke
0 0 0 nodecolor
18 /Times-Roman set_font
1393 54.3 moveto 40 (parae) alignedtext
0 0 0 nodecolor
18 /Times-Roman set_font
1300.5 35.3 moveto 225 ([|t in [0 , INF]; ; y in [-2 , INF]|]) alignedtext
0 0 0 nodecolor
18 /Times-Roman set_font
1318 16.3 moveto 190 (3 constraints, 4 generators) alignedtext
grestore
% parax_start
gsave
1 setlinewidth
0 0 0 nodecolor
newpath 899 491.5 moveto
663 491.5 lineto
663 426.5 lineto
899 426.5 lineto
closepath stroke
0 0 0 nodecolor
18 /Times-Roman set_font
740 471.3 moveto 82 (parax_start) alignedtext
0 0 0 nodecolor
18 /Times-Roman set_font
670.5 452.3 moveto 221 ([|t=0; x in [-2 , 2]; y in [-2 , 2]|]) alignedtext
0 0 0 nodecolor
18 /Times-Roman set_font
686 433.3 moveto 190 (5 constraints, 4 generators) alignedtext
grestore
% 5
gsave
0 0 0 nodecolor
18 /Times-Roman set_font
736 369.3 moveto 90 (\(-x+30>=0 ?) alignedtext
0 0 0 nodecolor
18 /Times-Roman set_font
679 350.3 moveto 204 (t := t+1; x := x+y; y := y+1\)*) alignedtext
0 0 0 nodecolor
18 /Times-Roman set_font
774.5 331.3 moveto 13 (\(\)) alignedtext
grestore
% parax_start->5
gsave
1 setlinewidth
0 0 0 edgecolor
newpath 781 426.45 moveto
781 417.98 781 408.73 781 399.83 curveto
stroke
0 0 0 edgecolor
newpath 784.5 399.59 moveto
781 389.59 lineto
777.5 399.59 lineto
closepath fill
1 setlinewidth
solid
0 0 0 edgecolor
newpath 784.5 399.59 moveto
781 389.59 lineto
777.5 399.59 lineto
closepath stroke
grestore
% paraxy_start
gsave
1 setlinewidth
0 0 0 nodecolor
newpath 583 491.5 moveto
347 491.5 lineto
347 426.5 lineto
583 426.5 lineto
closepath stroke
0 0 0 nodecolor
18 /Times-Roman set_font
419.5 471.3 moveto 91 (paraxy_start) alignedtext
0 0 0 nodecolor
18 /Times-Roman set_font
354.5 452.3 moveto 221 ([|t=0; x in [-2 , 2]; y in [-2 , 2]|]) alignedtext
0 0 0 nodecolor
18 /Times-Roman set_font
370 433.3 moveto 190 (5 constraints, 4 generators) alignedtext
grestore
% 3
gsave
0 0 0 nodecolor
18 /Times-Roman set_font
412.5 369.3 moveto 105 (\(-x-y+30>=0 ?) alignedtext
0 0 0 nodecolor
18 /Times-Roman set_font
363 350.3 moveto 204 (t := t+1; x := x+y; y := y+1\)*) alignedtext
0 0 0 nodecolor
18 /Times-Roman set_font
458.5 331.3 moveto 13 (\(\)) alignedtext
grestore
% paraxy_start->3
gsave
1 setlinewidth
0 0 0 edgecolor
newpath 465 426.45 moveto
465 417.98 465 408.73 465 399.83 curveto
stroke
0 0 0 edgecolor
newpath 468.5 399.59 moveto
465 389.59 lineto
461.5 399.59 lineto
closepath fill
1 setlinewidth
solid
0 0 0 edgecolor
newpath 468.5 399.59 moveto
465 389.59 lineto
461.5 399.59 lineto
closepath stroke
grestore
% paraxyye
gsave
1 setlinewidth
0 0 0 nodecolor
newpath 264 84 moveto
34 84 lineto
34 0 lineto
264 0 lineto
closepath stroke
0 0 0 nodecolor
18 /Times-Roman set_font
115.5 63.8 moveto 67 (paraxyye) alignedtext
0 0 0 nodecolor
18 /Times-Roman set_font
42 44.8 moveto 214 ([|t in [2 , INF]; x in [39 , INF];) alignedtext
0 0 0 nodecolor
18 /Times-Roman set_font
93 25.8 moveto 112 (  y in [4 , INF]|]) alignedtext
0 0 0 nodecolor
18 /Times-Roman set_font
54 6.8 moveto 190 (4 constraints, 4 generators) alignedtext
grestore
% paraxyy
gsave
1 setlinewidth
0 0 0 nodecolor
newpath 269 278.5 moveto
29 278.5 lineto
29 213.5 lineto
269 213.5 lineto
closepath stroke
0 0 0 nodecolor
18 /Times-Roman set_font
119.5 258.3 moveto 59 (paraxyy) alignedtext
0 0 0 nodecolor
18 /Times-Roman set_font
36.5 239.3 moveto 225 ([|t in [0 , INF]; ; y in [-2 , INF]|]) alignedtext
0 0 0 nodecolor
18 /Times-Roman set_font
54 220.3 moveto 190 (6 constraints, 6 generators) alignedtext
grestore
% 0
gsave
0 0 0 nodecolor
18 /Times-Roman set_font
97.5 146.8 moveto 103 (x-2y-31>=0 ? ) alignedtext
0 0 0 nodecolor
18 /Times-Roman set_font
142.5 127.8 moveto 13 (\(\)) alignedtext
grestore
% paraxyy->0
gsave
1 setlinewidth
0 0 0 edgecolor
newpath 149 213.45 moveto
149 201.93 149 188.96 149 177.38 curveto
stroke
0 0 0 edgecolor
newpath 152.5 177.21 moveto
149 167.21 lineto
145.5 177.21 lineto
closepath fill
1 setlinewidth
solid
0 0 0 edgecolor
newpath 152.5 177.21 moveto
149 167.21 lineto
145.5 177.21 lineto
closepath stroke
grestore
% paraxe
gsave
1 setlinewidth
0 0 0 nodecolor
newpath 916 84 moveto
646 84 lineto
646 0 lineto
916 0 lineto
closepath stroke
0 0 0 nodecolor
18 /Times-Roman set_font
756.5 63.8 moveto 49 (paraxe) alignedtext
0 0 0 nodecolor
18 /Times-Roman set_font
654 44.8 moveto 254 ([|t in [0.9667 , INF]; x in [31 , INF];) alignedtext
0 0 0 nodecolor
18 /Times-Roman set_font
725 25.8 moveto 112 (  y in [2 , INF]|]) alignedtext
0 0 0 nodecolor
18 /Times-Roman set_font
686 6.8 moveto 190 (6 constraints, 7 generators) alignedtext
grestore
% para_start
gsave
1 setlinewidth
0 0 0 nodecolor
newpath 1531 491.5 moveto
1295 491.5 lineto
1295 426.5 lineto
1531 426.5 lineto
closepath stroke
0 0 0 nodecolor
18 /Times-Roman set_font
1376.5 471.3 moveto 73 (para_start) alignedtext
0 0 0 nodecolor
18 /Times-Roman set_font
1302.5 452.3 moveto 221 ([|t=0; x in [-2 , 2]; y in [-2 , 2]|]) alignedtext
0 0 0 nodecolor
18 /Times-Roman set_font
1318 433.3 moveto 190 (5 constraints, 4 generators) alignedtext
grestore
% 9
gsave
0 0 0 nodecolor
18 /Times-Roman set_font
1311 359.8 moveto 204 (t := t+1; x := x+y; y := y+1\)*) alignedtext
0 0 0 nodecolor
18 /Times-Roman set_font
1406.5 340.8 moveto 13 (\(\)) alignedtext
grestore
% para_start->9
gsave
1 setlinewidth
0 0 0 edgecolor
newpath 1413 426.45 moveto
1413 414.93 1413 401.96 1413 390.38 curveto
stroke
0 0 0 edgecolor
newpath 1416.5 390.21 moveto
1413 380.21 lineto
1409.5 390.21 lineto
closepath fill
1 setlinewidth
solid
0 0 0 edgecolor
newpath 1416.5 390.21 moveto
1413 380.21 lineto
1409.5 390.21 lineto
closepath stroke
grestore
% 0->paraxyye
gsave
1 setlinewidth
0 0 0 edgecolor
newpath 149 120.85 moveto
149 112.91 149 103.67 149 94.37 curveto
stroke
0 0 0 edgecolor
newpath 152.5 94.31 moveto
149 84.31 lineto
145.5 94.31 lineto
closepath fill
1 setlinewidth
solid
0 0 0 edgecolor
newpath 152.5 94.31 moveto
149 84.31 lineto
145.5 94.31 lineto
closepath stroke
grestore
% 1->paraxyy
gsave
1 setlinewidth
0 0 0 edgecolor
newpath 149 324.3 moveto
149 313.22 149 300.67 149 288.92 curveto
stroke
0 0 0 edgecolor
newpath 152.5 288.85 moveto
149 278.85 lineto
145.5 288.85 lineto
closepath fill
1 setlinewidth
solid
0 0 0 edgecolor
newpath 152.5 288.85 moveto
149 278.85 lineto
145.5 288.85 lineto
closepath stroke
grestore
% 2->paraxye
gsave
1 setlinewidth
0 0 0 edgecolor
newpath 465 120.85 moveto
465 112.91 465 103.67 465 94.37 curveto
stroke
0 0 0 edgecolor
newpath 468.5 94.31 moveto
465 84.31 lineto
461.5 94.31 lineto
closepath fill
1 setlinewidth
solid
0 0 0 edgecolor
newpath 468.5 94.31 moveto
465 84.31 lineto
461.5 94.31 lineto
closepath stroke
grestore
% 3->paraxy
gsave
1 setlinewidth
0 0 0 edgecolor
newpath 465 324.3 moveto
465 316.21 465 307.34 465 298.56 curveto
stroke
0 0 0 edgecolor
newpath 468.5 298.36 moveto
465 288.36 lineto
461.5 298.36 lineto
closepath fill
1 setlinewidth
solid
0 0 0 edgecolor
newpath 468.5 298.36 moveto
465 288.36 lineto
461.5 298.36 lineto
closepath stroke
grestore
% 4->paraxe
gsave
1 setlinewidth
0 0 0 edgecolor
newpath 781 120.85 moveto
781 112.91 781 103.67 781 94.37 curveto
stroke
0 0 0 edgecolor
newpath 784.5 94.31 moveto
781 84.31 lineto
777.5 94.31 lineto
closepath fill
1 setlinewidth
solid
0 0 0 edgecolor
newpath 784.5 94.31 moveto
781 84.31 lineto
777.5 94.31 lineto
closepath stroke
grestore
% 5->parax
gsave
1 setlinewidth
0 0 0 edgecolor
newpath 781 324.3 moveto
781 313.22 781 300.67 781 288.92 curveto
stroke
0 0 0 edgecolor
newpath 784.5 288.85 moveto
781 278.85 lineto
777.5 288.85 lineto
closepath fill
1 setlinewidth
solid
0 0 0 edgecolor
newpath 784.5 288.85 moveto
781 278.85 lineto
777.5 288.85 lineto
closepath stroke
grestore
% 6->paraye
gsave
1 setlinewidth
0 0 0 edgecolor
newpath 1097 120.85 moveto
1097 110.2 1097 97.21 1097 84.87 curveto
stroke
0 0 0 edgecolor
newpath 1100.5 84.72 moveto
1097 74.72 lineto
1093.5 84.72 lineto
closepath fill
1 setlinewidth
solid
0 0 0 edgecolor
newpath 1100.5 84.72 moveto
1097 74.72 lineto
1093.5 84.72 lineto
closepath stroke
grestore
% 7->paray
gsave
1 setlinewidth
0 0 0 edgecolor
newpath 1097 324.3 moveto
1097 313.22 1097 300.67 1097 288.92 curveto
stroke
0 0 0 edgecolor
newpath 1100.5 288.85 moveto
1097 278.85 lineto
1093.5 288.85 lineto
closepath fill
1 setlinewidth
solid
0 0 0 edgecolor
newpath 1100.5 288.85 moveto
1097 278.85 lineto
1093.5 288.85 lineto
closepath stroke
grestore
% 8->parae
gsave
1 setlinewidth
0 0 0 edgecolor
newpath 1413 119.83 moveto
1413 109.44 1413 96.97 1413 85.1 curveto
stroke
0 0 0 edgecolor
newpath 1416.5 84.87 moveto
1413 74.87 lineto
1409.5 84.87 lineto
closepath fill
1 setlinewidth
solid
0 0 0 edgecolor
newpath 1416.5 84.87 moveto
1413 74.87 lineto
1409.5 84.87 lineto
closepath stroke
grestore
% 9->para
gsave
1 setlinewidth
0 0 0 edgecolor
newpath 1413 333.73 moveto
1413 320.82 1413 304.34 1413 289.16 curveto
stroke
0 0 0 edgecolor
newpath 1416.5 288.92 moveto
1413 278.92 lineto
1409.5 288.92 lineto
closepath fill
1 setlinewidth
solid
0 0 0 edgecolor
newpath 1416.5 288.92 moveto
1413 278.92 lineto
1409.5 288.92 lineto
closepath stroke
grestore
% 10->paraxyy_start
gsave
1 setlinewidth
0 0 0 edgecolor
newpath 149 527.72 moveto
149 519.27 149 510.38 149 501.91 curveto
stroke
0 0 0 edgecolor
newpath 152.5 501.84 moveto
149 491.84 lineto
145.5 501.84 lineto
closepath fill
1 setlinewidth
solid
0 0 0 edgecolor
newpath 152.5 501.84 moveto
149 491.84 lineto
145.5 501.84 lineto
closepath stroke
grestore
% 11->paraxy_start
gsave
1 setlinewidth
0 0 0 edgecolor
newpath 465 527.72 moveto
465 519.27 465 510.38 465 501.91 curveto
stroke
0 0 0 edgecolor
newpath 468.5 501.84 moveto
465 491.84 lineto
461.5 501.84 lineto
closepath fill
1 setlinewidth
solid
0 0 0 edgecolor
newpath 468.5 501.84 moveto
465 491.84 lineto
461.5 501.84 lineto
closepath stroke
grestore
% 12->parax_start
gsave
1 setlinewidth
0 0 0 edgecolor
newpath 781 527.72 moveto
781 519.27 781 510.38 781 501.91 curveto
stroke
0 0 0 edgecolor
newpath 784.5 501.84 moveto
781 491.84 lineto
777.5 501.84 lineto
closepath fill
1 setlinewidth
solid
0 0 0 edgecolor
newpath 784.5 501.84 moveto
781 491.84 lineto
777.5 501.84 lineto
closepath stroke
grestore
% 13->paray_start
gsave
1 setlinewidth
0 0 0 edgecolor
newpath 1097 527.72 moveto
1097 519.27 1097 510.38 1097 501.91 curveto
stroke
0 0 0 edgecolor
newpath 1100.5 501.84 moveto
1097 491.84 lineto
1093.5 501.84 lineto
closepath fill
1 setlinewidth
solid
0 0 0 edgecolor
newpath 1100.5 501.84 moveto
1097 491.84 lineto
1093.5 501.84 lineto
closepath stroke
grestore
% 14->para_start
gsave
1 setlinewidth
0 0 0 edgecolor
newpath 1413 527.72 moveto
1413 519.27 1413 510.38 1413 501.91 curveto
stroke
0 0 0 edgecolor
newpath 1416.5 501.84 moveto
1413 491.84 lineto
1409.5 501.84 lineto
closepath fill
1 setlinewidth
solid
0 0 0 edgecolor
newpath 1416.5 501.84 moveto
1413 491.84 lineto
1409.5 501.84 lineto
closepath stroke
grestore
endpage
showpage
grestore
%%PageTrailer
%%EndPage: 3
%%Trailer
%%Pages: 3
%%BoundingBox: 36 36 1888 758
end
restore
%%EOF
