%!PS-Adobe-3.0
%%Creator: graphviz version 2.26.3 (20100126.1600)
%%Title: G
%%Pages: (atend)
%%BoundingBox: (atend)
%%EndComments
save
%%BeginProlog
/DotDict 200 dict def
DotDict begin

/setupLatin1 {
mark
/EncodingVector 256 array def
 EncodingVector 0

ISOLatin1Encoding 0 255 getinterval putinterval
EncodingVector 45 /hyphen put

% Set up ISO Latin 1 character encoding
/starnetISO {
        dup dup findfont dup length dict begin
        { 1 index /FID ne { def }{ pop pop } ifelse
        } forall
        /Encoding EncodingVector def
        currentdict end definefont
} def
/Times-Roman starnetISO def
/Times-Italic starnetISO def
/Times-Bold starnetISO def
/Times-BoldItalic starnetISO def
/Helvetica starnetISO def
/Helvetica-Oblique starnetISO def
/Helvetica-Bold starnetISO def
/Helvetica-BoldOblique starnetISO def
/Courier starnetISO def
/Courier-Oblique starnetISO def
/Courier-Bold starnetISO def
/Courier-BoldOblique starnetISO def
cleartomark
} bind def

%%BeginResource: procset graphviz 0 0
/coord-font-family /Times-Roman def
/default-font-family /Times-Roman def
/coordfont coord-font-family findfont 8 scalefont def

/InvScaleFactor 1.0 def
/set_scale {
       dup 1 exch div /InvScaleFactor exch def
       scale
} bind def

% styles
/solid { [] 0 setdash } bind def
/dashed { [9 InvScaleFactor mul dup ] 0 setdash } bind def
/dotted { [1 InvScaleFactor mul 6 InvScaleFactor mul] 0 setdash } bind def
/invis {/fill {newpath} def /stroke {newpath} def /show {pop newpath} def} bind def
/bold { 2 setlinewidth } bind def
/filled { } bind def
/unfilled { } bind def
/rounded { } bind def
/diagonals { } bind def

% hooks for setting color 
/nodecolor { sethsbcolor } bind def
/edgecolor { sethsbcolor } bind def
/graphcolor { sethsbcolor } bind def
/nopcolor {pop pop pop} bind def

/beginpage {	% i j npages
	/npages exch def
	/j exch def
	/i exch def
	/str 10 string def
	npages 1 gt {
		gsave
			coordfont setfont
			0 0 moveto
			(\() show i str cvs show (,) show j str cvs show (\)) show
		grestore
	} if
} bind def

/set_font {
	findfont exch
	scalefont setfont
} def

% draw text fitted to its expected width
/alignedtext {			% width text
	/text exch def
	/width exch def
	gsave
		width 0 gt {
			[] 0 setdash
			text stringwidth pop width exch sub text length div 0 text ashow
		} if
	grestore
} def

/boxprim {				% xcorner ycorner xsize ysize
		4 2 roll
		moveto
		2 copy
		exch 0 rlineto
		0 exch rlineto
		pop neg 0 rlineto
		closepath
} bind def

/ellipse_path {
	/ry exch def
	/rx exch def
	/y exch def
	/x exch def
	matrix currentmatrix
	newpath
	x y translate
	rx ry scale
	0 0 1 0 360 arc
	setmatrix
} bind def

/endpage { showpage } bind def
/showpage { } def

/layercolorseq
	[	% layer color sequence - darkest to lightest
		[0 0 0]
		[.2 .8 .8]
		[.4 .8 .8]
		[.6 .8 .8]
		[.8 .8 .8]
	]
def

/layerlen layercolorseq length def

/setlayer {/maxlayer exch def /curlayer exch def
	layercolorseq curlayer 1 sub layerlen mod get
	aload pop sethsbcolor
	/nodecolor {nopcolor} def
	/edgecolor {nopcolor} def
	/graphcolor {nopcolor} def
} bind def

/onlayer { curlayer ne {invis} if } def

/onlayers {
	/myupper exch def
	/mylower exch def
	curlayer mylower lt
	curlayer myupper gt
	or
	{invis} if
} def

/curlayer 0 def

%%EndResource
%%EndProlog
%%BeginSetup
14 default-font-family set_font
1 setmiterlimit
% /arrowlength 10 def
% /arrowwidth 5 def

% make sure pdfmark is harmless for PS-interpreters other than Distiller
/pdfmark where {pop} {userdict /pdfmark /cleartomark load put} ifelse
% make '<<' and '>>' safe on PS Level 1 devices
/languagelevel where {pop languagelevel}{1} ifelse
2 lt {
    userdict (<<) cvn ([) cvn load put
    userdict (>>) cvn ([) cvn load put
} if

%%EndSetup
setupLatin1
%%Page: 1 1
%%PageBoundingBox: 36 36 1606 720
%%PageOrientation: Portrait
0 0 1 beginpage
gsave
36 36 1570 684 boxprim clip newpath
1 1 set_scale 0 rotate 40 41 translate
% 1073741823
gsave
1 setlinewidth
0 0 0 nodecolor
697 653 43.84 19.09 ellipse_path stroke
0 0 0 nodecolor
18 /Times-Roman set_font
674 646.3 moveto 46 (Result) alignedtext
grestore
% paraxye
gsave
1 setlinewidth
0 0 0 nodecolor
newpath 592 84 moveto
338 84 lineto
338 0 lineto
592 0 lineto
closepath stroke
0 0 0 nodecolor
18 /Times-Roman set_font
436 63.8 moveto 58 (paraxye) alignedtext
0 0 0 nodecolor
18 /Times-Roman set_font
346 44.8 moveto 238 ([|t in [6.889 , 8]; x in [23.56 , 28];) alignedtext
0 0 0 nodecolor
18 /Times-Roman set_font
403 25.8 moveto 124 (  y in [6.889 , 8]|]) alignedtext
0 0 0 nodecolor
18 /Times-Roman set_font
370 6.8 moveto 190 (4 constraints, 3 generators) alignedtext
grestore
% parax
gsave
1 setlinewidth
0 0 0 nodecolor
newpath 888 288 moveto
674 288 lineto
674 204 lineto
888 204 lineto
closepath stroke
0 0 0 nodecolor
18 /Times-Roman set_font
760.5 267.8 moveto 41 (parax) alignedtext
0 0 0 nodecolor
18 /Times-Roman set_font
692.5 248.8 moveto 177 ([|t in [0 , 9]; x in [0 , 36];) alignedtext
0 0 0 nodecolor
18 /Times-Roman set_font
734.5 229.8 moveto 93 (  y in [0 , 9]|]) alignedtext
0 0 0 nodecolor
18 /Times-Roman set_font
681.5 210.8 moveto 199 (10 constraints, 9 generators) alignedtext
grestore
% 4
gsave
0 0 0 nodecolor
18 /Times-Roman set_font
741.5 146.8 moveto 79 (x-31>=0 ? ) alignedtext
0 0 0 nodecolor
18 /Times-Roman set_font
774.5 127.8 moveto 13 (\(\)) alignedtext
grestore
% parax->4
gsave
1 setlinewidth
0 0 0 edgecolor
newpath 781 203.92 moveto
781 195.05 781 185.8 781 177.3 curveto
stroke
0 0 0 edgecolor
newpath 784.5 177.02 moveto
781 167.02 lineto
777.5 177.02 lineto
closepath fill
1 setlinewidth
solid
0 0 0 edgecolor
newpath 784.5 177.02 moveto
781 167.02 lineto
777.5 177.02 lineto
closepath stroke
grestore
% paray
gsave
1 setlinewidth
0 0 0 nodecolor
newpath 1204 288 moveto
990 288 lineto
990 204 lineto
1204 204 lineto
closepath stroke
0 0 0 nodecolor
18 /Times-Roman set_font
1076.5 267.8 moveto 41 (paray) alignedtext
0 0 0 nodecolor
18 /Times-Roman set_font
1008.5 248.8 moveto 177 ([|t in [0 , 8]; x in [0 , 28];) alignedtext
0 0 0 nodecolor
18 /Times-Roman set_font
1050.5 229.8 moveto 93 (  y in [0 , 8]|]) alignedtext
0 0 0 nodecolor
18 /Times-Roman set_font
997.5 210.8 moveto 199 (10 constraints, 9 generators) alignedtext
grestore
% 6
gsave
0 0 0 nodecolor
18 /Times-Roman set_font
1062 146.8 moveto 70 (y-8>=0 ? ) alignedtext
0 0 0 nodecolor
18 /Times-Roman set_font
1090.5 127.8 moveto 13 (\(\)) alignedtext
grestore
% paray->6
gsave
1 setlinewidth
0 0 0 edgecolor
newpath 1097 203.92 moveto
1097 195.05 1097 185.8 1097 177.3 curveto
stroke
0 0 0 edgecolor
newpath 1100.5 177.02 moveto
1097 167.02 lineto
1093.5 177.02 lineto
closepath fill
1 setlinewidth
solid
0 0 0 edgecolor
newpath 1100.5 177.02 moveto
1097 167.02 lineto
1093.5 177.02 lineto
closepath stroke
grestore
% paraxyy_start
gsave
1 setlinewidth
0 0 0 nodecolor
newpath 252 491.5 moveto
46 491.5 lineto
46 426.5 lineto
252 426.5 lineto
closepath stroke
0 0 0 nodecolor
18 /Times-Roman set_font
99 471.3 moveto 100 (paraxyy_start) alignedtext
0 0 0 nodecolor
18 /Times-Roman set_font
91 452.3 moveto 116 ([|t=0; x=0; y=0|]) alignedtext
0 0 0 nodecolor
18 /Times-Roman set_font
54 433.3 moveto 190 (3 constraints, 1 generators) alignedtext
grestore
% 1
gsave
0 0 0 nodecolor
18 /Times-Roman set_font
90.5 369.3 moveto 117 (\(-x+2y+30>=0 ?) alignedtext
0 0 0 nodecolor
18 /Times-Roman set_font
47 350.3 moveto 204 (t := t+1; x := x+y; y := y+1\)*) alignedtext
0 0 0 nodecolor
18 /Times-Roman set_font
142.5 331.3 moveto 13 (\(\)) alignedtext
grestore
% paraxyy_start->1
gsave
1 setlinewidth
0 0 0 edgecolor
newpath 149 426.45 moveto
149 417.98 149 408.73 149 399.83 curveto
stroke
0 0 0 edgecolor
newpath 152.5 399.59 moveto
149 389.59 lineto
145.5 399.59 lineto
closepath fill
1 setlinewidth
solid
0 0 0 edgecolor
newpath 152.5 399.59 moveto
149 389.59 lineto
145.5 399.59 lineto
closepath stroke
grestore
% linit
gsave
1 setlinewidth
0 0 0 nodecolor
newpath 803 676 moveto
759 676 lineto
759 630 lineto
803 630 lineto
closepath stroke
0 0 0 nodecolor
18 /Times-Roman set_font
767 655.8 moveto 28 (linit) alignedtext
0 0 0 nodecolor
18 /Times-Roman set_font
769 636.8 moveto 24 (top) alignedtext
grestore
% 10
gsave
0 0 0 nodecolor
18 /Times-Roman set_font
7.5 573.3 moveto 283 (-y>=0 and y>=0 and -x>=0 and x>=0 ?) alignedtext
0 0 0 nodecolor
18 /Times-Roman set_font
130 554.3 moveto 38 (t := 0) alignedtext
0 0 0 nodecolor
18 /Times-Roman set_font
142.5 535.3 moveto 13 (\(\)) alignedtext
grestore
% linit->10
gsave
1 setlinewidth
0 0 0 edgecolor
newpath 758.82 634.36 moveto
755.98 632.65 753.01 631.13 750 630 curveto
568.17 561.62 504.62 620.23 308.25 594.08 curveto
stroke
0 0 0 edgecolor
newpath 308.58 590.59 moveto
298.19 592.68 lineto
307.61 597.52 lineto
closepath fill
1 setlinewidth
solid
0 0 0 edgecolor
newpath 308.58 590.59 moveto
298.19 592.68 lineto
307.61 597.52 lineto
closepath stroke
grestore
% 11
gsave
0 0 0 nodecolor
18 /Times-Roman set_font
323.5 573.3 moveto 283 (-y>=0 and y>=0 and -x>=0 and x>=0 ?) alignedtext
0 0 0 nodecolor
18 /Times-Roman set_font
446 554.3 moveto 38 (t := 0) alignedtext
0 0 0 nodecolor
18 /Times-Roman set_font
458.5 535.3 moveto 13 (\(\)) alignedtext
grestore
% linit->11
gsave
1 setlinewidth
0 0 0 edgecolor
newpath 758.98 635.05 moveto
756.07 633.16 753.03 631.42 750 630 curveto
736.98 623.9 679.96 609.75 620.3 595.84 curveto
stroke
0 0 0 edgecolor
newpath 620.86 592.38 moveto
610.32 593.52 lineto
619.27 599.2 lineto
closepath fill
1 setlinewidth
solid
0 0 0 edgecolor
newpath 620.86 592.38 moveto
610.32 593.52 lineto
619.27 599.2 lineto
closepath stroke
grestore
% 12
gsave
0 0 0 nodecolor
18 /Times-Roman set_font
639.5 573.3 moveto 283 (-y>=0 and y>=0 and -x>=0 and x>=0 ?) alignedtext
0 0 0 nodecolor
18 /Times-Roman set_font
762 554.3 moveto 38 (t := 0) alignedtext
0 0 0 nodecolor
18 /Times-Roman set_font
774.5 535.3 moveto 13 (\(\)) alignedtext
grestore
% linit->12
gsave
1 setlinewidth
0 0 0 edgecolor
newpath 781 629.78 moveto
781 621.82 781 612.63 781 603.62 curveto
stroke
0 0 0 edgecolor
newpath 784.5 603.59 moveto
781 593.59 lineto
777.5 603.59 lineto
closepath fill
1 setlinewidth
solid
0 0 0 edgecolor
newpath 784.5 603.59 moveto
781 593.59 lineto
777.5 603.59 lineto
closepath stroke
grestore
% 13
gsave
0 0 0 nodecolor
18 /Times-Roman set_font
955.5 573.3 moveto 283 (-y>=0 and y>=0 and -x>=0 and x>=0 ?) alignedtext
0 0 0 nodecolor
18 /Times-Roman set_font
1078 554.3 moveto 38 (t := 0) alignedtext
0 0 0 nodecolor
18 /Times-Roman set_font
1090.5 535.3 moveto 13 (\(\)) alignedtext
grestore
% linit->13
gsave
1 setlinewidth
0 0 0 edgecolor
newpath 803.22 646.53 moveto
838.9 636.14 911.46 615.02 975.54 596.36 curveto
stroke
0 0 0 edgecolor
newpath 976.72 599.66 moveto
985.34 593.51 lineto
974.76 592.94 lineto
closepath fill
1 setlinewidth
solid
0 0 0 edgecolor
newpath 976.72 599.66 moveto
985.34 593.51 lineto
974.76 592.94 lineto
closepath stroke
grestore
% 14
gsave
0 0 0 nodecolor
18 /Times-Roman set_font
1271.5 573.3 moveto 283 (-y>=0 and y>=0 and -x>=0 and x>=0 ?) alignedtext
0 0 0 nodecolor
18 /Times-Roman set_font
1394 554.3 moveto 38 (t := 0) alignedtext
0 0 0 nodecolor
18 /Times-Roman set_font
1406.5 535.3 moveto 13 (\(\)) alignedtext
grestore
% linit->14
gsave
1 setlinewidth
0 0 0 edgecolor
newpath 803.3 650.88 moveto
870.09 644.4 1074.42 623.56 1253.9 594.14 curveto
stroke
0 0 0 edgecolor
newpath 1254.49 597.59 moveto
1263.78 592.51 lineto
1253.35 590.68 lineto
closepath fill
1 setlinewidth
solid
0 0 0 edgecolor
newpath 1254.49 597.59 moveto
1263.78 592.51 lineto
1253.35 590.68 lineto
closepath stroke
grestore
% paray_start
gsave
1 setlinewidth
0 0 0 nodecolor
newpath 1200 491.5 moveto
994 491.5 lineto
994 426.5 lineto
1200 426.5 lineto
closepath stroke
0 0 0 nodecolor
18 /Times-Roman set_font
1056 471.3 moveto 82 (paray_start) alignedtext
0 0 0 nodecolor
18 /Times-Roman set_font
1039 452.3 moveto 116 ([|t=0; x=0; y=0|]) alignedtext
0 0 0 nodecolor
18 /Times-Roman set_font
1002 433.3 moveto 190 (3 constraints, 1 generators) alignedtext
grestore
% 7
gsave
0 0 0 nodecolor
18 /Times-Roman set_font
1056.5 369.3 moveto 81 (\(-y+7>=0 ?) alignedtext
0 0 0 nodecolor
18 /Times-Roman set_font
995 350.3 moveto 204 (t := t+1; x := x+y; y := y+1\)*) alignedtext
0 0 0 nodecolor
18 /Times-Roman set_font
1090.5 331.3 moveto 13 (\(\)) alignedtext
grestore
% paray_start->7
gsave
1 setlinewidth
0 0 0 edgecolor
newpath 1097 426.45 moveto
1097 417.98 1097 408.73 1097 399.83 curveto
stroke
0 0 0 edgecolor
newpath 1100.5 399.59 moveto
1097 389.59 lineto
1093.5 399.59 lineto
closepath fill
1 setlinewidth
solid
0 0 0 edgecolor
newpath 1100.5 399.59 moveto
1097 389.59 lineto
1093.5 399.59 lineto
closepath stroke
grestore
% paraye
gsave
1 setlinewidth
0 0 0 nodecolor
newpath 1200 74.5 moveto
994 74.5 lineto
994 9.5 lineto
1200 9.5 lineto
closepath stroke
0 0 0 nodecolor
18 /Times-Roman set_font
1072.5 54.3 moveto 49 (paraye) alignedtext
0 0 0 nodecolor
18 /Times-Roman set_font
1034.5 35.3 moveto 125 ([|t=8; x=28; y=8|]) alignedtext
0 0 0 nodecolor
18 /Times-Roman set_font
1002 16.3 moveto 190 (3 constraints, 1 generators) alignedtext
grestore
% para
gsave
1 setlinewidth
0 0 0 nodecolor
newpath 1525 288 moveto
1301 288 lineto
1301 204 lineto
1525 204 lineto
closepath stroke
0 0 0 nodecolor
18 /Times-Roman set_font
1397 267.8 moveto 32 (para) alignedtext
0 0 0 nodecolor
18 /Times-Roman set_font
1310.5 248.8 moveto 205 ([|t in [0 , INF]; x in [0 , INF];) alignedtext
0 0 0 nodecolor
18 /Times-Roman set_font
1357 229.8 moveto 112 (  y in [0 , INF]|]) alignedtext
0 0 0 nodecolor
18 /Times-Roman set_font
1309 210.8 moveto 208 (11 constraints, 11 generators) alignedtext
grestore
% 8
gsave
0 0 0 nodecolor
18 /Times-Roman set_font
1406.5 126.8 moveto 13 (\(\)) alignedtext
grestore
% para->8
gsave
1 setlinewidth
0 0 0 edgecolor
newpath 1413 203.92 moveto
1413 195.36 1413 186.45 1413 178.19 curveto
stroke
0 0 0 edgecolor
newpath 1416.5 178.17 moveto
1413 168.17 lineto
1409.5 178.17 lineto
closepath fill
1 setlinewidth
solid
0 0 0 edgecolor
newpath 1416.5 178.17 moveto
1413 168.17 lineto
1409.5 178.17 lineto
closepath stroke
grestore
% paraxy
gsave
1 setlinewidth
0 0 0 nodecolor
newpath 572 288 moveto
358 288 lineto
358 204 lineto
572 204 lineto
closepath stroke
0 0 0 nodecolor
18 /Times-Roman set_font
440 267.8 moveto 50 (paraxy) alignedtext
0 0 0 nodecolor
18 /Times-Roman set_font
376.5 248.8 moveto 177 ([|t in [0 , 8]; x in [0 , 28];) alignedtext
0 0 0 nodecolor
18 /Times-Roman set_font
418.5 229.8 moveto 93 (  y in [0 , 8]|]) alignedtext
0 0 0 nodecolor
18 /Times-Roman set_font
365.5 210.8 moveto 199 (10 constraints, 9 generators) alignedtext
grestore
% 2
gsave
0 0 0 nodecolor
18 /Times-Roman set_font
416.5 146.8 moveto 97 (x+y-31>=0 ? ) alignedtext
0 0 0 nodecolor
18 /Times-Roman set_font
458.5 127.8 moveto 13 (\(\)) alignedtext
grestore
% paraxy->2
gsave
1 setlinewidth
0 0 0 edgecolor
newpath 465 203.92 moveto
465 195.05 465 185.8 465 177.3 curveto
stroke
0 0 0 edgecolor
newpath 468.5 177.02 moveto
465 167.02 lineto
461.5 177.02 lineto
closepath fill
1 setlinewidth
solid
0 0 0 edgecolor
newpath 468.5 177.02 moveto
465 167.02 lineto
461.5 177.02 lineto
closepath stroke
grestore
% parae
gsave
1 setlinewidth
0 0 0 nodecolor
newpath 1525 84 moveto
1301 84 lineto
1301 0 lineto
1525 0 lineto
closepath stroke
0 0 0 nodecolor
18 /Times-Roman set_font
1393 63.8 moveto 40 (parae) alignedtext
0 0 0 nodecolor
18 /Times-Roman set_font
1310.5 44.8 moveto 205 ([|t in [0 , INF]; x in [0 , INF];) alignedtext
0 0 0 nodecolor
18 /Times-Roman set_font
1357 25.8 moveto 112 (  y in [0 , INF]|]) alignedtext
0 0 0 nodecolor
18 /Times-Roman set_font
1309 6.8 moveto 208 (11 constraints, 11 generators) alignedtext
grestore
% parax_start
gsave
1 setlinewidth
0 0 0 nodecolor
newpath 884 491.5 moveto
678 491.5 lineto
678 426.5 lineto
884 426.5 lineto
closepath stroke
0 0 0 nodecolor
18 /Times-Roman set_font
740 471.3 moveto 82 (parax_start) alignedtext
0 0 0 nodecolor
18 /Times-Roman set_font
723 452.3 moveto 116 ([|t=0; x=0; y=0|]) alignedtext
0 0 0 nodecolor
18 /Times-Roman set_font
686 433.3 moveto 190 (3 constraints, 1 generators) alignedtext
grestore
% 5
gsave
0 0 0 nodecolor
18 /Times-Roman set_font
736 369.3 moveto 90 (\(-x+30>=0 ?) alignedtext
0 0 0 nodecolor
18 /Times-Roman set_font
679 350.3 moveto 204 (t := t+1; x := x+y; y := y+1\)*) alignedtext
0 0 0 nodecolor
18 /Times-Roman set_font
774.5 331.3 moveto 13 (\(\)) alignedtext
grestore
% parax_start->5
gsave
1 setlinewidth
0 0 0 edgecolor
newpath 781 426.45 moveto
781 417.98 781 408.73 781 399.83 curveto
stroke
0 0 0 edgecolor
newpath 784.5 399.59 moveto
781 389.59 lineto
777.5 399.59 lineto
closepath fill
1 setlinewidth
solid
0 0 0 edgecolor
newpath 784.5 399.59 moveto
781 389.59 lineto
777.5 399.59 lineto
closepath stroke
grestore
% paraxy_start
gsave
1 setlinewidth
0 0 0 nodecolor
newpath 568 491.5 moveto
362 491.5 lineto
362 426.5 lineto
568 426.5 lineto
closepath stroke
0 0 0 nodecolor
18 /Times-Roman set_font
419.5 471.3 moveto 91 (paraxy_start) alignedtext
0 0 0 nodecolor
18 /Times-Roman set_font
407 452.3 moveto 116 ([|t=0; x=0; y=0|]) alignedtext
0 0 0 nodecolor
18 /Times-Roman set_font
370 433.3 moveto 190 (3 constraints, 1 generators) alignedtext
grestore
% 3
gsave
0 0 0 nodecolor
18 /Times-Roman set_font
412.5 369.3 moveto 105 (\(-x-y+30>=0 ?) alignedtext
0 0 0 nodecolor
18 /Times-Roman set_font
363 350.3 moveto 204 (t := t+1; x := x+y; y := y+1\)*) alignedtext
0 0 0 nodecolor
18 /Times-Roman set_font
458.5 331.3 moveto 13 (\(\)) alignedtext
grestore
% paraxy_start->3
gsave
1 setlinewidth
0 0 0 edgecolor
newpath 465 426.45 moveto
465 417.98 465 408.73 465 399.83 curveto
stroke
0 0 0 edgecolor
newpath 468.5 399.59 moveto
465 389.59 lineto
461.5 399.59 lineto
closepath fill
1 setlinewidth
solid
0 0 0 edgecolor
newpath 468.5 399.59 moveto
465 389.59 lineto
461.5 399.59 lineto
closepath stroke
grestore
% paraxyye
gsave
1 setlinewidth
0 0 0 nodecolor
newpath 280 84 moveto
18 84 lineto
18 0 lineto
280 0 lineto
closepath stroke
0 0 0 nodecolor
18 /Times-Roman set_font
115.5 63.8 moveto 67 (paraxyye) alignedtext
0 0 0 nodecolor
18 /Times-Roman set_font
25.5 44.8 moveto 247 ([|t in [10.33 , 11]; x in [51.67 , 55];) alignedtext
0 0 0 nodecolor
18 /Times-Roman set_font
82.5 25.8 moveto 133 (  y in [10.33 , 11]|]) alignedtext
0 0 0 nodecolor
18 /Times-Roman set_font
54 6.8 moveto 190 (4 constraints, 3 generators) alignedtext
grestore
% paraxyy
gsave
1 setlinewidth
0 0 0 nodecolor
newpath 261 288 moveto
37 288 lineto
37 204 lineto
261 204 lineto
closepath stroke
0 0 0 nodecolor
18 /Times-Roman set_font
119.5 267.8 moveto 59 (paraxyy) alignedtext
0 0 0 nodecolor
18 /Times-Roman set_font
56 248.8 moveto 186 ([|t in [0 , 11]; x in [0 , 55];) alignedtext
0 0 0 nodecolor
18 /Times-Roman set_font
98 229.8 moveto 102 (  y in [0 , 11]|]) alignedtext
0 0 0 nodecolor
18 /Times-Roman set_font
45 210.8 moveto 208 (11 constraints, 10 generators) alignedtext
grestore
% 0
gsave
0 0 0 nodecolor
18 /Times-Roman set_font
97.5 146.8 moveto 103 (x-2y-31>=0 ? ) alignedtext
0 0 0 nodecolor
18 /Times-Roman set_font
142.5 127.8 moveto 13 (\(\)) alignedtext
grestore
% paraxyy->0
gsave
1 setlinewidth
0 0 0 edgecolor
newpath 149 203.92 moveto
149 195.05 149 185.8 149 177.3 curveto
stroke
0 0 0 edgecolor
newpath 152.5 177.02 moveto
149 167.02 lineto
145.5 177.02 lineto
closepath fill
1 setlinewidth
solid
0 0 0 edgecolor
newpath 152.5 177.02 moveto
149 167.02 lineto
145.5 177.02 lineto
closepath stroke
grestore
% paraxe
gsave
1 setlinewidth
0 0 0 nodecolor
newpath 893 84 moveto
669 84 lineto
669 0 lineto
893 0 lineto
closepath stroke
0 0 0 nodecolor
18 /Times-Roman set_font
756.5 63.8 moveto 49 (paraxe) alignedtext
0 0 0 nodecolor
18 /Times-Roman set_font
677 44.8 moveto 208 ([|t in [7.75 , 9]; x in [31 , 36];) alignedtext
0 0 0 nodecolor
18 /Times-Roman set_font
723.5 25.8 moveto 115 (  y in [7.75 , 9]|]) alignedtext
0 0 0 nodecolor
18 /Times-Roman set_font
686 6.8 moveto 190 (4 constraints, 3 generators) alignedtext
grestore
% para_start
gsave
1 setlinewidth
0 0 0 nodecolor
newpath 1516 491.5 moveto
1310 491.5 lineto
1310 426.5 lineto
1516 426.5 lineto
closepath stroke
0 0 0 nodecolor
18 /Times-Roman set_font
1376.5 471.3 moveto 73 (para_start) alignedtext
0 0 0 nodecolor
18 /Times-Roman set_font
1355 452.3 moveto 116 ([|t=0; x=0; y=0|]) alignedtext
0 0 0 nodecolor
18 /Times-Roman set_font
1318 433.3 moveto 190 (3 constraints, 1 generators) alignedtext
grestore
% 9
gsave
0 0 0 nodecolor
18 /Times-Roman set_font
1311 359.8 moveto 204 (t := t+1; x := x+y; y := y+1\)*) alignedtext
0 0 0 nodecolor
18 /Times-Roman set_font
1406.5 340.8 moveto 13 (\(\)) alignedtext
grestore
% para_start->9
gsave
1 setlinewidth
0 0 0 edgecolor
newpath 1413 426.45 moveto
1413 414.93 1413 401.96 1413 390.38 curveto
stroke
0 0 0 edgecolor
newpath 1416.5 390.21 moveto
1413 380.21 lineto
1409.5 390.21 lineto
closepath fill
1 setlinewidth
solid
0 0 0 edgecolor
newpath 1416.5 390.21 moveto
1413 380.21 lineto
1409.5 390.21 lineto
closepath stroke
grestore
% 0->paraxyye
gsave
1 setlinewidth
0 0 0 edgecolor
newpath 149 120.85 moveto
149 112.91 149 103.67 149 94.37 curveto
stroke
0 0 0 edgecolor
newpath 152.5 94.31 moveto
149 84.31 lineto
145.5 94.31 lineto
closepath fill
1 setlinewidth
solid
0 0 0 edgecolor
newpath 152.5 94.31 moveto
149 84.31 lineto
145.5 94.31 lineto
closepath stroke
grestore
% 1->paraxyy
gsave
1 setlinewidth
0 0 0 edgecolor
newpath 149 324.3 moveto
149 316.21 149 307.34 149 298.56 curveto
stroke
0 0 0 edgecolor
newpath 152.5 298.36 moveto
149 288.36 lineto
145.5 298.36 lineto
closepath fill
1 setlinewidth
solid
0 0 0 edgecolor
newpath 152.5 298.36 moveto
149 288.36 lineto
145.5 298.36 lineto
closepath stroke
grestore
% 2->paraxye
gsave
1 setlinewidth
0 0 0 edgecolor
newpath 465 120.85 moveto
465 112.91 465 103.67 465 94.37 curveto
stroke
0 0 0 edgecolor
newpath 468.5 94.31 moveto
465 84.31 lineto
461.5 94.31 lineto
closepath fill
1 setlinewidth
solid
0 0 0 edgecolor
newpath 468.5 94.31 moveto
465 84.31 lineto
461.5 94.31 lineto
closepath stroke
grestore
% 3->paraxy
gsave
1 setlinewidth
0 0 0 edgecolor
newpath 465 324.3 moveto
465 316.21 465 307.34 465 298.56 curveto
stroke
0 0 0 edgecolor
newpath 468.5 298.36 moveto
465 288.36 lineto
461.5 298.36 lineto
closepath fill
1 setlinewidth
solid
0 0 0 edgecolor
newpath 468.5 298.36 moveto
465 288.36 lineto
461.5 298.36 lineto
closepath stroke
grestore
% 4->paraxe
gsave
1 setlinewidth
0 0 0 edgecolor
newpath 781 120.85 moveto
781 112.91 781 103.67 781 94.37 curveto
stroke
0 0 0 edgecolor
newpath 784.5 94.31 moveto
781 84.31 lineto
777.5 94.31 lineto
closepath fill
1 setlinewidth
solid
0 0 0 edgecolor
newpath 784.5 94.31 moveto
781 84.31 lineto
777.5 94.31 lineto
closepath stroke
grestore
% 5->parax
gsave
1 setlinewidth
0 0 0 edgecolor
newpath 781 324.3 moveto
781 316.21 781 307.34 781 298.56 curveto
stroke
0 0 0 edgecolor
newpath 784.5 298.36 moveto
781 288.36 lineto
777.5 298.36 lineto
closepath fill
1 setlinewidth
solid
0 0 0 edgecolor
newpath 784.5 298.36 moveto
781 288.36 lineto
777.5 298.36 lineto
closepath stroke
grestore
% 6->paraye
gsave
1 setlinewidth
0 0 0 edgecolor
newpath 1097 120.85 moveto
1097 110.2 1097 97.21 1097 84.87 curveto
stroke
0 0 0 edgecolor
newpath 1100.5 84.72 moveto
1097 74.72 lineto
1093.5 84.72 lineto
closepath fill
1 setlinewidth
solid
0 0 0 edgecolor
newpath 1100.5 84.72 moveto
1097 74.72 lineto
1093.5 84.72 lineto
closepath stroke
grestore
% 7->paray
gsave
1 setlinewidth
0 0 0 edgecolor
newpath 1097 324.3 moveto
1097 316.21 1097 307.34 1097 298.56 curveto
stroke
0 0 0 edgecolor
newpath 1100.5 298.36 moveto
1097 288.36 lineto
1093.5 298.36 lineto
closepath fill
1 setlinewidth
solid
0 0 0 edgecolor
newpath 1100.5 298.36 moveto
1097 288.36 lineto
1093.5 298.36 lineto
closepath stroke
grestore
% 8->parae
gsave
1 setlinewidth
0 0 0 edgecolor
newpath 1413 119.83 moveto
1413 112.12 1413 103.28 1413 94.37 curveto
stroke
0 0 0 edgecolor
newpath 1416.5 94.36 moveto
1413 84.36 lineto
1409.5 94.36 lineto
closepath fill
1 setlinewidth
solid
0 0 0 edgecolor
newpath 1416.5 94.36 moveto
1413 84.36 lineto
1409.5 94.36 lineto
closepath stroke
grestore
% 9->para
gsave
1 setlinewidth
0 0 0 edgecolor
newpath 1413 333.73 moveto
1413 323.4 1413 310.79 1413 298.39 curveto
stroke
0 0 0 edgecolor
newpath 1416.5 298.07 moveto
1413 288.07 lineto
1409.5 298.07 lineto
closepath fill
1 setlinewidth
solid
0 0 0 edgecolor
newpath 1416.5 298.07 moveto
1413 288.07 lineto
1409.5 298.07 lineto
closepath stroke
grestore
% 10->paraxyy_start
gsave
1 setlinewidth
0 0 0 edgecolor
newpath 149 528.45 moveto
149 519.98 149 510.73 149 501.83 curveto
stroke
0 0 0 edgecolor
newpath 152.5 501.59 moveto
149 491.59 lineto
145.5 501.59 lineto
closepath fill
1 setlinewidth
solid
0 0 0 edgecolor
newpath 152.5 501.59 moveto
149 491.59 lineto
145.5 501.59 lineto
closepath stroke
grestore
% 11->paraxy_start
gsave
1 setlinewidth
0 0 0 edgecolor
newpath 465 528.45 moveto
465 519.98 465 510.73 465 501.83 curveto
stroke
0 0 0 edgecolor
newpath 468.5 501.59 moveto
465 491.59 lineto
461.5 501.59 lineto
closepath fill
1 setlinewidth
solid
0 0 0 edgecolor
newpath 468.5 501.59 moveto
465 491.59 lineto
461.5 501.59 lineto
closepath stroke
grestore
% 12->parax_start
gsave
1 setlinewidth
0 0 0 edgecolor
newpath 781 528.45 moveto
781 519.98 781 510.73 781 501.83 curveto
stroke
0 0 0 edgecolor
newpath 784.5 501.59 moveto
781 491.59 lineto
777.5 501.59 lineto
closepath fill
1 setlinewidth
solid
0 0 0 edgecolor
newpath 784.5 501.59 moveto
781 491.59 lineto
777.5 501.59 lineto
closepath stroke
grestore
% 13->paray_start
gsave
1 setlinewidth
0 0 0 edgecolor
newpath 1097 528.45 moveto
1097 519.98 1097 510.73 1097 501.83 curveto
stroke
0 0 0 edgecolor
newpath 1100.5 501.59 moveto
1097 491.59 lineto
1093.5 501.59 lineto
closepath fill
1 setlinewidth
solid
0 0 0 edgecolor
newpath 1100.5 501.59 moveto
1097 491.59 lineto
1093.5 501.59 lineto
closepath stroke
grestore
% 14->para_start
gsave
1 setlinewidth
0 0 0 edgecolor
newpath 1413 528.45 moveto
1413 519.98 1413 510.73 1413 501.83 curveto
stroke
0 0 0 edgecolor
newpath 1416.5 501.59 moveto
1413 491.59 lineto
1409.5 501.59 lineto
closepath fill
1 setlinewidth
solid
0 0 0 edgecolor
newpath 1416.5 501.59 moveto
1413 491.59 lineto
1409.5 501.59 lineto
closepath stroke
grestore
endpage
showpage
grestore
%%PageTrailer
%%EndPage: 1
%%Trailer
%%Pages: 1
%%BoundingBox: 36 36 1606 720
end
restore
%%EOF
