%!PS-Adobe-3.0
%%Creator: graphviz version 2.26.3 (20100126.1600)
%%Title: G
%%Pages: (atend)
%%BoundingBox: (atend)
%%EndComments
save
%%BeginProlog
/DotDict 200 dict def
DotDict begin

/setupLatin1 {
mark
/EncodingVector 256 array def
 EncodingVector 0

ISOLatin1Encoding 0 255 getinterval putinterval
EncodingVector 45 /hyphen put

% Set up ISO Latin 1 character encoding
/starnetISO {
        dup dup findfont dup length dict begin
        { 1 index /FID ne { def }{ pop pop } ifelse
        } forall
        /Encoding EncodingVector def
        currentdict end definefont
} def
/Times-Roman starnetISO def
/Times-Italic starnetISO def
/Times-Bold starnetISO def
/Times-BoldItalic starnetISO def
/Helvetica starnetISO def
/Helvetica-Oblique starnetISO def
/Helvetica-Bold starnetISO def
/Helvetica-BoldOblique starnetISO def
/Courier starnetISO def
/Courier-Oblique starnetISO def
/Courier-Bold starnetISO def
/Courier-BoldOblique starnetISO def
cleartomark
} bind def

%%BeginResource: procset graphviz 0 0
/coord-font-family /Times-Roman def
/default-font-family /Times-Roman def
/coordfont coord-font-family findfont 8 scalefont def

/InvScaleFactor 1.0 def
/set_scale {
       dup 1 exch div /InvScaleFactor exch def
       scale
} bind def

% styles
/solid { [] 0 setdash } bind def
/dashed { [9 InvScaleFactor mul dup ] 0 setdash } bind def
/dotted { [1 InvScaleFactor mul 6 InvScaleFactor mul] 0 setdash } bind def
/invis {/fill {newpath} def /stroke {newpath} def /show {pop newpath} def} bind def
/bold { 2 setlinewidth } bind def
/filled { } bind def
/unfilled { } bind def
/rounded { } bind def
/diagonals { } bind def

% hooks for setting color 
/nodecolor { sethsbcolor } bind def
/edgecolor { sethsbcolor } bind def
/graphcolor { sethsbcolor } bind def
/nopcolor {pop pop pop} bind def

/beginpage {	% i j npages
	/npages exch def
	/j exch def
	/i exch def
	/str 10 string def
	npages 1 gt {
		gsave
			coordfont setfont
			0 0 moveto
			(\() show i str cvs show (,) show j str cvs show (\)) show
		grestore
	} if
} bind def

/set_font {
	findfont exch
	scalefont setfont
} def

% draw text fitted to its expected width
/alignedtext {			% width text
	/text exch def
	/width exch def
	gsave
		width 0 gt {
			[] 0 setdash
			text stringwidth pop width exch sub text length div 0 text ashow
		} if
	grestore
} def

/boxprim {				% xcorner ycorner xsize ysize
		4 2 roll
		moveto
		2 copy
		exch 0 rlineto
		0 exch rlineto
		pop neg 0 rlineto
		closepath
} bind def

/ellipse_path {
	/ry exch def
	/rx exch def
	/y exch def
	/x exch def
	matrix currentmatrix
	newpath
	x y translate
	rx ry scale
	0 0 1 0 360 arc
	setmatrix
} bind def

/endpage { showpage } bind def
/showpage { } def

/layercolorseq
	[	% layer color sequence - darkest to lightest
		[0 0 0]
		[.2 .8 .8]
		[.4 .8 .8]
		[.6 .8 .8]
		[.8 .8 .8]
	]
def

/layerlen layercolorseq length def

/setlayer {/maxlayer exch def /curlayer exch def
	layercolorseq curlayer 1 sub layerlen mod get
	aload pop sethsbcolor
	/nodecolor {nopcolor} def
	/edgecolor {nopcolor} def
	/graphcolor {nopcolor} def
} bind def

/onlayer { curlayer ne {invis} if } def

/onlayers {
	/myupper exch def
	/mylower exch def
	curlayer mylower lt
	curlayer myupper gt
	or
	{invis} if
} def

/curlayer 0 def

%%EndResource
%%EndProlog
%%BeginSetup
14 default-font-family set_font
1 setmiterlimit
% /arrowlength 10 def
% /arrowwidth 5 def

% make sure pdfmark is harmless for PS-interpreters other than Distiller
/pdfmark where {pop} {userdict /pdfmark /cleartomark load put} ifelse
% make '<<' and '>>' safe on PS Level 1 devices
/languagelevel where {pop languagelevel}{1} ifelse
2 lt {
    userdict (<<) cvn ([) cvn load put
    userdict (>>) cvn ([) cvn load put
} if

%%EndSetup
setupLatin1
%%Page: 1 1
%%PageBoundingBox: 36 36 562 724
%%PageOrientation: Portrait
0 0 1 beginpage
gsave
36 36 526 688 boxprim clip newpath
1 1 set_scale 0 rotate 40 41 translate
% 1073741823
gsave
1 setlinewidth
0 0 0 nodecolor
154 657 154.15 19.09 ellipse_path stroke
0 0 0 nodecolor
18 /Times-Roman set_font
53 650.3 moveto 202 (Processing toplevel strategy) alignedtext
grestore
% loc2_start
gsave
0.10588 1 1 nodecolor
newpath 393 362 moveto
305 362 lineto
305 316 lineto
393 316 lineto
closepath fill
1 setlinewidth
filled
0 0 0 nodecolor
newpath 393 362 moveto
305 362 lineto
305 316 lineto
393 316 lineto
closepath stroke
0.66667 1 0.80392 nodecolor
18 /Times-Roman set_font
313 341.8 moveto 72 (loc2_start) alignedtext
0.66667 1 0.80392 nodecolor
18 /Times-Roman set_font
323 322.8 moveto 52 (bottom) alignedtext
grestore
% 0
gsave
0 0 0 nodecolor
18 /Times-Roman set_font
299 259.8 moveto 100 (Pa_2 := Pa_2;) alignedtext
0 0 0 nodecolor
18 /Times-Roman set_font
188 240.8 moveto 322 (Pda_0 := -1/20Pdp_0+1/20Pdp_1-1/20Pdv_0) alignedtext
0 0 0 nodecolor
18 /Times-Roman set_font
283 221.8 moveto 132 (         +1/20Pdv_1;) alignedtext
0 0 0 nodecolor
18 /Times-Roman set_font
195.5 202.8 moveto 307 (Pda_1 := Pa_2-1/20Pdp_1-1/20Pdv_1+5/2;) alignedtext
0 0 0 nodecolor
18 /Times-Roman set_font
198.5 183.8 moveto 301 (Pdp_0 := 1/200Pda_0+Pdp_0+1/10Pdv_0;) alignedtext
0 0 0 nodecolor
18 /Times-Roman set_font
198.5 164.8 moveto 301 (Pdp_1 := 1/200Pda_1+Pdp_1+1/10Pdv_1;) alignedtext
0 0 0 nodecolor
18 /Times-Roman set_font
246.5 145.8 moveto 205 (Pdv_0 := 1/10Pda_0+Pdv_0;) alignedtext
0 0 0 nodecolor
18 /Times-Roman set_font
246.5 126.8 moveto 205 (Pdv_1 := 1/10Pda_1+Pdv_1;) alignedtext
0 0 0 nodecolor
18 /Times-Roman set_font
268 107.8 moveto 162 (Pvl := 1/10Pa_2+Pvl\)*) alignedtext
0 0 0 nodecolor
18 /Times-Roman set_font
342.5 88.8 moveto 13 (\(\)) alignedtext
grestore
% loc2_start->0
gsave
1 setlinewidth
0 0 0 edgecolor
newpath 349 315.69 moveto
349 308.37 349 299.77 349 290.5 curveto
stroke
0 0 0 edgecolor
newpath 352.5 290.21 moveto
349 280.21 lineto
345.5 290.21 lineto
closepath fill
1 setlinewidth
solid
0 0 0 edgecolor
newpath 352.5 290.21 moveto
349 280.21 lineto
345.5 290.21 lineto
closepath stroke
grestore
% loc1
gsave
0.10588 1 1 nodecolor
newpath 372 680 moveto
326 680 lineto
326 634 lineto
372 634 lineto
closepath fill
1 setlinewidth
filled
0 0 0 nodecolor
newpath 372 680 moveto
326 680 lineto
326 634 lineto
372 634 lineto
closepath stroke
0 0 0 nodecolor
18 /Times-Roman set_font
333.5 659.8 moveto 31 (loc1) alignedtext
0 0 0 nodecolor
18 /Times-Roman set_font
337 640.8 moveto 24 (top) alignedtext
grestore
% 1
gsave
0.66667 1 0.80392 nodecolor
18 /Times-Roman set_font
207 577.8 moveto 284 (Pda_1=0 and Pda_0=0 and Pa_2=0 and) alignedtext
0.66667 1 0.80392 nodecolor
18 /Times-Roman set_font
212 558.8 moveto 274 (-Pdp_1+55>=0 and Pdp_1-45>=0 and) alignedtext
0.66667 1 0.80392 nodecolor
18 /Times-Roman set_font
212 539.8 moveto 274 (-Pdp_0+55>=0 and Pdp_0-45>=0 and) alignedtext
0.66667 1 0.80392 nodecolor
18 /Times-Roman set_font
219.5 520.8 moveto 259 (-Pdv_1+1>=0 and Pdv_1+1>=0 and) alignedtext
0.66667 1 0.80392 nodecolor
18 /Times-Roman set_font
219.5 501.8 moveto 259 (-Pdv_0+1>=0 and Pdv_0+1>=0 and) alignedtext
0.66667 1 0.80392 nodecolor
18 /Times-Roman set_font
189.5 482.8 moveto 319 (-Pda_1+0.128>=0 and Pda_1+0.128>=0 and) alignedtext
0.66667 1 0.80392 nodecolor
18 /Times-Roman set_font
189.5 463.8 moveto 319 (-Pda_0+0.128>=0 and Pda_0+0.128>=0 and) alignedtext
0.66667 1 0.80392 nodecolor
18 /Times-Roman set_font
196.5 444.8 moveto 305 (Pvl-1>=0 and -Pa_2+1>=0 and Pa_2>=0 ?) alignedtext
0.66667 1 0.80392 nodecolor
18 /Times-Roman set_font
342.5 404.8 moveto 13 (\(\)) alignedtext
grestore
% loc1->1
gsave
1 setlinewidth
0 0 0 edgecolor
newpath 349 633.88 moveto
349 626.46 349 617.7 349 608.25 curveto
stroke
0 0 0 edgecolor
newpath 352.5 608.19 moveto
349 598.19 lineto
345.5 608.19 lineto
closepath fill
1 setlinewidth
solid
0 0 0 edgecolor
newpath 352.5 608.19 moveto
349 598.19 lineto
345.5 608.19 lineto
closepath stroke
grestore
% loc2
gsave
0.10588 1 1 nodecolor
newpath 383 46 moveto
315 46 lineto
315 0 lineto
383 0 lineto
closepath fill
1 setlinewidth
filled
0 0 0 nodecolor
newpath 383 46 moveto
315 46 lineto
315 0 lineto
383 0 lineto
closepath stroke
0 0 0 nodecolor
18 /Times-Roman set_font
333.5 25.8 moveto 31 (loc2) alignedtext
0 0 0 nodecolor
18 /Times-Roman set_font
323 6.8 moveto 52 (bottom) alignedtext
grestore
% 0->loc2
gsave
1 setlinewidth
0 0 0 edgecolor
newpath 349 81.83 moveto
349 72.71 349 63.97 349 56.15 curveto
stroke
0 0 0 edgecolor
newpath 352.5 56.11 moveto
349 46.11 lineto
345.5 56.11 lineto
closepath fill
1 setlinewidth
solid
0 0 0 edgecolor
newpath 352.5 56.11 moveto
349 46.11 lineto
345.5 56.11 lineto
closepath stroke
grestore
% 1->loc2_start
gsave
1 setlinewidth
0 0 0 edgecolor
newpath 349 397.75 moveto
349 388.63 349 379.9 349 372.09 curveto
stroke
0 0 0 edgecolor
newpath 352.5 372.05 moveto
349 362.05 lineto
345.5 372.05 lineto
closepath fill
1 setlinewidth
solid
0 0 0 edgecolor
newpath 352.5 372.05 moveto
349 362.05 lineto
345.5 372.05 lineto
closepath stroke
grestore
endpage
showpage
grestore
%%PageTrailer
%%EndPage: 1
setupLatin1
%%Page: 2 2
%%PageBoundingBox: 36 36 544 820
%%PageOrientation: Portrait
0 0 1 beginpage
gsave
36 36 508 784 boxprim clip newpath
1 1 set_scale 0 rotate 40 41 translate
% 1073741823
gsave
1 setlinewidth
0 0 0 nodecolor
145 753 144.96 19.09 ellipse_path stroke
0 0 0 nodecolor
18 /Times-Roman set_font
50.5 746.3 moveto 189 (processed \(acc\) loc2_start) alignedtext
grestore
% loc2_start
gsave
0.027451 0.66275 1 nodecolor
newpath 467 457.5 moveto
195 457.5 lineto
195 316.5 lineto
467 316.5 lineto
closepath fill
1 setlinewidth
filled
0 0 0 nodecolor
newpath 467 457.5 moveto
195 457.5 lineto
195 316.5 lineto
467 316.5 lineto
closepath stroke
0 0 0 nodecolor
18 /Times-Roman set_font
295 437.3 moveto 72 (loc2_start) alignedtext
0 0 0 nodecolor
18 /Times-Roman set_font
224 418.3 moveto 214 ([|Pa_2=0; Pda_0=0; Pda_1=0;) alignedtext
0 0 0 nodecolor
18 /Times-Roman set_font
259.5 399.3 moveto 143 (  Pdp_0 in [45 , 55];) alignedtext
0 0 0 nodecolor
18 /Times-Roman set_font
259.5 380.3 moveto 143 (  Pdp_1 in [45 , 55];) alignedtext
0 0 0 nodecolor
18 /Times-Roman set_font
202.5 361.3 moveto 257 (  Pdv_0 in [-1 , 1]; Pdv_1 in [-1 , 1];) alignedtext
0 0 0 nodecolor
18 /Times-Roman set_font
268 342.3 moveto 126 (  Pvl in [1 , INF]|]) alignedtext
0 0 0 nodecolor
18 /Times-Roman set_font
227 323.3 moveto 208 (12 constraints, 17 generators) alignedtext
grestore
% 0
gsave
0 0 0 nodecolor
18 /Times-Roman set_font
281 259.8 moveto 100 (Pa_2 := Pa_2;) alignedtext
0 0 0 nodecolor
18 /Times-Roman set_font
170 240.8 moveto 322 (Pda_0 := -1/20Pdp_0+1/20Pdp_1-1/20Pdv_0) alignedtext
0 0 0 nodecolor
18 /Times-Roman set_font
265 221.8 moveto 132 (         +1/20Pdv_1;) alignedtext
0 0 0 nodecolor
18 /Times-Roman set_font
177.5 202.8 moveto 307 (Pda_1 := Pa_2-1/20Pdp_1-1/20Pdv_1+5/2;) alignedtext
0 0 0 nodecolor
18 /Times-Roman set_font
180.5 183.8 moveto 301 (Pdp_0 := 1/200Pda_0+Pdp_0+1/10Pdv_0;) alignedtext
0 0 0 nodecolor
18 /Times-Roman set_font
180.5 164.8 moveto 301 (Pdp_1 := 1/200Pda_1+Pdp_1+1/10Pdv_1;) alignedtext
0 0 0 nodecolor
18 /Times-Roman set_font
228.5 145.8 moveto 205 (Pdv_0 := 1/10Pda_0+Pdv_0;) alignedtext
0 0 0 nodecolor
18 /Times-Roman set_font
228.5 126.8 moveto 205 (Pdv_1 := 1/10Pda_1+Pdv_1;) alignedtext
0 0 0 nodecolor
18 /Times-Roman set_font
250 107.8 moveto 162 (Pvl := 1/10Pa_2+Pvl\)*) alignedtext
0 0 0 nodecolor
18 /Times-Roman set_font
324.5 88.8 moveto 13 (\(\)) alignedtext
grestore
% loc2_start->0
gsave
1 setlinewidth
0 0 0 edgecolor
newpath 331 316.39 moveto
331 307.93 331 299.15 331 290.3 curveto
stroke
0 0 0 edgecolor
newpath 334.5 290.29 moveto
331 280.29 lineto
327.5 290.29 lineto
closepath fill
1 setlinewidth
solid
0 0 0 edgecolor
newpath 334.5 290.29 moveto
331 280.29 lineto
327.5 290.29 lineto
closepath stroke
grestore
% loc1
gsave
1 setlinewidth
0 0 0 nodecolor
newpath 354 776 moveto
308 776 lineto
308 730 lineto
354 730 lineto
closepath stroke
0 0 0 nodecolor
18 /Times-Roman set_font
315.5 755.8 moveto 31 (loc1) alignedtext
0 0 0 nodecolor
18 /Times-Roman set_font
319 736.8 moveto 24 (top) alignedtext
grestore
% 1
gsave
0 0 0 nodecolor
18 /Times-Roman set_font
189 673.8 moveto 284 (Pda_1=0 and Pda_0=0 and Pa_2=0 and) alignedtext
0 0 0 nodecolor
18 /Times-Roman set_font
194 654.8 moveto 274 (-Pdp_1+55>=0 and Pdp_1-45>=0 and) alignedtext
0 0 0 nodecolor
18 /Times-Roman set_font
194 635.8 moveto 274 (-Pdp_0+55>=0 and Pdp_0-45>=0 and) alignedtext
0 0 0 nodecolor
18 /Times-Roman set_font
201.5 616.8 moveto 259 (-Pdv_1+1>=0 and Pdv_1+1>=0 and) alignedtext
0 0 0 nodecolor
18 /Times-Roman set_font
201.5 597.8 moveto 259 (-Pdv_0+1>=0 and Pdv_0+1>=0 and) alignedtext
0 0 0 nodecolor
18 /Times-Roman set_font
171.5 578.8 moveto 319 (-Pda_1+0.128>=0 and Pda_1+0.128>=0 and) alignedtext
0 0 0 nodecolor
18 /Times-Roman set_font
171.5 559.8 moveto 319 (-Pda_0+0.128>=0 and Pda_0+0.128>=0 and) alignedtext
0 0 0 nodecolor
18 /Times-Roman set_font
178.5 540.8 moveto 305 (Pvl-1>=0 and -Pa_2+1>=0 and Pa_2>=0 ?) alignedtext
0 0 0 nodecolor
18 /Times-Roman set_font
324.5 500.8 moveto 13 (\(\)) alignedtext
grestore
% loc1->1
gsave
1 setlinewidth
0 0 0 edgecolor
newpath 331 729.88 moveto
331 722.46 331 713.7 331 704.25 curveto
stroke
0 0 0 edgecolor
newpath 334.5 704.19 moveto
331 694.19 lineto
327.5 704.19 lineto
closepath fill
1 setlinewidth
solid
0 0 0 edgecolor
newpath 334.5 704.19 moveto
331 694.19 lineto
327.5 704.19 lineto
closepath stroke
grestore
% loc2
gsave
1 setlinewidth
0 0 0 nodecolor
newpath 365 46 moveto
297 46 lineto
297 0 lineto
365 0 lineto
closepath stroke
0 0 0 nodecolor
18 /Times-Roman set_font
315.5 25.8 moveto 31 (loc2) alignedtext
0 0 0 nodecolor
18 /Times-Roman set_font
305 6.8 moveto 52 (bottom) alignedtext
grestore
% 0->loc2
gsave
1 setlinewidth
0 0 0 edgecolor
newpath 331 81.83 moveto
331 72.71 331 63.97 331 56.15 curveto
stroke
0 0 0 edgecolor
newpath 334.5 56.11 moveto
331 46.11 lineto
327.5 56.11 lineto
closepath fill
1 setlinewidth
solid
0 0 0 edgecolor
newpath 334.5 56.11 moveto
331 46.11 lineto
327.5 56.11 lineto
closepath stroke
grestore
% 1->loc2_start
gsave
1 setlinewidth
0 0 0 edgecolor
newpath 331 493.83 moveto
331 485.18 331 476.49 331 468.01 curveto
stroke
0 0 0 edgecolor
newpath 334.5 467.79 moveto
331 457.79 lineto
327.5 467.79 lineto
closepath fill
1 setlinewidth
solid
0 0 0 edgecolor
newpath 334.5 467.79 moveto
331 457.79 lineto
327.5 467.79 lineto
closepath stroke
grestore
endpage
showpage
grestore
%%PageTrailer
%%EndPage: 2
setupLatin1
%%Page: 3 3
%%PageBoundingBox: 36 36 486 954
%%PageOrientation: Portrait
0 0 1 beginpage
gsave
36 36 450 918 boxprim clip newpath
1 1 set_scale 0 rotate 40 41 translate
% 1073741823
gsave
1 setlinewidth
0 0 0 nodecolor
116 887 115.97 19.09 ellipse_path stroke
0 0 0 nodecolor
18 /Times-Roman set_font
42 880.3 moveto 148 (processed \(acc\) loc2) alignedtext
grestore
% loc2_start
gsave
1 setlinewidth
0 0 0 nodecolor
newpath 409 591.5 moveto
137 591.5 lineto
137 450.5 lineto
409 450.5 lineto
closepath stroke
0 0 0 nodecolor
18 /Times-Roman set_font
237 571.3 moveto 72 (loc2_start) alignedtext
0 0 0 nodecolor
18 /Times-Roman set_font
166 552.3 moveto 214 ([|Pa_2=0; Pda_0=0; Pda_1=0;) alignedtext
0 0 0 nodecolor
18 /Times-Roman set_font
201.5 533.3 moveto 143 (  Pdp_0 in [45 , 55];) alignedtext
0 0 0 nodecolor
18 /Times-Roman set_font
201.5 514.3 moveto 143 (  Pdp_1 in [45 , 55];) alignedtext
0 0 0 nodecolor
18 /Times-Roman set_font
144.5 495.3 moveto 257 (  Pdv_0 in [-1 , 1]; Pdv_1 in [-1 , 1];) alignedtext
0 0 0 nodecolor
18 /Times-Roman set_font
210 476.3 moveto 126 (  Pvl in [1 , INF]|]) alignedtext
0 0 0 nodecolor
18 /Times-Roman set_font
169 457.3 moveto 208 (12 constraints, 17 generators) alignedtext
grestore
% 0
gsave
0 0 0 nodecolor
18 /Times-Roman set_font
223 393.8 moveto 100 (Pa_2 := Pa_2;) alignedtext
0 0 0 nodecolor
18 /Times-Roman set_font
112 374.8 moveto 322 (Pda_0 := -1/20Pdp_0+1/20Pdp_1-1/20Pdv_0) alignedtext
0 0 0 nodecolor
18 /Times-Roman set_font
207 355.8 moveto 132 (         +1/20Pdv_1;) alignedtext
0 0 0 nodecolor
18 /Times-Roman set_font
119.5 336.8 moveto 307 (Pda_1 := Pa_2-1/20Pdp_1-1/20Pdv_1+5/2;) alignedtext
0 0 0 nodecolor
18 /Times-Roman set_font
122.5 317.8 moveto 301 (Pdp_0 := 1/200Pda_0+Pdp_0+1/10Pdv_0;) alignedtext
0 0 0 nodecolor
18 /Times-Roman set_font
122.5 298.8 moveto 301 (Pdp_1 := 1/200Pda_1+Pdp_1+1/10Pdv_1;) alignedtext
0 0 0 nodecolor
18 /Times-Roman set_font
170.5 279.8 moveto 205 (Pdv_0 := 1/10Pda_0+Pdv_0;) alignedtext
0 0 0 nodecolor
18 /Times-Roman set_font
170.5 260.8 moveto 205 (Pdv_1 := 1/10Pda_1+Pdv_1;) alignedtext
0 0 0 nodecolor
18 /Times-Roman set_font
192 241.8 moveto 162 (Pvl := 1/10Pa_2+Pvl\)*) alignedtext
0 0 0 nodecolor
18 /Times-Roman set_font
266.5 222.8 moveto 13 (\(\)) alignedtext
grestore
% loc2_start->0
gsave
1 setlinewidth
0 0 0 edgecolor
newpath 273 450.39 moveto
273 441.93 273 433.15 273 424.3 curveto
stroke
0 0 0 edgecolor
newpath 276.5 424.29 moveto
273 414.29 lineto
269.5 424.29 lineto
closepath fill
1 setlinewidth
solid
0 0 0 edgecolor
newpath 276.5 424.29 moveto
273 414.29 lineto
269.5 424.29 lineto
closepath stroke
grestore
% loc1
gsave
1 setlinewidth
0 0 0 nodecolor
newpath 296 910 moveto
250 910 lineto
250 864 lineto
296 864 lineto
closepath stroke
0 0 0 nodecolor
18 /Times-Roman set_font
257.5 889.8 moveto 31 (loc1) alignedtext
0 0 0 nodecolor
18 /Times-Roman set_font
261 870.8 moveto 24 (top) alignedtext
grestore
% 1
gsave
0 0 0 nodecolor
18 /Times-Roman set_font
131 807.8 moveto 284 (Pda_1=0 and Pda_0=0 and Pa_2=0 and) alignedtext
0 0 0 nodecolor
18 /Times-Roman set_font
136 788.8 moveto 274 (-Pdp_1+55>=0 and Pdp_1-45>=0 and) alignedtext
0 0 0 nodecolor
18 /Times-Roman set_font
136 769.8 moveto 274 (-Pdp_0+55>=0 and Pdp_0-45>=0 and) alignedtext
0 0 0 nodecolor
18 /Times-Roman set_font
143.5 750.8 moveto 259 (-Pdv_1+1>=0 and Pdv_1+1>=0 and) alignedtext
0 0 0 nodecolor
18 /Times-Roman set_font
143.5 731.8 moveto 259 (-Pdv_0+1>=0 and Pdv_0+1>=0 and) alignedtext
0 0 0 nodecolor
18 /Times-Roman set_font
113.5 712.8 moveto 319 (-Pda_1+0.128>=0 and Pda_1+0.128>=0 and) alignedtext
0 0 0 nodecolor
18 /Times-Roman set_font
113.5 693.8 moveto 319 (-Pda_0+0.128>=0 and Pda_0+0.128>=0 and) alignedtext
0 0 0 nodecolor
18 /Times-Roman set_font
120.5 674.8 moveto 305 (Pvl-1>=0 and -Pa_2+1>=0 and Pa_2>=0 ?) alignedtext
0 0 0 nodecolor
18 /Times-Roman set_font
266.5 634.8 moveto 13 (\(\)) alignedtext
grestore
% loc1->1
gsave
1 setlinewidth
0 0 0 edgecolor
newpath 273 863.88 moveto
273 856.46 273 847.7 273 838.25 curveto
stroke
0 0 0 edgecolor
newpath 276.5 838.19 moveto
273 828.19 lineto
269.5 838.19 lineto
closepath fill
1 setlinewidth
solid
0 0 0 edgecolor
newpath 276.5 838.19 moveto
273 828.19 lineto
269.5 838.19 lineto
closepath stroke
grestore
% loc2
gsave
0.027451 0.66275 1 nodecolor
newpath 409 179.5 moveto
137 179.5 lineto
137 .5 lineto
409 .5 lineto
closepath fill
1 setlinewidth
filled
0 0 0 nodecolor
newpath 409 179.5 moveto
137 179.5 lineto
137 .5 lineto
409 .5 lineto
closepath stroke
0 0 0 nodecolor
18 /Times-Roman set_font
257.5 159.3 moveto 31 (loc2) alignedtext
0 0 0 nodecolor
18 /Times-Roman set_font
145 140.3 moveto 256 ([|Pa_2=0; Pda_0 in [-1.722 , 1.722];) alignedtext
0 0 0 nodecolor
18 /Times-Roman set_font
168 121.3 moveto 210 (  Pda_1 in [-0.4684 , 0.4684];) alignedtext
0 0 0 nodecolor
18 /Times-Roman set_font
179.5 102.3 moveto 187 (  Pdp_0 in [20.19 , 79.81];) alignedtext
0 0 0 nodecolor
18 /Times-Roman set_font
179.5 83.3 moveto 187 (  Pdp_1 in [40.61 , 59.39];) alignedtext
0 0 0 nodecolor
18 /Times-Roman set_font
176.5 64.3 moveto 193 (  Pdv_0 in [-6.503 , 6.503];) alignedtext
0 0 0 nodecolor
18 /Times-Roman set_font
176.5 45.3 moveto 193 (  Pdv_1 in [-1.872 , 1.872];) alignedtext
0 0 0 nodecolor
18 /Times-Roman set_font
210 26.3 moveto 126 (  Pvl in [1 , INF]|]) alignedtext
0 0 0 nodecolor
18 /Times-Roman set_font
155.5 7.3 moveto 235 (8831 constraints, 311 generators) alignedtext
grestore
% 0->loc2
gsave
1 setlinewidth
0 0 0 edgecolor
newpath 273 215.98 moveto
273 207.34 273 198.59 273 189.94 curveto
stroke
0 0 0 edgecolor
newpath 276.5 189.84 moveto
273 179.84 lineto
269.5 189.84 lineto
closepath fill
1 setlinewidth
solid
0 0 0 edgecolor
newpath 276.5 189.84 moveto
273 179.84 lineto
269.5 189.84 lineto
closepath stroke
grestore
% 1->loc2_start
gsave
1 setlinewidth
0 0 0 edgecolor
newpath 273 627.83 moveto
273 619.18 273 610.49 273 602.01 curveto
stroke
0 0 0 edgecolor
newpath 276.5 601.79 moveto
273 591.79 lineto
269.5 601.79 lineto
closepath fill
1 setlinewidth
solid
0 0 0 edgecolor
newpath 276.5 601.79 moveto
273 591.79 lineto
269.5 601.79 lineto
closepath stroke
grestore
endpage
showpage
grestore
%%PageTrailer
%%EndPage: 3
setupLatin1
%%Page: 4 4
%%PageBoundingBox: 36 36 610 954
%%PageOrientation: Portrait
0 0 1 beginpage
gsave
36 36 574 918 boxprim clip newpath
1 1 set_scale 0 rotate 40 41 translate
% 1073741823
gsave
1 setlinewidth
0 0 0 nodecolor
178 887 178.19 19.09 ellipse_path stroke
0 0 0 nodecolor
18 /Times-Roman set_font
60 880.3 moveto 236 (End Processing toplevel strategy) alignedtext
grestore
% loc2_start
gsave
0.10588 1 1 nodecolor
newpath 533 591.5 moveto
261 591.5 lineto
261 450.5 lineto
533 450.5 lineto
closepath fill
1 setlinewidth
filled
0 0 0 nodecolor
newpath 533 591.5 moveto
261 591.5 lineto
261 450.5 lineto
533 450.5 lineto
closepath stroke
0 0 0 nodecolor
18 /Times-Roman set_font
361 571.3 moveto 72 (loc2_start) alignedtext
0 0 0 nodecolor
18 /Times-Roman set_font
290 552.3 moveto 214 ([|Pa_2=0; Pda_0=0; Pda_1=0;) alignedtext
0 0 0 nodecolor
18 /Times-Roman set_font
325.5 533.3 moveto 143 (  Pdp_0 in [45 , 55];) alignedtext
0 0 0 nodecolor
18 /Times-Roman set_font
325.5 514.3 moveto 143 (  Pdp_1 in [45 , 55];) alignedtext
0 0 0 nodecolor
18 /Times-Roman set_font
268.5 495.3 moveto 257 (  Pdv_0 in [-1 , 1]; Pdv_1 in [-1 , 1];) alignedtext
0 0 0 nodecolor
18 /Times-Roman set_font
334 476.3 moveto 126 (  Pvl in [1 , INF]|]) alignedtext
0 0 0 nodecolor
18 /Times-Roman set_font
293 457.3 moveto 208 (12 constraints, 17 generators) alignedtext
grestore
% 0
gsave
0 0 0 nodecolor
18 /Times-Roman set_font
347 393.8 moveto 100 (Pa_2 := Pa_2;) alignedtext
0 0 0 nodecolor
18 /Times-Roman set_font
236 374.8 moveto 322 (Pda_0 := -1/20Pdp_0+1/20Pdp_1-1/20Pdv_0) alignedtext
0 0 0 nodecolor
18 /Times-Roman set_font
331 355.8 moveto 132 (         +1/20Pdv_1;) alignedtext
0 0 0 nodecolor
18 /Times-Roman set_font
243.5 336.8 moveto 307 (Pda_1 := Pa_2-1/20Pdp_1-1/20Pdv_1+5/2;) alignedtext
0 0 0 nodecolor
18 /Times-Roman set_font
246.5 317.8 moveto 301 (Pdp_0 := 1/200Pda_0+Pdp_0+1/10Pdv_0;) alignedtext
0 0 0 nodecolor
18 /Times-Roman set_font
246.5 298.8 moveto 301 (Pdp_1 := 1/200Pda_1+Pdp_1+1/10Pdv_1;) alignedtext
0 0 0 nodecolor
18 /Times-Roman set_font
294.5 279.8 moveto 205 (Pdv_0 := 1/10Pda_0+Pdv_0;) alignedtext
0 0 0 nodecolor
18 /Times-Roman set_font
294.5 260.8 moveto 205 (Pdv_1 := 1/10Pda_1+Pdv_1;) alignedtext
0 0 0 nodecolor
18 /Times-Roman set_font
316 241.8 moveto 162 (Pvl := 1/10Pa_2+Pvl\)*) alignedtext
0 0 0 nodecolor
18 /Times-Roman set_font
390.5 222.8 moveto 13 (\(\)) alignedtext
grestore
% loc2_start->0
gsave
1 setlinewidth
0 0 0 edgecolor
newpath 397 450.39 moveto
397 441.93 397 433.15 397 424.3 curveto
stroke
0 0 0 edgecolor
newpath 400.5 424.29 moveto
397 414.29 lineto
393.5 424.29 lineto
closepath fill
1 setlinewidth
solid
0 0 0 edgecolor
newpath 400.5 424.29 moveto
397 414.29 lineto
393.5 424.29 lineto
closepath stroke
grestore
% loc1
gsave
0.10588 1 1 nodecolor
newpath 420 910 moveto
374 910 lineto
374 864 lineto
420 864 lineto
closepath fill
1 setlinewidth
filled
0 0 0 nodecolor
newpath 420 910 moveto
374 910 lineto
374 864 lineto
420 864 lineto
closepath stroke
0 0 0 nodecolor
18 /Times-Roman set_font
381.5 889.8 moveto 31 (loc1) alignedtext
0 0 0 nodecolor
18 /Times-Roman set_font
385 870.8 moveto 24 (top) alignedtext
grestore
% 1
gsave
0 0 0 nodecolor
18 /Times-Roman set_font
255 807.8 moveto 284 (Pda_1=0 and Pda_0=0 and Pa_2=0 and) alignedtext
0 0 0 nodecolor
18 /Times-Roman set_font
260 788.8 moveto 274 (-Pdp_1+55>=0 and Pdp_1-45>=0 and) alignedtext
0 0 0 nodecolor
18 /Times-Roman set_font
260 769.8 moveto 274 (-Pdp_0+55>=0 and Pdp_0-45>=0 and) alignedtext
0 0 0 nodecolor
18 /Times-Roman set_font
267.5 750.8 moveto 259 (-Pdv_1+1>=0 and Pdv_1+1>=0 and) alignedtext
0 0 0 nodecolor
18 /Times-Roman set_font
267.5 731.8 moveto 259 (-Pdv_0+1>=0 and Pdv_0+1>=0 and) alignedtext
0 0 0 nodecolor
18 /Times-Roman set_font
237.5 712.8 moveto 319 (-Pda_1+0.128>=0 and Pda_1+0.128>=0 and) alignedtext
0 0 0 nodecolor
18 /Times-Roman set_font
237.5 693.8 moveto 319 (-Pda_0+0.128>=0 and Pda_0+0.128>=0 and) alignedtext
0 0 0 nodecolor
18 /Times-Roman set_font
244.5 674.8 moveto 305 (Pvl-1>=0 and -Pa_2+1>=0 and Pa_2>=0 ?) alignedtext
0 0 0 nodecolor
18 /Times-Roman set_font
390.5 634.8 moveto 13 (\(\)) alignedtext
grestore
% loc1->1
gsave
1 setlinewidth
0 0 0 edgecolor
newpath 397 863.88 moveto
397 856.46 397 847.7 397 838.25 curveto
stroke
0 0 0 edgecolor
newpath 400.5 838.19 moveto
397 828.19 lineto
393.5 838.19 lineto
closepath fill
1 setlinewidth
solid
0 0 0 edgecolor
newpath 400.5 838.19 moveto
397 828.19 lineto
393.5 838.19 lineto
closepath stroke
grestore
% loc2
gsave
0.10588 1 1 nodecolor
newpath 533 179.5 moveto
261 179.5 lineto
261 .5 lineto
533 .5 lineto
closepath fill
1 setlinewidth
filled
0 0 0 nodecolor
newpath 533 179.5 moveto
261 179.5 lineto
261 .5 lineto
533 .5 lineto
closepath stroke
0 0 0 nodecolor
18 /Times-Roman set_font
381.5 159.3 moveto 31 (loc2) alignedtext
0 0 0 nodecolor
18 /Times-Roman set_font
269 140.3 moveto 256 ([|Pa_2=0; Pda_0 in [-1.722 , 1.722];) alignedtext
0 0 0 nodecolor
18 /Times-Roman set_font
292 121.3 moveto 210 (  Pda_1 in [-0.4684 , 0.4684];) alignedtext
0 0 0 nodecolor
18 /Times-Roman set_font
303.5 102.3 moveto 187 (  Pdp_0 in [20.19 , 79.81];) alignedtext
0 0 0 nodecolor
18 /Times-Roman set_font
303.5 83.3 moveto 187 (  Pdp_1 in [40.61 , 59.39];) alignedtext
0 0 0 nodecolor
18 /Times-Roman set_font
300.5 64.3 moveto 193 (  Pdv_0 in [-6.503 , 6.503];) alignedtext
0 0 0 nodecolor
18 /Times-Roman set_font
300.5 45.3 moveto 193 (  Pdv_1 in [-1.872 , 1.872];) alignedtext
0 0 0 nodecolor
18 /Times-Roman set_font
334 26.3 moveto 126 (  Pvl in [1 , INF]|]) alignedtext
0 0 0 nodecolor
18 /Times-Roman set_font
279.5 7.3 moveto 235 (8831 constraints, 311 generators) alignedtext
grestore
% 0->loc2
gsave
1 setlinewidth
0 0 0 edgecolor
newpath 397 215.98 moveto
397 207.34 397 198.59 397 189.94 curveto
stroke
0 0 0 edgecolor
newpath 400.5 189.84 moveto
397 179.84 lineto
393.5 189.84 lineto
closepath fill
1 setlinewidth
solid
0 0 0 edgecolor
newpath 400.5 189.84 moveto
397 179.84 lineto
393.5 189.84 lineto
closepath stroke
grestore
% 1->loc2_start
gsave
1 setlinewidth
0 0 0 edgecolor
newpath 397 627.83 moveto
397 619.18 397 610.49 397 602.01 curveto
stroke
0 0 0 edgecolor
newpath 400.5 601.79 moveto
397 591.79 lineto
393.5 601.79 lineto
closepath fill
1 setlinewidth
solid
0 0 0 edgecolor
newpath 400.5 601.79 moveto
397 591.79 lineto
393.5 601.79 lineto
closepath stroke
grestore
endpage
showpage
grestore
%%PageTrailer
%%EndPage: 4
setupLatin1
%%Page: 5 5
%%PageBoundingBox: 36 36 382 954
%%PageOrientation: Portrait
0 0 1 beginpage
gsave
36 36 346 918 boxprim clip newpath
1 1 set_scale 0 rotate 40 41 translate
% 1073741823
gsave
1 setlinewidth
0 0 0 nodecolor
84 887 43.84 19.09 ellipse_path stroke
0 0 0 nodecolor
18 /Times-Roman set_font
61 880.3 moveto 46 (Result) alignedtext
grestore
% loc2_start
gsave
1 setlinewidth
0 0 0 nodecolor
newpath 305 591.5 moveto
33 591.5 lineto
33 450.5 lineto
305 450.5 lineto
closepath stroke
0 0 0 nodecolor
18 /Times-Roman set_font
133 571.3 moveto 72 (loc2_start) alignedtext
0 0 0 nodecolor
18 /Times-Roman set_font
62 552.3 moveto 214 ([|Pa_2=0; Pda_0=0; Pda_1=0;) alignedtext
0 0 0 nodecolor
18 /Times-Roman set_font
97.5 533.3 moveto 143 (  Pdp_0 in [45 , 55];) alignedtext
0 0 0 nodecolor
18 /Times-Roman set_font
97.5 514.3 moveto 143 (  Pdp_1 in [45 , 55];) alignedtext
0 0 0 nodecolor
18 /Times-Roman set_font
40.5 495.3 moveto 257 (  Pdv_0 in [-1 , 1]; Pdv_1 in [-1 , 1];) alignedtext
0 0 0 nodecolor
18 /Times-Roman set_font
106 476.3 moveto 126 (  Pvl in [1 , INF]|]) alignedtext
0 0 0 nodecolor
18 /Times-Roman set_font
65 457.3 moveto 208 (12 constraints, 17 generators) alignedtext
grestore
% 0
gsave
0 0 0 nodecolor
18 /Times-Roman set_font
119 393.8 moveto 100 (Pa_2 := Pa_2;) alignedtext
0 0 0 nodecolor
18 /Times-Roman set_font
8 374.8 moveto 322 (Pda_0 := -1/20Pdp_0+1/20Pdp_1-1/20Pdv_0) alignedtext
0 0 0 nodecolor
18 /Times-Roman set_font
103 355.8 moveto 132 (         +1/20Pdv_1;) alignedtext
0 0 0 nodecolor
18 /Times-Roman set_font
15.5 336.8 moveto 307 (Pda_1 := Pa_2-1/20Pdp_1-1/20Pdv_1+5/2;) alignedtext
0 0 0 nodecolor
18 /Times-Roman set_font
18.5 317.8 moveto 301 (Pdp_0 := 1/200Pda_0+Pdp_0+1/10Pdv_0;) alignedtext
0 0 0 nodecolor
18 /Times-Roman set_font
18.5 298.8 moveto 301 (Pdp_1 := 1/200Pda_1+Pdp_1+1/10Pdv_1;) alignedtext
0 0 0 nodecolor
18 /Times-Roman set_font
66.5 279.8 moveto 205 (Pdv_0 := 1/10Pda_0+Pdv_0;) alignedtext
0 0 0 nodecolor
18 /Times-Roman set_font
66.5 260.8 moveto 205 (Pdv_1 := 1/10Pda_1+Pdv_1;) alignedtext
0 0 0 nodecolor
18 /Times-Roman set_font
88 241.8 moveto 162 (Pvl := 1/10Pa_2+Pvl\)*) alignedtext
0 0 0 nodecolor
18 /Times-Roman set_font
162.5 222.8 moveto 13 (\(\)) alignedtext
grestore
% loc2_start->0
gsave
1 setlinewidth
0 0 0 edgecolor
newpath 169 450.39 moveto
169 441.93 169 433.15 169 424.3 curveto
stroke
0 0 0 edgecolor
newpath 172.5 424.29 moveto
169 414.29 lineto
165.5 424.29 lineto
closepath fill
1 setlinewidth
solid
0 0 0 edgecolor
newpath 172.5 424.29 moveto
169 414.29 lineto
165.5 424.29 lineto
closepath stroke
grestore
% loc1
gsave
1 setlinewidth
0 0 0 nodecolor
newpath 192 910 moveto
146 910 lineto
146 864 lineto
192 864 lineto
closepath stroke
0 0 0 nodecolor
18 /Times-Roman set_font
153.5 889.8 moveto 31 (loc1) alignedtext
0 0 0 nodecolor
18 /Times-Roman set_font
157 870.8 moveto 24 (top) alignedtext
grestore
% 1
gsave
0 0 0 nodecolor
18 /Times-Roman set_font
27 807.8 moveto 284 (Pda_1=0 and Pda_0=0 and Pa_2=0 and) alignedtext
0 0 0 nodecolor
18 /Times-Roman set_font
32 788.8 moveto 274 (-Pdp_1+55>=0 and Pdp_1-45>=0 and) alignedtext
0 0 0 nodecolor
18 /Times-Roman set_font
32 769.8 moveto 274 (-Pdp_0+55>=0 and Pdp_0-45>=0 and) alignedtext
0 0 0 nodecolor
18 /Times-Roman set_font
39.5 750.8 moveto 259 (-Pdv_1+1>=0 and Pdv_1+1>=0 and) alignedtext
0 0 0 nodecolor
18 /Times-Roman set_font
39.5 731.8 moveto 259 (-Pdv_0+1>=0 and Pdv_0+1>=0 and) alignedtext
0 0 0 nodecolor
18 /Times-Roman set_font
9.5 712.8 moveto 319 (-Pda_1+0.128>=0 and Pda_1+0.128>=0 and) alignedtext
0 0 0 nodecolor
18 /Times-Roman set_font
9.5 693.8 moveto 319 (-Pda_0+0.128>=0 and Pda_0+0.128>=0 and) alignedtext
0 0 0 nodecolor
18 /Times-Roman set_font
16.5 674.8 moveto 305 (Pvl-1>=0 and -Pa_2+1>=0 and Pa_2>=0 ?) alignedtext
0 0 0 nodecolor
18 /Times-Roman set_font
162.5 634.8 moveto 13 (\(\)) alignedtext
grestore
% loc1->1
gsave
1 setlinewidth
0 0 0 edgecolor
newpath 169 863.88 moveto
169 856.46 169 847.7 169 838.25 curveto
stroke
0 0 0 edgecolor
newpath 172.5 838.19 moveto
169 828.19 lineto
165.5 838.19 lineto
closepath fill
1 setlinewidth
solid
0 0 0 edgecolor
newpath 172.5 838.19 moveto
169 828.19 lineto
165.5 838.19 lineto
closepath stroke
grestore
% loc2
gsave
1 setlinewidth
0 0 0 nodecolor
newpath 305 179.5 moveto
33 179.5 lineto
33 .5 lineto
305 .5 lineto
closepath stroke
0 0 0 nodecolor
18 /Times-Roman set_font
153.5 159.3 moveto 31 (loc2) alignedtext
0 0 0 nodecolor
18 /Times-Roman set_font
41 140.3 moveto 256 ([|Pa_2=0; Pda_0 in [-1.722 , 1.722];) alignedtext
0 0 0 nodecolor
18 /Times-Roman set_font
64 121.3 moveto 210 (  Pda_1 in [-0.4684 , 0.4684];) alignedtext
0 0 0 nodecolor
18 /Times-Roman set_font
75.5 102.3 moveto 187 (  Pdp_0 in [20.19 , 79.81];) alignedtext
0 0 0 nodecolor
18 /Times-Roman set_font
75.5 83.3 moveto 187 (  Pdp_1 in [40.61 , 59.39];) alignedtext
0 0 0 nodecolor
18 /Times-Roman set_font
72.5 64.3 moveto 193 (  Pdv_0 in [-6.503 , 6.503];) alignedtext
0 0 0 nodecolor
18 /Times-Roman set_font
72.5 45.3 moveto 193 (  Pdv_1 in [-1.872 , 1.872];) alignedtext
0 0 0 nodecolor
18 /Times-Roman set_font
106 26.3 moveto 126 (  Pvl in [1 , INF]|]) alignedtext
0 0 0 nodecolor
18 /Times-Roman set_font
51.5 7.3 moveto 235 (8831 constraints, 311 generators) alignedtext
grestore
% 0->loc2
gsave
1 setlinewidth
0 0 0 edgecolor
newpath 169 215.98 moveto
169 207.34 169 198.59 169 189.94 curveto
stroke
0 0 0 edgecolor
newpath 172.5 189.84 moveto
169 179.84 lineto
165.5 189.84 lineto
closepath fill
1 setlinewidth
solid
0 0 0 edgecolor
newpath 172.5 189.84 moveto
169 179.84 lineto
165.5 189.84 lineto
closepath stroke
grestore
% 1->loc2_start
gsave
1 setlinewidth
0 0 0 edgecolor
newpath 169 627.83 moveto
169 619.18 169 610.49 169 602.01 curveto
stroke
0 0 0 edgecolor
newpath 172.5 601.79 moveto
169 591.79 lineto
165.5 601.79 lineto
closepath fill
1 setlinewidth
solid
0 0 0 edgecolor
newpath 172.5 601.79 moveto
169 591.79 lineto
165.5 601.79 lineto
closepath stroke
grestore
endpage
showpage
grestore
%%PageTrailer
%%EndPage: 5
%%Trailer
%%Pages: 5
%%BoundingBox: 36 36 610 954
end
restore
%%EOF
