%!PS-Adobe-3.0
%%Creator: graphviz version 2.26.3 (20100126.1600)
%%Title: G
%%Pages: (atend)
%%BoundingBox: (atend)
%%EndComments
save
%%BeginProlog
/DotDict 200 dict def
DotDict begin

/setupLatin1 {
mark
/EncodingVector 256 array def
 EncodingVector 0

ISOLatin1Encoding 0 255 getinterval putinterval
EncodingVector 45 /hyphen put

% Set up ISO Latin 1 character encoding
/starnetISO {
        dup dup findfont dup length dict begin
        { 1 index /FID ne { def }{ pop pop } ifelse
        } forall
        /Encoding EncodingVector def
        currentdict end definefont
} def
/Times-Roman starnetISO def
/Times-Italic starnetISO def
/Times-Bold starnetISO def
/Times-BoldItalic starnetISO def
/Helvetica starnetISO def
/Helvetica-Oblique starnetISO def
/Helvetica-Bold starnetISO def
/Helvetica-BoldOblique starnetISO def
/Courier starnetISO def
/Courier-Oblique starnetISO def
/Courier-Bold starnetISO def
/Courier-BoldOblique starnetISO def
cleartomark
} bind def

%%BeginResource: procset graphviz 0 0
/coord-font-family /Times-Roman def
/default-font-family /Times-Roman def
/coordfont coord-font-family findfont 8 scalefont def

/InvScaleFactor 1.0 def
/set_scale {
       dup 1 exch div /InvScaleFactor exch def
       scale
} bind def

% styles
/solid { [] 0 setdash } bind def
/dashed { [9 InvScaleFactor mul dup ] 0 setdash } bind def
/dotted { [1 InvScaleFactor mul 6 InvScaleFactor mul] 0 setdash } bind def
/invis {/fill {newpath} def /stroke {newpath} def /show {pop newpath} def} bind def
/bold { 2 setlinewidth } bind def
/filled { } bind def
/unfilled { } bind def
/rounded { } bind def
/diagonals { } bind def

% hooks for setting color 
/nodecolor { sethsbcolor } bind def
/edgecolor { sethsbcolor } bind def
/graphcolor { sethsbcolor } bind def
/nopcolor {pop pop pop} bind def

/beginpage {	% i j npages
	/npages exch def
	/j exch def
	/i exch def
	/str 10 string def
	npages 1 gt {
		gsave
			coordfont setfont
			0 0 moveto
			(\() show i str cvs show (,) show j str cvs show (\)) show
		grestore
	} if
} bind def

/set_font {
	findfont exch
	scalefont setfont
} def

% draw text fitted to its expected width
/alignedtext {			% width text
	/text exch def
	/width exch def
	gsave
		width 0 gt {
			[] 0 setdash
			text stringwidth pop width exch sub text length div 0 text ashow
		} if
	grestore
} def

/boxprim {				% xcorner ycorner xsize ysize
		4 2 roll
		moveto
		2 copy
		exch 0 rlineto
		0 exch rlineto
		pop neg 0 rlineto
		closepath
} bind def

/ellipse_path {
	/ry exch def
	/rx exch def
	/y exch def
	/x exch def
	matrix currentmatrix
	newpath
	x y translate
	rx ry scale
	0 0 1 0 360 arc
	setmatrix
} bind def

/endpage { showpage } bind def
/showpage { } def

/layercolorseq
	[	% layer color sequence - darkest to lightest
		[0 0 0]
		[.2 .8 .8]
		[.4 .8 .8]
		[.6 .8 .8]
		[.8 .8 .8]
	]
def

/layerlen layercolorseq length def

/setlayer {/maxlayer exch def /curlayer exch def
	layercolorseq curlayer 1 sub layerlen mod get
	aload pop sethsbcolor
	/nodecolor {nopcolor} def
	/edgecolor {nopcolor} def
	/graphcolor {nopcolor} def
} bind def

/onlayer { curlayer ne {invis} if } def

/onlayers {
	/myupper exch def
	/mylower exch def
	curlayer mylower lt
	curlayer myupper gt
	or
	{invis} if
} def

/curlayer 0 def

%%EndResource
%%EndProlog
%%BeginSetup
14 default-font-family set_font
1 setmiterlimit
% /arrowlength 10 def
% /arrowwidth 5 def

% make sure pdfmark is harmless for PS-interpreters other than Distiller
/pdfmark where {pop} {userdict /pdfmark /cleartomark load put} ifelse
% make '<<' and '>>' safe on PS Level 1 devices
/languagelevel where {pop languagelevel}{1} ifelse
2 lt {
    userdict (<<) cvn ([) cvn load put
    userdict (>>) cvn ([) cvn load put
} if

%%EndSetup
setupLatin1
%%Page: 1 1
%%PageBoundingBox: 36 36 587 1626
%%PageOrientation: Portrait
0 0 1 beginpage
gsave
36 36 551 1590 boxprim clip newpath
1 1 set_scale 0 rotate 40 41 translate
% 1073741823
gsave
1 setlinewidth
0 0 0 nodecolor
217 1511 43.84 19.09 ellipse_path stroke
0 0 0 nodecolor
18 /Times-Roman set_font
194 1504.3 moveto 46 (Result) alignedtext
grestore
% heate
gsave
1 setlinewidth
0 0 0 nodecolor
newpath 543 1581.5 moveto
279 1581.5 lineto
279 1440.5 lineto
543 1440.5 lineto
closepath stroke
0 0 0 nodecolor
18 /Times-Roman set_font
391 1561.3 moveto 40 (heate) alignedtext
0 0 0 nodecolor
18 /Times-Roman set_font
286.5 1542.3 moveto 249 ([|te-14=0; -1.807t+time+33.52>=0;) alignedtext
0 0 0 nodecolor
18 /Times-Roman set_font
330 1523.3 moveto 162 (  -t+22.5>=0; t-22>=0;) alignedtext
0 0 0 nodecolor
18 /Times-Roman set_font
323 1504.3 moveto 176 (  1.501t-time-24.01>=0|]) alignedtext
0 0 0 nodecolor
18 /Times-Roman set_font
328 1485.3 moveto 166 ([|t in [22 , 22.5]; te=14;) alignedtext
0 0 0 nodecolor
18 /Times-Roman set_font
322.5 1466.3 moveto 177 (  time in [6.247 , 9.756]|]) alignedtext
0 0 0 nodecolor
18 /Times-Roman set_font
316 1447.3 moveto 190 (5 constraints, 4 generators) alignedtext
grestore
% 3
gsave
0 0 0 nodecolor
18 /Times-Roman set_font
314 1383.8 moveto 64 (time := 0) alignedtext
0 0 0 nodecolor
18 /Times-Roman set_font
339.5 1364.8 moveto 13 (\(\)) alignedtext
grestore
% heate->3
gsave
1 setlinewidth
0 0 0 edgecolor
newpath 375.65 1440.29 moveto
370.89 1430.77 366.21 1421.42 362.03 1413.06 curveto
stroke
0 0 0 edgecolor
newpath 365.14 1411.45 moveto
357.54 1404.08 lineto
358.88 1414.58 lineto
closepath fill
1 setlinewidth
solid
0 0 0 edgecolor
newpath 365.14 1411.45 moveto
357.54 1404.08 lineto
358.88 1414.58 lineto
closepath stroke
grestore
% heat
gsave
1 setlinewidth
0 0 0 nodecolor
newpath 445 223.5 moveto
179 223.5 lineto
179 82.5 lineto
445 82.5 lineto
closepath stroke
0 0 0 nodecolor
18 /Times-Roman set_font
296.5 203.3 moveto 31 (heat) alignedtext
0 0 0 nodecolor
18 /Times-Roman set_font
187.5 184.3 moveto 249 ([|te-14=0; -1.807t+time+33.52>=0;) alignedtext
0 0 0 nodecolor
18 /Times-Roman set_font
186.5 165.3 moveto 251 (  -1.333t+time+24>=0; -t+22.5>=0;) alignedtext
0 0 0 nodecolor
18 /Times-Roman set_font
189 146.3 moveto 246 (  time>=0; 1.501t-time-24.01>=0|]) alignedtext
0 0 0 nodecolor
18 /Times-Roman set_font
229 127.3 moveto 166 ([|t in [16 , 22.5]; te=14;) alignedtext
0 0 0 nodecolor
18 /Times-Roman set_font
239 108.3 moveto 146 (  time in [0 , 9.756]|]) alignedtext
0 0 0 nodecolor
18 /Times-Roman set_font
217 89.3 moveto 190 (6 constraints, 5 generators) alignedtext
grestore
% 4
gsave
0 0 0 nodecolor
18 /Times-Roman set_font
356 25.8 moveto 76 (t-22>=0 ? ) alignedtext
0 0 0 nodecolor
18 /Times-Roman set_font
387.5 6.8 moveto 13 (\(\)) alignedtext
grestore
% heat->4
gsave
1 setlinewidth
0 0 0 edgecolor
newpath 356.6 82.29 moveto
362.67 72.67 368.63 63.22 373.95 54.79 curveto
stroke
0 0 0 edgecolor
newpath 377.07 56.4 moveto
379.44 46.08 lineto
371.15 52.67 lineto
closepath fill
1 setlinewidth
solid
0 0 0 edgecolor
newpath 377.07 56.4 moveto
379.44 46.08 lineto
371.15 52.67 lineto
closepath stroke
grestore
% linit
gsave
1 setlinewidth
0 0 0 nodecolor
newpath 330 716 moveto
286 716 lineto
286 670 lineto
330 670 lineto
closepath stroke
0 0 0 nodecolor
18 /Times-Roman set_font
294 695.8 moveto 28 (linit) alignedtext
0 0 0 nodecolor
18 /Times-Roman set_font
296 676.8 moveto 24 (top) alignedtext
grestore
% 6
gsave
0 0 0 nodecolor
18 /Times-Roman set_font
175.5 565.3 moveto 265 (-t+17>=0 and t-16>=0 and te-14=0 ?) alignedtext
0 0 0 nodecolor
18 /Times-Roman set_font
276 546.3 moveto 64 (time := 0) alignedtext
0 0 0 nodecolor
18 /Times-Roman set_font
301.5 527.3 moveto 13 (\(\)) alignedtext
grestore
% linit->6
gsave
1 setlinewidth
0 0 0 edgecolor
newpath 308 669.88 moveto
308 649.77 308 620.09 308 595.68 curveto
stroke
0 0 0 edgecolor
newpath 311.5 595.58 moveto
308 585.58 lineto
304.5 595.58 lineto
closepath fill
1 setlinewidth
solid
0 0 0 edgecolor
newpath 311.5 595.58 moveto
308 585.58 lineto
304.5 595.58 lineto
closepath stroke
grestore
% noheate
gsave
1 setlinewidth
0 0 0 nodecolor
newpath 252 763.5 moveto
0 763.5 lineto
0 622.5 lineto
252 622.5 lineto
closepath stroke
0 0 0 nodecolor
18 /Times-Roman set_font
97 743.3 moveto 58 (noheate) alignedtext
0 0 0 nodecolor
18 /Times-Roman set_font
7.5 724.3 moveto 237 ([|te-14=0; -2.552t-time+58.1>=0;) alignedtext
0 0 0 nodecolor
18 /Times-Roman set_font
40.5 705.3 moveto 171 (  -t+18>=0; t-17.75>=0;) alignedtext
0 0 0 nodecolor
18 /Times-Roman set_font
36.5 686.3 moveto 179 (  4.133t+time-85.11>=0|]) alignedtext
0 0 0 nodecolor
18 /Times-Roman set_font
38.5 667.3 moveto 175 ([|t in [17.75 , 18]; te=14;) alignedtext
0 0 0 nodecolor
18 /Times-Roman set_font
42 648.3 moveto 168 (  time in [10.71 , 12.8]|]) alignedtext
0 0 0 nodecolor
18 /Times-Roman set_font
31 629.3 moveto 190 (5 constraints, 4 generators) alignedtext
grestore
% 0
gsave
0 0 0 nodecolor
18 /Times-Roman set_font
78 555.8 moveto 64 (time := 0) alignedtext
0 0 0 nodecolor
18 /Times-Roman set_font
103.5 536.8 moveto 13 (\(\)) alignedtext
grestore
% noheate->0
gsave
1 setlinewidth
0 0 0 edgecolor
newpath 117.91 622.18 moveto
116.48 609.67 115.05 597.19 113.81 586.35 curveto
stroke
0 0 0 edgecolor
newpath 117.25 585.64 moveto
112.64 576.11 lineto
110.3 586.44 lineto
closepath fill
1 setlinewidth
solid
0 0 0 edgecolor
newpath 117.25 585.64 moveto
112.64 576.11 lineto
110.3 586.44 lineto
closepath stroke
grestore
% noheat
gsave
1 setlinewidth
0 0 0 nodecolor
newpath 352 1061.5 moveto
90 1061.5 lineto
90 882.5 lineto
352 882.5 lineto
closepath stroke
0 0 0 nodecolor
18 /Times-Roman set_font
196.5 1041.3 moveto 49 (noheat) alignedtext
0 0 0 nodecolor
18 /Times-Roman set_font
98 1022.3 moveto 246 ([|te-14=0; -3.075t-time+69.18>=0;) alignedtext
0 0 0 nodecolor
18 /Times-Roman set_font
100.5 1003.3 moveto 241 (  -2.552t-time+58.1>=0; time>=0;) alignedtext
0 0 0 nodecolor
18 /Times-Roman set_font
115.5 984.3 moveto 211 (  2t+time-44>=0; t-17.75>=0;) alignedtext
0 0 0 nodecolor
18 /Times-Roman set_font
133.5 965.3 moveto 175 (  2.711t+time-58.66>=0;) alignedtext
0 0 0 nodecolor
18 /Times-Roman set_font
131.5 946.3 moveto 179 (  4.133t+time-85.11>=0|]) alignedtext
0 0 0 nodecolor
18 /Times-Roman set_font
127.5 927.3 moveto 187 ([|t in [17.75 , 22.5]; te=14;) alignedtext
0 0 0 nodecolor
18 /Times-Roman set_font
152.5 908.3 moveto 137 (  time in [0 , 12.8]|]) alignedtext
0 0 0 nodecolor
18 /Times-Roman set_font
126 889.3 moveto 190 (8 constraints, 7 generators) alignedtext
grestore
% 1
gsave
0 0 0 nodecolor
18 /Times-Roman set_font
94.5 825.8 moveto 85 (-t+18>=0 ? ) alignedtext
0 0 0 nodecolor
18 /Times-Roman set_font
130.5 806.8 moveto 13 (\(\)) alignedtext
grestore
% noheat->1
gsave
1 setlinewidth
0 0 0 edgecolor
newpath 170.44 882.32 moveto
164.99 872.64 159.74 863.33 155.07 855.06 curveto
stroke
0 0 0 edgecolor
newpath 158.04 853.2 moveto
150.08 846.2 lineto
151.94 856.63 lineto
closepath fill
1 setlinewidth
solid
0 0 0 edgecolor
newpath 158.04 853.2 moveto
150.08 846.2 lineto
151.94 856.63 lineto
closepath stroke
grestore
% heat_start
gsave
1 setlinewidth
0 0 0 nodecolor
newpath 448 484 moveto
154 484 lineto
154 400 lineto
448 400 lineto
closepath stroke
0 0 0 nodecolor
18 /Times-Roman set_font
265 463.8 moveto 72 (heat_start) alignedtext
0 0 0 nodecolor
18 /Times-Roman set_font
162 444.8 moveto 278 ([|time=0; te-14=0; -t+18>=0; t-16>=0|]) alignedtext
0 0 0 nodecolor
18 /Times-Roman set_font
192.5 425.8 moveto 217 ([|t in [16 , 18]; te=14; time=0|]) alignedtext
0 0 0 nodecolor
18 /Times-Roman set_font
206 406.8 moveto 190 (4 constraints, 2 generators) alignedtext
grestore
% 5
gsave
0 0 0 nodecolor
18 /Times-Roman set_font
262 343.3 moveto 86 (\(-t+22>=0 ?) alignedtext
0 0 0 nodecolor
18 /Times-Roman set_font
229.5 324.3 moveto 151 (t := 15/16t+1/16te+1;) alignedtext
0 0 0 nodecolor
18 /Times-Roman set_font
277.5 305.3 moveto 55 (te := te;) alignedtext
0 0 0 nodecolor
18 /Times-Roman set_font
245 286.3 moveto 120 (time := time+1\)*) alignedtext
0 0 0 nodecolor
18 /Times-Roman set_font
298.5 267.3 moveto 13 (\(\)) alignedtext
grestore
% heat_start->5
gsave
1 setlinewidth
0 0 0 edgecolor
newpath 302.3 399.79 moveto
302.55 391.48 302.83 382.6 303.1 373.79 curveto
stroke
0 0 0 edgecolor
newpath 306.61 373.64 moveto
303.41 363.53 lineto
299.61 373.42 lineto
closepath fill
1 setlinewidth
solid
0 0 0 edgecolor
newpath 306.61 373.64 moveto
303.41 363.53 lineto
299.61 373.42 lineto
closepath stroke
grestore
% noheat_start
gsave
1 setlinewidth
0 0 0 nodecolor
newpath 437 1322 moveto
131 1322 lineto
131 1238 lineto
437 1238 lineto
closepath stroke
0 0 0 nodecolor
18 /Times-Roman set_font
239 1301.8 moveto 90 (noheat_start) alignedtext
0 0 0 nodecolor
18 /Times-Roman set_font
138.5 1282.8 moveto 291 ([|time=0; te-14=0; -t+22.5>=0; t-22>=0|]) alignedtext
0 0 0 nodecolor
18 /Times-Roman set_font
169.5 1263.8 moveto 229 ([|t in [22 , 22.5]; te=14; time=0|]) alignedtext
0 0 0 nodecolor
18 /Times-Roman set_font
189 1244.8 moveto 190 (4 constraints, 2 generators) alignedtext
grestore
% 2
gsave
0 0 0 nodecolor
18 /Times-Roman set_font
224.5 1181.3 moveto 77 (\(t-18>=0 ?) alignedtext
0 0 0 nodecolor
18 /Times-Roman set_font
196.5 1162.3 moveto 133 (t := 15/16t+1/16te;) alignedtext
0 0 0 nodecolor
18 /Times-Roman set_font
235.5 1143.3 moveto 55 (te := te;) alignedtext
0 0 0 nodecolor
18 /Times-Roman set_font
203 1124.3 moveto 120 (time := time+1\)*) alignedtext
0 0 0 nodecolor
18 /Times-Roman set_font
256.5 1105.3 moveto 13 (\(\)) alignedtext
grestore
% noheat_start->2
gsave
1 setlinewidth
0 0 0 edgecolor
newpath 277.18 1237.79 moveto
275.82 1229.39 274.37 1220.4 272.94 1211.51 curveto
stroke
0 0 0 edgecolor
newpath 276.37 1210.85 moveto
271.32 1201.53 lineto
269.46 1211.96 lineto
closepath fill
1 setlinewidth
solid
0 0 0 edgecolor
newpath 276.37 1210.85 moveto
271.32 1201.53 lineto
269.46 1211.96 lineto
closepath stroke
grestore
% 0->heat_start
gsave
1 setlinewidth
0 0 0 edgecolor
newpath 143.48 529.87 moveto
148.63 526.48 153.92 523.1 159 520 curveto
175.97 509.65 194.4 499.07 212.18 489.18 curveto
stroke
0 0 0 edgecolor
newpath 214.36 491.97 moveto
221.41 484.07 lineto
210.97 485.85 lineto
closepath fill
1 setlinewidth
solid
0 0 0 edgecolor
newpath 214.36 491.97 moveto
221.41 484.07 lineto
210.97 485.85 lineto
closepath stroke
grestore
% 1->noheate
gsave
1 setlinewidth
0 0 0 edgecolor
newpath 135.03 799.76 moveto
134.39 792.12 133.63 783.14 132.83 773.69 curveto
stroke
0 0 0 edgecolor
newpath 136.31 773.38 moveto
131.98 763.71 lineto
129.34 773.97 lineto
closepath fill
1 setlinewidth
solid
0 0 0 edgecolor
newpath 136.31 773.38 moveto
131.98 763.71 lineto
129.34 773.97 lineto
closepath stroke
grestore
% 2->noheat
gsave
1 setlinewidth
0 0 0 edgecolor
newpath 250.74 1098.04 moveto
248.75 1089.6 246.63 1080.62 244.47 1071.49 curveto
stroke
0 0 0 edgecolor
newpath 247.83 1070.47 moveto
242.13 1061.54 lineto
241.02 1072.07 lineto
closepath fill
1 setlinewidth
solid
0 0 0 edgecolor
newpath 247.83 1070.47 moveto
242.13 1061.54 lineto
241.02 1072.07 lineto
closepath stroke
grestore
% 3->noheat_start
gsave
1 setlinewidth
0 0 0 edgecolor
newpath 331.78 1357.83 moveto
326.79 1349.71 320.99 1340.25 315.17 1330.77 curveto
stroke
0 0 0 edgecolor
newpath 318.06 1328.8 moveto
309.85 1322.11 lineto
312.1 1332.46 lineto
closepath fill
1 setlinewidth
solid
0 0 0 edgecolor
newpath 318.06 1328.8 moveto
309.85 1322.11 lineto
312.1 1332.46 lineto
closepath stroke
grestore
% 4->heate
gsave
1 setlinewidth
0 0 0 edgecolor
newpath 425.43 46.19 moveto
436.34 55.97 447.47 68.28 454 82 curveto
498.16 174.71 476 209.31 476 312 curveto
476 1280 476 1280 476 1280 curveto
476 1331.53 460.83 1387.18 445.15 1430.95 curveto
stroke
0 0 0 edgecolor
newpath 441.84 1429.79 moveto
441.69 1440.38 lineto
448.42 1432.2 lineto
closepath fill
1 setlinewidth
solid
0 0 0 edgecolor
newpath 441.84 1429.79 moveto
441.69 1440.38 lineto
448.42 1432.2 lineto
closepath stroke
grestore
% 5->heat
gsave
1 setlinewidth
0 0 0 edgecolor
newpath 307.27 260.38 moveto
307.65 251.88 308.04 242.89 308.44 233.88 curveto
stroke
0 0 0 edgecolor
newpath 311.94 233.87 moveto
308.89 223.73 lineto
304.95 233.56 lineto
closepath fill
1 setlinewidth
solid
0 0 0 edgecolor
newpath 311.94 233.87 moveto
308.89 223.73 lineto
304.95 233.56 lineto
closepath stroke
grestore
% 6->heat_start
gsave
1 setlinewidth
0 0 0 edgecolor
newpath 305.94 520.3 moveto
305.43 512.21 304.87 503.34 304.31 494.56 curveto
stroke
0 0 0 edgecolor
newpath 307.79 494.12 moveto
303.67 484.36 lineto
300.81 494.56 lineto
closepath fill
1 setlinewidth
solid
0 0 0 edgecolor
newpath 307.79 494.12 moveto
303.67 484.36 lineto
300.81 494.56 lineto
closepath stroke
grestore
endpage
showpage
grestore
%%PageTrailer
%%EndPage: 1
%%Trailer
%%Pages: 1
%%BoundingBox: 36 36 587 1626
end
restore
%%EOF
