%!PS-Adobe-3.0
%%Creator: graphviz version 2.26.3 (20100126.1600)
%%Title: G
%%Pages: (atend)
%%BoundingBox: (atend)
%%EndComments
save
%%BeginProlog
/DotDict 200 dict def
DotDict begin

/setupLatin1 {
mark
/EncodingVector 256 array def
 EncodingVector 0

ISOLatin1Encoding 0 255 getinterval putinterval
EncodingVector 45 /hyphen put

% Set up ISO Latin 1 character encoding
/starnetISO {
        dup dup findfont dup length dict begin
        { 1 index /FID ne { def }{ pop pop } ifelse
        } forall
        /Encoding EncodingVector def
        currentdict end definefont
} def
/Times-Roman starnetISO def
/Times-Italic starnetISO def
/Times-Bold starnetISO def
/Times-BoldItalic starnetISO def
/Helvetica starnetISO def
/Helvetica-Oblique starnetISO def
/Helvetica-Bold starnetISO def
/Helvetica-BoldOblique starnetISO def
/Courier starnetISO def
/Courier-Oblique starnetISO def
/Courier-Bold starnetISO def
/Courier-BoldOblique starnetISO def
cleartomark
} bind def

%%BeginResource: procset graphviz 0 0
/coord-font-family /Times-Roman def
/default-font-family /Times-Roman def
/coordfont coord-font-family findfont 8 scalefont def

/InvScaleFactor 1.0 def
/set_scale {
       dup 1 exch div /InvScaleFactor exch def
       scale
} bind def

% styles
/solid { [] 0 setdash } bind def
/dashed { [9 InvScaleFactor mul dup ] 0 setdash } bind def
/dotted { [1 InvScaleFactor mul 6 InvScaleFactor mul] 0 setdash } bind def
/invis {/fill {newpath} def /stroke {newpath} def /show {pop newpath} def} bind def
/bold { 2 setlinewidth } bind def
/filled { } bind def
/unfilled { } bind def
/rounded { } bind def
/diagonals { } bind def

% hooks for setting color 
/nodecolor { sethsbcolor } bind def
/edgecolor { sethsbcolor } bind def
/graphcolor { sethsbcolor } bind def
/nopcolor {pop pop pop} bind def

/beginpage {	% i j npages
	/npages exch def
	/j exch def
	/i exch def
	/str 10 string def
	npages 1 gt {
		gsave
			coordfont setfont
			0 0 moveto
			(\() show i str cvs show (,) show j str cvs show (\)) show
		grestore
	} if
} bind def

/set_font {
	findfont exch
	scalefont setfont
} def

% draw text fitted to its expected width
/alignedtext {			% width text
	/text exch def
	/width exch def
	gsave
		width 0 gt {
			[] 0 setdash
			text stringwidth pop width exch sub text length div 0 text ashow
		} if
	grestore
} def

/boxprim {				% xcorner ycorner xsize ysize
		4 2 roll
		moveto
		2 copy
		exch 0 rlineto
		0 exch rlineto
		pop neg 0 rlineto
		closepath
} bind def

/ellipse_path {
	/ry exch def
	/rx exch def
	/y exch def
	/x exch def
	matrix currentmatrix
	newpath
	x y translate
	rx ry scale
	0 0 1 0 360 arc
	setmatrix
} bind def

/endpage { showpage } bind def
/showpage { } def

/layercolorseq
	[	% layer color sequence - darkest to lightest
		[0 0 0]
		[.2 .8 .8]
		[.4 .8 .8]
		[.6 .8 .8]
		[.8 .8 .8]
	]
def

/layerlen layercolorseq length def

/setlayer {/maxlayer exch def /curlayer exch def
	layercolorseq curlayer 1 sub layerlen mod get
	aload pop sethsbcolor
	/nodecolor {nopcolor} def
	/edgecolor {nopcolor} def
	/graphcolor {nopcolor} def
} bind def

/onlayer { curlayer ne {invis} if } def

/onlayers {
	/myupper exch def
	/mylower exch def
	curlayer mylower lt
	curlayer myupper gt
	or
	{invis} if
} def

/curlayer 0 def

%%EndResource
%%EndProlog
%%BeginSetup
14 default-font-family set_font
1 setmiterlimit
% /arrowlength 10 def
% /arrowwidth 5 def

% make sure pdfmark is harmless for PS-interpreters other than Distiller
/pdfmark where {pop} {userdict /pdfmark /cleartomark load put} ifelse
% make '<<' and '>>' safe on PS Level 1 devices
/languagelevel where {pop languagelevel}{1} ifelse
2 lt {
    userdict (<<) cvn ([) cvn load put
    userdict (>>) cvn ([) cvn load put
} if

%%EndSetup
setupLatin1
%%Page: 1 1
%%PageBoundingBox: 36 36 531 1320
%%PageOrientation: Portrait
0 0 1 beginpage
gsave
36 36 495 1284 boxprim clip newpath
1 1 set_scale 0 rotate 40 41 translate
% 1073741823
gsave
1 setlinewidth
0 0 0 nodecolor
219 1234 43.84 19.09 ellipse_path stroke
0 0 0 nodecolor
18 /Times-Roman set_font
196 1227.3 moveto 46 (Result) alignedtext
grestore
% heate
gsave
1 setlinewidth
0 0 0 nodecolor
newpath 487 1276 moveto
281 1276 lineto
281 1192 lineto
487 1192 lineto
closepath stroke
0 0 0 nodecolor
18 /Times-Roman set_font
364 1255.8 moveto 40 (heate) alignedtext
0 0 0 nodecolor
18 /Times-Roman set_font
301 1236.8 moveto 166 ([|t in [22 , 22.5]; te=14;) alignedtext
0 0 0 nodecolor
18 /Times-Roman set_font
300 1217.8 moveto 168 (  time in [5.333 , 9.82]|]) alignedtext
0 0 0 nodecolor
18 /Times-Roman set_font
289 1198.8 moveto 190 (5 constraints, 4 generators) alignedtext
grestore
% 3
gsave
0 0 0 nodecolor
18 /Times-Roman set_font
294 1135.8 moveto 64 (time := 0) alignedtext
0 0 0 nodecolor
18 /Times-Roman set_font
319.5 1116.8 moveto 13 (\(\)) alignedtext
grestore
% heate->3
gsave
1 setlinewidth
0 0 0 edgecolor
newpath 359.74 1191.75 moveto
354.59 1182.78 349.23 1173.45 344.34 1164.94 curveto
stroke
0 0 0 edgecolor
newpath 347.27 1163.01 moveto
339.25 1156.08 lineto
341.2 1166.5 lineto
closepath fill
1 setlinewidth
solid
0 0 0 edgecolor
newpath 347.27 1163.01 moveto
339.25 1156.08 lineto
341.2 1166.5 lineto
closepath stroke
grestore
% heat
gsave
1 setlinewidth
0 0 0 nodecolor
newpath 404 166 moveto
198 166 lineto
198 82 lineto
404 82 lineto
closepath stroke
0 0 0 nodecolor
18 /Times-Roman set_font
285.5 145.8 moveto 31 (heat) alignedtext
0 0 0 nodecolor
18 /Times-Roman set_font
218 126.8 moveto 166 ([|t in [16 , 22.5]; te=14;) alignedtext
0 0 0 nodecolor
18 /Times-Roman set_font
232.5 107.8 moveto 137 (  time in [0 , 9.82]|]) alignedtext
0 0 0 nodecolor
18 /Times-Roman set_font
206 88.8 moveto 190 (6 constraints, 5 generators) alignedtext
grestore
% 4
gsave
0 0 0 nodecolor
18 /Times-Roman set_font
333 25.8 moveto 76 (t-22>=0 ? ) alignedtext
0 0 0 nodecolor
18 /Times-Roman set_font
364.5 6.8 moveto 13 (\(\)) alignedtext
grestore
% heat->4
gsave
1 setlinewidth
0 0 0 edgecolor
newpath 330.28 81.75 moveto
336.63 72.59 343.24 63.05 349.24 54.4 curveto
stroke
0 0 0 edgecolor
newpath 352.18 56.29 moveto
355 46.08 lineto
346.43 52.31 lineto
closepath fill
1 setlinewidth
solid
0 0 0 edgecolor
newpath 352.18 56.29 moveto
355 46.08 lineto
346.43 52.31 lineto
closepath stroke
grestore
% linit
gsave
1 setlinewidth
0 0 0 nodecolor
newpath 295 611 moveto
251 611 lineto
251 565 lineto
295 565 lineto
closepath stroke
0 0 0 nodecolor
18 /Times-Roman set_font
259 590.8 moveto 28 (linit) alignedtext
0 0 0 nodecolor
18 /Times-Roman set_font
261 571.8 moveto 24 (top) alignedtext
grestore
% 6
gsave
0 0 0 nodecolor
18 /Times-Roman set_font
140.5 489.3 moveto 265 (-t+17>=0 and t-16>=0 and te-14=0 ?) alignedtext
0 0 0 nodecolor
18 /Times-Roman set_font
241 470.3 moveto 64 (time := 0) alignedtext
0 0 0 nodecolor
18 /Times-Roman set_font
266.5 451.3 moveto 13 (\(\)) alignedtext
grestore
% linit->6
gsave
1 setlinewidth
0 0 0 edgecolor
newpath 273 564.73 moveto
273 551.82 273 535.34 273 520.16 curveto
stroke
0 0 0 edgecolor
newpath 276.5 519.92 moveto
273 509.92 lineto
269.5 519.92 lineto
closepath fill
1 setlinewidth
solid
0 0 0 edgecolor
newpath 276.5 519.92 moveto
273 509.92 lineto
269.5 519.92 lineto
closepath stroke
grestore
% noheate
gsave
1 setlinewidth
0 0 0 nodecolor
newpath 206 630 moveto
0 630 lineto
0 546 lineto
206 546 lineto
closepath stroke
0 0 0 nodecolor
18 /Times-Roman set_font
74 609.8 moveto 58 (noheate) alignedtext
0 0 0 nodecolor
18 /Times-Roman set_font
15.5 590.8 moveto 175 ([|t in [17.75 , 18]; te=14;) alignedtext
0 0 0 nodecolor
18 /Times-Roman set_font
30 571.8 moveto 146 (  time in [8 , 12.86]|]) alignedtext
0 0 0 nodecolor
18 /Times-Roman set_font
8 552.8 moveto 190 (5 constraints, 4 generators) alignedtext
grestore
% 0
gsave
0 0 0 nodecolor
18 /Times-Roman set_font
43 479.8 moveto 64 (time := 0) alignedtext
0 0 0 nodecolor
18 /Times-Roman set_font
68.5 460.8 moveto 13 (\(\)) alignedtext
grestore
% noheate->0
gsave
1 setlinewidth
0 0 0 edgecolor
newpath 92.33 545.72 moveto
89.35 533.9 86.16 521.23 83.33 510.03 curveto
stroke
0 0 0 edgecolor
newpath 86.7 509.06 moveto
80.86 500.22 lineto
79.91 510.77 lineto
closepath fill
1 setlinewidth
solid
0 0 0 edgecolor
newpath 86.7 509.06 moveto
80.86 500.22 lineto
79.91 510.77 lineto
closepath stroke
grestore
% noheat
gsave
1 setlinewidth
0 0 0 nodecolor
newpath 312 832 moveto
106 832 lineto
106 748 lineto
312 748 lineto
closepath stroke
0 0 0 nodecolor
18 /Times-Roman set_font
184.5 811.8 moveto 49 (noheat) alignedtext
0 0 0 nodecolor
18 /Times-Roman set_font
115.5 792.8 moveto 187 ([|t in [17.75 , 22.5]; te=14;) alignedtext
0 0 0 nodecolor
18 /Times-Roman set_font
136 773.8 moveto 146 (  time in [0 , 12.86]|]) alignedtext
0 0 0 nodecolor
18 /Times-Roman set_font
114 754.8 moveto 190 (6 constraints, 5 generators) alignedtext
grestore
% 1
gsave
0 0 0 nodecolor
18 /Times-Roman set_font
72.5 691.8 moveto 85 (-t+18>=0 ? ) alignedtext
0 0 0 nodecolor
18 /Times-Roman set_font
108.5 672.8 moveto 13 (\(\)) alignedtext
grestore
% noheat->1
gsave
1 setlinewidth
0 0 0 edgecolor
newpath 169.68 747.75 moveto
160.89 738.3 151.72 728.46 143.47 719.59 curveto
stroke
0 0 0 edgecolor
newpath 145.86 717.02 moveto
136.48 712.08 lineto
140.73 721.79 lineto
closepath fill
1 setlinewidth
solid
0 0 0 edgecolor
newpath 145.86 717.02 moveto
136.48 712.08 lineto
140.73 721.79 lineto
closepath stroke
grestore
% heat_start
gsave
1 setlinewidth
0 0 0 nodecolor
newpath 389 407.5 moveto
157 407.5 lineto
157 342.5 lineto
389 342.5 lineto
closepath stroke
0 0 0 nodecolor
18 /Times-Roman set_font
237 387.3 moveto 72 (heat_start) alignedtext
0 0 0 nodecolor
18 /Times-Roman set_font
164.5 368.3 moveto 217 ([|t in [16 , 18]; te=14; time=0|]) alignedtext
0 0 0 nodecolor
18 /Times-Roman set_font
178 349.3 moveto 190 (4 constraints, 2 generators) alignedtext
grestore
% 5
gsave
0 0 0 nodecolor
18 /Times-Roman set_font
240 285.3 moveto 86 (\(-t+22>=0 ?) alignedtext
0 0 0 nodecolor
18 /Times-Roman set_font
207.5 266.3 moveto 151 (t := 15/16t+1/16te+1;) alignedtext
0 0 0 nodecolor
18 /Times-Roman set_font
255.5 247.3 moveto 55 (te := te;) alignedtext
0 0 0 nodecolor
18 /Times-Roman set_font
223 228.3 moveto 120 (time := time+1\)*) alignedtext
0 0 0 nodecolor
18 /Times-Roman set_font
276.5 209.3 moveto 13 (\(\)) alignedtext
grestore
% heat_start->5
gsave
1 setlinewidth
0 0 0 edgecolor
newpath 275.71 342.26 moveto
276.38 334.12 277.12 325.13 277.87 316.09 curveto
stroke
0 0 0 edgecolor
newpath 281.37 316.16 moveto
278.71 305.91 lineto
274.4 315.59 lineto
closepath fill
1 setlinewidth
solid
0 0 0 edgecolor
newpath 281.37 316.16 moveto
278.71 305.91 lineto
274.4 315.59 lineto
closepath stroke
grestore
% noheat_start
gsave
1 setlinewidth
0 0 0 nodecolor
newpath 401 1073.5 moveto
157 1073.5 lineto
157 1008.5 lineto
401 1008.5 lineto
closepath stroke
0 0 0 nodecolor
18 /Times-Roman set_font
234 1053.3 moveto 90 (noheat_start) alignedtext
0 0 0 nodecolor
18 /Times-Roman set_font
164.5 1034.3 moveto 229 ([|t in [22 , 22.5]; te=14; time=0|]) alignedtext
0 0 0 nodecolor
18 /Times-Roman set_font
184 1015.3 moveto 190 (4 constraints, 2 generators) alignedtext
grestore
% 2
gsave
0 0 0 nodecolor
18 /Times-Roman set_font
217.5 951.3 moveto 77 (\(t-18>=0 ?) alignedtext
0 0 0 nodecolor
18 /Times-Roman set_font
189.5 932.3 moveto 133 (t := 15/16t+1/16te;) alignedtext
0 0 0 nodecolor
18 /Times-Roman set_font
228.5 913.3 moveto 55 (te := te;) alignedtext
0 0 0 nodecolor
18 /Times-Roman set_font
196 894.3 moveto 120 (time := time+1\)*) alignedtext
0 0 0 nodecolor
18 /Times-Roman set_font
249.5 875.3 moveto 13 (\(\)) alignedtext
grestore
% noheat_start->2
gsave
1 setlinewidth
0 0 0 edgecolor
newpath 272.78 1008.26 moveto
271.21 1000.03 269.48 990.93 267.75 981.8 curveto
stroke
0 0 0 edgecolor
newpath 271.17 981.08 moveto
265.87 971.91 lineto
264.3 982.39 lineto
closepath fill
1 setlinewidth
solid
0 0 0 edgecolor
newpath 271.17 981.08 moveto
265.87 971.91 lineto
264.3 982.39 lineto
closepath stroke
grestore
% 0->heat_start
gsave
1 setlinewidth
0 0 0 edgecolor
newpath 107.76 453.9 moveto
113.1 450.44 118.64 447.02 124 444 curveto
144.01 432.72 166.19 421.71 187.18 411.91 curveto
stroke
0 0 0 edgecolor
newpath 188.8 415.02 moveto
196.41 407.64 lineto
185.87 408.66 lineto
closepath fill
1 setlinewidth
solid
0 0 0 edgecolor
newpath 188.8 415.02 moveto
196.41 407.64 lineto
185.87 408.66 lineto
closepath stroke
grestore
% 1->noheate
gsave
1 setlinewidth
0 0 0 edgecolor
newpath 112.25 665.83 moveto
111.33 658.13 110.27 649.21 109.2 640.22 curveto
stroke
0 0 0 edgecolor
newpath 112.66 639.62 moveto
108 630.11 lineto
105.71 640.45 lineto
closepath fill
1 setlinewidth
solid
0 0 0 edgecolor
newpath 112.66 639.62 moveto
108 630.11 lineto
105.71 640.45 lineto
closepath stroke
grestore
% 2->noheat
gsave
1 setlinewidth
0 0 0 edgecolor
newpath 237.29 868.25 moveto
234.16 859.6 230.92 850.64 227.8 841.99 curveto
stroke
0 0 0 edgecolor
newpath 231.02 840.61 moveto
224.33 832.39 lineto
224.44 842.99 lineto
closepath fill
1 setlinewidth
solid
0 0 0 edgecolor
newpath 231.02 840.61 moveto
224.33 832.39 lineto
224.44 842.99 lineto
closepath stroke
grestore
% 3->noheat_start
gsave
1 setlinewidth
0 0 0 edgecolor
newpath 314.14 1109.78 moveto
309.94 1101.56 305.07 1092.04 300.33 1082.75 curveto
stroke
0 0 0 edgecolor
newpath 303.32 1080.9 moveto
295.65 1073.59 lineto
297.08 1084.09 lineto
closepath fill
1 setlinewidth
solid
0 0 0 edgecolor
newpath 303.32 1080.9 moveto
295.65 1073.59 lineto
297.08 1084.09 lineto
closepath stroke
grestore
% 4->heate
gsave
1 setlinewidth
0 0 0 edgecolor
newpath 391.27 46.2 moveto
399.25 56.52 407.74 69.21 413 82 curveto
442.45 153.63 441 176.55 441 254 curveto
441 1041 441 1041 441 1041 curveto
441 1090.44 423.58 1144.19 408.01 1182.39 curveto
stroke
0 0 0 edgecolor
newpath 404.72 1181.17 moveto
404.1 1191.75 lineto
411.18 1183.87 lineto
closepath fill
1 setlinewidth
solid
0 0 0 edgecolor
newpath 404.72 1181.17 moveto
404.1 1191.75 lineto
411.18 1183.87 lineto
closepath stroke
grestore
% 5->heat
gsave
1 setlinewidth
0 0 0 edgecolor
newpath 290.17 202.25 moveto
291.34 193.79 292.55 185.02 293.72 176.54 curveto
stroke
0 0 0 edgecolor
newpath 297.23 176.78 moveto
295.13 166.39 lineto
290.29 175.82 lineto
closepath fill
1 setlinewidth
solid
0 0 0 edgecolor
newpath 297.23 176.78 moveto
295.13 166.39 lineto
290.29 175.82 lineto
closepath stroke
grestore
% 6->heat_start
gsave
1 setlinewidth
0 0 0 edgecolor
newpath 273 444.45 moveto
273 435.98 273 426.73 273 417.83 curveto
stroke
0 0 0 edgecolor
newpath 276.5 417.59 moveto
273 407.59 lineto
269.5 417.59 lineto
closepath fill
1 setlinewidth
solid
0 0 0 edgecolor
newpath 276.5 417.59 moveto
273 407.59 lineto
269.5 417.59 lineto
closepath stroke
grestore
endpage
showpage
grestore
%%PageTrailer
%%EndPage: 1
setupLatin1
%%Page: 2 2
%%PageBoundingBox: 36 36 525 952
%%PageOrientation: Portrait
0 0 1 beginpage
gsave
36 36 489 916 boxprim clip newpath
1 1 set_scale 0 rotate 40 41 translate
% 1073741823
gsave
1 setlinewidth
0 0 0 nodecolor
213 866 43.84 19.09 ellipse_path stroke
0 0 0 nodecolor
18 /Times-Roman set_font
190 859.3 moveto 46 (Result) alignedtext
grestore
% heate
gsave
1 setlinewidth
0 0 0 nodecolor
newpath 481 908 moveto
275 908 lineto
275 824 lineto
481 824 lineto
closepath stroke
0 0 0 nodecolor
18 /Times-Roman set_font
358 887.8 moveto 40 (heate) alignedtext
0 0 0 nodecolor
18 /Times-Roman set_font
295 868.8 moveto 166 ([|t in [22 , 22.5]; te=14;) alignedtext
0 0 0 nodecolor
18 /Times-Roman set_font
295.5 849.8 moveto 165 (  time in [1.679 , INF]|]) alignedtext
0 0 0 nodecolor
18 /Times-Roman set_font
283 830.8 moveto 190 (4 constraints, 3 generators) alignedtext
grestore
% 3
gsave
0 0 0 nodecolor
18 /Times-Roman set_font
282 767.8 moveto 64 (time := 0) alignedtext
0 0 0 nodecolor
18 /Times-Roman set_font
307.5 748.8 moveto 13 (\(\)) alignedtext
grestore
% heate->3
gsave
1 setlinewidth
0 0 0 edgecolor
newpath 351.23 823.75 moveto
345.48 814.69 339.51 805.25 334.07 796.67 curveto
stroke
0 0 0 edgecolor
newpath 336.93 794.65 moveto
328.63 788.08 lineto
331.02 798.4 lineto
closepath fill
1 setlinewidth
solid
0 0 0 edgecolor
newpath 336.93 794.65 moveto
328.63 788.08 lineto
331.02 798.4 lineto
closepath stroke
grestore
% linit
gsave
1 setlinewidth
0 0 0 nodecolor
newpath 296 427 moveto
252 427 lineto
252 381 lineto
296 381 lineto
closepath stroke
0 0 0 nodecolor
18 /Times-Roman set_font
260 406.8 moveto 28 (linit) alignedtext
0 0 0 nodecolor
18 /Times-Roman set_font
262 387.8 moveto 24 (top) alignedtext
grestore
% 6
gsave
0 0 0 nodecolor
18 /Times-Roman set_font
141.5 305.3 moveto 265 (-t+17>=0 and t-16>=0 and te-14=0 ?) alignedtext
0 0 0 nodecolor
18 /Times-Roman set_font
242 286.3 moveto 64 (time := 0) alignedtext
0 0 0 nodecolor
18 /Times-Roman set_font
267.5 267.3 moveto 13 (\(\)) alignedtext
grestore
% linit->6
gsave
1 setlinewidth
0 0 0 edgecolor
newpath 274 380.73 moveto
274 367.82 274 351.34 274 336.16 curveto
stroke
0 0 0 edgecolor
newpath 277.5 335.92 moveto
274 325.92 lineto
270.5 335.92 lineto
closepath fill
1 setlinewidth
solid
0 0 0 edgecolor
newpath 277.5 335.92 moveto
274 325.92 lineto
270.5 335.92 lineto
closepath stroke
grestore
% heat
gsave
1 setlinewidth
0 0 0 nodecolor
newpath 377 224 moveto
171 224 lineto
171 140 lineto
377 140 lineto
closepath stroke
0 0 0 nodecolor
18 /Times-Roman set_font
258.5 203.8 moveto 31 (heat) alignedtext
0 0 0 nodecolor
18 /Times-Roman set_font
183.5 184.8 moveto 181 ([|t in [-INF , 22.5]; te=14;) alignedtext
0 0 0 nodecolor
18 /Times-Roman set_font
207 165.8 moveto 134 (  time in [0 , INF]|]) alignedtext
0 0 0 nodecolor
18 /Times-Roman set_font
179 146.8 moveto 190 (4 constraints, 4 generators) alignedtext
grestore
% 4
gsave
0 0 0 nodecolor
18 /Times-Roman set_font
393 54.8 moveto 76 (t-22>=0 ? ) alignedtext
0 0 0 nodecolor
18 /Times-Roman set_font
424.5 35.8 moveto 13 (\(\)) alignedtext
grestore
% heat->4
gsave
1 setlinewidth
0 0 0 edgecolor
newpath 324.97 139.79 moveto
347.9 120.81 374.4 98.86 395.18 81.66 curveto
stroke
0 0 0 edgecolor
newpath 397.66 84.15 moveto
403.13 75.08 lineto
393.2 78.76 lineto
closepath fill
1 setlinewidth
solid
0 0 0 edgecolor
newpath 397.66 84.15 moveto
403.13 75.08 lineto
393.2 78.76 lineto
closepath stroke
grestore
% 5
gsave
0 0 0 nodecolor
18 /Times-Roman set_font
234 83.3 moveto 80 (-t+22>=0 ?) alignedtext
0 0 0 nodecolor
18 /Times-Roman set_font
198.5 64.3 moveto 151 (t := 15/16t+1/16te+1;) alignedtext
0 0 0 nodecolor
18 /Times-Roman set_font
246.5 45.3 moveto 55 (te := te;) alignedtext
0 0 0 nodecolor
18 /Times-Roman set_font
221.5 26.3 moveto 105 (time := time+1) alignedtext
0 0 0 nodecolor
18 /Times-Roman set_font
267.5 7.3 moveto 13 (\(\)) alignedtext
grestore
% heat->5
gsave
1 setlinewidth
0 0 0 edgecolor
newpath 267.63 139.79 moveto
267.34 131.48 267.22 122.6 267.26 113.79 curveto
stroke
0 0 0 edgecolor
newpath 270.76 113.58 moveto
267.38 103.53 lineto
263.76 113.49 lineto
closepath fill
1 setlinewidth
solid
0 0 0 edgecolor
newpath 270.76 113.58 moveto
267.38 103.53 lineto
263.76 113.49 lineto
closepath stroke
grestore
% noheate
gsave
1 setlinewidth
0 0 0 nodecolor
newpath 206 446 moveto
0 446 lineto
0 362 lineto
206 362 lineto
closepath stroke
0 0 0 nodecolor
18 /Times-Roman set_font
74 425.8 moveto 58 (noheate) alignedtext
0 0 0 nodecolor
18 /Times-Roman set_font
15.5 406.8 moveto 175 ([|t in [17.75 , 18]; te=14;) alignedtext
0 0 0 nodecolor
18 /Times-Roman set_font
20.5 387.8 moveto 165 (  time in [8.898 , INF]|]) alignedtext
0 0 0 nodecolor
18 /Times-Roman set_font
8 368.8 moveto 190 (4 constraints, 3 generators) alignedtext
grestore
% 0
gsave
0 0 0 nodecolor
18 /Times-Roman set_font
44 295.8 moveto 64 (time := 0) alignedtext
0 0 0 nodecolor
18 /Times-Roman set_font
69.5 276.8 moveto 13 (\(\)) alignedtext
grestore
% noheate->0
gsave
1 setlinewidth
0 0 0 edgecolor
newpath 92.72 361.72 moveto
89.84 349.9 86.76 337.23 84.03 326.03 curveto
stroke
0 0 0 edgecolor
newpath 87.41 325.11 moveto
81.65 316.22 lineto
80.61 326.76 lineto
closepath fill
1 setlinewidth
solid
0 0 0 edgecolor
newpath 87.41 325.11 moveto
81.65 316.22 lineto
80.61 326.76 lineto
closepath stroke
grestore
% noheat
gsave
1 setlinewidth
0 0 0 nodecolor
newpath 357 706 moveto
151 706 lineto
151 622 lineto
357 622 lineto
closepath stroke
0 0 0 nodecolor
18 /Times-Roman set_font
229.5 685.8 moveto 49 (noheat) alignedtext
0 0 0 nodecolor
18 /Times-Roman set_font
162 666.8 moveto 184 ([|t in [17.75 , INF]; te=14;) alignedtext
0 0 0 nodecolor
18 /Times-Roman set_font
187 647.8 moveto 134 (  time in [0 , INF]|]) alignedtext
0 0 0 nodecolor
18 /Times-Roman set_font
159 628.8 moveto 190 (6 constraints, 6 generators) alignedtext
grestore
% 1
gsave
0 0 0 nodecolor
18 /Times-Roman set_font
295.5 536.8 moveto 85 (-t+18>=0 ? ) alignedtext
0 0 0 nodecolor
18 /Times-Roman set_font
331.5 517.8 moveto 13 (\(\)) alignedtext
grestore
% noheat->1
gsave
1 setlinewidth
0 0 0 edgecolor
newpath 281.27 621.79 moveto
293.1 603.48 306.72 582.41 317.64 565.5 curveto
stroke
0 0 0 edgecolor
newpath 320.6 567.38 moveto
323.09 557.08 lineto
314.72 563.58 lineto
closepath fill
1 setlinewidth
solid
0 0 0 edgecolor
newpath 320.6 567.38 moveto
323.09 557.08 lineto
314.72 563.58 lineto
closepath stroke
grestore
% 2
gsave
0 0 0 nodecolor
18 /Times-Roman set_font
160.5 565.3 moveto 71 (t-18>=0 ?) alignedtext
0 0 0 nodecolor
18 /Times-Roman set_font
129.5 546.3 moveto 133 (t := 15/16t+1/16te;) alignedtext
0 0 0 nodecolor
18 /Times-Roman set_font
168.5 527.3 moveto 55 (te := te;) alignedtext
0 0 0 nodecolor
18 /Times-Roman set_font
143.5 508.3 moveto 105 (time := time+1) alignedtext
0 0 0 nodecolor
18 /Times-Roman set_font
189.5 489.3 moveto 13 (\(\)) alignedtext
grestore
% noheat->2
gsave
1 setlinewidth
0 0 0 edgecolor
newpath 228.8 621.79 moveto
224.67 613.21 220.45 604.02 216.45 594.93 curveto
stroke
0 0 0 edgecolor
newpath 219.56 593.32 moveto
212.37 585.53 lineto
213.14 596.1 lineto
closepath fill
1 setlinewidth
solid
0 0 0 edgecolor
newpath 219.56 593.32 moveto
212.37 585.53 lineto
213.14 596.1 lineto
closepath stroke
grestore
% 0->heat
gsave
1 setlinewidth
0 0 0 edgecolor
newpath 109.16 269.95 moveto
114.4 266.52 119.8 263.1 125 260 curveto
142.67 249.47 161.91 238.82 180.5 228.92 curveto
stroke
0 0 0 edgecolor
newpath 182.37 231.9 moveto
189.57 224.13 lineto
179.1 225.71 lineto
closepath fill
1 setlinewidth
solid
0 0 0 edgecolor
newpath 182.37 231.9 moveto
189.57 224.13 lineto
179.1 225.71 lineto
closepath stroke
grestore
% 1->noheate
gsave
1 setlinewidth
0 0 0 edgecolor
newpath 315.22 510.98 moveto
304.78 501.23 291.88 490.25 279 482 curveto
259.3 469.38 237.22 457.83 215.52 447.71 curveto
stroke
0 0 0 edgecolor
newpath 216.81 444.44 moveto
206.26 443.46 lineto
213.89 450.81 lineto
closepath fill
1 setlinewidth
solid
0 0 0 edgecolor
newpath 216.81 444.44 moveto
206.26 443.46 lineto
213.89 450.81 lineto
closepath stroke
grestore
% 2->noheat
gsave
1 setlinewidth
0 0 0 edgecolor
newpath 225.61 585.53 moveto
229.72 594.36 233.82 603.54 237.59 612.38 curveto
stroke
0 0 0 edgecolor
newpath 234.44 613.92 moveto
241.54 621.79 lineto
240.9 611.22 lineto
closepath fill
1 setlinewidth
solid
0 0 0 edgecolor
newpath 234.44 613.92 moveto
241.54 621.79 lineto
240.9 611.22 lineto
closepath stroke
grestore
% 3->noheat
gsave
1 setlinewidth
0 0 0 edgecolor
newpath 300.23 741.83 moveto
295.41 733.71 289.79 724.25 284.16 714.77 curveto
stroke
0 0 0 edgecolor
newpath 287.13 712.92 moveto
279.01 706.11 lineto
281.11 716.49 lineto
closepath fill
1 setlinewidth
solid
0 0 0 edgecolor
newpath 287.13 712.92 moveto
279.01 706.11 lineto
281.11 716.49 lineto
closepath stroke
grestore
% 4->heate
gsave
1 setlinewidth
0 0 0 edgecolor
newpath 432.77 75.25 moveto
435.88 118.22 442 213 442 293 curveto
442 664 442 664 442 664 curveto
442 717.13 421.63 774.6 403.88 814.61 curveto
stroke
0 0 0 edgecolor
newpath 400.61 813.33 moveto
399.67 823.88 lineto
406.99 816.22 lineto
closepath fill
1 setlinewidth
solid
0 0 0 edgecolor
newpath 400.61 813.33 moveto
399.67 823.88 lineto
406.99 816.22 lineto
closepath stroke
grestore
% 5->heat
gsave
1 setlinewidth
0 0 0 edgecolor
newpath 280.62 103.53 moveto
280.79 112.08 280.79 120.96 280.64 129.53 curveto
stroke
0 0 0 edgecolor
newpath 277.13 129.7 moveto
280.37 139.79 lineto
284.13 129.89 lineto
closepath fill
1 setlinewidth
solid
0 0 0 edgecolor
newpath 277.13 129.7 moveto
280.37 139.79 lineto
284.13 129.89 lineto
closepath stroke
grestore
% 6->heat
gsave
1 setlinewidth
0 0 0 edgecolor
newpath 274 260.3 moveto
274 252.21 274 243.34 274 234.56 curveto
stroke
0 0 0 edgecolor
newpath 277.5 234.36 moveto
274 224.36 lineto
270.5 234.36 lineto
closepath fill
1 setlinewidth
solid
0 0 0 edgecolor
newpath 277.5 234.36 moveto
274 224.36 lineto
270.5 234.36 lineto
closepath stroke
grestore
endpage
showpage
grestore
%%PageTrailer
%%EndPage: 2
setupLatin1
%%Page: 3 3
%%PageBoundingBox: 36 36 531 1320
%%PageOrientation: Portrait
0 0 1 beginpage
gsave
36 36 495 1284 boxprim clip newpath
1 1 set_scale 0 rotate 40 41 translate
% 1073741823
gsave
1 setlinewidth
0 0 0 nodecolor
219 1234 43.84 19.09 ellipse_path stroke
0 0 0 nodecolor
18 /Times-Roman set_font
196 1227.3 moveto 46 (Result) alignedtext
grestore
% heate
gsave
1 setlinewidth
0 0 0 nodecolor
newpath 487 1276 moveto
281 1276 lineto
281 1192 lineto
487 1192 lineto
closepath stroke
0 0 0 nodecolor
18 /Times-Roman set_font
364 1255.8 moveto 40 (heate) alignedtext
0 0 0 nodecolor
18 /Times-Roman set_font
301 1236.8 moveto 166 ([|t in [22 , 22.5]; te=14;) alignedtext
0 0 0 nodecolor
18 /Times-Roman set_font
297 1217.8 moveto 174 (  time in [0.8889 , INF]|]) alignedtext
0 0 0 nodecolor
18 /Times-Roman set_font
289 1198.8 moveto 190 (4 constraints, 3 generators) alignedtext
grestore
% 3
gsave
0 0 0 nodecolor
18 /Times-Roman set_font
294 1135.8 moveto 64 (time := 0) alignedtext
0 0 0 nodecolor
18 /Times-Roman set_font
319.5 1116.8 moveto 13 (\(\)) alignedtext
grestore
% heate->3
gsave
1 setlinewidth
0 0 0 edgecolor
newpath 359.74 1191.75 moveto
354.59 1182.78 349.23 1173.45 344.34 1164.94 curveto
stroke
0 0 0 edgecolor
newpath 347.27 1163.01 moveto
339.25 1156.08 lineto
341.2 1166.5 lineto
closepath fill
1 setlinewidth
solid
0 0 0 edgecolor
newpath 347.27 1163.01 moveto
339.25 1156.08 lineto
341.2 1166.5 lineto
closepath stroke
grestore
% heat
gsave
1 setlinewidth
0 0 0 nodecolor
newpath 404 166 moveto
198 166 lineto
198 82 lineto
404 82 lineto
closepath stroke
0 0 0 nodecolor
18 /Times-Roman set_font
285.5 145.8 moveto 31 (heat) alignedtext
0 0 0 nodecolor
18 /Times-Roman set_font
210.5 126.8 moveto 181 ([|t in [-INF , 22.5]; te=14;) alignedtext
0 0 0 nodecolor
18 /Times-Roman set_font
234 107.8 moveto 134 (  time in [0 , INF]|]) alignedtext
0 0 0 nodecolor
18 /Times-Roman set_font
206 88.8 moveto 190 (4 constraints, 4 generators) alignedtext
grestore
% 4
gsave
0 0 0 nodecolor
18 /Times-Roman set_font
333 25.8 moveto 76 (t-22>=0 ? ) alignedtext
0 0 0 nodecolor
18 /Times-Roman set_font
364.5 6.8 moveto 13 (\(\)) alignedtext
grestore
% heat->4
gsave
1 setlinewidth
0 0 0 edgecolor
newpath 330.28 81.75 moveto
336.63 72.59 343.24 63.05 349.24 54.4 curveto
stroke
0 0 0 edgecolor
newpath 352.18 56.29 moveto
355 46.08 lineto
346.43 52.31 lineto
closepath fill
1 setlinewidth
solid
0 0 0 edgecolor
newpath 352.18 56.29 moveto
355 46.08 lineto
346.43 52.31 lineto
closepath stroke
grestore
% linit
gsave
1 setlinewidth
0 0 0 nodecolor
newpath 295 611 moveto
251 611 lineto
251 565 lineto
295 565 lineto
closepath stroke
0 0 0 nodecolor
18 /Times-Roman set_font
259 590.8 moveto 28 (linit) alignedtext
0 0 0 nodecolor
18 /Times-Roman set_font
261 571.8 moveto 24 (top) alignedtext
grestore
% 6
gsave
0 0 0 nodecolor
18 /Times-Roman set_font
140.5 489.3 moveto 265 (-t+17>=0 and t-16>=0 and te-14=0 ?) alignedtext
0 0 0 nodecolor
18 /Times-Roman set_font
241 470.3 moveto 64 (time := 0) alignedtext
0 0 0 nodecolor
18 /Times-Roman set_font
266.5 451.3 moveto 13 (\(\)) alignedtext
grestore
% linit->6
gsave
1 setlinewidth
0 0 0 edgecolor
newpath 273 564.73 moveto
273 551.82 273 535.34 273 520.16 curveto
stroke
0 0 0 edgecolor
newpath 276.5 519.92 moveto
273 509.92 lineto
269.5 519.92 lineto
closepath fill
1 setlinewidth
solid
0 0 0 edgecolor
newpath 276.5 519.92 moveto
273 509.92 lineto
269.5 519.92 lineto
closepath stroke
grestore
% noheate
gsave
1 setlinewidth
0 0 0 nodecolor
newpath 206 630 moveto
0 630 lineto
0 546 lineto
206 546 lineto
closepath stroke
0 0 0 nodecolor
18 /Times-Roman set_font
74 609.8 moveto 58 (noheate) alignedtext
0 0 0 nodecolor
18 /Times-Roman set_font
15.5 590.8 moveto 175 ([|t in [17.75 , 18]; te=14;) alignedtext
0 0 0 nodecolor
18 /Times-Roman set_font
16 571.8 moveto 174 (  time in [0.9412 , INF]|]) alignedtext
0 0 0 nodecolor
18 /Times-Roman set_font
8 552.8 moveto 190 (4 constraints, 3 generators) alignedtext
grestore
% 0
gsave
0 0 0 nodecolor
18 /Times-Roman set_font
43 479.8 moveto 64 (time := 0) alignedtext
0 0 0 nodecolor
18 /Times-Roman set_font
68.5 460.8 moveto 13 (\(\)) alignedtext
grestore
% noheate->0
gsave
1 setlinewidth
0 0 0 edgecolor
newpath 92.33 545.72 moveto
89.35 533.9 86.16 521.23 83.33 510.03 curveto
stroke
0 0 0 edgecolor
newpath 86.7 509.06 moveto
80.86 500.22 lineto
79.91 510.77 lineto
closepath fill
1 setlinewidth
solid
0 0 0 edgecolor
newpath 86.7 509.06 moveto
80.86 500.22 lineto
79.91 510.77 lineto
closepath stroke
grestore
% noheat
gsave
1 setlinewidth
0 0 0 nodecolor
newpath 312 832 moveto
106 832 lineto
106 748 lineto
312 748 lineto
closepath stroke
0 0 0 nodecolor
18 /Times-Roman set_font
184.5 811.8 moveto 49 (noheat) alignedtext
0 0 0 nodecolor
18 /Times-Roman set_font
117 792.8 moveto 184 ([|t in [17.75 , INF]; te=14;) alignedtext
0 0 0 nodecolor
18 /Times-Roman set_font
142 773.8 moveto 134 (  time in [0 , INF]|]) alignedtext
0 0 0 nodecolor
18 /Times-Roman set_font
114 754.8 moveto 190 (4 constraints, 4 generators) alignedtext
grestore
% 1
gsave
0 0 0 nodecolor
18 /Times-Roman set_font
72.5 691.8 moveto 85 (-t+18>=0 ? ) alignedtext
0 0 0 nodecolor
18 /Times-Roman set_font
108.5 672.8 moveto 13 (\(\)) alignedtext
grestore
% noheat->1
gsave
1 setlinewidth
0 0 0 edgecolor
newpath 169.68 747.75 moveto
160.89 738.3 151.72 728.46 143.47 719.59 curveto
stroke
0 0 0 edgecolor
newpath 145.86 717.02 moveto
136.48 712.08 lineto
140.73 721.79 lineto
closepath fill
1 setlinewidth
solid
0 0 0 edgecolor
newpath 145.86 717.02 moveto
136.48 712.08 lineto
140.73 721.79 lineto
closepath stroke
grestore
% heat_start
gsave
1 setlinewidth
0 0 0 nodecolor
newpath 389 407.5 moveto
157 407.5 lineto
157 342.5 lineto
389 342.5 lineto
closepath stroke
0 0 0 nodecolor
18 /Times-Roman set_font
237 387.3 moveto 72 (heat_start) alignedtext
0 0 0 nodecolor
18 /Times-Roman set_font
164.5 368.3 moveto 217 ([|t in [16 , 18]; te=14; time=0|]) alignedtext
0 0 0 nodecolor
18 /Times-Roman set_font
178 349.3 moveto 190 (4 constraints, 2 generators) alignedtext
grestore
% 5
gsave
0 0 0 nodecolor
18 /Times-Roman set_font
240 285.3 moveto 86 (\(-t+22>=0 ?) alignedtext
0 0 0 nodecolor
18 /Times-Roman set_font
207.5 266.3 moveto 151 (t := 15/16t+1/16te+1;) alignedtext
0 0 0 nodecolor
18 /Times-Roman set_font
255.5 247.3 moveto 55 (te := te;) alignedtext
0 0 0 nodecolor
18 /Times-Roman set_font
223 228.3 moveto 120 (time := time+1\)*) alignedtext
0 0 0 nodecolor
18 /Times-Roman set_font
276.5 209.3 moveto 13 (\(\)) alignedtext
grestore
% heat_start->5
gsave
1 setlinewidth
0 0 0 edgecolor
newpath 275.71 342.26 moveto
276.38 334.12 277.12 325.13 277.87 316.09 curveto
stroke
0 0 0 edgecolor
newpath 281.37 316.16 moveto
278.71 305.91 lineto
274.4 315.59 lineto
closepath fill
1 setlinewidth
solid
0 0 0 edgecolor
newpath 281.37 316.16 moveto
278.71 305.91 lineto
274.4 315.59 lineto
closepath stroke
grestore
% noheat_start
gsave
1 setlinewidth
0 0 0 nodecolor
newpath 401 1073.5 moveto
157 1073.5 lineto
157 1008.5 lineto
401 1008.5 lineto
closepath stroke
0 0 0 nodecolor
18 /Times-Roman set_font
234 1053.3 moveto 90 (noheat_start) alignedtext
0 0 0 nodecolor
18 /Times-Roman set_font
164.5 1034.3 moveto 229 ([|t in [22 , 22.5]; te=14; time=0|]) alignedtext
0 0 0 nodecolor
18 /Times-Roman set_font
184 1015.3 moveto 190 (4 constraints, 2 generators) alignedtext
grestore
% 2
gsave
0 0 0 nodecolor
18 /Times-Roman set_font
217.5 951.3 moveto 77 (\(t-18>=0 ?) alignedtext
0 0 0 nodecolor
18 /Times-Roman set_font
189.5 932.3 moveto 133 (t := 15/16t+1/16te;) alignedtext
0 0 0 nodecolor
18 /Times-Roman set_font
228.5 913.3 moveto 55 (te := te;) alignedtext
0 0 0 nodecolor
18 /Times-Roman set_font
196 894.3 moveto 120 (time := time+1\)*) alignedtext
0 0 0 nodecolor
18 /Times-Roman set_font
249.5 875.3 moveto 13 (\(\)) alignedtext
grestore
% noheat_start->2
gsave
1 setlinewidth
0 0 0 edgecolor
newpath 272.78 1008.26 moveto
271.21 1000.03 269.48 990.93 267.75 981.8 curveto
stroke
0 0 0 edgecolor
newpath 271.17 981.08 moveto
265.87 971.91 lineto
264.3 982.39 lineto
closepath fill
1 setlinewidth
solid
0 0 0 edgecolor
newpath 271.17 981.08 moveto
265.87 971.91 lineto
264.3 982.39 lineto
closepath stroke
grestore
% 0->heat_start
gsave
1 setlinewidth
0 0 0 edgecolor
newpath 107.76 453.9 moveto
113.1 450.44 118.64 447.02 124 444 curveto
144.01 432.72 166.19 421.71 187.18 411.91 curveto
stroke
0 0 0 edgecolor
newpath 188.8 415.02 moveto
196.41 407.64 lineto
185.87 408.66 lineto
closepath fill
1 setlinewidth
solid
0 0 0 edgecolor
newpath 188.8 415.02 moveto
196.41 407.64 lineto
185.87 408.66 lineto
closepath stroke
grestore
% 1->noheate
gsave
1 setlinewidth
0 0 0 edgecolor
newpath 112.25 665.83 moveto
111.33 658.13 110.27 649.21 109.2 640.22 curveto
stroke
0 0 0 edgecolor
newpath 112.66 639.62 moveto
108 630.11 lineto
105.71 640.45 lineto
closepath fill
1 setlinewidth
solid
0 0 0 edgecolor
newpath 112.66 639.62 moveto
108 630.11 lineto
105.71 640.45 lineto
closepath stroke
grestore
% 2->noheat
gsave
1 setlinewidth
0 0 0 edgecolor
newpath 237.29 868.25 moveto
234.16 859.6 230.92 850.64 227.8 841.99 curveto
stroke
0 0 0 edgecolor
newpath 231.02 840.61 moveto
224.33 832.39 lineto
224.44 842.99 lineto
closepath fill
1 setlinewidth
solid
0 0 0 edgecolor
newpath 231.02 840.61 moveto
224.33 832.39 lineto
224.44 842.99 lineto
closepath stroke
grestore
% 3->noheat_start
gsave
1 setlinewidth
0 0 0 edgecolor
newpath 314.14 1109.78 moveto
309.94 1101.56 305.07 1092.04 300.33 1082.75 curveto
stroke
0 0 0 edgecolor
newpath 303.32 1080.9 moveto
295.65 1073.59 lineto
297.08 1084.09 lineto
closepath fill
1 setlinewidth
solid
0 0 0 edgecolor
newpath 303.32 1080.9 moveto
295.65 1073.59 lineto
297.08 1084.09 lineto
closepath stroke
grestore
% 4->heate
gsave
1 setlinewidth
0 0 0 edgecolor
newpath 391.27 46.2 moveto
399.25 56.52 407.74 69.21 413 82 curveto
442.45 153.63 441 176.55 441 254 curveto
441 1041 441 1041 441 1041 curveto
441 1090.44 423.58 1144.19 408.01 1182.39 curveto
stroke
0 0 0 edgecolor
newpath 404.72 1181.17 moveto
404.1 1191.75 lineto
411.18 1183.87 lineto
closepath fill
1 setlinewidth
solid
0 0 0 edgecolor
newpath 404.72 1181.17 moveto
404.1 1191.75 lineto
411.18 1183.87 lineto
closepath stroke
grestore
% 5->heat
gsave
1 setlinewidth
0 0 0 edgecolor
newpath 290.17 202.25 moveto
291.34 193.79 292.55 185.02 293.72 176.54 curveto
stroke
0 0 0 edgecolor
newpath 297.23 176.78 moveto
295.13 166.39 lineto
290.29 175.82 lineto
closepath fill
1 setlinewidth
solid
0 0 0 edgecolor
newpath 297.23 176.78 moveto
295.13 166.39 lineto
290.29 175.82 lineto
closepath stroke
grestore
% 6->heat_start
gsave
1 setlinewidth
0 0 0 edgecolor
newpath 273 444.45 moveto
273 435.98 273 426.73 273 417.83 curveto
stroke
0 0 0 edgecolor
newpath 276.5 417.59 moveto
273 407.59 lineto
269.5 417.59 lineto
closepath fill
1 setlinewidth
solid
0 0 0 edgecolor
newpath 276.5 417.59 moveto
273 407.59 lineto
269.5 417.59 lineto
closepath stroke
grestore
endpage
showpage
grestore
%%PageTrailer
%%EndPage: 3
%%Trailer
%%Pages: 3
%%BoundingBox: 36 36 531 1320
end
restore
%%EOF
