%!PS-Adobe-3.0
%%Creator: graphviz version 2.26.3 (20100126.1600)
%%Title: G
%%Pages: (atend)
%%BoundingBox: (atend)
%%EndComments
save
%%BeginProlog
/DotDict 200 dict def
DotDict begin

/setupLatin1 {
mark
/EncodingVector 256 array def
 EncodingVector 0

ISOLatin1Encoding 0 255 getinterval putinterval
EncodingVector 45 /hyphen put

% Set up ISO Latin 1 character encoding
/starnetISO {
        dup dup findfont dup length dict begin
        { 1 index /FID ne { def }{ pop pop } ifelse
        } forall
        /Encoding EncodingVector def
        currentdict end definefont
} def
/Times-Roman starnetISO def
/Times-Italic starnetISO def
/Times-Bold starnetISO def
/Times-BoldItalic starnetISO def
/Helvetica starnetISO def
/Helvetica-Oblique starnetISO def
/Helvetica-Bold starnetISO def
/Helvetica-BoldOblique starnetISO def
/Courier starnetISO def
/Courier-Oblique starnetISO def
/Courier-Bold starnetISO def
/Courier-BoldOblique starnetISO def
cleartomark
} bind def

%%BeginResource: procset graphviz 0 0
/coord-font-family /Times-Roman def
/default-font-family /Times-Roman def
/coordfont coord-font-family findfont 8 scalefont def

/InvScaleFactor 1.0 def
/set_scale {
       dup 1 exch div /InvScaleFactor exch def
       scale
} bind def

% styles
/solid { [] 0 setdash } bind def
/dashed { [9 InvScaleFactor mul dup ] 0 setdash } bind def
/dotted { [1 InvScaleFactor mul 6 InvScaleFactor mul] 0 setdash } bind def
/invis {/fill {newpath} def /stroke {newpath} def /show {pop newpath} def} bind def
/bold { 2 setlinewidth } bind def
/filled { } bind def
/unfilled { } bind def
/rounded { } bind def
/diagonals { } bind def

% hooks for setting color 
/nodecolor { sethsbcolor } bind def
/edgecolor { sethsbcolor } bind def
/graphcolor { sethsbcolor } bind def
/nopcolor {pop pop pop} bind def

/beginpage {	% i j npages
	/npages exch def
	/j exch def
	/i exch def
	/str 10 string def
	npages 1 gt {
		gsave
			coordfont setfont
			0 0 moveto
			(\() show i str cvs show (,) show j str cvs show (\)) show
		grestore
	} if
} bind def

/set_font {
	findfont exch
	scalefont setfont
} def

% draw text fitted to its expected width
/alignedtext {			% width text
	/text exch def
	/width exch def
	gsave
		width 0 gt {
			[] 0 setdash
			text stringwidth pop width exch sub text length div 0 text ashow
		} if
	grestore
} def

/boxprim {				% xcorner ycorner xsize ysize
		4 2 roll
		moveto
		2 copy
		exch 0 rlineto
		0 exch rlineto
		pop neg 0 rlineto
		closepath
} bind def

/ellipse_path {
	/ry exch def
	/rx exch def
	/y exch def
	/x exch def
	matrix currentmatrix
	newpath
	x y translate
	rx ry scale
	0 0 1 0 360 arc
	setmatrix
} bind def

/endpage { showpage } bind def
/showpage { } def

/layercolorseq
	[	% layer color sequence - darkest to lightest
		[0 0 0]
		[.2 .8 .8]
		[.4 .8 .8]
		[.6 .8 .8]
		[.8 .8 .8]
	]
def

/layerlen layercolorseq length def

/setlayer {/maxlayer exch def /curlayer exch def
	layercolorseq curlayer 1 sub layerlen mod get
	aload pop sethsbcolor
	/nodecolor {nopcolor} def
	/edgecolor {nopcolor} def
	/graphcolor {nopcolor} def
} bind def

/onlayer { curlayer ne {invis} if } def

/onlayers {
	/myupper exch def
	/mylower exch def
	curlayer mylower lt
	curlayer myupper gt
	or
	{invis} if
} def

/curlayer 0 def

%%EndResource
%%EndProlog
%%BeginSetup
14 default-font-family set_font
1 setmiterlimit
% /arrowlength 10 def
% /arrowwidth 5 def

% make sure pdfmark is harmless for PS-interpreters other than Distiller
/pdfmark where {pop} {userdict /pdfmark /cleartomark load put} ifelse
% make '<<' and '>>' safe on PS Level 1 devices
/languagelevel where {pop languagelevel}{1} ifelse
2 lt {
    userdict (<<) cvn ([) cvn load put
    userdict (>>) cvn ([) cvn load put
} if

%%EndSetup
setupLatin1
%%Page: 1 1
%%PageBoundingBox: 36 36 590 1814
%%PageOrientation: Portrait
0 0 1 beginpage
gsave
36 36 554 1778 boxprim clip newpath
1 1 set_scale 0 rotate 40 41 translate
% 1073741823
gsave
1 setlinewidth
0 0 0 nodecolor
228 1699 43.84 19.09 ellipse_path stroke
0 0 0 nodecolor
18 /Times-Roman set_font
205 1692.3 moveto 46 (Result) alignedtext
grestore
% heate
gsave
1 setlinewidth
0 0 0 nodecolor
newpath 546 1769.5 moveto
290 1769.5 lineto
290 1628.5 lineto
546 1628.5 lineto
closepath stroke
0 0 0 nodecolor
18 /Times-Roman set_font
398 1749.3 moveto 40 (heate) alignedtext
0 0 0 nodecolor
18 /Times-Roman set_font
298 1730.3 moveto 240 ([|te-14=0; -1.98t+time+37.27>=0;) alignedtext
0 0 0 nodecolor
18 /Times-Roman set_font
337 1711.3 moveto 162 (  -t+22.5>=0; t-22>=0;) alignedtext
0 0 0 nodecolor
18 /Times-Roman set_font
330 1692.3 moveto 176 (  1.501t-time-24.01>=0|]) alignedtext
0 0 0 nodecolor
18 /Times-Roman set_font
335 1673.3 moveto 166 ([|t in [22 , 22.5]; te=14;) alignedtext
0 0 0 nodecolor
18 /Times-Roman set_font
329.5 1654.3 moveto 177 (  time in [6.283 , 9.756]|]) alignedtext
0 0 0 nodecolor
18 /Times-Roman set_font
323 1635.3 moveto 190 (5 constraints, 4 generators) alignedtext
grestore
% 3
gsave
0 0 0 nodecolor
18 /Times-Roman set_font
321 1571.8 moveto 64 (time := 0) alignedtext
0 0 0 nodecolor
18 /Times-Roman set_font
346.5 1552.8 moveto 13 (\(\)) alignedtext
grestore
% heate->3
gsave
1 setlinewidth
0 0 0 edgecolor
newpath 382.65 1628.29 moveto
377.89 1618.77 373.21 1609.42 369.03 1601.06 curveto
stroke
0 0 0 edgecolor
newpath 372.14 1599.45 moveto
364.54 1592.08 lineto
365.88 1602.58 lineto
closepath fill
1 setlinewidth
solid
0 0 0 edgecolor
newpath 372.14 1599.45 moveto
364.54 1592.08 lineto
365.88 1602.58 lineto
closepath stroke
grestore
% heat
gsave
1 setlinewidth
0 0 0 nodecolor
newpath 452 299.5 moveto
186 299.5 lineto
186 82.5 lineto
452 82.5 lineto
closepath stroke
0 0 0 nodecolor
18 /Times-Roman set_font
303.5 279.3 moveto 31 (heat) alignedtext
0 0 0 nodecolor
18 /Times-Roman set_font
194.5 260.3 moveto 249 ([|te-14=0; -1.807t+time+33.52>=0;) alignedtext
0 0 0 nodecolor
18 /Times-Roman set_font
231.5 241.3 moveto 175 (  -1.537t+time+27.9>=0;) alignedtext
0 0 0 nodecolor
18 /Times-Roman set_font
227 222.3 moveto 184 (  -1.662t+time+30.44>=0;) alignedtext
0 0 0 nodecolor
18 /Times-Roman set_font
231.5 203.3 moveto 175 (  -1.98t+time+37.27>=0;) alignedtext
0 0 0 nodecolor
18 /Times-Roman set_font
227 184.3 moveto 184 (  -1.428t+time+25.78>=0;) alignedtext
0 0 0 nodecolor
18 /Times-Roman set_font
193.5 165.3 moveto 251 (  -1.333t+time+24>=0; -t+22.5>=0;) alignedtext
0 0 0 nodecolor
18 /Times-Roman set_font
196 146.3 moveto 246 (  time>=0; 1.501t-time-24.01>=0|]) alignedtext
0 0 0 nodecolor
18 /Times-Roman set_font
236 127.3 moveto 166 ([|t in [16 , 22.5]; te=14;) alignedtext
0 0 0 nodecolor
18 /Times-Roman set_font
246 108.3 moveto 146 (  time in [0 , 9.756]|]) alignedtext
0 0 0 nodecolor
18 /Times-Roman set_font
219.5 89.3 moveto 199 (10 constraints, 9 generators) alignedtext
grestore
% 4
gsave
0 0 0 nodecolor
18 /Times-Roman set_font
363 25.8 moveto 76 (t-22>=0 ? ) alignedtext
0 0 0 nodecolor
18 /Times-Roman set_font
394.5 6.8 moveto 13 (\(\)) alignedtext
grestore
% heat->4
gsave
1 setlinewidth
0 0 0 edgecolor
newpath 372.09 82.23 moveto
376.83 72.53 381.33 63.31 385.3 55.16 curveto
stroke
0 0 0 edgecolor
newpath 388.47 56.64 moveto
389.72 46.12 lineto
382.18 53.57 lineto
closepath fill
1 setlinewidth
solid
0 0 0 edgecolor
newpath 388.47 56.64 moveto
389.72 46.12 lineto
382.18 53.57 lineto
closepath stroke
grestore
% linit
gsave
1 setlinewidth
0 0 0 nodecolor
newpath 337 801 moveto
293 801 lineto
293 755 lineto
337 755 lineto
closepath stroke
0 0 0 nodecolor
18 /Times-Roman set_font
301 780.8 moveto 28 (linit) alignedtext
0 0 0 nodecolor
18 /Times-Roman set_font
303 761.8 moveto 24 (top) alignedtext
grestore
% 6
gsave
0 0 0 nodecolor
18 /Times-Roman set_font
182.5 641.3 moveto 265 (-t+17>=0 and t-16>=0 and te-14=0 ?) alignedtext
0 0 0 nodecolor
18 /Times-Roman set_font
283 622.3 moveto 64 (time := 0) alignedtext
0 0 0 nodecolor
18 /Times-Roman set_font
308.5 603.3 moveto 13 (\(\)) alignedtext
grestore
% linit->6
gsave
1 setlinewidth
0 0 0 edgecolor
newpath 315 754.72 moveto
315 732.61 315 698.83 315 671.85 curveto
stroke
0 0 0 edgecolor
newpath 318.5 671.51 moveto
315 661.51 lineto
311.5 671.51 lineto
closepath fill
1 setlinewidth
solid
0 0 0 edgecolor
newpath 318.5 671.51 moveto
315 661.51 lineto
311.5 671.51 lineto
closepath stroke
grestore
% noheate
gsave
1 setlinewidth
0 0 0 nodecolor
newpath 262 858 moveto
0 858 lineto
0 698 lineto
262 698 lineto
closepath stroke
0 0 0 nodecolor
18 /Times-Roman set_font
102 837.8 moveto 58 (noheate) alignedtext
0 0 0 nodecolor
18 /Times-Roman set_font
8 818.8 moveto 246 ([|te-14=0; -2.693t-time+60.59>=0;) alignedtext
0 0 0 nodecolor
18 /Times-Roman set_font
45.5 799.8 moveto 171 (  -t+18>=0; t-17.75>=0;) alignedtext
0 0 0 nodecolor
18 /Times-Roman set_font
43.5 780.8 moveto 175 (  3.659t+time-76.58>=0;) alignedtext
0 0 0 nodecolor
18 /Times-Roman set_font
41.5 761.8 moveto 179 (  4.133t+time-85.11>=0|]) alignedtext
0 0 0 nodecolor
18 /Times-Roman set_font
43.5 742.8 moveto 175 ([|t in [17.75 , 18]; te=14;) alignedtext
0 0 0 nodecolor
18 /Times-Roman set_font
42.5 723.8 moveto 177 (  time in [10.72 , 12.79]|]) alignedtext
0 0 0 nodecolor
18 /Times-Roman set_font
36 704.8 moveto 190 (6 constraints, 5 generators) alignedtext
grestore
% 0
gsave
0 0 0 nodecolor
18 /Times-Roman set_font
85 631.8 moveto 64 (time := 0) alignedtext
0 0 0 nodecolor
18 /Times-Roman set_font
110.5 612.8 moveto 13 (\(\)) alignedtext
grestore
% noheate->0
gsave
1 setlinewidth
0 0 0 edgecolor
newpath 123.47 697.83 moveto
122.28 685.22 121.12 672.84 120.11 662.12 curveto
stroke
0 0 0 edgecolor
newpath 123.58 661.65 moveto
119.16 652.02 lineto
116.61 662.3 lineto
closepath fill
1 setlinewidth
solid
0 0 0 edgecolor
newpath 123.58 661.65 moveto
119.16 652.02 lineto
116.61 662.3 lineto
closepath stroke
grestore
% noheat
gsave
1 setlinewidth
0 0 0 nodecolor
newpath 375 1250 moveto
79 1250 lineto
79 976 lineto
375 976 lineto
closepath stroke
0 0 0 nodecolor
18 /Times-Roman set_font
202.5 1229.8 moveto 49 (noheat) alignedtext
0 0 0 nodecolor
18 /Times-Roman set_font
104 1210.8 moveto 246 ([|te-14=0; -2.693t-time+60.59>=0;) alignedtext
0 0 0 nodecolor
18 /Times-Roman set_font
86.5 1191.8 moveto 281 (  time>=0; 2t+time-44>=0; t-17.75>=0;) alignedtext
0 0 0 nodecolor
18 /Times-Roman set_font
139.5 1172.8 moveto 175 (  2.142t+time-47.05>=0;) alignedtext
0 0 0 nodecolor
18 /Times-Roman set_font
144 1153.8 moveto 166 (  3.28t+time-69.58>=0;) alignedtext
0 0 0 nodecolor
18 /Times-Roman set_font
148.5 1134.8 moveto 157 (  2.97t+time-63.7>=0;) alignedtext
0 0 0 nodecolor
18 /Times-Roman set_font
139.5 1115.8 moveto 175 (  2.492t+time-54.29>=0;) alignedtext
0 0 0 nodecolor
18 /Times-Roman set_font
139.5 1096.8 moveto 175 (  2.305t+time-50.46>=0;) alignedtext
0 0 0 nodecolor
18 /Times-Roman set_font
139.5 1077.8 moveto 175 (  2.711t+time-58.66>=0;) alignedtext
0 0 0 nodecolor
18 /Times-Roman set_font
139.5 1058.8 moveto 175 (  3.659t+time-76.58>=0;) alignedtext
0 0 0 nodecolor
18 /Times-Roman set_font
137.5 1039.8 moveto 179 (  4.133t+time-85.11>=0|]) alignedtext
0 0 0 nodecolor
18 /Times-Roman set_font
133.5 1020.8 moveto 187 ([|t in [17.75 , 22.5]; te=14;) alignedtext
0 0 0 nodecolor
18 /Times-Roman set_font
154 1001.8 moveto 146 (  time in [0 , 12.79]|]) alignedtext
0 0 0 nodecolor
18 /Times-Roman set_font
123 982.8 moveto 208 (13 constraints, 12 generators) alignedtext
grestore
% 1
gsave
0 0 0 nodecolor
18 /Times-Roman set_font
99.5 919.8 moveto 85 (-t+18>=0 ? ) alignedtext
0 0 0 nodecolor
18 /Times-Roman set_font
135.5 900.8 moveto 13 (\(\)) alignedtext
grestore
% noheat->1
gsave
1 setlinewidth
0 0 0 edgecolor
newpath 167.5 975.81 moveto
163.38 966.31 159.52 957.4 156.1 949.52 curveto
stroke
0 0 0 edgecolor
newpath 159.23 947.92 moveto
152.04 940.14 lineto
152.8 950.71 lineto
closepath fill
1 setlinewidth
solid
0 0 0 edgecolor
newpath 159.23 947.92 moveto
152.04 940.14 lineto
152.8 950.71 lineto
closepath stroke
grestore
% heat_start
gsave
1 setlinewidth
0 0 0 nodecolor
newpath 455 560 moveto
161 560 lineto
161 476 lineto
455 476 lineto
closepath stroke
0 0 0 nodecolor
18 /Times-Roman set_font
272 539.8 moveto 72 (heat_start) alignedtext
0 0 0 nodecolor
18 /Times-Roman set_font
169 520.8 moveto 278 ([|time=0; te-14=0; -t+18>=0; t-16>=0|]) alignedtext
0 0 0 nodecolor
18 /Times-Roman set_font
199.5 501.8 moveto 217 ([|t in [16 , 18]; te=14; time=0|]) alignedtext
0 0 0 nodecolor
18 /Times-Roman set_font
213 482.8 moveto 190 (4 constraints, 2 generators) alignedtext
grestore
% 5
gsave
0 0 0 nodecolor
18 /Times-Roman set_font
269 419.3 moveto 86 (\(-t+22>=0 ?) alignedtext
0 0 0 nodecolor
18 /Times-Roman set_font
236.5 400.3 moveto 151 (t := 15/16t+1/16te+1;) alignedtext
0 0 0 nodecolor
18 /Times-Roman set_font
284.5 381.3 moveto 55 (te := te;) alignedtext
0 0 0 nodecolor
18 /Times-Roman set_font
252 362.3 moveto 120 (time := time+1\)*) alignedtext
0 0 0 nodecolor
18 /Times-Roman set_font
305.5 343.3 moveto 13 (\(\)) alignedtext
grestore
% heat_start->5
gsave
1 setlinewidth
0 0 0 edgecolor
newpath 309.3 475.79 moveto
309.55 467.48 309.83 458.6 310.1 449.79 curveto
stroke
0 0 0 edgecolor
newpath 313.61 449.64 moveto
310.41 439.53 lineto
306.61 449.42 lineto
closepath fill
1 setlinewidth
solid
0 0 0 edgecolor
newpath 313.61 449.64 moveto
310.41 439.53 lineto
306.61 449.42 lineto
closepath stroke
grestore
% noheat_start
gsave
1 setlinewidth
0 0 0 nodecolor
newpath 444 1510 moveto
138 1510 lineto
138 1426 lineto
444 1426 lineto
closepath stroke
0 0 0 nodecolor
18 /Times-Roman set_font
246 1489.8 moveto 90 (noheat_start) alignedtext
0 0 0 nodecolor
18 /Times-Roman set_font
145.5 1470.8 moveto 291 ([|time=0; te-14=0; -t+22.5>=0; t-22>=0|]) alignedtext
0 0 0 nodecolor
18 /Times-Roman set_font
176.5 1451.8 moveto 229 ([|t in [22 , 22.5]; te=14; time=0|]) alignedtext
0 0 0 nodecolor
18 /Times-Roman set_font
196 1432.8 moveto 190 (4 constraints, 2 generators) alignedtext
grestore
% 2
gsave
0 0 0 nodecolor
18 /Times-Roman set_font
231.5 1369.3 moveto 77 (\(t-18>=0 ?) alignedtext
0 0 0 nodecolor
18 /Times-Roman set_font
203.5 1350.3 moveto 133 (t := 15/16t+1/16te;) alignedtext
0 0 0 nodecolor
18 /Times-Roman set_font
242.5 1331.3 moveto 55 (te := te;) alignedtext
0 0 0 nodecolor
18 /Times-Roman set_font
210 1312.3 moveto 120 (time := time+1\)*) alignedtext
0 0 0 nodecolor
18 /Times-Roman set_font
263.5 1293.3 moveto 13 (\(\)) alignedtext
grestore
% noheat_start->2
gsave
1 setlinewidth
0 0 0 edgecolor
newpath 284.18 1425.79 moveto
282.82 1417.39 281.37 1408.4 279.94 1399.51 curveto
stroke
0 0 0 edgecolor
newpath 283.37 1398.85 moveto
278.32 1389.53 lineto
276.46 1399.96 lineto
closepath fill
1 setlinewidth
solid
0 0 0 edgecolor
newpath 283.37 1398.85 moveto
278.32 1389.53 lineto
276.46 1399.96 lineto
closepath stroke
grestore
% 0->heat_start
gsave
1 setlinewidth
0 0 0 edgecolor
newpath 150.48 605.87 moveto
155.63 602.48 160.92 599.1 166 596 curveto
182.97 585.65 201.4 575.07 219.18 565.18 curveto
stroke
0 0 0 edgecolor
newpath 221.36 567.97 moveto
228.41 560.07 lineto
217.97 561.85 lineto
closepath fill
1 setlinewidth
solid
0 0 0 edgecolor
newpath 221.36 567.97 moveto
228.41 560.07 lineto
217.97 561.85 lineto
closepath stroke
grestore
% 1->noheate
gsave
1 setlinewidth
0 0 0 edgecolor
newpath 140.16 893.73 moveto
139.57 886.3 138.88 877.57 138.15 868.3 curveto
stroke
0 0 0 edgecolor
newpath 141.61 867.76 moveto
137.34 858.06 lineto
134.64 868.31 lineto
closepath fill
1 setlinewidth
solid
0 0 0 edgecolor
newpath 141.61 867.76 moveto
137.34 858.06 lineto
134.64 868.31 lineto
closepath stroke
grestore
% 2->noheat
gsave
1 setlinewidth
0 0 0 edgecolor
newpath 260.13 1286.38 moveto
258.57 1278.19 256.89 1269.38 255.14 1260.23 curveto
stroke
0 0 0 edgecolor
newpath 258.53 1259.34 moveto
253.22 1250.18 lineto
251.66 1260.66 lineto
closepath fill
1 setlinewidth
solid
0 0 0 edgecolor
newpath 258.53 1259.34 moveto
253.22 1250.18 lineto
251.66 1260.66 lineto
closepath stroke
grestore
% 3->noheat_start
gsave
1 setlinewidth
0 0 0 edgecolor
newpath 338.78 1545.83 moveto
333.79 1537.71 327.99 1528.25 322.17 1518.77 curveto
stroke
0 0 0 edgecolor
newpath 325.06 1516.8 moveto
316.85 1510.11 lineto
319.1 1520.46 lineto
closepath fill
1 setlinewidth
solid
0 0 0 edgecolor
newpath 325.06 1516.8 moveto
316.85 1510.11 lineto
319.1 1520.46 lineto
closepath stroke
grestore
% 4->heate
gsave
1 setlinewidth
0 0 0 edgecolor
newpath 432.6 46.11 moveto
443.53 55.88 454.63 68.21 461 82 curveto
518.19 205.78 483 251.65 483 388 curveto
483 1468 483 1468 483 1468 curveto
483 1519.53 467.83 1575.18 452.15 1618.95 curveto
stroke
0 0 0 edgecolor
newpath 448.84 1617.79 moveto
448.69 1628.38 lineto
455.42 1620.2 lineto
closepath fill
1 setlinewidth
solid
0 0 0 edgecolor
newpath 448.84 1617.79 moveto
448.69 1628.38 lineto
455.42 1620.2 lineto
closepath stroke
grestore
% 5->heat
gsave
1 setlinewidth
0 0 0 edgecolor
newpath 313.83 336.5 moveto
314.13 328.13 314.45 319.16 314.77 309.95 curveto
stroke
0 0 0 edgecolor
newpath 318.27 309.99 moveto
315.13 299.87 lineto
311.28 309.74 lineto
closepath fill
1 setlinewidth
solid
0 0 0 edgecolor
newpath 318.27 309.99 moveto
315.13 299.87 lineto
311.28 309.74 lineto
closepath stroke
grestore
% 6->heat_start
gsave
1 setlinewidth
0 0 0 edgecolor
newpath 312.94 596.3 moveto
312.43 588.21 311.87 579.34 311.31 570.56 curveto
stroke
0 0 0 edgecolor
newpath 314.79 570.12 moveto
310.67 560.36 lineto
307.81 570.56 lineto
closepath fill
1 setlinewidth
solid
0 0 0 edgecolor
newpath 314.79 570.12 moveto
310.67 560.36 lineto
307.81 570.56 lineto
closepath stroke
grestore
endpage
showpage
grestore
%%PageTrailer
%%EndPage: 1
%%Trailer
%%Pages: 1
%%BoundingBox: 36 36 590 1814
end
restore
%%EOF
