%!PS-Adobe-3.0
%%Creator: graphviz version 2.26.3 (20100126.1600)
%%Title: G
%%Pages: (atend)
%%BoundingBox: (atend)
%%EndComments
save
%%BeginProlog
/DotDict 200 dict def
DotDict begin

/setupLatin1 {
mark
/EncodingVector 256 array def
 EncodingVector 0

ISOLatin1Encoding 0 255 getinterval putinterval
EncodingVector 45 /hyphen put

% Set up ISO Latin 1 character encoding
/starnetISO {
        dup dup findfont dup length dict begin
        { 1 index /FID ne { def }{ pop pop } ifelse
        } forall
        /Encoding EncodingVector def
        currentdict end definefont
} def
/Times-Roman starnetISO def
/Times-Italic starnetISO def
/Times-Bold starnetISO def
/Times-BoldItalic starnetISO def
/Helvetica starnetISO def
/Helvetica-Oblique starnetISO def
/Helvetica-Bold starnetISO def
/Helvetica-BoldOblique starnetISO def
/Courier starnetISO def
/Courier-Oblique starnetISO def
/Courier-Bold starnetISO def
/Courier-BoldOblique starnetISO def
cleartomark
} bind def

%%BeginResource: procset graphviz 0 0
/coord-font-family /Times-Roman def
/default-font-family /Times-Roman def
/coordfont coord-font-family findfont 8 scalefont def

/InvScaleFactor 1.0 def
/set_scale {
       dup 1 exch div /InvScaleFactor exch def
       scale
} bind def

% styles
/solid { [] 0 setdash } bind def
/dashed { [9 InvScaleFactor mul dup ] 0 setdash } bind def
/dotted { [1 InvScaleFactor mul 6 InvScaleFactor mul] 0 setdash } bind def
/invis {/fill {newpath} def /stroke {newpath} def /show {pop newpath} def} bind def
/bold { 2 setlinewidth } bind def
/filled { } bind def
/unfilled { } bind def
/rounded { } bind def
/diagonals { } bind def

% hooks for setting color 
/nodecolor { sethsbcolor } bind def
/edgecolor { sethsbcolor } bind def
/graphcolor { sethsbcolor } bind def
/nopcolor {pop pop pop} bind def

/beginpage {	% i j npages
	/npages exch def
	/j exch def
	/i exch def
	/str 10 string def
	npages 1 gt {
		gsave
			coordfont setfont
			0 0 moveto
			(\() show i str cvs show (,) show j str cvs show (\)) show
		grestore
	} if
} bind def

/set_font {
	findfont exch
	scalefont setfont
} def

% draw text fitted to its expected width
/alignedtext {			% width text
	/text exch def
	/width exch def
	gsave
		width 0 gt {
			[] 0 setdash
			text stringwidth pop width exch sub text length div 0 text ashow
		} if
	grestore
} def

/boxprim {				% xcorner ycorner xsize ysize
		4 2 roll
		moveto
		2 copy
		exch 0 rlineto
		0 exch rlineto
		pop neg 0 rlineto
		closepath
} bind def

/ellipse_path {
	/ry exch def
	/rx exch def
	/y exch def
	/x exch def
	matrix currentmatrix
	newpath
	x y translate
	rx ry scale
	0 0 1 0 360 arc
	setmatrix
} bind def

/endpage { showpage } bind def
/showpage { } def

/layercolorseq
	[	% layer color sequence - darkest to lightest
		[0 0 0]
		[.2 .8 .8]
		[.4 .8 .8]
		[.6 .8 .8]
		[.8 .8 .8]
	]
def

/layerlen layercolorseq length def

/setlayer {/maxlayer exch def /curlayer exch def
	layercolorseq curlayer 1 sub layerlen mod get
	aload pop sethsbcolor
	/nodecolor {nopcolor} def
	/edgecolor {nopcolor} def
	/graphcolor {nopcolor} def
} bind def

/onlayer { curlayer ne {invis} if } def

/onlayers {
	/myupper exch def
	/mylower exch def
	curlayer mylower lt
	curlayer myupper gt
	or
	{invis} if
} def

/curlayer 0 def

%%EndResource
%%EndProlog
%%BeginSetup
14 default-font-family set_font
1 setmiterlimit
% /arrowlength 10 def
% /arrowwidth 5 def

% make sure pdfmark is harmless for PS-interpreters other than Distiller
/pdfmark where {pop} {userdict /pdfmark /cleartomark load put} ifelse
% make '<<' and '>>' safe on PS Level 1 devices
/languagelevel where {pop languagelevel}{1} ifelse
2 lt {
    userdict (<<) cvn ([) cvn load put
    userdict (>>) cvn ([) cvn load put
} if

%%EndSetup
setupLatin1
%%Page: 1 1
%%PageBoundingBox: 36 36 595 1624
%%PageOrientation: Portrait
0 0 1 beginpage
gsave
36 36 559 1588 boxprim clip newpath
1 1 set_scale 0 rotate 40 41 translate
% 1073741823
gsave
1 setlinewidth
0 0 0 nodecolor
223 1509 43.84 19.09 ellipse_path stroke
0 0 0 nodecolor
18 /Times-Roman set_font
200 1502.3 moveto 46 (Result) alignedtext
grestore
% heate
gsave
1 setlinewidth
0 0 0 nodecolor
newpath 551 1579.5 moveto
285 1579.5 lineto
285 1438.5 lineto
551 1438.5 lineto
closepath stroke
0 0 0 nodecolor
18 /Times-Roman set_font
398 1559.3 moveto 40 (heate) alignedtext
0 0 0 nodecolor
18 /Times-Roman set_font
293.5 1540.3 moveto 249 ([|te-14=0; -2.756t+time+55.32>=0;) alignedtext
0 0 0 nodecolor
18 /Times-Roman set_font
292.5 1521.3 moveto 251 (  -1.333t+time+24>=0; -t+22.5>=0;) alignedtext
0 0 0 nodecolor
18 /Times-Roman set_font
296 1502.3 moveto 244 (  t-22>=0; 1.143t-time-15.89>=0|]) alignedtext
0 0 0 nodecolor
18 /Times-Roman set_font
335 1483.3 moveto 166 ([|t in [22 , 22.5]; te=14;) alignedtext
0 0 0 nodecolor
18 /Times-Roman set_font
334 1464.3 moveto 168 (  time in [5.333 , 9.82]|]) alignedtext
0 0 0 nodecolor
18 /Times-Roman set_font
323 1445.3 moveto 190 (6 constraints, 5 generators) alignedtext
grestore
% 3
gsave
0 0 0 nodecolor
18 /Times-Roman set_font
321 1381.8 moveto 64 (time := 0) alignedtext
0 0 0 nodecolor
18 /Times-Roman set_font
346.5 1362.8 moveto 13 (\(\)) alignedtext
grestore
% heate->3
gsave
1 setlinewidth
0 0 0 edgecolor
newpath 382.65 1438.29 moveto
377.89 1428.77 373.21 1419.42 369.03 1411.06 curveto
stroke
0 0 0 edgecolor
newpath 372.14 1409.45 moveto
364.54 1402.08 lineto
365.88 1412.58 lineto
closepath fill
1 setlinewidth
solid
0 0 0 edgecolor
newpath 372.14 1409.45 moveto
364.54 1402.08 lineto
365.88 1412.58 lineto
closepath stroke
grestore
% heat
gsave
1 setlinewidth
0 0 0 nodecolor
newpath 452 242 moveto
186 242 lineto
186 82 lineto
452 82 lineto
closepath stroke
0 0 0 nodecolor
18 /Times-Roman set_font
303.5 221.8 moveto 31 (heat) alignedtext
0 0 0 nodecolor
18 /Times-Roman set_font
194.5 202.8 moveto 249 ([|te-14=0; -2.756t+time+55.32>=0;) alignedtext
0 0 0 nodecolor
18 /Times-Roman set_font
193.5 183.8 moveto 251 (  -1.333t+time+24>=0; -t+22.5>=0;) alignedtext
0 0 0 nodecolor
18 /Times-Roman set_font
198.5 164.8 moveto 241 (  time>=0; 1.143t-time-15.89>=0;) alignedtext
0 0 0 nodecolor
18 /Times-Roman set_font
231 145.8 moveto 176 (  1.986t-time-31.77>=0|]) alignedtext
0 0 0 nodecolor
18 /Times-Roman set_font
236 126.8 moveto 166 ([|t in [16 , 22.5]; te=14;) alignedtext
0 0 0 nodecolor
18 /Times-Roman set_font
250.5 107.8 moveto 137 (  time in [0 , 9.82]|]) alignedtext
0 0 0 nodecolor
18 /Times-Roman set_font
224 88.8 moveto 190 (7 constraints, 6 generators) alignedtext
grestore
% 4
gsave
0 0 0 nodecolor
18 /Times-Roman set_font
363 25.8 moveto 76 (t-22>=0 ? ) alignedtext
0 0 0 nodecolor
18 /Times-Roman set_font
394.5 6.8 moveto 13 (\(\)) alignedtext
grestore
% heat->4
gsave
1 setlinewidth
0 0 0 edgecolor
newpath 366.22 81.95 moveto
371.81 72.48 377.24 63.27 382.08 55.06 curveto
stroke
0 0 0 edgecolor
newpath 385.21 56.65 moveto
387.28 46.26 lineto
379.19 53.09 lineto
closepath fill
1 setlinewidth
solid
0 0 0 edgecolor
newpath 385.21 56.65 moveto
387.28 46.26 lineto
379.19 53.09 lineto
closepath stroke
grestore
% linit
gsave
1 setlinewidth
0 0 0 nodecolor
newpath 337 734 moveto
293 734 lineto
293 688 lineto
337 688 lineto
closepath stroke
0 0 0 nodecolor
18 /Times-Roman set_font
301 713.8 moveto 28 (linit) alignedtext
0 0 0 nodecolor
18 /Times-Roman set_font
303 694.8 moveto 24 (top) alignedtext
grestore
% 6
gsave
0 0 0 nodecolor
18 /Times-Roman set_font
182.5 583.3 moveto 265 (-t+17>=0 and t-16>=0 and te-14=0 ?) alignedtext
0 0 0 nodecolor
18 /Times-Roman set_font
283 564.3 moveto 64 (time := 0) alignedtext
0 0 0 nodecolor
18 /Times-Roman set_font
308.5 545.3 moveto 13 (\(\)) alignedtext
grestore
% linit->6
gsave
1 setlinewidth
0 0 0 edgecolor
newpath 315 687.88 moveto
315 667.77 315 638.09 315 613.68 curveto
stroke
0 0 0 edgecolor
newpath 318.5 613.58 moveto
315 603.58 lineto
311.5 613.58 lineto
closepath fill
1 setlinewidth
solid
0 0 0 edgecolor
newpath 318.5 613.58 moveto
315 603.58 lineto
311.5 613.58 lineto
closepath stroke
grestore
% noheate
gsave
1 setlinewidth
0 0 0 nodecolor
newpath 262 781.5 moveto
0 781.5 lineto
0 640.5 lineto
262 640.5 lineto
closepath stroke
0 0 0 nodecolor
18 /Times-Roman set_font
102 761.3 moveto 58 (noheate) alignedtext
0 0 0 nodecolor
18 /Times-Roman set_font
8 742.3 moveto 246 ([|te-14=0; -1.882t-time+46.27>=0;) alignedtext
0 0 0 nodecolor
18 /Times-Roman set_font
45.5 723.3 moveto 171 (  -t+18>=0; t-17.75>=0;) alignedtext
0 0 0 nodecolor
18 /Times-Roman set_font
41.5 704.3 moveto 179 (  4.133t+time-85.11>=0|]) alignedtext
0 0 0 nodecolor
18 /Times-Roman set_font
43.5 685.3 moveto 175 ([|t in [17.75 , 18]; te=14;) alignedtext
0 0 0 nodecolor
18 /Times-Roman set_font
42.5 666.3 moveto 177 (  time in [10.71 , 12.86]|]) alignedtext
0 0 0 nodecolor
18 /Times-Roman set_font
36 647.3 moveto 190 (5 constraints, 4 generators) alignedtext
grestore
% 0
gsave
0 0 0 nodecolor
18 /Times-Roman set_font
85 573.8 moveto 64 (time := 0) alignedtext
0 0 0 nodecolor
18 /Times-Roman set_font
110.5 554.8 moveto 13 (\(\)) alignedtext
grestore
% noheate->0
gsave
1 setlinewidth
0 0 0 edgecolor
newpath 123.92 640.18 moveto
122.67 627.67 121.42 615.19 120.33 604.35 curveto
stroke
0 0 0 edgecolor
newpath 123.79 603.71 moveto
119.31 594.11 lineto
116.82 604.4 lineto
closepath fill
1 setlinewidth
solid
0 0 0 edgecolor
newpath 123.79 603.71 moveto
119.31 594.11 lineto
116.82 604.4 lineto
closepath stroke
grestore
% noheat
gsave
1 setlinewidth
0 0 0 nodecolor
newpath 360 1060 moveto
94 1060 lineto
94 900 lineto
360 900 lineto
closepath stroke
0 0 0 nodecolor
18 /Times-Roman set_font
202.5 1039.8 moveto 49 (noheat) alignedtext
0 0 0 nodecolor
18 /Times-Roman set_font
108.5 1020.8 moveto 237 ([|te-14=0; -3.46t-time+77.86>=0;) alignedtext
0 0 0 nodecolor
18 /Times-Roman set_font
102 1001.8 moveto 250 (  -1.882t-time+46.27>=0; time>=0;) alignedtext
0 0 0 nodecolor
18 /Times-Roman set_font
121.5 982.8 moveto 211 (  2t+time-44>=0; t-17.75>=0;) alignedtext
0 0 0 nodecolor
18 /Times-Roman set_font
137.5 963.8 moveto 179 (  4.133t+time-85.11>=0|]) alignedtext
0 0 0 nodecolor
18 /Times-Roman set_font
133.5 944.8 moveto 187 ([|t in [17.75 , 22.5]; te=14;) alignedtext
0 0 0 nodecolor
18 /Times-Roman set_font
154 925.8 moveto 146 (  time in [0 , 12.86]|]) alignedtext
0 0 0 nodecolor
18 /Times-Roman set_font
132 906.8 moveto 190 (7 constraints, 6 generators) alignedtext
grestore
% 1
gsave
0 0 0 nodecolor
18 /Times-Roman set_font
99.5 843.8 moveto 85 (-t+18>=0 ? ) alignedtext
0 0 0 nodecolor
18 /Times-Roman set_font
135.5 824.8 moveto 13 (\(\)) alignedtext
grestore
% noheat->1
gsave
1 setlinewidth
0 0 0 edgecolor
newpath 178.05 899.95 moveto
172.19 890.38 166.51 881.08 161.45 872.8 curveto
stroke
0 0 0 edgecolor
newpath 164.42 870.96 moveto
156.22 864.26 lineto
158.45 874.61 lineto
closepath fill
1 setlinewidth
solid
0 0 0 edgecolor
newpath 164.42 870.96 moveto
156.22 864.26 lineto
158.45 874.61 lineto
closepath stroke
grestore
% heat_start
gsave
1 setlinewidth
0 0 0 nodecolor
newpath 455 502 moveto
161 502 lineto
161 418 lineto
455 418 lineto
closepath stroke
0 0 0 nodecolor
18 /Times-Roman set_font
272 481.8 moveto 72 (heat_start) alignedtext
0 0 0 nodecolor
18 /Times-Roman set_font
169 462.8 moveto 278 ([|time=0; te-14=0; -t+18>=0; t-16>=0|]) alignedtext
0 0 0 nodecolor
18 /Times-Roman set_font
199.5 443.8 moveto 217 ([|t in [16 , 18]; te=14; time=0|]) alignedtext
0 0 0 nodecolor
18 /Times-Roman set_font
213 424.8 moveto 190 (4 constraints, 2 generators) alignedtext
grestore
% 5
gsave
0 0 0 nodecolor
18 /Times-Roman set_font
269 361.3 moveto 86 (\(-t+22>=0 ?) alignedtext
0 0 0 nodecolor
18 /Times-Roman set_font
236.5 342.3 moveto 151 (t := 15/16t+1/16te+1;) alignedtext
0 0 0 nodecolor
18 /Times-Roman set_font
284.5 323.3 moveto 55 (te := te;) alignedtext
0 0 0 nodecolor
18 /Times-Roman set_font
252 304.3 moveto 120 (time := time+1\)*) alignedtext
0 0 0 nodecolor
18 /Times-Roman set_font
305.5 285.3 moveto 13 (\(\)) alignedtext
grestore
% heat_start->5
gsave
1 setlinewidth
0 0 0 edgecolor
newpath 309.3 417.79 moveto
309.55 409.48 309.83 400.6 310.1 391.79 curveto
stroke
0 0 0 edgecolor
newpath 313.61 391.64 moveto
310.41 381.53 lineto
306.61 391.42 lineto
closepath fill
1 setlinewidth
solid
0 0 0 edgecolor
newpath 313.61 391.64 moveto
310.41 381.53 lineto
306.61 391.42 lineto
closepath stroke
grestore
% noheat_start
gsave
1 setlinewidth
0 0 0 nodecolor
newpath 444 1320 moveto
138 1320 lineto
138 1236 lineto
444 1236 lineto
closepath stroke
0 0 0 nodecolor
18 /Times-Roman set_font
246 1299.8 moveto 90 (noheat_start) alignedtext
0 0 0 nodecolor
18 /Times-Roman set_font
145.5 1280.8 moveto 291 ([|time=0; te-14=0; -t+22.5>=0; t-22>=0|]) alignedtext
0 0 0 nodecolor
18 /Times-Roman set_font
176.5 1261.8 moveto 229 ([|t in [22 , 22.5]; te=14; time=0|]) alignedtext
0 0 0 nodecolor
18 /Times-Roman set_font
196 1242.8 moveto 190 (4 constraints, 2 generators) alignedtext
grestore
% 2
gsave
0 0 0 nodecolor
18 /Times-Roman set_font
231.5 1179.3 moveto 77 (\(t-18>=0 ?) alignedtext
0 0 0 nodecolor
18 /Times-Roman set_font
203.5 1160.3 moveto 133 (t := 15/16t+1/16te;) alignedtext
0 0 0 nodecolor
18 /Times-Roman set_font
242.5 1141.3 moveto 55 (te := te;) alignedtext
0 0 0 nodecolor
18 /Times-Roman set_font
210 1122.3 moveto 120 (time := time+1\)*) alignedtext
0 0 0 nodecolor
18 /Times-Roman set_font
263.5 1103.3 moveto 13 (\(\)) alignedtext
grestore
% noheat_start->2
gsave
1 setlinewidth
0 0 0 edgecolor
newpath 284.18 1235.79 moveto
282.82 1227.39 281.37 1218.4 279.94 1209.51 curveto
stroke
0 0 0 edgecolor
newpath 283.37 1208.85 moveto
278.32 1199.53 lineto
276.46 1209.96 lineto
closepath fill
1 setlinewidth
solid
0 0 0 edgecolor
newpath 283.37 1208.85 moveto
278.32 1199.53 lineto
276.46 1209.96 lineto
closepath stroke
grestore
% 0->heat_start
gsave
1 setlinewidth
0 0 0 edgecolor
newpath 150.48 547.87 moveto
155.63 544.48 160.92 541.1 166 538 curveto
182.97 527.65 201.4 517.07 219.18 507.18 curveto
stroke
0 0 0 edgecolor
newpath 221.36 509.97 moveto
228.41 502.07 lineto
217.97 503.85 lineto
closepath fill
1 setlinewidth
solid
0 0 0 edgecolor
newpath 221.36 509.97 moveto
228.41 502.07 lineto
217.97 503.85 lineto
closepath stroke
grestore
% 1->noheate
gsave
1 setlinewidth
0 0 0 edgecolor
newpath 140.03 817.76 moveto
139.39 810.12 138.63 801.14 137.83 791.69 curveto
stroke
0 0 0 edgecolor
newpath 141.31 791.38 moveto
136.98 781.71 lineto
134.34 791.97 lineto
closepath fill
1 setlinewidth
solid
0 0 0 edgecolor
newpath 141.31 791.38 moveto
136.98 781.71 lineto
134.34 791.97 lineto
closepath stroke
grestore
% 2->noheat
gsave
1 setlinewidth
0 0 0 edgecolor
newpath 256.75 1096.22 moveto
254.59 1087.8 252.3 1078.86 249.99 1069.84 curveto
stroke
0 0 0 edgecolor
newpath 253.35 1068.85 moveto
247.48 1060.03 lineto
246.57 1070.58 lineto
closepath fill
1 setlinewidth
solid
0 0 0 edgecolor
newpath 253.35 1068.85 moveto
247.48 1060.03 lineto
246.57 1070.58 lineto
closepath stroke
grestore
% 3->noheat_start
gsave
1 setlinewidth
0 0 0 edgecolor
newpath 338.78 1355.83 moveto
333.79 1347.71 327.99 1338.25 322.17 1328.77 curveto
stroke
0 0 0 edgecolor
newpath 325.06 1326.8 moveto
316.85 1320.11 lineto
319.1 1330.46 lineto
closepath fill
1 setlinewidth
solid
0 0 0 edgecolor
newpath 325.06 1326.8 moveto
316.85 1320.11 lineto
319.1 1330.46 lineto
closepath stroke
grestore
% 4->heate
gsave
1 setlinewidth
0 0 0 edgecolor
newpath 432.48 46.17 moveto
443.39 55.95 454.51 68.26 461 82 curveto
508.25 182.06 483 219.34 483 330 curveto
483 1278 483 1278 483 1278 curveto
483 1329.53 467.83 1385.18 452.15 1428.95 curveto
stroke
0 0 0 edgecolor
newpath 448.84 1427.79 moveto
448.69 1438.38 lineto
455.42 1430.2 lineto
closepath fill
1 setlinewidth
solid
0 0 0 edgecolor
newpath 448.84 1427.79 moveto
448.69 1438.38 lineto
455.42 1430.2 lineto
closepath stroke
grestore
% 5->heat
gsave
1 setlinewidth
0 0 0 edgecolor
newpath 314.16 278.22 moveto
314.5 269.89 314.87 261.05 315.24 252.13 curveto
stroke
0 0 0 edgecolor
newpath 318.75 252.17 moveto
315.67 242.03 lineto
311.75 251.87 lineto
closepath fill
1 setlinewidth
solid
0 0 0 edgecolor
newpath 318.75 252.17 moveto
315.67 242.03 lineto
311.75 251.87 lineto
closepath stroke
grestore
% 6->heat_start
gsave
1 setlinewidth
0 0 0 edgecolor
newpath 312.94 538.3 moveto
312.43 530.21 311.87 521.34 311.31 512.56 curveto
stroke
0 0 0 edgecolor
newpath 314.79 512.12 moveto
310.67 502.36 lineto
307.81 512.56 lineto
closepath fill
1 setlinewidth
solid
0 0 0 edgecolor
newpath 314.79 512.12 moveto
310.67 502.36 lineto
307.81 512.56 lineto
closepath stroke
grestore
endpage
showpage
grestore
%%PageTrailer
%%EndPage: 1
%%Trailer
%%Pages: 1
%%BoundingBox: 36 36 595 1624
end
restore
%%EOF
