%!PS-Adobe-3.0
%%Creator: graphviz version 2.26.3 (20100126.1600)
%%Title: G
%%Pages: (atend)
%%BoundingBox: (atend)
%%EndComments
save
%%BeginProlog
/DotDict 200 dict def
DotDict begin

/setupLatin1 {
mark
/EncodingVector 256 array def
 EncodingVector 0

ISOLatin1Encoding 0 255 getinterval putinterval
EncodingVector 45 /hyphen put

% Set up ISO Latin 1 character encoding
/starnetISO {
        dup dup findfont dup length dict begin
        { 1 index /FID ne { def }{ pop pop } ifelse
        } forall
        /Encoding EncodingVector def
        currentdict end definefont
} def
/Times-Roman starnetISO def
/Times-Italic starnetISO def
/Times-Bold starnetISO def
/Times-BoldItalic starnetISO def
/Helvetica starnetISO def
/Helvetica-Oblique starnetISO def
/Helvetica-Bold starnetISO def
/Helvetica-BoldOblique starnetISO def
/Courier starnetISO def
/Courier-Oblique starnetISO def
/Courier-Bold starnetISO def
/Courier-BoldOblique starnetISO def
cleartomark
} bind def

%%BeginResource: procset graphviz 0 0
/coord-font-family /Times-Roman def
/default-font-family /Times-Roman def
/coordfont coord-font-family findfont 8 scalefont def

/InvScaleFactor 1.0 def
/set_scale {
       dup 1 exch div /InvScaleFactor exch def
       scale
} bind def

% styles
/solid { [] 0 setdash } bind def
/dashed { [9 InvScaleFactor mul dup ] 0 setdash } bind def
/dotted { [1 InvScaleFactor mul 6 InvScaleFactor mul] 0 setdash } bind def
/invis {/fill {newpath} def /stroke {newpath} def /show {pop newpath} def} bind def
/bold { 2 setlinewidth } bind def
/filled { } bind def
/unfilled { } bind def
/rounded { } bind def
/diagonals { } bind def

% hooks for setting color 
/nodecolor { sethsbcolor } bind def
/edgecolor { sethsbcolor } bind def
/graphcolor { sethsbcolor } bind def
/nopcolor {pop pop pop} bind def

/beginpage {	% i j npages
	/npages exch def
	/j exch def
	/i exch def
	/str 10 string def
	npages 1 gt {
		gsave
			coordfont setfont
			0 0 moveto
			(\() show i str cvs show (,) show j str cvs show (\)) show
		grestore
	} if
} bind def

/set_font {
	findfont exch
	scalefont setfont
} def

% draw text fitted to its expected width
/alignedtext {			% width text
	/text exch def
	/width exch def
	gsave
		width 0 gt {
			[] 0 setdash
			text stringwidth pop width exch sub text length div 0 text ashow
		} if
	grestore
} def

/boxprim {				% xcorner ycorner xsize ysize
		4 2 roll
		moveto
		2 copy
		exch 0 rlineto
		0 exch rlineto
		pop neg 0 rlineto
		closepath
} bind def

/ellipse_path {
	/ry exch def
	/rx exch def
	/y exch def
	/x exch def
	matrix currentmatrix
	newpath
	x y translate
	rx ry scale
	0 0 1 0 360 arc
	setmatrix
} bind def

/endpage { showpage } bind def
/showpage { } def

/layercolorseq
	[	% layer color sequence - darkest to lightest
		[0 0 0]
		[.2 .8 .8]
		[.4 .8 .8]
		[.6 .8 .8]
		[.8 .8 .8]
	]
def

/layerlen layercolorseq length def

/setlayer {/maxlayer exch def /curlayer exch def
	layercolorseq curlayer 1 sub layerlen mod get
	aload pop sethsbcolor
	/nodecolor {nopcolor} def
	/edgecolor {nopcolor} def
	/graphcolor {nopcolor} def
} bind def

/onlayer { curlayer ne {invis} if } def

/onlayers {
	/myupper exch def
	/mylower exch def
	curlayer mylower lt
	curlayer myupper gt
	or
	{invis} if
} def

/curlayer 0 def

%%EndResource
%%EndProlog
%%BeginSetup
14 default-font-family set_font
1 setmiterlimit
% /arrowlength 10 def
% /arrowwidth 5 def

% make sure pdfmark is harmless for PS-interpreters other than Distiller
/pdfmark where {pop} {userdict /pdfmark /cleartomark load put} ifelse
% make '<<' and '>>' safe on PS Level 1 devices
/languagelevel where {pop languagelevel}{1} ifelse
2 lt {
    userdict (<<) cvn ([) cvn load put
    userdict (>>) cvn ([) cvn load put
} if

%%EndSetup
setupLatin1
%%Page: 1 1
%%PageBoundingBox: 36 36 583 1606
%%PageOrientation: Portrait
0 0 1 beginpage
gsave
36 36 547 1570 boxprim clip newpath
1 1 set_scale 0 rotate 40 41 translate
% 1073741823
gsave
1 setlinewidth
0 0 0 nodecolor
235 1491 43.84 19.09 ellipse_path stroke
0 0 0 nodecolor
18 /Times-Roman set_font
212 1484.3 moveto 46 (Result) alignedtext
grestore
% heate
gsave
1 setlinewidth
0 0 0 nodecolor
newpath 539 1561.5 moveto
297 1561.5 lineto
297 1420.5 lineto
539 1420.5 lineto
closepath stroke
0 0 0 nodecolor
18 /Times-Roman set_font
398 1541.3 moveto 40 (heate) alignedtext
0 0 0 nodecolor
18 /Times-Roman set_font
304.5 1522.3 moveto 227 ([|te-14=0; -t+3.375time+18>=0;) alignedtext
0 0 0 nodecolor
18 /Times-Roman set_font
337 1503.3 moveto 162 (  -t+22.5>=0; t-22>=0;) alignedtext
0 0 0 nodecolor
18 /Times-Roman set_font
328.5 1484.3 moveto 179 (  t-13.12time+108.6>=0|]) alignedtext
0 0 0 nodecolor
18 /Times-Roman set_font
335 1465.3 moveto 166 ([|t in [22 , 22.5]; te=14;) alignedtext
0 0 0 nodecolor
18 /Times-Roman set_font
329.5 1446.3 moveto 177 (  time in [1.185 , 9.988]|]) alignedtext
0 0 0 nodecolor
18 /Times-Roman set_font
323 1427.3 moveto 190 (5 constraints, 4 generators) alignedtext
grestore
% 3
gsave
0 0 0 nodecolor
18 /Times-Roman set_font
321 1363.8 moveto 64 (time := 0) alignedtext
0 0 0 nodecolor
18 /Times-Roman set_font
346.5 1344.8 moveto 13 (\(\)) alignedtext
grestore
% heate->3
gsave
1 setlinewidth
0 0 0 edgecolor
newpath 382.65 1420.29 moveto
377.89 1410.77 373.21 1401.42 369.03 1393.06 curveto
stroke
0 0 0 edgecolor
newpath 372.14 1391.45 moveto
364.54 1384.08 lineto
365.88 1394.58 lineto
closepath fill
1 setlinewidth
solid
0 0 0 edgecolor
newpath 372.14 1391.45 moveto
364.54 1384.08 lineto
365.88 1394.58 lineto
closepath stroke
grestore
% heat
gsave
1 setlinewidth
0 0 0 nodecolor
newpath 449 242 moveto
207 242 lineto
207 82 lineto
449 82 lineto
closepath stroke
0 0 0 nodecolor
18 /Times-Roman set_font
312.5 221.8 moveto 31 (heat) alignedtext
0 0 0 nodecolor
18 /Times-Roman set_font
214.5 202.8 moveto 227 ([|te-14=0; -t+3.375time+18>=0;) alignedtext
0 0 0 nodecolor
18 /Times-Roman set_font
246 183.8 moveto 164 (  -t+22.5>=0; time>=0;) alignedtext
0 0 0 nodecolor
18 /Times-Roman set_font
240.5 164.8 moveto 175 (  t-13.12time+108.6>=0;) alignedtext
0 0 0 nodecolor
18 /Times-Roman set_font
240 145.8 moveto 176 (  10.93t-time-174.8>=0|]) alignedtext
0 0 0 nodecolor
18 /Times-Roman set_font
245 126.8 moveto 166 ([|t in [16 , 22.5]; te=14;) alignedtext
0 0 0 nodecolor
18 /Times-Roman set_font
255 107.8 moveto 146 (  time in [0 , 9.988]|]) alignedtext
0 0 0 nodecolor
18 /Times-Roman set_font
233 88.8 moveto 190 (6 constraints, 5 generators) alignedtext
grestore
% 4
gsave
0 0 0 nodecolor
18 /Times-Roman set_font
367 25.8 moveto 76 (t-22>=0 ? ) alignedtext
0 0 0 nodecolor
18 /Times-Roman set_font
398.5 6.8 moveto 13 (\(\)) alignedtext
grestore
% heat->4
gsave
1 setlinewidth
0 0 0 edgecolor
newpath 372.35 81.95 moveto
377.59 72.48 382.69 63.27 387.24 55.06 curveto
stroke
0 0 0 edgecolor
newpath 390.33 56.7 moveto
392.12 46.26 lineto
384.21 53.31 lineto
closepath fill
1 setlinewidth
solid
0 0 0 edgecolor
newpath 390.33 56.7 moveto
392.12 46.26 lineto
384.21 53.31 lineto
closepath stroke
grestore
% linit
gsave
1 setlinewidth
0 0 0 nodecolor
newpath 337 734 moveto
293 734 lineto
293 688 lineto
337 688 lineto
closepath stroke
0 0 0 nodecolor
18 /Times-Roman set_font
301 713.8 moveto 28 (linit) alignedtext
0 0 0 nodecolor
18 /Times-Roman set_font
303 694.8 moveto 24 (top) alignedtext
grestore
% 6
gsave
0 0 0 nodecolor
18 /Times-Roman set_font
182.5 583.3 moveto 265 (-t+17>=0 and t-16>=0 and te-14=0 ?) alignedtext
0 0 0 nodecolor
18 /Times-Roman set_font
283 564.3 moveto 64 (time := 0) alignedtext
0 0 0 nodecolor
18 /Times-Roman set_font
308.5 545.3 moveto 13 (\(\)) alignedtext
grestore
% linit->6
gsave
1 setlinewidth
0 0 0 edgecolor
newpath 315 687.88 moveto
315 667.77 315 638.09 315 613.68 curveto
stroke
0 0 0 edgecolor
newpath 318.5 613.58 moveto
315 603.58 lineto
311.5 613.58 lineto
closepath fill
1 setlinewidth
solid
0 0 0 edgecolor
newpath 318.5 613.58 moveto
315 603.58 lineto
311.5 613.58 lineto
closepath stroke
grestore
% noheate
gsave
1 setlinewidth
0 0 0 nodecolor
newpath 262 781.5 moveto
0 781.5 lineto
0 640.5 lineto
262 640.5 lineto
closepath stroke
0 0 0 nodecolor
18 /Times-Roman set_font
102 761.3 moveto 58 (noheate) alignedtext
0 0 0 nodecolor
18 /Times-Roman set_font
8 742.3 moveto 246 ([|te-14=0; -t-7.969time+121.3>=0;) alignedtext
0 0 0 nodecolor
18 /Times-Roman set_font
45.5 723.3 moveto 171 (  -t+18>=0; t-17.75>=0;) alignedtext
0 0 0 nodecolor
18 /Times-Roman set_font
52.5 704.3 moveto 157 (  t+2.833time-22>=0|]) alignedtext
0 0 0 nodecolor
18 /Times-Roman set_font
43.5 685.3 moveto 175 ([|t in [17.75 , 18]; te=14;) alignedtext
0 0 0 nodecolor
18 /Times-Roman set_font
42.5 666.3 moveto 177 (  time in [1.412 , 12.99]|]) alignedtext
0 0 0 nodecolor
18 /Times-Roman set_font
36 647.3 moveto 190 (5 constraints, 4 generators) alignedtext
grestore
% 0
gsave
0 0 0 nodecolor
18 /Times-Roman set_font
85 573.8 moveto 64 (time := 0) alignedtext
0 0 0 nodecolor
18 /Times-Roman set_font
110.5 554.8 moveto 13 (\(\)) alignedtext
grestore
% noheate->0
gsave
1 setlinewidth
0 0 0 edgecolor
newpath 123.92 640.18 moveto
122.67 627.67 121.42 615.19 120.33 604.35 curveto
stroke
0 0 0 edgecolor
newpath 123.79 603.71 moveto
119.31 594.11 lineto
116.82 604.4 lineto
closepath fill
1 setlinewidth
solid
0 0 0 edgecolor
newpath 123.79 603.71 moveto
119.31 594.11 lineto
116.82 604.4 lineto
closepath stroke
grestore
% noheat
gsave
1 setlinewidth
0 0 0 nodecolor
newpath 360 1041.5 moveto
94 1041.5 lineto
94 900.5 lineto
360 900.5 lineto
closepath stroke
0 0 0 nodecolor
18 /Times-Roman set_font
202.5 1021.3 moveto 49 (noheat) alignedtext
0 0 0 nodecolor
18 /Times-Roman set_font
104 1002.3 moveto 246 ([|te-14=0; -t-7.969time+121.3>=0;) alignedtext
0 0 0 nodecolor
18 /Times-Roman set_font
102 983.3 moveto 250 (  -23.46t-time+527.8>=0; time>=0;) alignedtext
0 0 0 nodecolor
18 /Times-Roman set_font
103.5 964.3 moveto 247 (  t-17.75>=0; t+2.833time-22>=0|]) alignedtext
0 0 0 nodecolor
18 /Times-Roman set_font
133.5 945.3 moveto 187 ([|t in [17.75 , 22.5]; te=14;) alignedtext
0 0 0 nodecolor
18 /Times-Roman set_font
154 926.3 moveto 146 (  time in [0 , 12.99]|]) alignedtext
0 0 0 nodecolor
18 /Times-Roman set_font
132 907.3 moveto 190 (6 constraints, 5 generators) alignedtext
grestore
% 1
gsave
0 0 0 nodecolor
18 /Times-Roman set_font
99.5 843.8 moveto 85 (-t+18>=0 ? ) alignedtext
0 0 0 nodecolor
18 /Times-Roman set_font
135.5 824.8 moveto 13 (\(\)) alignedtext
grestore
% noheat->1
gsave
1 setlinewidth
0 0 0 edgecolor
newpath 180.77 900.29 moveto
174.41 890.57 168.17 881.02 162.61 872.52 curveto
stroke
0 0 0 edgecolor
newpath 165.49 870.53 moveto
157.09 864.08 lineto
159.63 874.36 lineto
closepath fill
1 setlinewidth
solid
0 0 0 edgecolor
newpath 165.49 870.53 moveto
157.09 864.08 lineto
159.63 874.36 lineto
closepath stroke
grestore
% heat_start
gsave
1 setlinewidth
0 0 0 nodecolor
newpath 455 502 moveto
161 502 lineto
161 418 lineto
455 418 lineto
closepath stroke
0 0 0 nodecolor
18 /Times-Roman set_font
272 481.8 moveto 72 (heat_start) alignedtext
0 0 0 nodecolor
18 /Times-Roman set_font
169 462.8 moveto 278 ([|time=0; te-14=0; -t+18>=0; t-16>=0|]) alignedtext
0 0 0 nodecolor
18 /Times-Roman set_font
199.5 443.8 moveto 217 ([|t in [16 , 18]; te=14; time=0|]) alignedtext
0 0 0 nodecolor
18 /Times-Roman set_font
213 424.8 moveto 190 (4 constraints, 2 generators) alignedtext
grestore
% 5
gsave
0 0 0 nodecolor
18 /Times-Roman set_font
272 361.3 moveto 86 (\(-t+22>=0 ?) alignedtext
0 0 0 nodecolor
18 /Times-Roman set_font
239.5 342.3 moveto 151 (t := 15/16t+1/16te+1;) alignedtext
0 0 0 nodecolor
18 /Times-Roman set_font
287.5 323.3 moveto 55 (te := te;) alignedtext
0 0 0 nodecolor
18 /Times-Roman set_font
255 304.3 moveto 120 (time := time+1\)*) alignedtext
0 0 0 nodecolor
18 /Times-Roman set_font
308.5 285.3 moveto 13 (\(\)) alignedtext
grestore
% heat_start->5
gsave
1 setlinewidth
0 0 0 edgecolor
newpath 310.27 417.79 moveto
310.72 409.48 311.2 400.6 311.67 391.79 curveto
stroke
0 0 0 edgecolor
newpath 315.18 391.71 moveto
312.23 381.53 lineto
308.19 391.33 lineto
closepath fill
1 setlinewidth
solid
0 0 0 edgecolor
newpath 315.18 391.71 moveto
312.23 381.53 lineto
308.19 391.33 lineto
closepath stroke
grestore
% noheat_start
gsave
1 setlinewidth
0 0 0 nodecolor
newpath 444 1302 moveto
138 1302 lineto
138 1218 lineto
444 1218 lineto
closepath stroke
0 0 0 nodecolor
18 /Times-Roman set_font
246 1281.8 moveto 90 (noheat_start) alignedtext
0 0 0 nodecolor
18 /Times-Roman set_font
145.5 1262.8 moveto 291 ([|time=0; te-14=0; -t+22.5>=0; t-22>=0|]) alignedtext
0 0 0 nodecolor
18 /Times-Roman set_font
176.5 1243.8 moveto 229 ([|t in [22 , 22.5]; te=14; time=0|]) alignedtext
0 0 0 nodecolor
18 /Times-Roman set_font
196 1224.8 moveto 190 (4 constraints, 2 generators) alignedtext
grestore
% 2
gsave
0 0 0 nodecolor
18 /Times-Roman set_font
231.5 1161.3 moveto 77 (\(t-18>=0 ?) alignedtext
0 0 0 nodecolor
18 /Times-Roman set_font
203.5 1142.3 moveto 133 (t := 15/16t+1/16te;) alignedtext
0 0 0 nodecolor
18 /Times-Roman set_font
242.5 1123.3 moveto 55 (te := te;) alignedtext
0 0 0 nodecolor
18 /Times-Roman set_font
210 1104.3 moveto 120 (time := time+1\)*) alignedtext
0 0 0 nodecolor
18 /Times-Roman set_font
263.5 1085.3 moveto 13 (\(\)) alignedtext
grestore
% noheat_start->2
gsave
1 setlinewidth
0 0 0 edgecolor
newpath 284.18 1217.79 moveto
282.82 1209.39 281.37 1200.4 279.94 1191.51 curveto
stroke
0 0 0 edgecolor
newpath 283.37 1190.85 moveto
278.32 1181.53 lineto
276.46 1191.96 lineto
closepath fill
1 setlinewidth
solid
0 0 0 edgecolor
newpath 283.37 1190.85 moveto
278.32 1181.53 lineto
276.46 1191.96 lineto
closepath stroke
grestore
% 0->heat_start
gsave
1 setlinewidth
0 0 0 edgecolor
newpath 150.48 547.87 moveto
155.63 544.48 160.92 541.1 166 538 curveto
182.97 527.65 201.4 517.07 219.18 507.18 curveto
stroke
0 0 0 edgecolor
newpath 221.36 509.97 moveto
228.41 502.07 lineto
217.97 503.85 lineto
closepath fill
1 setlinewidth
solid
0 0 0 edgecolor
newpath 221.36 509.97 moveto
228.41 502.07 lineto
217.97 503.85 lineto
closepath stroke
grestore
% 1->noheate
gsave
1 setlinewidth
0 0 0 edgecolor
newpath 140.03 817.76 moveto
139.39 810.12 138.63 801.14 137.83 791.69 curveto
stroke
0 0 0 edgecolor
newpath 141.31 791.38 moveto
136.98 781.71 lineto
134.34 791.97 lineto
closepath fill
1 setlinewidth
solid
0 0 0 edgecolor
newpath 141.31 791.38 moveto
136.98 781.71 lineto
134.34 791.97 lineto
closepath stroke
grestore
% 2->noheat
gsave
1 setlinewidth
0 0 0 edgecolor
newpath 256.04 1078.38 moveto
253.72 1069.79 251.26 1060.7 248.8 1051.59 curveto
stroke
0 0 0 edgecolor
newpath 252.12 1050.47 moveto
246.13 1041.73 lineto
245.36 1052.29 lineto
closepath fill
1 setlinewidth
solid
0 0 0 edgecolor
newpath 252.12 1050.47 moveto
246.13 1041.73 lineto
245.36 1052.29 lineto
closepath stroke
grestore
% 3->noheat_start
gsave
1 setlinewidth
0 0 0 edgecolor
newpath 338.78 1337.83 moveto
333.79 1329.71 327.99 1320.25 322.17 1310.77 curveto
stroke
0 0 0 edgecolor
newpath 325.06 1308.8 moveto
316.85 1302.11 lineto
319.1 1312.46 lineto
closepath fill
1 setlinewidth
solid
0 0 0 edgecolor
newpath 325.06 1308.8 moveto
316.85 1302.11 lineto
319.1 1312.46 lineto
closepath stroke
grestore
% 4->heate
gsave
1 setlinewidth
0 0 0 edgecolor
newpath 432.19 46.28 moveto
442 56.24 452.1 68.65 458 82 curveto
502.78 183.32 483 219.22 483 330 curveto
483 1260 483 1260 483 1260 curveto
483 1311.53 467.83 1367.18 452.15 1410.95 curveto
stroke
0 0 0 edgecolor
newpath 448.84 1409.79 moveto
448.69 1420.38 lineto
455.42 1412.2 lineto
closepath fill
1 setlinewidth
solid
0 0 0 edgecolor
newpath 448.84 1409.79 moveto
448.69 1420.38 lineto
455.42 1412.2 lineto
closepath stroke
grestore
% 5->heat
gsave
1 setlinewidth
0 0 0 edgecolor
newpath 319.01 278.22 moveto
319.65 269.89 320.34 261.05 321.03 252.13 curveto
stroke
0 0 0 edgecolor
newpath 324.53 252.27 moveto
321.81 242.03 lineto
317.55 251.73 lineto
closepath fill
1 setlinewidth
solid
0 0 0 edgecolor
newpath 324.53 252.27 moveto
321.81 242.03 lineto
317.55 251.73 lineto
closepath stroke
grestore
% 6->heat_start
gsave
1 setlinewidth
0 0 0 edgecolor
newpath 312.94 538.3 moveto
312.43 530.21 311.87 521.34 311.31 512.56 curveto
stroke
0 0 0 edgecolor
newpath 314.79 512.12 moveto
310.67 502.36 lineto
307.81 512.56 lineto
closepath fill
1 setlinewidth
solid
0 0 0 edgecolor
newpath 314.79 512.12 moveto
310.67 502.36 lineto
307.81 512.56 lineto
closepath stroke
grestore
endpage
showpage
grestore
%%PageTrailer
%%EndPage: 1
%%Trailer
%%Pages: 1
%%BoundingBox: 36 36 583 1606
end
restore
%%EOF
