%!PS-Adobe-3.0
%%Creator: graphviz version 2.26.3 (20100126.1600)
%%Title: G
%%Pages: (atend)
%%BoundingBox: (atend)
%%EndComments
save
%%BeginProlog
/DotDict 200 dict def
DotDict begin

/setupLatin1 {
mark
/EncodingVector 256 array def
 EncodingVector 0

ISOLatin1Encoding 0 255 getinterval putinterval
EncodingVector 45 /hyphen put

% Set up ISO Latin 1 character encoding
/starnetISO {
        dup dup findfont dup length dict begin
        { 1 index /FID ne { def }{ pop pop } ifelse
        } forall
        /Encoding EncodingVector def
        currentdict end definefont
} def
/Times-Roman starnetISO def
/Times-Italic starnetISO def
/Times-Bold starnetISO def
/Times-BoldItalic starnetISO def
/Helvetica starnetISO def
/Helvetica-Oblique starnetISO def
/Helvetica-Bold starnetISO def
/Helvetica-BoldOblique starnetISO def
/Courier starnetISO def
/Courier-Oblique starnetISO def
/Courier-Bold starnetISO def
/Courier-BoldOblique starnetISO def
cleartomark
} bind def

%%BeginResource: procset graphviz 0 0
/coord-font-family /Times-Roman def
/default-font-family /Times-Roman def
/coordfont coord-font-family findfont 8 scalefont def

/InvScaleFactor 1.0 def
/set_scale {
       dup 1 exch div /InvScaleFactor exch def
       scale
} bind def

% styles
/solid { [] 0 setdash } bind def
/dashed { [9 InvScaleFactor mul dup ] 0 setdash } bind def
/dotted { [1 InvScaleFactor mul 6 InvScaleFactor mul] 0 setdash } bind def
/invis {/fill {newpath} def /stroke {newpath} def /show {pop newpath} def} bind def
/bold { 2 setlinewidth } bind def
/filled { } bind def
/unfilled { } bind def
/rounded { } bind def
/diagonals { } bind def

% hooks for setting color 
/nodecolor { sethsbcolor } bind def
/edgecolor { sethsbcolor } bind def
/graphcolor { sethsbcolor } bind def
/nopcolor {pop pop pop} bind def

/beginpage {	% i j npages
	/npages exch def
	/j exch def
	/i exch def
	/str 10 string def
	npages 1 gt {
		gsave
			coordfont setfont
			0 0 moveto
			(\() show i str cvs show (,) show j str cvs show (\)) show
		grestore
	} if
} bind def

/set_font {
	findfont exch
	scalefont setfont
} def

% draw text fitted to its expected width
/alignedtext {			% width text
	/text exch def
	/width exch def
	gsave
		width 0 gt {
			[] 0 setdash
			text stringwidth pop width exch sub text length div 0 text ashow
		} if
	grestore
} def

/boxprim {				% xcorner ycorner xsize ysize
		4 2 roll
		moveto
		2 copy
		exch 0 rlineto
		0 exch rlineto
		pop neg 0 rlineto
		closepath
} bind def

/ellipse_path {
	/ry exch def
	/rx exch def
	/y exch def
	/x exch def
	matrix currentmatrix
	newpath
	x y translate
	rx ry scale
	0 0 1 0 360 arc
	setmatrix
} bind def

/endpage { showpage } bind def
/showpage { } def

/layercolorseq
	[	% layer color sequence - darkest to lightest
		[0 0 0]
		[.2 .8 .8]
		[.4 .8 .8]
		[.6 .8 .8]
		[.8 .8 .8]
	]
def

/layerlen layercolorseq length def

/setlayer {/maxlayer exch def /curlayer exch def
	layercolorseq curlayer 1 sub layerlen mod get
	aload pop sethsbcolor
	/nodecolor {nopcolor} def
	/edgecolor {nopcolor} def
	/graphcolor {nopcolor} def
} bind def

/onlayer { curlayer ne {invis} if } def

/onlayers {
	/myupper exch def
	/mylower exch def
	curlayer mylower lt
	curlayer myupper gt
	or
	{invis} if
} def

/curlayer 0 def

%%EndResource
%%EndProlog
%%BeginSetup
14 default-font-family set_font
1 setmiterlimit
% /arrowlength 10 def
% /arrowwidth 5 def

% make sure pdfmark is harmless for PS-interpreters other than Distiller
/pdfmark where {pop} {userdict /pdfmark /cleartomark load put} ifelse
% make '<<' and '>>' safe on PS Level 1 devices
/languagelevel where {pop languagelevel}{1} ifelse
2 lt {
    userdict (<<) cvn ([) cvn load put
    userdict (>>) cvn ([) cvn load put
} if

%%EndSetup
setupLatin1
%%Page: 1 1
%%PageBoundingBox: 36 36 618 1586
%%PageOrientation: Portrait
0 0 1 beginpage
gsave
36 36 582 1550 boxprim clip newpath
1 1 set_scale 0 rotate 40 41 translate
% 1073741823
gsave
1 setlinewidth
0 0 0 nodecolor
270 1471 43.84 19.09 ellipse_path stroke
0 0 0 nodecolor
18 /Times-Roman set_font
247 1464.3 moveto 46 (Result) alignedtext
grestore
% heate
gsave
1 setlinewidth
0 0 0 nodecolor
newpath 574 1541.5 moveto
332 1541.5 lineto
332 1400.5 lineto
574 1400.5 lineto
closepath stroke
0 0 0 nodecolor
18 /Times-Roman set_font
433 1521.3 moveto 40 (heate) alignedtext
0 0 0 nodecolor
18 /Times-Roman set_font
339.5 1502.3 moveto 227 ([|te-14=0; -1.333t+time+24>=0;) alignedtext
0 0 0 nodecolor
18 /Times-Roman set_font
372 1483.3 moveto 162 (  -t+22.5>=0; t-22>=0;) alignedtext
0 0 0 nodecolor
18 /Times-Roman set_font
365 1464.3 moveto 176 (  1.143t-time-15.89>=0|]) alignedtext
0 0 0 nodecolor
18 /Times-Roman set_font
370 1445.3 moveto 166 ([|t in [22 , 22.5]; te=14;) alignedtext
0 0 0 nodecolor
18 /Times-Roman set_font
369 1426.3 moveto 168 (  time in [5.333 , 9.82]|]) alignedtext
0 0 0 nodecolor
18 /Times-Roman set_font
358 1407.3 moveto 190 (5 constraints, 4 generators) alignedtext
grestore
% 3
gsave
0 0 0 nodecolor
18 /Times-Roman set_font
356 1343.8 moveto 64 (time := 0) alignedtext
0 0 0 nodecolor
18 /Times-Roman set_font
381.5 1324.8 moveto 13 (\(\)) alignedtext
grestore
% heate->3
gsave
1 setlinewidth
0 0 0 edgecolor
newpath 417.65 1400.29 moveto
412.89 1390.77 408.21 1381.42 404.03 1373.06 curveto
stroke
0 0 0 edgecolor
newpath 407.14 1371.45 moveto
399.54 1364.08 lineto
400.88 1374.58 lineto
closepath fill
1 setlinewidth
solid
0 0 0 edgecolor
newpath 407.14 1371.45 moveto
399.54 1364.08 lineto
400.88 1374.58 lineto
closepath stroke
grestore
% heat
gsave
1 setlinewidth
0 0 0 nodecolor
newpath 484 242 moveto
242 242 lineto
242 82 lineto
484 82 lineto
closepath stroke
0 0 0 nodecolor
18 /Times-Roman set_font
347.5 221.8 moveto 31 (heat) alignedtext
0 0 0 nodecolor
18 /Times-Roman set_font
249.5 202.8 moveto 227 ([|te-14=0; -1.333t+time+24>=0;) alignedtext
0 0 0 nodecolor
18 /Times-Roman set_font
281 183.8 moveto 164 (  -t+22.5>=0; time>=0;) alignedtext
0 0 0 nodecolor
18 /Times-Roman set_font
277 164.8 moveto 172 (  3.876t-time-62.02>=0;) alignedtext
0 0 0 nodecolor
18 /Times-Roman set_font
275 145.8 moveto 176 (  1.143t-time-15.89>=0|]) alignedtext
0 0 0 nodecolor
18 /Times-Roman set_font
280 126.8 moveto 166 ([|t in [16 , 22.5]; te=14;) alignedtext
0 0 0 nodecolor
18 /Times-Roman set_font
294.5 107.8 moveto 137 (  time in [0 , 9.82]|]) alignedtext
0 0 0 nodecolor
18 /Times-Roman set_font
268 88.8 moveto 190 (6 constraints, 5 generators) alignedtext
grestore
% 4
gsave
0 0 0 nodecolor
18 /Times-Roman set_font
402 25.8 moveto 76 (t-22>=0 ? ) alignedtext
0 0 0 nodecolor
18 /Times-Roman set_font
433.5 6.8 moveto 13 (\(\)) alignedtext
grestore
% heat->4
gsave
1 setlinewidth
0 0 0 edgecolor
newpath 407.35 81.95 moveto
412.59 72.48 417.69 63.27 422.24 55.06 curveto
stroke
0 0 0 edgecolor
newpath 425.33 56.7 moveto
427.12 46.26 lineto
419.21 53.31 lineto
closepath fill
1 setlinewidth
solid
0 0 0 edgecolor
newpath 425.33 56.7 moveto
427.12 46.26 lineto
419.21 53.31 lineto
closepath stroke
grestore
% linit
gsave
1 setlinewidth
0 0 0 nodecolor
newpath 372 724 moveto
328 724 lineto
328 678 lineto
372 678 lineto
closepath stroke
0 0 0 nodecolor
18 /Times-Roman set_font
336 703.8 moveto 28 (linit) alignedtext
0 0 0 nodecolor
18 /Times-Roman set_font
338 684.8 moveto 24 (top) alignedtext
grestore
% 6
gsave
0 0 0 nodecolor
18 /Times-Roman set_font
217.5 583.3 moveto 265 (-t+17>=0 and t-16>=0 and te-14=0 ?) alignedtext
0 0 0 nodecolor
18 /Times-Roman set_font
318 564.3 moveto 64 (time := 0) alignedtext
0 0 0 nodecolor
18 /Times-Roman set_font
343.5 545.3 moveto 13 (\(\)) alignedtext
grestore
% linit->6
gsave
1 setlinewidth
0 0 0 edgecolor
newpath 350 677.76 moveto
350 660.06 350 635.2 350 613.92 curveto
stroke
0 0 0 edgecolor
newpath 353.5 613.81 moveto
350 603.81 lineto
346.5 613.81 lineto
closepath fill
1 setlinewidth
solid
0 0 0 edgecolor
newpath 353.5 613.81 moveto
350 603.81 lineto
346.5 613.81 lineto
closepath stroke
grestore
% noheate
gsave
1 setlinewidth
0 0 0 nodecolor
newpath 308 762 moveto
0 762 lineto
0 640 lineto
308 640 lineto
closepath stroke
0 0 0 nodecolor
18 /Times-Roman set_font
125 741.8 moveto 58 (noheate) alignedtext
0 0 0 nodecolor
18 /Times-Roman set_font
31 722.8 moveto 246 ([|te-14=0; -1.882t-time+46.27>=0;) alignedtext
0 0 0 nodecolor
18 /Times-Roman set_font
8 703.8 moveto 292 (  -t+18>=0; 2t+time-44>=0; t-17.75>=0|]) alignedtext
0 0 0 nodecolor
18 /Times-Roman set_font
66.5 684.8 moveto 175 ([|t in [17.75 , 18]; te=14;) alignedtext
0 0 0 nodecolor
18 /Times-Roman set_font
81 665.8 moveto 146 (  time in [8 , 12.86]|]) alignedtext
0 0 0 nodecolor
18 /Times-Roman set_font
59 646.8 moveto 190 (5 constraints, 4 generators) alignedtext
grestore
% 0
gsave
0 0 0 nodecolor
18 /Times-Roman set_font
120 573.8 moveto 64 (time := 0) alignedtext
0 0 0 nodecolor
18 /Times-Roman set_font
145.5 554.8 moveto 13 (\(\)) alignedtext
grestore
% noheate->0
gsave
1 setlinewidth
0 0 0 edgecolor
newpath 153.06 639.81 moveto
152.87 627.66 152.68 615.33 152.52 604.53 curveto
stroke
0 0 0 edgecolor
newpath 156.01 604.24 moveto
152.36 594.3 lineto
149.01 604.35 lineto
closepath fill
1 setlinewidth
solid
0 0 0 edgecolor
newpath 156.01 604.24 moveto
152.36 594.3 lineto
149.01 604.35 lineto
closepath stroke
grestore
% noheat
gsave
1 setlinewidth
0 0 0 nodecolor
newpath 390 1021.5 moveto
124 1021.5 lineto
124 880.5 lineto
390 880.5 lineto
closepath stroke
0 0 0 nodecolor
18 /Times-Roman set_font
232.5 1001.3 moveto 49 (noheat) alignedtext
0 0 0 nodecolor
18 /Times-Roman set_font
134 982.3 moveto 246 ([|te-14=0; -1.882t-time+46.27>=0;) alignedtext
0 0 0 nodecolor
18 /Times-Roman set_font
132 963.3 moveto 250 (  -9.251t-time+208.1>=0; time>=0;) alignedtext
0 0 0 nodecolor
18 /Times-Roman set_font
149 944.3 moveto 216 (  2t+time-44>=0; t-17.75>=0|]) alignedtext
0 0 0 nodecolor
18 /Times-Roman set_font
163.5 925.3 moveto 187 ([|t in [17.75 , 22.5]; te=14;) alignedtext
0 0 0 nodecolor
18 /Times-Roman set_font
184 906.3 moveto 146 (  time in [0 , 12.86]|]) alignedtext
0 0 0 nodecolor
18 /Times-Roman set_font
162 887.3 moveto 190 (6 constraints, 5 generators) alignedtext
grestore
% 1
gsave
0 0 0 nodecolor
18 /Times-Roman set_font
123.5 823.8 moveto 85 (-t+18>=0 ? ) alignedtext
0 0 0 nodecolor
18 /Times-Roman set_font
159.5 804.8 moveto 13 (\(\)) alignedtext
grestore
% noheat->1
gsave
1 setlinewidth
0 0 0 edgecolor
newpath 207.51 880.29 moveto
200.7 870.57 194.01 861.02 188.06 852.52 curveto
stroke
0 0 0 edgecolor
newpath 190.75 850.26 moveto
182.15 844.08 lineto
185.02 854.27 lineto
closepath fill
1 setlinewidth
solid
0 0 0 edgecolor
newpath 190.75 850.26 moveto
182.15 844.08 lineto
185.02 854.27 lineto
closepath stroke
grestore
% heat_start
gsave
1 setlinewidth
0 0 0 nodecolor
newpath 490 502 moveto
196 502 lineto
196 418 lineto
490 418 lineto
closepath stroke
0 0 0 nodecolor
18 /Times-Roman set_font
307 481.8 moveto 72 (heat_start) alignedtext
0 0 0 nodecolor
18 /Times-Roman set_font
204 462.8 moveto 278 ([|time=0; te-14=0; -t+18>=0; t-16>=0|]) alignedtext
0 0 0 nodecolor
18 /Times-Roman set_font
234.5 443.8 moveto 217 ([|t in [16 , 18]; te=14; time=0|]) alignedtext
0 0 0 nodecolor
18 /Times-Roman set_font
248 424.8 moveto 190 (4 constraints, 2 generators) alignedtext
grestore
% 5
gsave
0 0 0 nodecolor
18 /Times-Roman set_font
307 361.3 moveto 86 (\(-t+22>=0 ?) alignedtext
0 0 0 nodecolor
18 /Times-Roman set_font
274.5 342.3 moveto 151 (t := 15/16t+1/16te+1;) alignedtext
0 0 0 nodecolor
18 /Times-Roman set_font
322.5 323.3 moveto 55 (te := te;) alignedtext
0 0 0 nodecolor
18 /Times-Roman set_font
290 304.3 moveto 120 (time := time+1\)*) alignedtext
0 0 0 nodecolor
18 /Times-Roman set_font
343.5 285.3 moveto 13 (\(\)) alignedtext
grestore
% heat_start->5
gsave
1 setlinewidth
0 0 0 edgecolor
newpath 345.27 417.79 moveto
345.72 409.48 346.2 400.6 346.67 391.79 curveto
stroke
0 0 0 edgecolor
newpath 350.18 391.71 moveto
347.23 381.53 lineto
343.19 391.33 lineto
closepath fill
1 setlinewidth
solid
0 0 0 edgecolor
newpath 350.18 391.71 moveto
347.23 381.53 lineto
343.19 391.33 lineto
closepath stroke
grestore
% noheat_start
gsave
1 setlinewidth
0 0 0 nodecolor
newpath 479 1282 moveto
173 1282 lineto
173 1198 lineto
479 1198 lineto
closepath stroke
0 0 0 nodecolor
18 /Times-Roman set_font
281 1261.8 moveto 90 (noheat_start) alignedtext
0 0 0 nodecolor
18 /Times-Roman set_font
180.5 1242.8 moveto 291 ([|time=0; te-14=0; -t+22.5>=0; t-22>=0|]) alignedtext
0 0 0 nodecolor
18 /Times-Roman set_font
211.5 1223.8 moveto 229 ([|t in [22 , 22.5]; te=14; time=0|]) alignedtext
0 0 0 nodecolor
18 /Times-Roman set_font
231 1204.8 moveto 190 (4 constraints, 2 generators) alignedtext
grestore
% 2
gsave
0 0 0 nodecolor
18 /Times-Roman set_font
264.5 1141.3 moveto 77 (\(t-18>=0 ?) alignedtext
0 0 0 nodecolor
18 /Times-Roman set_font
236.5 1122.3 moveto 133 (t := 15/16t+1/16te;) alignedtext
0 0 0 nodecolor
18 /Times-Roman set_font
275.5 1103.3 moveto 55 (te := te;) alignedtext
0 0 0 nodecolor
18 /Times-Roman set_font
243 1084.3 moveto 120 (time := time+1\)*) alignedtext
0 0 0 nodecolor
18 /Times-Roman set_font
296.5 1065.3 moveto 13 (\(\)) alignedtext
grestore
% noheat_start->2
gsave
1 setlinewidth
0 0 0 edgecolor
newpath 318.53 1197.79 moveto
317.05 1189.39 315.46 1180.4 313.88 1171.51 curveto
stroke
0 0 0 edgecolor
newpath 317.31 1170.77 moveto
312.12 1161.53 lineto
310.41 1171.99 lineto
closepath fill
1 setlinewidth
solid
0 0 0 edgecolor
newpath 317.31 1170.77 moveto
312.12 1161.53 lineto
310.41 1171.99 lineto
closepath stroke
grestore
% 0->heat_start
gsave
1 setlinewidth
0 0 0 edgecolor
newpath 185.48 547.87 moveto
190.63 544.48 195.92 541.1 201 538 curveto
217.97 527.65 236.4 517.07 254.18 507.18 curveto
stroke
0 0 0 edgecolor
newpath 256.36 509.97 moveto
263.41 502.07 lineto
252.97 503.85 lineto
closepath fill
1 setlinewidth
solid
0 0 0 edgecolor
newpath 256.36 509.97 moveto
263.41 502.07 lineto
252.97 503.85 lineto
closepath stroke
grestore
% 1->noheate
gsave
1 setlinewidth
0 0 0 edgecolor
newpath 163.69 797.86 moveto
162.93 790.31 162.05 781.49 161.13 772.29 curveto
stroke
0 0 0 edgecolor
newpath 164.6 771.82 moveto
160.12 762.22 lineto
157.63 772.52 lineto
closepath fill
1 setlinewidth
solid
0 0 0 edgecolor
newpath 164.6 771.82 moveto
160.12 762.22 lineto
157.63 772.52 lineto
closepath stroke
grestore
% 2->noheat
gsave
1 setlinewidth
0 0 0 edgecolor
newpath 288.07 1058.38 moveto
285.58 1049.79 282.95 1040.7 280.32 1031.59 curveto
stroke
0 0 0 edgecolor
newpath 283.6 1030.36 moveto
277.46 1021.73 lineto
276.88 1032.31 lineto
closepath fill
1 setlinewidth
solid
0 0 0 edgecolor
newpath 283.6 1030.36 moveto
277.46 1021.73 lineto
276.88 1032.31 lineto
closepath stroke
grestore
% 3->noheat_start
gsave
1 setlinewidth
0 0 0 edgecolor
newpath 373.78 1317.83 moveto
368.79 1309.71 362.99 1300.25 357.17 1290.77 curveto
stroke
0 0 0 edgecolor
newpath 360.06 1288.8 moveto
351.85 1282.11 lineto
354.1 1292.46 lineto
closepath fill
1 setlinewidth
solid
0 0 0 edgecolor
newpath 360.06 1288.8 moveto
351.85 1282.11 lineto
354.1 1292.46 lineto
closepath stroke
grestore
% 4->heate
gsave
1 setlinewidth
0 0 0 edgecolor
newpath 467.19 46.28 moveto
477 56.24 487.1 68.65 493 82 curveto
537.78 183.32 518 219.22 518 330 curveto
518 1240 518 1240 518 1240 curveto
518 1291.53 502.83 1347.18 487.15 1390.95 curveto
stroke
0 0 0 edgecolor
newpath 483.84 1389.79 moveto
483.69 1400.38 lineto
490.42 1392.2 lineto
closepath fill
1 setlinewidth
solid
0 0 0 edgecolor
newpath 483.84 1389.79 moveto
483.69 1400.38 lineto
490.42 1392.2 lineto
closepath stroke
grestore
% 5->heat
gsave
1 setlinewidth
0 0 0 edgecolor
newpath 354.01 278.22 moveto
354.65 269.89 355.34 261.05 356.03 252.13 curveto
stroke
0 0 0 edgecolor
newpath 359.53 252.27 moveto
356.81 242.03 lineto
352.55 251.73 lineto
closepath fill
1 setlinewidth
solid
0 0 0 edgecolor
newpath 359.53 252.27 moveto
356.81 242.03 lineto
352.55 251.73 lineto
closepath stroke
grestore
% 6->heat_start
gsave
1 setlinewidth
0 0 0 edgecolor
newpath 347.94 538.3 moveto
347.43 530.21 346.87 521.34 346.31 512.56 curveto
stroke
0 0 0 edgecolor
newpath 349.79 512.12 moveto
345.67 502.36 lineto
342.81 512.56 lineto
closepath fill
1 setlinewidth
solid
0 0 0 edgecolor
newpath 349.79 512.12 moveto
345.67 502.36 lineto
342.81 512.56 lineto
closepath stroke
grestore
endpage
showpage
grestore
%%PageTrailer
%%EndPage: 1
%%Trailer
%%Pages: 1
%%BoundingBox: 36 36 618 1586
end
restore
%%EOF
